550	560	563	570	571	570	568	560	550	550	560	545	580	580	565	570	580	587	600	606	615
560	560	563	570	577	579	580	576	567	554	545	560	582	588	581	570	570	586	600	605	605
560	564	567	571	581	585	587	585	575	562	560	565	580	592	594	588	578	582	600	599	596
560	565	573	575	582	590	595	593	581	570	570	567	574	591	595	599	593	588	585	586	593
557	559	574	582	586	595	604	601	594	580	571	562	573	586	590	601	604	601	600	598	593
570	567	570	583	591	599	615	619	605	595	580	562	567	571	580	591	602	605	610	612	600
580	579	568	570	589	595	610	624	620	603	591	578	567	568	568	580	591	599	604	612	610
580	590	588	578	578	589	600	620	621	602	591	580	575	576	576	576	580	592	597	609	622
570	580	592	594	588	587	596	611	620	600	585	578	582	582	591	592	580	589	600	615	631
570	568	589	601	602	599	600	612	620	600	587	584	590	587	599	602	590	586	597	612	633
583	570	585	600	610	613	612	620	620	600	587	592	600	597	598	605	595	585	600	612	630
593	580	580	591	600	614	630	631	620	599	592	602	614	611	608	608	601	593	597	602	610
604	590	585	586	598	615	632	635	621	600	597	611	625	638	625	620	610	598	595	599	600
620	610	600	590	599	610	629	634	630	608	600	610	630	642	640	627	613	600	598	610	610
620	624	620	601	595	600	619	633	639	622	608	609	630	644	637	620	607	597	600	620	623
610	619	623	620	606	601	615	633	648	639	620	615	630	643	628	610	610	618	621	630	635
597	603	610	624	620	610	610	630	652	649	630	630	642	640	625	610	620	628	640	650	652
593	594	600	615	625	625	628	625	645	655	649	650	649	635	620	620	629	640	651	663	669
609	603	597	605	623	635	630	630	645	660	662	660	640	629	619	629	642	651	655	664	670
625	618	606	604	613	630	643	647	655	663	665	656	635	625	629	640	651	655	651	647	645
637	632	620	610	611	620	640	653	662	663	660	647	629	629	640	650	655	649	641	630	627
636	644	640	621	616	618	635	651	663	659	650	640	632	641	651	655	650	638	625	617	610
635	650	650	632	620	620	630	647	655	655	647	641	645	652	655	652	641	627	618	612	610
