ncols         61
nrows         61
xllcorner     146987.500
yllcorner     1149962.500
cellsize          50.00000000000000000
NODATA_value  -9999
129.48 132.02 134.25 134.02 133.23 131.18 132.07 137.73 142.43 150.93 158.88 162.82 166.82 170.13 171.52 172.75 175.57 176.45 178.55 180.43 180.30 178.65 173.18 169.48 168.00 168.30 172.02 182.75 192.05 197.57 200.25 197.93 191.15 189.23 188.90 189.50 191.52 195.75 198.38 200.25 201.85 200.95 201.18 201.82 202.20 200.65 199.93 199.90 200.33 201.85 200.98 199.32 199.43 201.02 205.52 209.77 214.93 219.95 223.55 227.02 -9999.00
121.30 124.57 125.13 124.25 124.75 127.95 130.85 136.20 145.40 153.48 159.73 161.60 165.60 169.75 170.40 170.98 172.68 172.88 175.20 178.75 177.55 172.98 170.00 169.38 169.02 170.38 174.53 182.00 189.50 193.15 196.48 193.68 190.25 189.57 189.48 189.57 190.85 194.27 197.35 199.98 201.15 201.55 202.65 205.13 208.25 203.38 201.50 201.85 203.60 205.43 205.02 203.80 203.38 205.25 208.88 210.38 215.18 220.00 223.75 227.68 -9999.00
111.22 115.72 118.88 119.00 120.45 127.03 132.48 137.43 143.55 149.80 154.82 158.80 162.07 167.68 169.95 169.75 169.18 169.82 171.05 174.80 174.52 170.93 169.80 169.70 169.30 170.32 173.65 178.48 182.60 186.67 189.65 188.68 188.60 189.20 189.27 189.50 191.30 195.07 198.68 200.48 201.60 202.15 203.43 206.63 210.27 205.40 204.35 204.90 206.52 208.18 208.50 208.30 208.02 208.52 209.90 212.05 215.88 218.90 221.98 224.85 -9999.00
111.32 115.70 118.73 119.18 119.68 126.05 131.60 135.35 140.27 145.63 149.63 154.65 159.00 163.18 166.40 164.43 163.93 168.20 169.95 171.82 173.68 173.00 171.43 170.38 169.77 170.32 174.13 178.52 179.23 179.40 180.10 180.73 183.07 187.73 188.98 189.10 190.90 193.90 197.00 199.20 200.65 201.82 203.48 206.95 211.40 207.32 207.18 207.90 209.07 210.25 211.60 212.05 211.15 213.13 213.30 215.57 218.32 219.45 220.70 220.95 -9999.00
118.85 122.48 123.38 123.30 123.30 126.40 129.23 131.85 137.48 141.95 146.38 150.50 156.02 160.23 160.45 158.60 159.98 164.45 169.30 171.65 173.70 175.93 174.85 172.68 170.88 173.27 178.15 180.38 182.40 181.65 179.90 181.32 185.90 189.60 189.95 189.70 191.10 193.30 195.65 198.00 200.10 201.70 203.90 207.48 211.42 209.20 209.63 209.85 210.18 211.43 214.45 215.15 214.30 218.07 217.27 218.05 219.43 220.57 220.52 219.02 -9999.00
127.73 131.15 132.52 132.35 133.10 131.65 129.98 131.25 137.65 143.35 147.35 150.30 153.23 155.95 154.77 154.52 158.90 161.95 167.57 170.98 173.60 176.75 177.15 175.38 173.88 177.38 180.70 184.73 188.98 188.73 185.35 184.65 188.82 190.50 191.43 190.35 193.35 195.48 197.07 199.00 200.80 202.23 204.88 208.35 211.23 210.63 210.77 210.57 210.85 213.05 217.07 218.07 220.15 220.00 219.85 220.00 220.68 221.38 219.07 213.32 -9999.00
135.07 139.00 142.25 142.00 139.93 138.90 138.48 137.45 140.43 144.25 148.95 151.18 151.70 151.07 150.02 150.82 155.95 160.70 166.25 170.52 174.30 177.75 179.38 178.07 176.07 177.80 180.60 184.23 188.50 188.82 185.93 183.50 187.05 190.07 192.92 191.23 193.10 194.57 196.05 198.32 200.17 201.48 205.13 209.35 212.07 211.65 211.75 211.63 212.95 215.93 219.02 219.50 224.15 220.00 220.07 220.43 220.27 217.30 212.52 205.55 -9999.00
139.40 141.13 146.40 144.73 140.15 140.30 140.63 139.73 141.60 145.70 149.48 150.82 150.27 147.93 148.30 150.32 155.95 161.75 167.55 172.55 177.30 179.17 180.48 180.18 178.30 174.15 174.43 176.18 178.38 178.93 178.45 179.27 182.90 191.85 198.52 197.18 195.98 194.00 193.13 194.48 197.88 200.35 206.10 210.73 213.32 212.20 211.93 212.85 215.90 219.02 220.02 220.30 224.77 220.00 220.05 219.75 214.05 206.35 201.57 196.38 -9999.00
142.02 146.13 149.75 148.82 146.20 144.20 142.25 140.98 142.63 145.82 148.48 150.27 148.07 142.95 146.35 152.07 159.08 164.95 170.05 176.65 180.75 181.05 181.50 180.25 174.95 170.27 167.02 165.43 166.57 167.82 169.00 172.65 178.32 189.70 198.65 197.32 195.05 192.23 190.73 190.07 193.23 197.93 203.30 209.40 211.85 211.08 210.80 210.93 212.73 216.60 219.77 220.88 223.82 221.65 221.27 216.02 203.88 196.75 193.15 189.48 -9999.00
145.98 149.23 150.30 149.63 147.60 144.07 141.85 140.63 140.23 140.77 142.55 145.93 141.90 140.15 145.98 155.25 162.05 167.98 174.27 179.73 182.40 182.18 181.07 176.60 168.18 161.75 157.20 155.70 156.85 157.85 158.60 165.13 173.57 183.80 192.18 190.95 190.60 189.07 185.77 181.57 185.98 191.55 195.77 199.90 203.38 206.88 209.23 209.88 210.23 212.60 218.27 219.77 221.65 221.18 220.25 211.73 198.40 191.25 187.82 184.25 -9999.00
147.07 149.68 150.48 149.75 146.50 142.23 140.32 139.70 139.30 138.32 138.05 138.23 139.18 141.82 149.60 156.55 162.27 168.02 173.27 178.55 180.90 179.33 174.10 166.90 157.68 150.25 145.65 145.57 147.07 148.38 150.32 158.02 168.02 178.70 187.13 189.02 187.20 181.95 176.13 174.25 179.07 184.35 189.55 192.98 196.70 200.55 204.93 207.77 208.48 210.07 214.73 216.82 218.70 220.35 219.38 209.55 195.35 187.52 183.68 180.45 -9999.00
144.43 148.43 150.23 147.90 143.07 140.07 137.45 136.88 135.63 132.48 129.23 129.58 138.18 146.85 153.90 158.63 161.88 165.93 170.00 173.63 176.45 171.50 164.98 155.38 145.07 137.25 133.80 135.48 138.20 141.32 146.10 153.68 161.70 171.73 178.85 180.00 176.07 170.73 169.18 170.48 176.43 179.80 185.70 189.92 193.93 197.70 201.68 204.52 204.60 203.30 208.00 211.25 213.48 217.93 218.30 208.13 193.10 185.07 180.77 176.60 -9999.00
140.60 142.48 145.43 142.55 139.40 136.30 132.82 133.45 132.10 127.07 123.50 132.80 143.77 152.10 158.27 160.18 160.52 162.23 166.10 168.80 167.65 162.67 153.77 142.68 132.85 128.90 128.68 129.50 130.95 134.38 140.82 149.52 155.55 162.07 167.48 166.65 163.25 163.43 169.15 174.63 180.05 182.18 188.15 190.30 191.93 193.43 196.48 197.88 194.77 191.70 193.07 198.40 203.25 211.40 213.90 206.55 191.30 183.13 178.20 173.35 -9999.00
136.25 133.58 130.23 127.68 125.90 123.75 124.95 130.25 130.57 123.30 122.80 136.40 148.13 154.75 159.42 160.08 159.80 160.25 161.75 162.77 159.55 151.63 141.97 133.27 128.88 128.47 129.13 129.75 129.55 130.50 136.15 143.25 148.85 153.00 155.93 155.90 156.93 161.67 172.38 179.90 182.77 186.10 189.98 190.65 189.80 188.45 187.38 183.27 179.70 178.30 179.27 184.73 192.85 203.43 209.77 204.27 189.70 181.20 176.02 171.73 -9999.00
117.85 110.35 105.00 103.28 103.45 106.65 114.35 123.65 126.43 120.70 123.35 138.52 148.65 151.38 154.50 156.85 157.90 157.75 156.68 153.13 146.95 140.28 133.38 129.02 128.27 129.55 132.55 134.75 134.20 133.63 137.40 139.75 142.50 145.13 148.45 149.63 154.60 167.82 177.88 182.13 184.40 188.55 190.52 190.07 185.38 179.73 175.13 171.52 170.30 169.35 168.63 172.55 180.57 192.70 202.60 201.50 189.10 179.82 173.43 169.77 -9999.00
101.18 100.00 100.00 100.00 100.00 100.07 103.35 114.90 119.95 113.65 121.50 136.07 143.85 147.18 148.23 151.02 153.30 153.95 151.68 146.23 139.20 133.50 128.50 127.65 128.77 134.30 141.48 146.48 146.07 140.43 138.77 138.68 139.20 139.90 143.45 148.85 158.18 173.77 179.18 180.60 181.33 183.57 186.00 181.77 173.55 165.90 161.55 158.88 157.77 159.23 161.27 164.35 169.45 179.07 191.98 196.82 188.55 178.30 170.52 167.93 -9999.00
100.00 100.00 100.00 100.00 100.00 100.00 100.00 103.15 109.15 108.97 119.90 130.35 137.02 140.02 142.15 148.63 151.65 152.30 149.90 142.07 134.77 129.15 123.65 125.03 131.52 144.10 153.93 159.18 158.93 150.07 141.48 138.90 138.60 139.07 143.43 151.48 162.52 172.77 174.93 177.20 178.35 179.25 176.95 169.48 160.13 154.42 151.27 150.48 150.63 151.90 154.98 159.10 162.75 168.52 178.13 188.57 189.02 177.43 169.23 166.82 -9999.00
100.00 100.00 100.00 100.00 100.00 100.00 100.00 100.22 104.32 109.60 117.78 123.97 128.88 133.45 138.23 147.05 151.93 152.25 148.93 139.20 131.52 124.55 120.18 124.60 139.30 153.35 161.10 165.70 165.93 158.50 147.23 140.80 138.77 139.15 143.65 152.57 162.07 168.05 170.07 171.30 172.35 172.40 166.73 156.60 151.27 149.07 148.60 148.75 148.98 149.43 150.70 154.88 158.55 162.18 169.18 178.88 184.90 176.95 169.18 165.75 -9999.00
100.00 100.00 100.00 100.00 100.00 100.00 100.00 100.20 103.80 109.00 114.25 118.93 123.28 131.15 138.13 146.45 151.48 152.25 148.70 137.13 127.47 120.73 120.43 131.00 146.03 159.05 165.90 170.48 172.25 165.35 153.02 145.10 139.95 139.18 141.60 148.18 155.60 159.63 161.40 163.55 165.02 162.38 155.55 150.60 148.93 148.65 149.55 153.48 156.10 154.48 153.77 156.32 158.10 159.63 162.95 172.27 180.93 176.88 167.45 161.85 -9999.00
100.00 100.18 101.00 100.88 100.07 100.00 100.00 100.28 103.00 106.78 111.63 117.38 123.43 130.40 137.65 144.73 150.15 151.48 148.32 136.02 122.85 118.70 122.45 135.25 147.48 160.57 168.50 173.85 177.73 171.10 160.43 151.57 143.07 139.40 139.82 143.77 149.25 152.85 154.32 156.43 156.53 152.40 149.35 148.70 148.85 150.80 157.32 167.00 172.75 169.65 161.73 158.15 158.20 158.63 159.48 165.25 174.78 173.20 164.70 159.98 -9999.00
100.00 100.85 103.70 104.63 101.57 100.00 100.00 100.40 102.95 106.07 110.45 116.47 122.35 128.03 133.82 140.55 145.98 149.38 146.73 135.60 120.95 118.30 122.10 131.63 144.45 158.40 167.18 175.52 180.63 177.68 167.92 158.95 148.32 140.95 139.35 140.48 143.90 147.80 149.48 150.23 148.57 148.27 148.38 149.23 152.23 158.65 168.25 179.68 186.05 185.43 176.45 162.63 158.13 157.82 158.35 160.63 166.85 167.55 161.15 159.88 -9999.00
100.68 104.15 108.35 109.95 107.32 100.72 100.00 100.57 103.03 105.90 110.15 114.93 119.95 124.78 128.88 134.75 140.27 144.18 143.05 135.57 120.35 117.50 119.70 125.78 137.13 151.43 162.48 170.23 177.75 178.48 172.40 163.63 154.35 146.85 140.85 139.48 139.88 141.27 142.38 142.35 142.38 147.32 149.32 153.05 159.38 167.52 179.18 190.23 195.85 196.30 188.00 172.52 160.98 159.45 159.55 159.23 160.05 159.93 159.65 160.35 -9999.00
101.32 106.97 110.97 112.28 111.57 102.28 100.00 100.53 102.58 105.80 110.72 114.07 118.53 122.60 125.05 130.15 135.98 140.05 141.90 136.33 122.20 117.72 117.93 120.65 128.75 140.60 153.23 162.45 168.65 171.77 170.30 165.52 159.77 153.77 147.52 143.00 140.90 140.48 140.50 141.02 143.90 149.23 154.15 160.60 169.55 182.00 193.20 201.82 203.15 201.85 195.15 180.15 165.23 160.13 160.00 159.30 158.90 159.00 159.73 160.80 -9999.00
101.68 108.15 111.83 113.45 112.85 103.07 100.00 100.07 100.80 102.55 109.05 111.30 113.45 117.05 119.13 125.53 132.68 137.23 140.77 138.30 125.78 118.47 117.07 116.28 122.13 130.98 140.40 150.53 158.82 163.27 164.98 161.95 160.25 158.50 156.88 153.07 150.93 150.15 149.18 149.00 151.95 156.98 163.70 171.85 183.05 195.08 202.38 209.27 207.35 204.07 199.85 187.85 170.63 160.98 159.82 159.32 158.92 159.02 159.80 162.20 -9999.00
102.95 107.85 110.97 112.68 112.28 105.25 100.07 100.00 100.00 100.03 103.67 108.28 109.15 109.45 111.50 117.07 125.50 131.60 136.63 136.82 127.72 119.30 113.65 110.88 115.78 124.07 129.60 135.50 144.68 153.02 156.43 157.22 157.43 159.45 161.23 162.85 165.32 165.55 163.75 162.23 164.65 170.30 176.25 184.45 193.63 200.05 201.18 205.30 202.35 200.88 200.25 194.50 179.30 164.83 159.90 159.57 159.38 159.43 161.20 165.57 -9999.00
107.18 108.53 109.80 110.50 110.40 108.35 102.72 100.60 100.22 100.35 106.47 108.22 108.35 108.10 108.45 109.15 112.65 118.30 123.38 126.57 122.13 118.88 112.75 110.05 111.13 117.90 122.40 126.75 132.75 141.73 146.83 148.48 150.55 154.82 160.55 167.27 173.27 178.08 178.40 176.55 177.65 181.07 185.35 190.63 193.98 199.00 199.02 199.43 198.73 197.38 195.88 191.80 183.82 171.80 163.93 161.27 160.65 161.60 165.30 169.30 -9999.00
110.35 110.13 109.82 110.05 110.25 109.43 106.80 103.78 102.33 102.10 108.13 108.60 108.15 108.10 108.10 108.10 109.55 110.00 110.88 112.20 113.80 113.60 110.38 110.00 110.30 113.82 117.72 122.20 127.22 133.38 138.38 140.43 144.70 150.57 157.07 164.05 172.48 178.78 180.57 178.52 175.27 177.73 183.50 190.02 191.73 192.30 190.35 190.72 192.27 190.23 187.88 185.75 180.52 172.90 167.90 164.48 162.80 164.50 167.63 169.27 -9999.00
114.25 113.68 110.97 111.40 112.32 111.60 108.63 106.65 105.25 104.45 108.63 108.63 108.20 108.15 108.15 108.10 109.55 110.00 110.00 110.00 110.00 110.20 110.07 110.00 110.13 112.32 115.65 119.47 123.57 128.18 131.70 135.35 140.02 146.77 153.25 158.70 165.93 171.60 172.80 169.85 168.02 170.15 175.05 181.98 185.15 184.08 181.85 181.07 182.10 180.48 177.75 176.15 173.50 168.68 163.82 161.90 164.35 167.50 169.02 171.45 -9999.00
123.55 120.10 115.72 116.00 117.80 118.90 114.90 113.72 112.72 110.22 110.03 109.47 109.35 109.20 108.97 108.32 109.55 110.00 110.00 110.00 110.00 110.00 110.00 110.00 110.03 111.23 113.75 116.90 120.40 124.72 128.50 131.65 136.30 141.77 148.27 152.98 158.60 163.50 163.88 162.33 161.98 165.52 168.68 171.98 176.27 176.50 174.25 172.20 170.75 169.30 168.63 168.07 165.63 161.68 159.57 159.90 162.70 166.57 170.33 175.80 -9999.00
130.82 127.43 119.15 118.30 119.97 122.30 122.57 124.80 128.57 124.82 118.90 115.28 113.22 112.18 111.88 110.28 109.78 110.00 110.00 110.00 110.00 110.00 110.00 110.00 110.00 110.22 111.63 114.23 117.63 121.93 126.65 129.68 133.90 139.00 142.65 145.52 150.77 154.60 157.50 158.02 158.58 161.90 166.75 168.98 171.27 171.23 168.55 164.55 160.63 160.35 161.42 161.52 159.25 158.35 158.63 159.45 161.27 166.75 173.68 182.80 -9999.00
131.90 129.15 120.18 119.20 122.48 127.07 128.98 130.63 136.57 136.77 131.35 126.38 122.00 119.63 118.97 116.78 111.43 110.03 110.30 110.07 110.00 110.00 110.00 110.00 110.00 110.00 110.25 111.47 114.25 119.72 125.35 127.38 130.07 134.75 138.90 139.80 144.38 148.73 152.25 156.70 160.40 166.30 169.40 170.35 171.00 168.98 165.27 160.90 156.88 154.52 154.38 153.93 152.57 155.15 157.68 159.45 162.27 168.83 177.63 188.63 -9999.00
131.93 130.15 123.50 123.90 128.93 133.70 135.48 136.25 140.40 142.82 141.27 138.20 135.52 133.48 131.32 127.47 119.03 112.90 115.05 116.72 114.72 111.53 110.00 110.00 110.00 110.00 110.00 110.03 110.40 112.68 117.70 118.95 125.28 132.48 138.68 141.30 147.57 152.75 158.23 164.28 172.88 177.10 175.05 172.30 171.35 166.38 161.80 156.85 151.27 149.05 147.27 148.50 149.10 150.67 154.73 159.32 164.42 170.57 178.07 188.48 -9999.00
131.02 130.43 128.15 129.93 136.10 141.50 141.83 140.73 145.23 148.75 150.02 149.63 148.20 144.35 141.30 136.80 128.35 118.28 123.47 133.07 133.88 127.75 119.10 112.45 110.22 110.00 110.00 110.00 110.00 110.00 110.00 110.13 114.28 124.63 135.70 145.32 153.60 160.13 166.38 175.42 183.13 184.05 179.68 174.93 169.20 159.20 154.10 149.68 147.43 144.60 141.23 145.50 148.27 150.88 155.38 160.52 166.18 172.00 178.28 186.85 -9999.00
129.73 129.77 130.02 134.95 142.57 147.65 146.88 145.45 148.50 152.55 157.40 161.38 162.48 157.90 148.30 141.20 133.38 122.40 128.30 141.75 146.63 147.07 140.10 130.07 119.50 112.88 110.97 110.75 110.80 110.75 110.57 110.20 110.03 111.03 119.10 136.43 154.80 164.38 172.82 182.05 188.70 188.48 179.88 170.35 158.70 149.27 144.85 143.35 141.60 138.73 138.82 141.45 145.68 150.50 155.02 160.38 166.35 172.25 178.32 185.63 -9999.00
124.90 128.77 132.52 139.98 149.13 152.93 151.88 148.98 149.88 155.25 161.38 166.82 168.43 164.43 154.35 142.77 134.10 127.43 129.23 141.82 150.58 153.20 156.90 154.68 142.07 127.17 118.10 114.95 113.90 113.32 112.90 112.00 110.82 110.20 112.27 122.48 143.40 165.27 178.25 184.80 189.40 188.93 175.15 159.00 142.60 134.20 131.93 132.75 131.80 131.55 136.18 142.10 144.85 149.20 153.40 159.02 163.88 170.27 176.73 183.52 -9999.00
121.03 127.57 134.23 144.82 153.95 158.23 158.40 154.48 153.98 158.98 165.38 170.50 171.02 167.50 157.98 145.20 137.67 133.50 130.23 134.80 145.85 154.57 163.92 169.27 161.63 145.63 131.70 121.88 117.97 116.82 116.15 114.97 113.30 111.95 114.70 119.75 130.43 158.77 177.80 182.55 184.82 181.50 165.30 142.05 130.43 129.55 129.40 129.40 129.40 129.50 131.15 138.13 141.55 145.23 150.02 155.38 160.00 165.95 172.95 180.60 -9999.00
126.47 129.25 135.57 148.43 156.55 160.17 162.38 160.75 158.65 161.32 166.32 170.30 171.70 169.20 161.45 150.27 145.45 145.00 142.32 138.63 142.10 152.57 165.77 171.82 170.30 158.88 147.30 136.38 127.53 123.20 121.38 118.90 116.72 115.03 116.45 119.65 123.73 149.95 171.43 179.18 179.85 172.30 150.52 131.88 129.55 129.55 129.40 129.40 129.40 129.40 129.40 130.07 133.63 137.68 143.85 150.52 155.95 160.52 167.18 174.82 -9999.00
135.25 132.55 138.75 149.60 157.77 162.00 166.98 167.05 164.02 165.40 168.57 171.98 174.58 170.43 162.80 156.45 155.48 156.25 154.27 147.57 141.45 149.82 162.98 170.82 172.88 169.15 158.60 148.32 141.00 134.23 130.73 126.75 120.18 116.75 116.30 116.93 119.18 142.00 166.05 174.35 173.75 161.68 137.50 129.20 129.10 129.70 130.82 130.98 130.22 129.42 129.40 129.40 129.42 130.52 135.52 142.68 150.27 155.70 160.48 167.50 -9999.00
141.23 137.38 139.88 149.38 158.20 165.48 170.52 172.55 172.15 171.65 174.48 178.73 180.57 176.60 168.88 164.13 164.32 162.20 160.20 154.08 147.20 150.07 159.73 169.18 175.55 177.13 167.25 156.05 148.40 142.02 137.60 133.30 126.75 117.95 116.05 116.00 117.50 136.35 159.35 168.88 167.50 150.45 130.73 127.10 128.25 131.45 137.05 139.52 140.57 136.15 130.68 129.42 129.40 129.45 131.25 135.43 141.10 149.38 155.23 160.38 -9999.00
147.25 140.60 140.23 149.40 158.00 165.25 171.93 177.57 180.82 180.70 182.20 185.75 187.15 184.95 179.50 175.02 171.38 167.43 161.95 155.48 149.82 150.65 157.70 167.65 178.50 181.50 174.43 161.82 152.20 145.98 141.60 137.07 131.60 120.50 116.30 116.00 117.60 132.75 151.57 160.80 159.32 144.10 127.88 125.70 127.45 132.00 139.75 145.38 149.48 147.93 140.23 133.90 130.42 129.40 129.63 131.10 134.60 140.05 147.25 153.55 -9999.00
150.15 145.77 143.02 150.43 157.85 165.48 174.50 181.63 186.00 186.65 188.23 191.15 192.33 191.13 187.57 182.05 176.77 168.82 160.88 157.27 153.93 156.07 162.38 171.85 179.65 182.23 179.15 169.52 157.07 148.50 143.82 139.40 134.38 121.93 116.35 116.03 117.85 131.40 144.80 151.52 151.48 141.18 127.55 124.65 126.28 129.75 136.40 143.63 149.80 151.20 150.18 146.75 141.32 133.48 129.88 129.45 130.83 134.88 138.98 144.80 -9999.00
150.73 149.02 147.35 151.50 159.00 167.07 178.30 185.18 189.80 191.40 192.48 195.40 195.80 191.45 187.05 180.63 175.10 167.70 160.48 158.40 158.63 164.13 170.82 176.10 181.18 185.57 182.13 177.07 164.75 152.80 146.27 140.05 134.02 120.70 116.10 116.18 119.03 130.60 140.77 144.93 145.48 139.30 127.95 123.03 125.03 128.60 132.73 139.30 147.32 152.57 157.27 158.48 154.32 148.15 140.07 133.30 131.25 133.75 136.40 138.63 -9999.00
150.93 149.68 149.43 153.80 161.23 169.23 178.82 188.30 193.70 197.68 198.13 199.50 199.82 194.25 186.35 179.40 173.48 168.88 163.57 161.77 166.00 172.60 177.10 180.65 186.75 189.68 186.63 181.30 169.95 158.40 149.90 139.90 129.10 117.57 116.00 116.43 119.70 129.88 137.90 141.30 142.25 137.68 125.20 120.32 122.25 126.20 129.93 136.10 144.95 154.52 163.13 168.40 167.00 162.63 156.77 149.00 141.25 139.00 138.02 137.73 -9999.00
151.13 149.70 150.23 156.05 163.60 170.88 178.43 188.85 195.85 200.02 200.65 200.65 200.75 197.52 190.13 181.45 173.68 169.27 167.00 168.82 175.82 181.38 185.18 188.30 190.32 190.55 188.15 181.90 171.60 160.05 150.82 138.50 122.90 116.47 116.10 117.07 120.47 129.13 134.25 137.48 138.18 132.95 122.60 119.25 120.88 125.88 131.57 137.18 144.95 156.57 168.95 175.00 179.55 178.32 173.00 165.32 155.25 145.90 139.85 137.90 -9999.00
154.60 152.07 152.93 158.95 164.50 171.25 179.27 186.60 192.20 197.75 200.25 200.85 200.90 199.75 194.90 185.05 174.40 169.48 169.32 176.13 183.82 188.55 195.18 198.07 194.60 191.02 185.92 179.77 170.85 159.23 149.48 136.45 122.43 117.30 116.90 117.60 120.57 128.90 132.70 133.93 133.27 129.43 121.97 119.18 120.10 126.90 138.22 144.40 147.18 157.68 170.18 180.60 189.60 188.05 184.73 178.52 168.50 157.27 148.03 143.15 -9999.00
157.10 155.25 155.77 159.20 163.10 168.65 176.55 182.55 188.32 193.70 198.77 201.00 201.43 201.02 197.45 187.10 177.90 172.82 174.90 181.80 189.07 196.73 200.50 199.57 195.20 190.93 185.13 178.28 168.07 156.30 146.27 134.85 121.90 118.50 118.25 118.28 119.35 123.45 128.23 129.15 128.10 124.28 120.47 119.18 119.45 129.77 147.43 154.15 152.08 158.20 169.60 180.00 190.35 191.95 190.33 186.33 180.40 169.77 161.18 160.57 -9999.00
159.40 158.70 158.93 160.98 165.10 168.20 173.10 179.03 184.23 191.15 197.77 200.95 201.45 201.55 199.02 189.27 180.23 177.15 179.35 184.82 193.98 200.83 200.82 198.02 193.07 190.10 184.43 177.75 166.88 154.88 145.68 134.23 125.23 123.95 120.07 119.65 119.50 119.45 120.57 121.28 121.63 120.68 119.45 119.35 120.38 137.15 159.07 163.63 159.40 159.13 168.18 178.65 188.00 192.75 194.43 193.25 191.07 182.77 174.02 174.90 -9999.00
163.07 165.63 166.68 168.20 169.45 169.35 171.45 176.65 182.17 189.95 196.18 200.05 200.63 200.88 199.43 192.32 183.65 179.45 182.38 187.90 194.30 199.35 198.95 194.70 189.90 186.45 181.48 176.35 167.25 154.48 143.38 133.20 132.18 133.15 125.25 120.10 119.68 119.10 119.10 119.13 119.20 119.18 119.35 120.20 128.15 156.05 177.38 179.90 169.13 163.07 169.08 178.20 188.60 195.52 199.32 200.73 198.90 194.20 184.70 181.05 -9999.00
167.93 170.05 170.15 172.93 173.07 171.32 171.60 176.38 181.13 187.48 192.52 196.77 199.63 199.85 197.70 192.05 188.07 183.88 186.25 190.48 192.20 193.27 193.35 189.93 185.20 180.88 176.45 171.08 161.77 150.38 140.15 138.02 139.75 143.27 136.32 124.88 120.05 119.10 119.10 119.10 119.15 119.22 121.70 132.77 155.27 180.23 194.05 191.50 178.70 169.65 171.07 179.13 191.27 199.25 205.10 207.95 204.88 199.95 193.23 188.05 -9999.00
169.82 171.35 172.30 177.02 178.23 176.77 176.18 178.95 180.00 184.13 189.25 192.00 196.07 197.80 197.25 192.70 189.82 187.50 186.88 187.20 188.50 189.20 187.95 182.73 178.45 172.60 167.77 161.65 153.58 145.93 141.35 145.82 151.68 156.88 151.55 138.65 127.75 121.15 119.43 119.25 120.95 127.15 139.60 158.43 177.05 192.57 198.98 195.63 183.82 175.95 175.02 180.65 191.82 202.43 209.43 210.93 209.80 205.40 199.63 195.10 -9999.00
170.17 173.43 177.20 179.95 180.10 179.95 179.82 179.57 179.48 180.98 186.32 189.45 191.98 195.75 199.60 197.68 192.93 190.13 188.13 187.32 187.35 186.05 182.38 178.73 173.98 168.10 160.93 154.73 149.43 148.13 149.68 157.70 164.15 169.35 167.80 156.73 142.43 132.95 125.68 122.45 127.28 137.02 150.90 169.25 180.88 189.18 194.05 191.82 185.48 179.42 177.80 180.82 189.48 200.43 208.80 211.27 211.07 209.43 205.88 202.57 -9999.00
170.27 172.65 175.93 179.40 180.30 180.38 181.93 181.65 180.60 181.90 186.90 190.73 195.05 198.90 200.25 200.10 198.02 194.47 191.00 189.07 188.85 188.20 186.77 183.77 180.40 175.45 166.75 157.57 149.75 148.63 154.27 162.88 168.30 171.80 174.02 171.15 161.63 147.55 134.88 128.07 129.88 139.35 154.05 169.40 176.70 182.95 189.28 190.35 186.75 181.57 179.13 181.30 187.65 196.27 205.40 210.90 211.40 210.88 210.25 209.43 -9999.00
170.15 171.63 174.10 178.32 180.52 181.45 184.40 185.75 185.00 186.52 189.95 192.10 195.52 199.40 200.40 200.42 200.07 198.75 195.88 191.43 190.05 189.68 189.93 190.02 187.15 180.85 172.40 163.20 152.90 149.35 155.15 162.88 168.05 171.70 175.02 173.52 169.18 157.68 143.75 132.07 129.92 137.27 150.68 163.08 171.40 177.52 186.43 190.15 189.07 185.90 183.07 185.93 189.32 193.65 200.73 208.35 210.20 210.55 211.27 211.33 -9999.00
169.95 170.80 173.50 178.55 181.10 182.83 186.95 189.35 189.32 189.27 190.63 191.02 192.20 196.25 199.43 200.27 200.38 200.15 198.90 194.85 191.77 190.82 191.02 190.43 185.43 179.68 173.10 165.18 155.63 150.45 154.63 160.85 167.05 172.27 177.45 174.43 170.02 160.18 148.77 137.00 132.32 137.88 146.15 155.82 163.13 171.35 180.85 186.35 186.38 186.75 187.80 188.50 190.43 194.50 199.07 205.45 209.13 210.30 211.25 211.68 -9999.00
168.70 169.68 171.42 176.55 180.90 185.27 189.40 190.55 190.75 190.57 190.25 189.70 189.30 191.57 195.60 199.07 200.13 200.10 199.15 195.80 193.23 191.90 191.10 188.35 181.45 176.43 170.05 162.75 157.90 154.68 157.57 160.23 166.75 175.80 180.02 178.07 172.98 162.07 151.25 140.15 137.00 141.93 150.20 156.50 159.15 165.82 174.75 182.25 186.35 189.38 191.80 193.68 196.07 198.45 199.08 202.18 206.55 208.75 208.95 209.15 -9999.00
165.23 168.05 169.60 173.88 179.23 184.73 189.57 190.93 191.15 190.88 190.35 189.02 184.85 187.18 190.93 194.57 197.80 198.18 195.82 190.00 190.35 190.07 189.15 184.27 178.18 172.88 167.23 161.25 159.38 158.65 158.35 159.60 168.35 178.60 183.43 185.50 178.00 166.45 154.85 143.45 138.60 146.98 160.35 164.38 162.30 166.57 171.02 178.15 184.32 189.65 195.68 200.85 202.65 200.52 199.75 201.65 203.30 203.32 201.05 200.18 -9999.00
166.88 169.18 170.23 173.90 178.38 183.75 189.20 191.02 191.38 191.02 189.60 184.25 179.77 181.35 187.30 190.67 193.23 194.52 193.45 190.00 190.32 190.02 188.13 183.50 177.80 171.90 168.82 165.85 164.52 163.38 161.23 160.65 168.70 177.27 186.38 190.55 183.52 172.25 161.13 149.88 141.20 150.52 167.25 173.70 173.25 171.00 172.30 178.80 184.63 191.30 201.18 208.68 209.18 206.07 204.42 207.65 206.13 200.65 198.00 195.68 -9999.00
168.57 170.20 171.27 174.77 177.82 182.20 187.98 190.57 190.70 189.85 186.07 180.35 178.68 179.63 185.25 190.48 192.23 192.45 191.35 189.10 188.65 189.20 186.08 181.98 178.95 176.13 171.68 171.50 170.68 168.52 166.07 164.88 169.13 173.63 182.63 189.93 186.88 177.63 169.98 158.77 147.65 152.47 170.45 179.57 182.33 177.75 176.30 180.18 188.30 195.73 206.15 211.65 213.43 211.93 210.58 210.00 209.55 204.30 198.25 192.80 -9999.00
169.80 171.20 172.27 175.45 178.15 180.27 183.55 189.00 189.32 185.90 181.40 178.75 178.55 179.88 185.00 190.02 190.98 189.70 187.60 184.63 184.02 187.75 186.32 184.20 181.13 179.90 179.20 179.57 177.15 173.10 170.02 167.97 168.70 172.38 181.20 188.20 189.95 185.88 178.02 167.38 154.75 152.60 168.45 180.25 186.98 180.57 178.02 180.85 189.55 197.30 207.18 213.77 218.23 218.10 215.70 211.65 210.52 206.85 199.40 191.25 -9999.00
170.02 171.82 172.77 175.45 178.68 179.93 181.48 185.77 185.38 181.50 179.07 175.45 178.93 179.98 181.55 187.30 187.88 184.43 181.92 180.02 180.02 182.73 185.90 188.45 186.50 188.13 191.32 192.70 187.98 179.85 173.80 170.75 169.23 172.55 181.52 187.35 190.32 191.23 187.00 175.73 164.18 156.60 164.95 176.27 181.90 180.60 179.82 183.58 190.68 199.67 209.82 218.73 222.10 221.02 219.65 215.77 211.73 205.27 197.77 190.63 -9999.00
-9999.00 -9999.00 -9999.00 -9999.00 -9999.00 -9999.00 -9999.00 -9999.00 -9999.00 -9999.00 -9999.00 -9999.00 -9999.00 -9999.00 -9999.00 -9999.00 -9999.00 -9999.00 -9999.00 -9999.00 -9999.00 -9999.00 -9999.00 -9999.00 -9999.00 -9999.00 -9999.00 -9999.00 -9999.00 -9999.00 -9999.00 -9999.00 -9999.00 -9999.00 -9999.00 -9999.00 -9999.00 -9999.00 -9999.00 -9999.00 -9999.00 -9999.00 -9999.00 -9999.00 -9999.00 -9999.00 -9999.00 -9999.00 -9999.00 -9999.00 -9999.00 -9999.00 -9999.00 -9999.00 -9999.00 -9999.00 -9999.00 -9999.00 -9999.00 -9999.00 -9999.00
