229	229	231	231	230	230	230	233	240	243	243	243	243	246	250	251	257	259	259	258	257	257	259	265	271	278	280	278	278	280	289	297	305	317	324	332	336	332	330	330	328	331	341	350	352	352	351	348	342	340	334	325	312	299	305	325	338	344	346	350	356	350	342	339	340	345	350	358	361	367	373	379	385	392	398	401	399	389	378	369	361	354
227	225	226	230	230	230	230	230	230	230	235	236	237	238	243	247	251	254	254	254	253	253	258	261	267	271	279	278	276	279	287	298	307	322	330	341	341	341	338	331	330	335	341	349	351	352	352	351	347	341	333	323	311	299	317	329	337	341	342	344	353	342	338	338	340	343	346	350	356	360	369	374	382	390	391	399	399	392	387	378	374	369
225	223	223	230	230	229	230	230	230	230	230	230	232	234	238	240	242	245	248	250	250	250	256	260	266	271	273	271	271	280	291	301	310	325	336	342	342	340	340	332	328	328	336	343	347	350	350	351	350	341	333	323	311	303	315	330	332	336	338	338	337	333	331	332	336	340	342	346	350	356	359	368	376	381	387	391	394	391	391	389	382	377
223	222	222	229	229	229	229	229	229	229	229	230	230	232	234	238	240	240	240	245	249	251	258	261	263	267	269	268	270	282	292	300	309	324	333	341	341	340	336	329	321	318	327	335	338	341	342	344	341	340	333	325	315	307	310	321	330	329	329	328	326	322	322	327	330	334	339	344	349	353	356	361	368	374	380	387	391	391	391	392	390	384
222	221	221	228	228	228	229	229	229	229	229	229	230	230	233	237	239	239	240	246	251	256	260	261	261	261	260	265	271	278	289	297	303	315	326	333	339	336	330	324	317	310	319	326	331	330	330	339	340	340	335	327	319	309	309	312	319	320	320	317	316	315	317	320	326	329	337	343	348	352	353	356	361	366	372	382	386	386	388	390	391	390
220	220	220	221	223	225	225	226	228	228	228	228	229	230	231	234	237	238	242	247	252	256	261	261	260	259	259	264	270	277	282	291	299	307	317	327	333	331	327	321	309	307	312	319	322	320	324	330	340	342	338	330	323	313	309	309	309	309	309	309	309	309	311	318	323	329	335	341	345	348	350	352	355	360	365	373	381	379	381	384	390	391
220	220	220	222	224	226	226	227	227	228	228	228	229	229	230	232	236	238	241	245	249	250	254	256	259	258	259	267	275	279	287	293	299	308	318	327	331	329	323	314	304	299	301	309	309	310	325	333	340	349	340	334	326	321	316	312	315	319	322	320	312	309	309	315	322	328	333	337	342	344	344	349	350	357	359	363	367	371	374	379	384	391
221	221	222	230	230	230	230	230	230	230	230	230	230	230	230	232	235	237	240	242	247	250	248	249	253	258	265	272	280	283	291	298	304	315	323	329	331	325	317	307	299	291	298	300	309	321	331	338	347	351	349	339	330	327	324	323	325	327	330	330	329	322	316	319	320	320	327	330	330	332	339	343	348	351	356	358	360	367	370	376	382	390
225	224	224	230	230	230	230	230	230	230	230	230	230	230	231	233	236	237	239	240	243	247	248	250	260	267	272	277	282	286	292	300	309	318	322	323	327	319	308	298	291	289	294	303	314	329	334	339	340	349	341	341	334	329	328	330	340	344	344	342	339	333	326	320	319	319	319	325	330	336	341	349	350	356	357	358	359	363	370	377	384	391
232	230	229	230	230	230	230	230	230	230	230	230	230	230	231	232	235	236	238	239	242	247	252	261	267	271	274	280	282	285	291	299	306	313	321	321	322	314	301	293	286	289	297	305	317	331	333	333	338	342	341	340	340	334	332	339	346	350	350	350	347	341	334	326	320	319	319	327	335	342	347	351	352	359	359	359	360	363	371	380	385	392
246	246	244	241	237	232	230	230	230	230	230	230	230	230	230	231	234	236	238	240	244	249	258	267	271	273	277	280	281	282	288	292	299	304	309	312	313	308	298	289	279	290	299	306	316	324	329	327	329	337	341	341	340	334	331	340	347	351	352	352	351	349	340	332	325	320	320	325	332	342	348	353	356	360	360	360	360	365	369	375	381	391
260	260	257	256	252	244	240	236	230	230	230	230	230	230	230	230	232	235	238	241	245	251	262	271	272	272	272	272	279	278	279	285	291	292	295	295	301	299	292	284	279	287	294	301	311	316	317	317	321	330	338	339	332	330	329	333	343	349	350	351	352	351	346	338	330	327	325	329	329	337	342	351	358	361	361	360	360	361	369	372	378	387
271	275	278	277	272	262	254	247	235	230	230	230	230	230	230	230	231	234	237	240	244	252	264	271	272	271	271	271	276	271	271	274	277	276	278	282	286	290	284	280	274	280	288	293	298	302	304	310	316	325	332	333	327	318	323	329	340	343	344	349	351	351	349	342	338	332	332	334	333	340	340	343	349	358	358	358	358	360	367	373	379	383
293	294	296	296	292	280	271	264	245	233	230	230	230	230	230	230	231	233	235	238	242	251	261	270	271	270	270	270	271	264	260	261	264	264	265	268	272	275	275	270	269	270	274	280	284	290	296	303	311	318	323	323	317	314	320	326	330	333	337	344	351	351	350	345	341	338	339	341	343	342	340	340	341	345	350	353	357	362	369	376	380	383
306	310	315	313	310	296	286	277	257	238	231	230	230	230	230	230	231	232	235	237	240	248	255	262	266	269	270	269	264	260	259	259	259	259	259	260	265	267	268	268	270	275	278	279	278	279	285	296	305	310	314	311	306	306	313	323	325	326	331	340	345	350	349	347	347	345	345	347	349	348	347	343	340	340	345	350	359	365	371	376	381	382
324	331	331	326	319	307	294	286	263	241	233	230	230	230	230	230	232	234	237	238	239	240	249	252	254	254	253	253	254	259	259	260	263	268	272	272	269	267	268	270	280	290	292	290	286	279	279	287	290	299	300	300	299	299	301	316	320	320	329	334	339	341	346	350	351	351	350	351	354	354	352	350	347	340	348	349	356	364	370	370	373	370
337	334	333	319	312	306	296	288	263	241	233	230	230	230	230	230	231	234	237	239	238	239	241	247	248	248	248	248	249	255	262	269	278	284	288	290	289	283	272	273	287	291	298	298	297	297	296	293	292	299	299	300	299	299	302	308	311	316	322	329	332	338	344	350	351	351	351	352	360	359	354	351	350	347	349	349	349	360	363	362	359	365
342	333	330	314	306	298	290	284	257	239	232	230	230	230	230	230	231	233	238	239	239	240	246	249	250	249	249	248	249	257	269	280	288	292	298	300	299	294	286	279	287	299	301	305	305	304	303	302	303	305	310	315	320	321	318	310	309	312	319	324	327	333	340	349	352	353	357	360	360	361	359	357	355	353	354	353	350	350	357	358	362	369
347	332	325	305	294	284	279	270	250	236	231	230	230	230	230	230	231	235	238	240	241	248	251	260	261	261	260	257	254	260	272	283	292	299	302	302	306	303	299	289	288	297	306	311	311	310	310	309	309	314	321	325	329	329	327	323	314	309	314	321	326	331	335	339	346	350	354	359	360	361	360	359	358	358	360	360	356	351	359	360	366	372
348	334	315	298	286	272	266	259	240	233	230	230	230	230	230	232	237	238	240	243	244	249	260	266	271	271	271	270	266	263	270	280	289	301	305	308	310	310	306	299	289	290	302	310	312	312	312	311	316	321	327	331	336	338	337	332	328	314	310	317	321	326	330	333	339	345	351	356	359	361	360	359	359	360	362	363	360	357	359	362	369	371
335	320	304	294	281	265	259	251	237	231	230	230	230	230	232	235	239	239	241	248	247	249	257	267	271	271	272	275	273	270	269	271	282	294	304	309	311	311	310	307	299	290	290	303	310	311	311	313	318	323	331	336	340	341	340	341	336	331	317	318	319	322	328	329	335	340	349	354	358	361	364	361	361	366	370	371	368	360	360	365	368	365
324	310	297	291	274	259	250	241	236	232	230	230	230	232	235	239	240	243	250	257	261	260	258	260	270	272	275	280	280	278	274	270	275	284	297	303	309	311	311	311	308	300	291	290	301	309	309	312	318	324	331	334	340	341	341	343	341	337	330	319	319	320	325	329	335	340	347	353	359	365	367	365	366	369	371	371	370	367	365	370	370	360
312	300	292	283	270	252	243	238	234	231	230	230	230	234	238	243	246	250	258	264	269	268	265	260	260	269	273	281	281	281	282	279	278	279	289	298	304	308	311	311	311	309	301	296	299	301	307	311	319	323	328	330	333	339	340	345	344	341	334	327	322	323	329	332	339	345	350	357	364	370	370	370	370	373	377	374	371	369	368	370	369	357
301	295	287	278	266	240	237	234	232	230	230	230	231	235	240	248	252	258	265	272	278	281	278	273	270	269	269	279	280	282	285	283	281	279	282	291	297	304	309	311	311	312	310	303	300	309	309	313	321	322	325	326	329	332	340	349	349	345	339	329	327	327	330	336	344	351	357	361	370	374	376	376	377	380	380	380	377	376	374	370	371	361
297	292	282	274	260	240	240	240	240	240	233	230	237	240	244	252	257	262	270	282	291	294	290	286	283	279	276	279	280	284	289	291	293	290	289	289	290	299	307	311	311	317	313	310	307	309	310	315	321	321	322	322	328	332	342	351	351	350	343	333	330	331	333	341	350	358	362	368	373	380	380	380	381	381	381	384	382	382	381	376	370	364
297	292	276	265	252	240	240	240	240	240	236	233	239	240	249	253	259	267	279	292	300	301	300	298	294	289	284	279	279	284	292	300	301	300	295	291	290	296	304	311	317	320	320	312	311	310	310	310	315	319	319	319	327	335	342	349	350	349	343	338	333	335	339	345	353	361	363	368	373	380	381	380	380	380	381	389	389	388	385	380	375	371
301	293	270	259	248	240	240	240	240	240	237	237	240	241	249	254	261	272	284	295	300	301	301	301	300	299	294	289	283	289	292	300	302	302	301	299	296	300	303	310	319	321	321	318	313	311	310	310	310	310	317	320	328	332	338	341	343	341	338	331	329	333	339	347	353	358	359	360	369	375	378	376	373	378	382	391	392	391	390	386	379	374
309	296	279	262	249	240	240	240	240	240	238	238	240	242	249	255	264	277	286	294	300	301	301	301	300	300	300	296	290	289	291	299	301	302	302	301	301	301	309	312	319	321	321	320	317	315	311	310	310	311	320	321	322	329	330	329	328	329	328	327	320	330	338	347	352	354	352	351	361	370	371	367	359	370	377	389	391	391	391	390	382	375
310	298	288	267	249	240	240	240	240	240	239	239	240	240	247	254	264	276	285	292	295	296	297	300	300	300	303	300	294	293	294	298	300	302	302	302	303	305	309	313	318	321	320	319	312	313	312	313	315	319	321	321	322	326	323	321	320	323	323	320	309	319	334	341	346	344	339	344	360	365	362	356	349	360	374	380	384	387	388	387	380	366
299	292	288	263	246	240	240	240	240	240	239	239	240	240	242	250	260	269	275	279	290	290	290	297	302	306	310	310	306	300	298	298	297	299	300	301	302	304	307	310	310	318	317	310	308	306	310	311	317	320	321	322	321	322	321	313	308	314	316	309	308	318	329	334	337	332	330	345	359	362	359	350	348	356	366	371	371	379	382	381	371	350
290	285	278	258	242	240	240	240	240	240	239	239	239	240	240	246	258	267	269	277	282	287	289	298	303	308	311	311	309	300	297	294	291	290	294	299	301	301	301	306	310	312	313	310	300	291	301	307	311	320	322	322	321	322	318	307	298	300	301	298	303	316	323	325	320	318	327	349	354	358	352	344	340	354	359	360	359	368	374	371	354	344
280	276	266	250	241	240	240	240	240	240	239	239	239	240	240	246	261	269	278	283	289	288	297	300	300	300	309	308	301	298	291	289	282	279	281	291	294	294	291	296	302	307	308	304	296	286	290	301	306	310	314	317	319	317	311	299	289	283	287	294	304	311	314	313	310	318	331	342	349	348	341	329	338	353	353	348	350	362	362	355	346	338
284	272	260	247	240	240	240	240	240	240	239	239	239	240	240	251	268	279	284	288	291	300	301	301	300	300	303	300	295	290	283	277	271	268	268	280	285	278	275	281	291	298	299	298	291	278	279	290	296	301	304	306	309	308	301	291	281	279	279	284	295	301	304	305	306	315	324	328	328	328	324	328	338	344	342	336	350	356	354	349	339	330
289	274	260	246	240	240	240	240	240	240	239	239	239	240	240	255	269	279	285	292	300	302	302	301	300	299	291	287	280	275	270	262	258	258	257	254	260	260	261	266	274	282	288	282	274	270	270	270	277	282	288	292	293	293	285	279	279	279	279	279	280	286	290	298	303	307	312	314	313	310	310	320	331	333	329	329	340	346	345	340	330	324
284	274	259	246	240	240	240	240	240	240	239	239	239	240	240	253	264	272	281	288	291	295	293	290	286	282	276	268	262	253	249	249	250	252	253	250	259	260	260	260	260	260	260	260	261	264	265	264	265	269	269	270	273	273	273	274	277	276	277	278	279	279	281	288	294	298	299	300	301	302	306	311	315	315	315	321	329	333	334	332	326	320
279	272	258	245	240	240	240	240	240	240	239	239	239	240	240	248	255	263	268	275	281	283	277	272	267	263	257	250	249	249	249	249	249	250	251	250	257	258	259	260	260	260	260	260	260	260	261	261	261	267	268	268	269	269	269	271	273	274	275	276	277	278	279	279	284	288	288	289	292	295	299	302	305	304	306	310	322	325	326	324	320	312
272	266	254	245	241	240	240	240	240	240	240	239	239	240	240	240	244	248	253	258	261	260	258	255	250	250	249	249	249	249	249	249	249	250	250	250	252	254	257	258	259	259	260	259	259	260	260	260	260	262	265	266	267	267	268	270	271	272	274	275	276	276	277	276	277	280	281	283	287	290	293	295	296	299	302	305	308	314	320	318	312	306
262	256	249	246	242	240	240	240	240	240	240	240	240	240	240	240	240	240	240	246	249	250	250	250	250	250	249	249	249	249	249	249	249	250	250	251	254	256	258	259	259	259	259	259	259	259	259	259	260	261	263	265	266	266	268	270	271	272	273	274	274	275	275	274	274	278	279	280	282	286	287	290	292	295	297	300	302	304	307	310	309	300
255	250	248	247	243	241	240	240	240	240	240	241	241	240	240	240	240	240	240	243	247	248	249	249	249	249	249	249	249	249	249	250	251	251	252	252	257	259	259	260	260	260	259	259	259	259	259	260	260	262	263	264	265	266	267	269	270	271	272	273	274	274	274	272	272	276	278	279	280	282	284	285	288	290	292	295	297	301	302	303	302	298
255	250	249	250	248	245	242	240	240	241	242	244	243	242	241	240	240	240	241	250	250	250	250	250	250	250	249	249	250	250	251	252	252	253	253	254	259	260	260	260	260	260	260	260	259	259	259	260	261	262	263	263	263	264	265	269	270	271	271	272	272	273	272	270	270	274	276	279	280	280	280	281	283	284	286	288	290	291	292	295	293	290
260	257	250	250	248	247	245	242	242	243	243	246	245	244	243	242	242	242	243	250	250	250	250	250	250	250	250	251	251	252	252	253	253	254	255	256	260	260	260	260	260	260	260	260	260	259	260	260	260	261	261	261	261	261	262	268	269	270	270	271	271	271	270	270	270	271	272	275	279	280	280	280	280	280	280	281	284	286	286	288	288	290
267	264	260	251	249	249	248	246	244	245	245	247	247	246	245	244	244	244	245	250	250	250	250	250	250	250	251	252	253	253	254	254	255	256	257	258	260	260	260	261	262	261	260	260	260	260	260	260	260	260	260	260	260	260	260	261	265	269	269	270	270	270	270	270	270	270	271	273	277	278	279	280	280	280	280	280	280	283	284	286	290	291
276	272	266	259	251	249	249	249	247	247	247	248	248	248	247	246	246	246	247	250	250	250	250	250	250	251	252	253	254	255	255	256	256	257	258	259	260	260	262	262	263	262	262	261	261	260	260	260	260	260	260	260	260	260	260	261	263	267	268	269	269	270	270	270	270	270	270	271	273	275	277	279	279	279	279	279	280	284	285	288	294	300
286	281	274	264	255	250	250	249	249	248	248	250	250	249	249	248	247	247	248	250	250	250	250	250	250	253	254	255	256	256	257	257	258	259	260	261	261	260	264	264	265	264	265	265	265	264	265	265	264	264	263	262	262	263	262	270	270	270	269	270	270	270	270	270	270	270	270	270	272	274	276	278	278	278	279	279	280	281	280	281	281	286
294	288	282	272	259	252	249	249	248	249	250	250	254	254	252	250	249	249	249	250	250	251	252	252	252	256	257	257	258	258	258	259	259	260	262	263	262	261	266	267	268	267	268	268	269	269	270	270	269	268	267	266	266	266	265	270	270	270	270	270	270	270	270	270	270	270	271	272	273	275	276	278	278	279	279	279	280	280	280	280	280	281
308	300	288	281	266	255	251	249	248	248	250	254	260	262	260	257	255	253	252	253	254	254	254	254	254	258	259	259	259	260	260	260	262	266	269	269	267	265	268	269	270	270	271	272	272	273	274	274	273	273	272	271	271	270	269	270	270	270	270	270	270	270	270	270	270	270	271	272	274	275	276	277	278	278	279	279	280	280	280	280	280	280
318	313	303	289	277	259	253	250	248	248	249	258	260	269	269	267	264	263	262	259	258	257	257	257	258	260	262	264	265	266	266	270	282	286	285	283	280	278	274	276	277	277	278	279	279	279	279	279	278	278	278	278	277	277	277	276	274	272	271	271	271	270	271	271	270	272	274	280	280	280	280	280	280	280	280	280	280	280	280	280	280	280
333	324	317	300	287	265	258	252	248	248	248	256	267	270	271	272	270	270	269	266	263	261	260	262	268	273	275	275	277	278	287	291	300	300	299	296	296	294	295	294	293	295	296	296	295	294	292	290	289	286	286	287	288	287	285	283	280	278	275	274	274	272	273	273	271	274	275	280	280	280	280	280	280	280	280	280	280	280	280	280	280	280
344	332	326	312	294	277	264	256	248	248	248	250	263	270	271	272	270	270	270	270	269	267	267	271	280	282	282	283	290	291	292	297	301	302	303	310	310	310	310	310	318	321	322	320	317	314	312	312	312	308	304	301	299	296	294	290	287	281	278	278	278	276	276	275	273	276	277	280	280	280	280	280	280	280	280	280	280	280	280	280	280	280
353	337	330	322	301	283	273	263	250	248	248	249	258	268	271	272	271	271	271	272	272	270	271	280	282	283	283	283	287	287	287	289	293	301	304	310	311	312	314	319	324	329	331	332	338	340	340	337	335	334	332	327	323	320	310	302	296	294	293	293	292	290	283	279	277	278	278	280	280	280	280	280	280	280	280	280	280	280	280	280	280	280
347	336	332	323	307	290	280	271	255	248	248	248	253	263	270	271	271	272	271	273	273	273	276	280	280	281	281	280	275	279	279	279	279	283	296	303	302	304	311	320	325	330	334	338	341	343	345	349	351	354	356	355	352	350	343	334	328	316	310	306	303	299	295	289	280	279	279	280	280	280	280	280	280	280	280	280	280	280	280	280	280	280
337	333	331	319	309	301	288	280	262	250	248	248	249	258	266	270	270	271	271	272	271	270	271	276	279	280	276	270	270	278	279	280	280	279	279	286	291	293	300	311	322	328	331	333	339	342	347	353	356	361	364	370	371	366	358	350	337	328	325	321	320	315	307	298	291	283	280	280	280	280	280	280	280	280	280	280	280	280	280	280	280	280
334	329	317	312	309	302	295	287	270	256	249	248	248	249	260	265	270	270	270	270	269	267	268	270	271	269	269	269	276	281	288	290	289	287	285	288	288	289	290	300	310	319	323	326	330	335	339	351	357	361	364	370	372	371	367	359	350	339	338	342	338	333	328	316	300	291	286	282	283	283	283	283	281	280	280	280	280	280	280	280	280	280
331	310	303	301	301	300	296	291	278	262	250	248	248	248	249	259	261	269	270	267	263	261	261	262	264	268	270	272	281	289	291	292	300	299	296	294	292	290	289	293	299	308	312	315	319	326	333	337	348	354	359	364	370	372	372	370	362	358	357	358	357	352	340	332	316	298	289	286	286	287	288	288	287	285	283	280	280	280	280	280	280	280
323	302	292	290	292	293	291	290	281	267	253	250	249	248	249	251	258	260	262	260	260	260	260	260	260	264	269	273	279	283	292	298	301	302	302	301	304	304	304	307	306	310	309	310	310	311	323	331	338	345	351	356	362	370	371	372	373	373	371	372	369	363	352	340	328	305	290	287	288	291	293	294	294	292	289	287	284	281	280	280	280	280
318	301	289	288	281	284	285	283	277	263	255	251	250	250	250	254	257	260	260	260	260	260	260	260	260	265	268	270	273	274	279	290	296	301	304	309	311	315	319	321	321	321	321	320	319	315	319	320	329	334	341	348	356	365	372	375	378	380	381	382	378	371	359	344	332	312	290	288	291	296	300	303	304	302	298	295	290	287	283	282	280	280
323	309	296	288	280	279	279	276	268	260	256	254	252	253	253	260	260	260	260	260	260	260	260	263	266	268	270	269	269	269	269	272	281	293	301	309	314	321	328	332	334	335	333	330	328	326	324	323	328	329	331	337	349	357	370	374	380	383	389	390	384	380	368	345	333	315	292	289	294	304	316	328	327	320	312	304	298	293	289	287	284	282
333	321	309	298	287	281	278	272	267	260	259	259	260	259	258	260	260	260	260	260	260	260	264	273	281	279	273	270	269	269	269	269	270	279	293	305	313	325	333	338	341	341	341	340	339	339	338	336	334	331	338	339	340	348	358	370	379	384	390	391	388	379	368	344	331	315	295	290	297	313	331	338	340	339	330	318	309	302	295	290	288	287
339	334	324	310	295	285	282	280	272	271	278	282	282	278	272	263	260	260	260	260	260	260	262	274	282	285	284	279	276	271	269	269	269	272	283	296	309	326	335	340	342	342	341	341	347	350	351	352	350	347	345	342	344	349	350	362	370	380	389	391	383	374	363	342	327	313	300	295	300	314	336	341	343	343	343	336	323	312	304	297	291	289
341	336	331	315	303	288	283	280	278	287	293	296	298	298	293	285	270	260	260	260	260	260	260	270	284	290	292	291	287	283	280	276	272	277	279	287	304	321	333	340	341	337	334	339	350	354	360	361	362	360	355	352	354	353	359	360	367	372	378	374	378	371	356	337	323	312	302	297	299	308	340	340	342	343	343	341	340	328	317	304	298	292
335	330	326	316	306	292	288	285	288	294	300	307	311	311	302	296	286	270	260	260	260	260	260	265	281	290	293	297	298	298	294	286	280	280	280	281	298	314	327	332	329	323	326	331	343	351	355	358	358	354	351	358	360	364	364	364	369	369	371	371	371	360	344	331	326	319	309	300	298	301	318	327	333	340	340	340	341	340	333	320	306	298
328	325	321	315	308	300	294	292	297	305	311	311	312	311	310	302	293	284	266	260	260	260	260	262	279	294	299	302	305	307	308	302	288	280	280	280	287	305	317	321	318	311	319	325	333	342	346	348	348	347	349	354	362	370	370	370	370	369	370	371	368	356	341	339	332	329	322	312	299	299	307	314	321	325	330	337	340	341	340	335	322	311
321	318	315	311	309	300	300	300	308	310	311	310	310	310	306	302	299	292	280	260	260	260	260	260	278	295	302	308	312	314	313	310	301	285	280	280	280	293	304	308	306	302	311	320	326	332	336	339	341	341	347	351	364	370	370	370	370	369	370	371	370	364	358	352	346	340	337	325	309	301	310	309	311	315	320	325	333	336	338	340	332	323
309	310	308	308	302	302	305	308	310	310	310	306	306	306	301	301	299	294	286	268	260	260	260	260	280	296	305	312	320	322	321	316	308	295	280	280	280	281	290	292	292	294	303	313	317	321	326	326	324	329	341	349	363	370	370	370	369	363	370	374	380	378	372	369	365	357	346	339	322	313	310	309	309	310	312	319	318	325	330	333	332	331
309	302	299	300	300	303	307	309	310	310	309	301	300	301	300	298	291	291	287	273	260	260	260	260	280	295	306	317	325	330	330	322	312	302	289	280	280	280	281	285	287	288	290	301	305	309	314	316	319	329	343	352	361	369	370	369	356	358	368	380	380	380	380	380	376	371	362	350	338	328	323	320	315	310	310	317	318	319	328	330	332	333
313	303	299	300	297	301	303	309	310	310	308	299	295	290	290	290	290	286	281	272	260	260	260	260	276	294	305	318	328	330	330	330	317	307	295	280	280	280	281	288	289	290	294	297	298	299	302	308	317	332	342	353	357	361	360	355	347	349	364	379	380	380	380	381	381	380	374	365	354	343	335	330	325	319	314	321	330	332	334	336	338	337
318	312	299	291	290	295	300	305	310	310	310	301	295	290	286	279	279	279	275	264	260	260	260	261	274	294	305	315	326	330	330	330	320	310	297	281	280	282	290	298	310	313	310	306	299	298	299	300	314	332	339	350	352	353	350	348	341	349	358	369	380	380	380	380	381	380	381	376	369	360	350	338	331	323	319	330	337	341	343	344	341	337
321	317	309	298	289	288	291	301	310	311	310	302	297	292	290	282	279	276	268	260	260	260	260	261	274	295	305	313	322	330	330	325	317	309	297	283	280	288	303	316	324	330	331	324	319	311	304	302	310	330	336	341	346	347	343	340	340	342	349	359	365	369	370	372	380	380	388	386	380	374	364	354	339	328	319	332	340	349	354	357	352	346
321	320	314	301	285	281	285	292	302	309	303	300	294	291	292	289	283	280	274	260	260	260	260	261	275	293	302	309	318	322	324	320	315	307	296	284	280	292	310	321	330	334	338	338	332	325	319	312	308	320	330	336	341	341	337	331	340	340	347	351	355	356	357	364	378	384	390	390	392	386	378	367	356	337	325	331	346	359	363	367	365	360
320	320	319	304	290	279	280	286	298	301	296	290	287	286	285	280	282	280	274	262	260	260	260	263	274	285	295	305	312	321	322	319	315	308	298	290	280	291	310	321	333	339	340	340	341	334	328	323	313	309	318	323	328	330	329	329	338	338	341	347	349	349	350	356	371	381	389	397	401	401	390	382	364	351	328	330	348	363	369	378	379	370
320	320	319	302	290	279	279	279	287	286	281	278	273	270	270	271	271	271	266	260	260	260	260	264	271	279	289	302	311	320	321	319	316	311	301	294	288	289	303	317	333	340	341	340	341	337	334	330	326	320	319	319	319	325	331	339	347	352	352	352	352	351	352	359	366	377	386	396	409	411	404	390	376	357	337	329	343	363	371	382	390	389
319	319	310	301	290	280	279	277	276	275	272	267	261	260	260	260	260	260	260	260	260	260	260	266	271	277	289	302	310	314	319	315	315	313	307	298	292	289	296	310	327	333	340	339	339	336	338	338	336	332	325	320	319	327	336	352	358	364	367	367	366	366	366	364	368	375	380	391	410	413	411	398	383	363	346	330	341	357	371	381	391	391
310	309	306	300	290	280	276	272	269	267	260	260	260	260	260	260	260	260	260	260	260	260	264	269	279	282	291	303	308	311	315	316	319	320	315	304	296	290	289	300	318	327	333	332	337	339	340	344	344	343	337	328	327	332	341	355	369	380	384	384	384	382	382	383	385	385	390	390	407	415	412	402	386	366	352	336	339	354	368	376	390	390
300	301	301	298	289	280	274	270	269	269	260	261	262	262	261	260	260	260	260	261	262	266	272	281	287	291	300	302	304	309	312	317	320	321	319	310	301	294	289	289	302	313	314	319	332	340	344	349	350	354	351	342	333	339	341	352	367	383	391	392	400	403	403	400	398	395	393	398	411	419	410	403	385	366	355	340	338	352	365	373	384	390
290	293	295	291	287	279	273	270	269	270	262	266	267	267	265	264	262	260	262	264	269	271	285	293	298	301	301	300	299	304	310	318	320	320	319	314	310	301	290	289	289	301	310	319	333	341	348	352	354	360	359	354	342	338	339	346	357	370	390	396	406	411	418	416	413	412	410	420	424	421	416	403	382	368	357	344	339	347	362	370	377	386
282	287	290	290	283	274	270	270	269	270	268	269	271	272	270	268	267	264	266	268	270	281	292	301	302	301	298	295	299	303	309	317	320	320	319	317	316	311	303	294	290	300	306	324	335	342	345	350	352	359	360	361	354	341	338	340	351	363	382	390	402	412	421	422	422	422	430	430	430	430	416	403	387	374	366	350	340	344	356	366	372	379
277	279	282	282	276	270	269	269	269	270	270	270	274	278	276	272	269	268	268	270	272	282	290	297	300	293	289	288	291	302	307	311	318	318	317	320	322	322	316	302	298	300	303	325	336	341	341	345	349	356	360	365	362	354	345	340	350	358	371	385	394	405	413	418	421	429	431	430	430	430	419	410	396	386	376	367	354	349	349	360	366	372
270	270	271	271	269	268	268	267	267	270	270	273	280	280	280	280	274	270	269	270	271	277	283	286	284	283	282	281	289	294	301	305	309	310	317	320	325	327	322	311	300	298	302	322	333	340	339	339	340	350	362	370	370	366	359	352	350	350	363	376	386	391	397	407	416	427	431	430	430	430	422	413	404	395	387	376	367	359	350	349	358	361
270	270	270	270	266	265	264	264	265	270	270	275	280	280	280	287	281	274	270	269	270	270	270	273	279	279	278	279	283	287	292	300	304	309	317	325	330	330	330	319	307	299	299	311	323	329	329	332	338	347	363	370	370	370	370	362	356	350	357	365	370	380	387	397	409	419	424	422	420	420	420	412	411	401	395	390	377	372	368	359	359	360
270	270	270	270	263	262	261	261	262	270	270	272	281	286	290	290	290	285	278	271	270	271	271	272	279	280	283	284	290	287	289	295	304	310	318	328	330	330	330	323	313	303	299	301	310	319	325	330	339	348	362	370	370	370	370	368	365	359	360	361	368	376	386	396	408	413	415	412	407	403	406	410	411	411	404	398	392	383	378	374	368	360
266	264	263	261	260	260	260	260	260	263	266	269	278	285	290	290	290	290	290	285	280	280	280	282	289	298	297	293	290	293	295	298	301	309	316	326	330	330	330	325	318	312	299	298	300	311	323	330	343	353	362	367	370	370	370	370	370	370	370	369	370	375	386	395	399	401	401	396	390	390	390	400	410	410	410	409	402	395	388	382	373	369

