^D:\FINAL-PROJECT\TERRAINOPTIMALCOVERAGE\FRMABOUT.RESX|D:\FINAL-PROJECT\TERRAINOPTIMALCOVERAGE\MDIMAIN.RESX|D:\FINAL-PROJECT\TERRAINOPTIMALCOVERAGE\PROPERTIES\RESOURCES.RESX
D:\FINAL-PROJECT\TERRAINOPTIMALCOVERAGE\OBJ\X86\DEBUG\TERRAINOPTIMALCOVERAGE.FRMABOUT.RESOURCES
D:\FINAL-PROJECT\TERRAINOPTIMALCOVERAGE\OBJ\X86\DEBUG\TERRAINOPTIMALCOVERAGE.MDIMAIN.RESOURCES
D:\FINAL-PROJECT\TERRAINOPTIMALCOVERAGE\OBJ\X86\DEBUG\TERRAINOPTIMALCOVERAGE.PROPERTIES.RESOURCES.RESOURCES
^D:\FINAL-PROJECT\TERRAINOPTIMALCOVERAGE\FRMABOUT.RESX|D:\FINAL-PROJECT\TERRAINOPTIMALCOVERAGE\FRMMAP.RESX|D:\FINAL-PROJECT\TERRAINOPTIMALCOVERAGE\MDIMAIN.RESX|D:\FINAL-PROJECT\TERRAINOPTIMALCOVERAGE\PROPERTIES\RESOURCES.RESX
D:\FINAL-PROJECT\TERRAINOPTIMALCOVERAGE\OBJ\X86\DEBUG\TERRAINOPTIMALCOVERAGE.FRMABOUT.RESOURCES
D:\FINAL-PROJECT\TERRAINOPTIMALCOVERAGE\OBJ\X86\DEBUG\TERRAINOPTIMALCOVERAGE.FRMMAP.RESOURCES
D:\FINAL-PROJECT\TERRAINOPTIMALCOVERAGE\OBJ\X86\DEBUG\TERRAINOPTIMALCOVERAGE.MDIMAIN.RESOURCES
D:\FINAL-PROJECT\TERRAINOPTIMALCOVERAGE\OBJ\X86\DEBUG\TERRAINOPTIMALCOVERAGE.PROPERTIES.RESOURCES.RESOURCES
^D:\FINAL-PROJECT\TERRAINOPTIMALCOVERAGE\FORM1.RESX|D:\FINAL-PROJECT\TERRAINOPTIMALCOVERAGE\FRMABOUT.RESX|D:\FINAL-PROJECT\TERRAINOPTIMALCOVERAGE\FRMMAP.RESX|D:\FINAL-PROJECT\TERRAINOPTIMALCOVERAGE\MDIMAIN.RESX|D:\FINAL-PROJECT\TERRAINOPTIMALCOVERAGE\PROPERTIES\RESOURCES.RESX
D:\FINAL-PROJECT\TERRAINOPTIMALCOVERAGE\OBJ\X86\DEBUG\TERRAINOPTIMALCOVERAGE.FORM1.RESOURCES
D:\FINAL-PROJECT\TERRAINOPTIMALCOVERAGE\OBJ\X86\DEBUG\TERRAINOPTIMALCOVERAGE.FRMABOUT.RESOURCES
D:\FINAL-PROJECT\TERRAINOPTIMALCOVERAGE\OBJ\X86\DEBUG\TERRAINOPTIMALCOVERAGE.FRMMAP.RESOURCES
D:\FINAL-PROJECT\TERRAINOPTIMALCOVERAGE\OBJ\X86\DEBUG\TERRAINOPTIMALCOVERAGE.MDIMAIN.RESOURCES
D:\FINAL-PROJECT\TERRAINOPTIMALCOVERAGE\OBJ\X86\DEBUG\TERRAINOPTIMALCOVERAGE.PROPERTIES.RESOURCES.RESOURCES
^D:\FINAL-PROJECT\TERRAINOPTIMALCOVERAGE\FRMABOUT.RESX|D:\FINAL-PROJECT\TERRAINOPTIMALCOVERAGE\FRMMAP.RESX|D:\FINAL-PROJECT\TERRAINOPTIMALCOVERAGE\MDIMAIN.RESX|D:\FINAL-PROJECT\TERRAINOPTIMALCOVERAGE\PROPERTIES\RESOURCES.RESX|D:\FINAL-PROJECT\TERRAINOPTIMALCOVERAGE\TEST.RESX
D:\FINAL-PROJECT\TERRAINOPTIMALCOVERAGE\OBJ\X86\DEBUG\TERRAINOPTIMALCOVERAGE.FRMABOUT.RESOURCES
D:\FINAL-PROJECT\TERRAINOPTIMALCOVERAGE\OBJ\X86\DEBUG\TERRAINOPTIMALCOVERAGE.FRMMAP.RESOURCES
D:\FINAL-PROJECT\TERRAINOPTIMALCOVERAGE\OBJ\X86\DEBUG\TERRAINOPTIMALCOVERAGE.MDIMAIN.RESOURCES
D:\FINAL-PROJECT\TERRAINOPTIMALCOVERAGE\OBJ\X86\DEBUG\TERRAINOPTIMALCOVERAGE.PROPERTIES.RESOURCES.RESOURCES
D:\FINAL-PROJECT\TERRAINOPTIMALCOVERAGE\OBJ\X86\DEBUG\TERRAINOPTIMALCOVERAGE.TEST.RESOURCES
^C:\USERS\YOAV\DESKTOP\TERRAINOPTIMALCOVERAGEMY\FRMABOUT.RESX|C:\USERS\YOAV\DESKTOP\TERRAINOPTIMALCOVERAGEMY\FRMMAP.RESX|C:\USERS\YOAV\DESKTOP\TERRAINOPTIMALCOVERAGEMY\MDIMAIN.RESX|C:\USERS\YOAV\DESKTOP\TERRAINOPTIMALCOVERAGEMY\PROPERTIES\RESOURCES.RESX|C:\USERS\YOAV\DESKTOP\TERRAINOPTIMALCOVERAGEMY\TEST.RESX
C:\USERS\YOAV\DESKTOP\TERRAINOPTIMALCOVERAGEMY\OBJ\X86\DEBUG\TERRAINOPTIMALCOVERAGE.FRMABOUT.RESOURCES
C:\USERS\YOAV\DESKTOP\TERRAINOPTIMALCOVERAGEMY\OBJ\X86\DEBUG\TERRAINOPTIMALCOVERAGE.FRMMAP.RESOURCES
C:\USERS\YOAV\DESKTOP\TERRAINOPTIMALCOVERAGEMY\OBJ\X86\DEBUG\TERRAINOPTIMALCOVERAGE.MDIMAIN.RESOURCES
C:\USERS\YOAV\DESKTOP\TERRAINOPTIMALCOVERAGEMY\OBJ\X86\DEBUG\TERRAINOPTIMALCOVERAGE.PROPERTIES.RESOURCES.RESOURCES
C:\USERS\YOAV\DESKTOP\TERRAINOPTIMALCOVERAGEMY\OBJ\X86\DEBUG\TERRAINOPTIMALCOVERAGE.TEST.RESOURCES
^D:\MYFINAL-PROJECT\TERRAINOPTIMALCOVERAGEMY\FRMABOUT.RESX|D:\MYFINAL-PROJECT\TERRAINOPTIMALCOVERAGEMY\FRMMAP.RESX|D:\MYFINAL-PROJECT\TERRAINOPTIMALCOVERAGEMY\MDIMAIN.RESX|D:\MYFINAL-PROJECT\TERRAINOPTIMALCOVERAGEMY\PROPERTIES\RESOURCES.RESX|D:\MYFINAL-PROJECT\TERRAINOPTIMALCOVERAGEMY\TEST.RESX
D:\MYFINAL-PROJECT\TERRAINOPTIMALCOVERAGEMY\OBJ\X86\DEBUG\TERRAINOPTIMALCOVERAGE.FRMABOUT.RESOURCES
D:\MYFINAL-PROJECT\TERRAINOPTIMALCOVERAGEMY\OBJ\X86\DEBUG\TERRAINOPTIMALCOVERAGE.FRMMAP.RESOURCES
D:\MYFINAL-PROJECT\TERRAINOPTIMALCOVERAGEMY\OBJ\X86\DEBUG\TERRAINOPTIMALCOVERAGE.MDIMAIN.RESOURCES
D:\MYFINAL-PROJECT\TERRAINOPTIMALCOVERAGEMY\OBJ\X86\DEBUG\TERRAINOPTIMALCOVERAGE.PROPERTIES.RESOURCES.RESOURCES
D:\MYFINAL-PROJECT\TERRAINOPTIMALCOVERAGEMY\OBJ\X86\DEBUG\TERRAINOPTIMALCOVERAGE.TEST.RESOURCES
^I:\MYFINAL-PROJECT\TERRAINOPTIMALCOVERAGEMY\FRMABOUT.RESX|I:\MYFINAL-PROJECT\TERRAINOPTIMALCOVERAGEMY\FRMMAP.RESX|I:\MYFINAL-PROJECT\TERRAINOPTIMALCOVERAGEMY\MDIMAIN.RESX|I:\MYFINAL-PROJECT\TERRAINOPTIMALCOVERAGEMY\PROPERTIES\RESOURCES.RESX|I:\MYFINAL-PROJECT\TERRAINOPTIMALCOVERAGEMY\TEST.RESX
I:\MYFINAL-PROJECT\TERRAINOPTIMALCOVERAGEMY\OBJ\X86\DEBUG\TERRAINOPTIMALCOVERAGE.FRMABOUT.RESOURCES
I:\MYFINAL-PROJECT\TERRAINOPTIMALCOVERAGEMY\OBJ\X86\DEBUG\TERRAINOPTIMALCOVERAGE.FRMMAP.RESOURCES
I:\MYFINAL-PROJECT\TERRAINOPTIMALCOVERAGEMY\OBJ\X86\DEBUG\TERRAINOPTIMALCOVERAGE.MDIMAIN.RESOURCES
I:\MYFINAL-PROJECT\TERRAINOPTIMALCOVERAGEMY\OBJ\X86\DEBUG\TERRAINOPTIMALCOVERAGE.PROPERTIES.RESOURCES.RESOURCES
I:\MYFINAL-PROJECT\TERRAINOPTIMALCOVERAGEMY\OBJ\X86\DEBUG\TERRAINOPTIMALCOVERAGE.TEST.RESOURCES
^D:\MY-FINAL-PROJECT\TERRAINOPTIMALCOVERAGEMY\FRMABOUT.RESX|D:\MY-FINAL-PROJECT\TERRAINOPTIMALCOVERAGEMY\FRMMAP.RESX|D:\MY-FINAL-PROJECT\TERRAINOPTIMALCOVERAGEMY\MDIMAIN.RESX|D:\MY-FINAL-PROJECT\TERRAINOPTIMALCOVERAGEMY\PROPERTIES\RESOURCES.RESX|D:\MY-FINAL-PROJECT\TERRAINOPTIMALCOVERAGEMY\TEST.RESX
D:\MY-FINAL-PROJECT\TERRAINOPTIMALCOVERAGEMY\OBJ\X86\DEBUG\TERRAINOPTIMALCOVERAGE.FRMABOUT.RESOURCES
D:\MY-FINAL-PROJECT\TERRAINOPTIMALCOVERAGEMY\OBJ\X86\DEBUG\TERRAINOPTIMALCOVERAGE.FRMMAP.RESOURCES
D:\MY-FINAL-PROJECT\TERRAINOPTIMALCOVERAGEMY\OBJ\X86\DEBUG\TERRAINOPTIMALCOVERAGE.MDIMAIN.RESOURCES
D:\MY-FINAL-PROJECT\TERRAINOPTIMALCOVERAGEMY\OBJ\X86\DEBUG\TERRAINOPTIMALCOVERAGE.PROPERTIES.RESOURCES.RESOURCES
D:\MY-FINAL-PROJECT\TERRAINOPTIMALCOVERAGEMY\OBJ\X86\DEBUG\TERRAINOPTIMALCOVERAGE.TEST.RESOURCES
^C:\USERS\S2568451\DESKTOP\TERRAINOPTIMALCOVERAGEMY\TERRAINOPTIMALCOVERAGEMY\FRMABOUT.RESX|C:\USERS\S2568451\DESKTOP\TERRAINOPTIMALCOVERAGEMY\TERRAINOPTIMALCOVERAGEMY\FRMMAP.RESX|C:\USERS\S2568451\DESKTOP\TERRAINOPTIMALCOVERAGEMY\TERRAINOPTIMALCOVERAGEMY\MDIMAIN.RESX|C:\USERS\S2568451\DESKTOP\TERRAINOPTIMALCOVERAGEMY\TERRAINOPTIMALCOVERAGEMY\PROPERTIES\RESOURCES.RESX|C:\USERS\S2568451\DESKTOP\TERRAINOPTIMALCOVERAGEMY\TERRAINOPTIMALCOVERAGEMY\TEST.RESX
C:\USERS\S2568451\DESKTOP\TERRAINOPTIMALCOVERAGEMY\TERRAINOPTIMALCOVERAGEMY\OBJ\X86\DEBUG\TERRAINOPTIMALCOVERAGE.FRMABOUT.RESOURCES
C:\USERS\S2568451\DESKTOP\TERRAINOPTIMALCOVERAGEMY\TERRAINOPTIMALCOVERAGEMY\OBJ\X86\DEBUG\TERRAINOPTIMALCOVERAGE.FRMMAP.RESOURCES
C:\USERS\S2568451\DESKTOP\TERRAINOPTIMALCOVERAGEMY\TERRAINOPTIMALCOVERAGEMY\OBJ\X86\DEBUG\TERRAINOPTIMALCOVERAGE.MDIMAIN.RESOURCES
C:\USERS\S2568451\DESKTOP\TERRAINOPTIMALCOVERAGEMY\TERRAINOPTIMALCOVERAGEMY\OBJ\X86\DEBUG\TERRAINOPTIMALCOVERAGE.PROPERTIES.RESOURCES.RESOURCES
C:\USERS\S2568451\DESKTOP\TERRAINOPTIMALCOVERAGEMY\TERRAINOPTIMALCOVERAGEMY\OBJ\X86\DEBUG\TERRAINOPTIMALCOVERAGE.TEST.RESOURCES
^U:\MYFINAL-PROJECT\TERRAINOPTIMALCOVERAGEMY\TERRAINOPTIMALCOVERAGEMY\FRMABOUT.RESX|U:\MYFINAL-PROJECT\TERRAINOPTIMALCOVERAGEMY\TERRAINOPTIMALCOVERAGEMY\FRMMAP.RESX|U:\MYFINAL-PROJECT\TERRAINOPTIMALCOVERAGEMY\TERRAINOPTIMALCOVERAGEMY\MDIMAIN.RESX|U:\MYFINAL-PROJECT\TERRAINOPTIMALCOVERAGEMY\TERRAINOPTIMALCOVERAGEMY\PROPERTIES\RESOURCES.RESX|U:\MYFINAL-PROJECT\TERRAINOPTIMALCOVERAGEMY\TERRAINOPTIMALCOVERAGEMY\TEST.RESX
U:\MYFINAL-PROJECT\TERRAINOPTIMALCOVERAGEMY\TERRAINOPTIMALCOVERAGEMY\OBJ\X86\DEBUG\TERRAINOPTIMALCOVERAGE.FRMABOUT.RESOURCES
U:\MYFINAL-PROJECT\TERRAINOPTIMALCOVERAGEMY\TERRAINOPTIMALCOVERAGEMY\OBJ\X86\DEBUG\TERRAINOPTIMALCOVERAGE.FRMMAP.RESOURCES
U:\MYFINAL-PROJECT\TERRAINOPTIMALCOVERAGEMY\TERRAINOPTIMALCOVERAGEMY\OBJ\X86\DEBUG\TERRAINOPTIMALCOVERAGE.MDIMAIN.RESOURCES
U:\MYFINAL-PROJECT\TERRAINOPTIMALCOVERAGEMY\TERRAINOPTIMALCOVERAGEMY\OBJ\X86\DEBUG\TERRAINOPTIMALCOVERAGE.PROPERTIES.RESOURCES.RESOURCES
U:\MYFINAL-PROJECT\TERRAINOPTIMALCOVERAGEMY\TERRAINOPTIMALCOVERAGEMY\OBJ\X86\DEBUG\TERRAINOPTIMALCOVERAGE.TEST.RESOURCES
^D:\MY-FINAL-PROJECT\TERRAINOPTIMALCOVERAGEMY\TERRAINOPTIMALCOVERAGEMY\FRMABOUT.RESX|D:\MY-FINAL-PROJECT\TERRAINOPTIMALCOVERAGEMY\TERRAINOPTIMALCOVERAGEMY\FRMMAP.RESX|D:\MY-FINAL-PROJECT\TERRAINOPTIMALCOVERAGEMY\TERRAINOPTIMALCOVERAGEMY\MDIMAIN.RESX|D:\MY-FINAL-PROJECT\TERRAINOPTIMALCOVERAGEMY\TERRAINOPTIMALCOVERAGEMY\PROPERTIES\RESOURCES.RESX|D:\MY-FINAL-PROJECT\TERRAINOPTIMALCOVERAGEMY\TERRAINOPTIMALCOVERAGEMY\TEST.RESX
D:\MY-FINAL-PROJECT\TERRAINOPTIMALCOVERAGEMY\TERRAINOPTIMALCOVERAGEMY\OBJ\X86\DEBUG\TERRAINOPTIMALCOVERAGE.FRMABOUT.RESOURCES
D:\MY-FINAL-PROJECT\TERRAINOPTIMALCOVERAGEMY\TERRAINOPTIMALCOVERAGEMY\OBJ\X86\DEBUG\TERRAINOPTIMALCOVERAGE.FRMMAP.RESOURCES
D:\MY-FINAL-PROJECT\TERRAINOPTIMALCOVERAGEMY\TERRAINOPTIMALCOVERAGEMY\OBJ\X86\DEBUG\TERRAINOPTIMALCOVERAGE.MDIMAIN.RESOURCES
D:\MY-FINAL-PROJECT\TERRAINOPTIMALCOVERAGEMY\TERRAINOPTIMALCOVERAGEMY\OBJ\X86\DEBUG\TERRAINOPTIMALCOVERAGE.PROPERTIES.RESOURCES.RESOURCES
D:\MY-FINAL-PROJECT\TERRAINOPTIMALCOVERAGEMY\TERRAINOPTIMALCOVERAGEMY\OBJ\X86\DEBUG\TERRAINOPTIMALCOVERAGE.TEST.RESOURCES
