ncols         134
nrows         134
xllcorner     100000.188
yllcorner     1090025.188
cellsize          74.62406015037593900
NODATA_value  -9999
80.0 80.0 69.5 68.2 66.9 65.6 64.3 63.1 61.8 60.6 60.0 60.0 60.0 60.0 60.0 60.0 60.0 60.0 60.0 60.0 60.0 60.0 60.0 60.0 60.0 60.0 60.0 60.0 60.0 60.0 60.0 60.0 60.0 60.0 60.0 60.0 60.0 60.0 60.0 60.0 60.0 60.0 60.0 60.0 60.0 60.0 60.0 60.0 60.0 60.0 60.0 60.0 60.0 60.0 60.4 61.4 62.3 63.3 64.3 65.2 66.2 67.2 68.2 69.1 70.1 70.0 70.0 70.0 70.0 70.0 70.0 70.0 70.0 70.0 70.0 70.0 70.0 70.0 70.0 70.0 70.0 70.5 70.1 70.0 70.0 70.0 70.0 70.0 70.0 70.0 70.0 70.0 70.0 70.0 70.0 70.0 70.0 70.0 70.0 70.0 70.0 70.0 70.0 70.0 70.0 73.3 77.5 80.1 80.9 81.5 82.1 82.8 83.4 84.1 84.7 85.4 86.0 86.5 87.2 87.8 88.5 89.1 89.7 90.0 90.0 90.0 90.0 90.0 90.1 91.2 92.3 93.4 94.5 95.6
80.0 80.0 72.5 69.2 67.6 66.0 64.4 62.9 61.3 60.0 60.0 60.0 60.0 60.0 60.0 60.0 60.0 60.0 60.0 60.0 60.0 60.0 60.0 60.0 60.0 60.0 60.0 60.0 60.0 60.0 60.0 60.0 60.0 60.0 60.0 60.0 60.0 60.0 60.0 60.0 60.0 60.0 60.0 60.0 60.0 60.0 60.0 60.0 60.0 60.0 60.0 60.0 60.0 60.0 61.0 61.9 63.0 64.0 65.0 66.0 67.0 68.1 69.1 70.2 71.7 73.6 75.3 77.0 78.7 80.1 80.7 80.2 80.0 80.0 80.1 81.1 80.1 79.1 78.2 77.5 76.6 74.6 71.5 73.3 73.1 72.2 71.3 70.5 70.0 70.0 70.0 70.0 70.0 70.0 70.0 70.0 70.0 70.0 70.0 70.0 70.0 70.0 70.0 70.0 72.4 79.5 80.1 80.6 81.6 82.2 82.7 83.3 83.8 84.4 84.9 85.5 86.0 86.5 87.0 87.6 88.1 88.7 89.3 89.9 90.0 89.9 90.4 90.9 92.1 93.0 93.8 94.7 95.5 96.4
78.8 76.0 70.1 69.7 67.3 65.1 62.7 60.3 60.0 60.0 60.0 60.0 60.0 60.0 60.0 60.0 60.0 60.0 60.0 60.0 60.0 60.0 60.0 60.0 60.0 60.0 60.0 60.0 60.0 60.0 60.0 60.0 60.0 60.0 60.0 60.0 60.0 60.0 60.0 60.0 60.0 60.0 60.0 60.0 60.0 60.0 60.0 60.0 60.0 60.0 60.0 60.0 60.1 60.9 62.4 63.4 64.3 65.2 66.1 67.0 67.9 68.8 69.7 71.4 73.1 75.1 76.9 78.7 80.2 80.9 81.1 80.3 80.0 80.0 80.9 81.3 80.1 79.2 78.4 77.6 76.7 77.2 72.8 73.8 73.4 72.5 72.1 71.1 70.1 70.0 70.0 70.0 70.0 70.0 70.0 70.0 70.0 70.0 70.0 70.0 70.0 70.0 70.0 70.0 73.3 79.0 80.2 80.7 81.4 81.9 82.4 82.9 83.4 83.9 84.4 84.9 85.5 85.9 86.4 86.9 87.4 87.9 88.6 89.7 89.7 90.1 92.0 92.9 95.7 97.6 99.5 100.0 100.0 100.5
72.6 72.6 70.0 69.5 67.1 64.6 62.1 60.0 60.0 60.0 60.0 60.0 60.0 60.0 60.0 60.0 60.0 60.0 60.0 60.0 60.0 60.0 60.0 60.0 60.0 60.0 60.0 60.0 60.0 60.0 60.0 60.0 60.0 60.0 60.0 60.0 60.0 60.0 60.0 60.0 60.0 60.0 60.0 60.0 60.1 60.2 60.2 60.2 60.3 60.3 60.4 60.7 61.0 61.9 65.8 66.4 66.9 67.5 68.0 68.5 69.1 69.6 70.6 72.5 74.4 76.3 78.2 80.0 80.6 81.4 82.5 86.8 80.3 82.2 84.2 86.9 84.3 80.4 80.1 80.0 80.0 80.0 79.0 77.6 76.3 74.9 73.6 72.4 70.9 70.0 70.0 70.0 70.0 70.0 70.0 70.0 70.0 70.0 70.0 70.0 70.0 70.0 70.0 71.0 75.1 79.7 80.3 80.8 81.5 82.0 82.6 83.1 83.6 84.1 84.6 85.2 85.7 86.2 86.7 87.2 87.7 88.2 88.9 89.7 89.8 90.0 93.1 94.2 96.5 98.3 100.0 100.5 100.7 101.6
71.6 71.1 69.8 67.7 65.5 63.3 61.0 60.0 60.0 60.0 60.0 60.0 60.0 60.0 60.0 60.0 60.0 60.0 60.0 60.0 60.0 60.0 60.0 60.0 60.0 60.0 60.0 60.0 60.0 60.0 60.0 60.0 60.0 60.0 60.0 60.0 60.0 60.0 60.0 60.0 60.0 60.0 60.0 60.6 60.9 61.0 61.1 61.2 61.3 61.4 61.5 61.7 62.0 63.0 66.4 66.9 67.5 68.0 68.6 69.1 69.6 70.4 72.2 73.9 75.9 77.6 79.3 81.4 83.7 86.3 89.0 90.0 85.6 86.9 88.8 89.9 89.7 85.9 82.5 81.2 81.2 80.0 78.4 77.3 76.1 74.9 74.1 72.8 71.3 70.0 70.0 70.0 70.0 70.0 70.0 70.0 70.0 70.0 70.0 70.0 70.0 70.2 70.4 72.6 77.8 80.0 80.4 81.3 82.1 82.8 83.5 84.1 84.8 85.5 86.1 86.8 87.5 88.2 88.9 89.9 90.0 90.9 91.1 90.2 90.4 90.9 95.2 95.9 97.7 98.7 99.7 100.2 101.1 102.4
70.5 69.2 67.9 65.6 63.8 61.9 60.1 60.0 60.0 60.0 60.0 60.0 60.0 60.0 60.0 60.0 60.0 60.0 60.0 60.0 60.0 60.0 60.0 60.0 60.0 60.0 60.0 60.0 60.0 60.0 60.0 60.0 60.0 60.0 60.0 60.0 60.0 60.0 60.0 60.0 60.0 60.0 60.9 61.2 61.6 61.9 62.1 62.3 62.5 62.5 62.5 62.7 63.2 64.3 66.9 67.5 68.0 68.6 69.1 69.7 70.2 72.0 73.6 75.1 77.0 78.3 79.9 82.2 84.3 86.5 88.7 90.0 89.2 88.4 89.4 90.0 89.7 87.3 84.0 81.3 80.3 79.4 77.5 76.8 75.7 74.7 75.1 73.6 71.6 70.1 70.0 70.0 70.0 70.0 70.0 70.0 70.0 70.0 70.0 70.0 70.3 71.2 71.3 73.4 77.3 79.6 80.2 81.6 82.8 83.7 84.7 85.7 86.8 87.8 88.8 89.8 90.1 90.1 91.5 93.5 93.3 93.7 93.5 92.2 92.4 93.8 96.9 97.0 97.8 98.4 99.1 99.8 100.3 101.6
70.3 68.4 66.5 64.6 62.7 60.7 60.0 60.0 60.0 60.0 60.0 60.0 60.0 60.0 60.0 60.0 60.0 60.0 60.0 60.0 60.0 60.0 60.0 60.0 60.0 60.0 60.0 60.0 60.0 60.0 60.0 60.0 60.0 60.0 60.0 60.0 60.0 60.0 60.0 60.0 60.0 61.0 61.8 61.8 62.2 62.6 62.9 63.2 63.5 63.5 63.5 63.8 64.3 65.3 67.3 67.8 68.3 68.9 69.4 70.0 71.3 73.1 74.6 76.0 78.4 78.9 80.6 83.1 85.3 87.6 89.9 90.0 90.0 90.0 90.0 90.0 90.0 89.9 88.0 80.4 79.7 79.0 77.3 76.5 75.4 74.6 76.6 75.6 72.8 70.5 70.0 70.0 70.0 70.0 70.0 70.0 70.0 70.0 70.0 70.0 70.8 71.4 71.6 72.5 75.3 78.3 79.7 80.3 81.7 83.0 84.3 85.5 86.8 88.1 89.4 90.1 90.4 90.4 93.8 96.9 96.9 96.6 95.9 94.2 94.5 96.5 98.4 98.3 97.8 98.4 99.0 99.6 100.1 101.1
68.8 65.4 63.2 61.2 60.1 60.0 60.0 60.0 60.0 60.0 60.0 60.0 60.0 60.0 60.0 60.0 60.0 60.0 60.0 60.0 60.0 60.0 60.0 60.0 60.0 60.0 60.0 60.0 60.0 60.0 60.0 60.0 60.0 60.0 60.0 60.0 60.0 60.1 60.2 60.5 62.1 64.2 64.1 63.2 63.3 63.6 64.0 64.2 64.5 64.7 64.8 65.2 65.8 66.8 68.3 68.8 69.3 69.8 70.4 71.4 72.9 75.3 77.0 78.7 80.1 80.7 82.8 85.7 87.0 88.9 90.0 90.0 90.0 90.0 90.0 90.0 90.0 89.8 84.0 79.6 79.4 79.5 78.2 76.5 75.1 74.6 78.5 78.0 75.1 70.7 70.0 70.0 70.0 70.0 70.0 70.0 70.0 70.0 70.1 70.5 71.5 72.0 72.4 74.6 77.1 78.8 80.1 81.3 82.8 84.1 85.4 86.7 88.1 89.4 90.5 91.7 92.9 95.8 99.1 100.0 99.9 99.6 98.6 97.5 98.3 99.4 100.0 99.9 99.8 99.8 99.9 99.9 100.0 101.0
66.7 63.3 61.5 60.0 60.0 60.0 60.0 60.0 60.0 60.0 60.0 60.0 60.0 60.0 60.0 60.0 60.0 60.0 60.0 60.0 60.0 60.0 60.0 60.0 60.0 60.0 60.0 60.0 60.0 60.0 60.0 60.0 60.0 60.3 60.4 60.4 60.5 60.6 60.8 61.5 64.7 67.0 66.0 64.1 64.2 64.5 65.1 65.2 65.6 65.7 65.9 66.3 66.9 67.5 68.9 69.3 69.7 70.6 71.8 72.7 74.2 76.6 78.1 79.7 81.7 82.6 84.4 87.1 88.6 90.0 90.0 90.0 90.0 90.0 89.7 89.7 89.5 86.8 80.5 80.0 80.0 80.0 79.6 79.6 79.4 79.4 80.6 80.0 78.6 72.7 70.0 70.0 70.0 70.0 70.0 70.0 70.0 70.0 70.1 70.6 71.5 72.3 72.8 74.6 76.6 78.3 79.7 81.0 82.9 84.5 86.1 87.7 89.3 90.4 91.3 92.3 94.6 97.4 99.7 100.0 100.0 100.0 100.0 99.3 99.6 100.0 100.0 100.0 100.0 100.0 100.0 100.0 100.0 101.8
65.7 63.1 60.6 60.0 60.0 60.0 60.0 60.0 60.0 60.0 60.0 60.0 60.0 60.0 60.0 60.0 60.0 60.0 60.0 60.0 60.0 60.0 60.0 60.0 60.0 60.0 60.0 60.0 60.0 60.0 60.0 60.0 60.3 61.1 61.4 61.4 61.5 62.0 63.2 65.3 67.8 69.6 69.6 69.1 68.8 68.3 67.6 67.2 67.1 67.0 67.1 67.6 68.1 68.4 69.9 69.9 70.0 71.3 72.6 73.5 74.8 77.7 78.9 79.4 81.6 83.5 85.2 88.6 89.4 90.0 90.0 90.0 90.0 89.8 89.5 89.5 89.5 89.4 86.5 81.4 81.8 82.0 81.6 82.1 83.4 84.8 85.6 81.0 80.0 76.4 71.1 70.0 70.0 70.0 70.0 70.0 70.0 70.0 70.0 70.1 71.2 72.4 73.4 74.2 74.7 77.3 78.6 81.3 84.6 86.3 87.9 89.6 90.5 91.1 91.9 94.1 96.3 98.9 99.9 100.4 100.4 100.3 100.2 100.0 100.0 100.2 100.3 100.2 100.1 100.1 101.2 101.8 101.6 107.3
65.1 62.4 60.0 60.0 60.0 60.0 60.0 60.0 60.0 60.0 60.0 60.0 60.0 60.0 60.0 60.0 60.0 60.0 60.0 60.0 60.0 60.0 60.0 60.0 60.0 60.0 60.0 60.0 60.0 60.0 60.0 60.0 60.9 61.8 62.2 62.5 62.9 64.2 66.2 68.3 69.9 70.0 70.0 69.8 69.3 68.7 68.0 67.8 67.7 67.8 67.8 68.2 68.7 69.0 70.0 70.0 71.2 73.2 74.4 76.0 78.0 79.8 80.5 80.4 85.2 86.5 88.6 90.1 90.4 90.0 90.0 90.0 90.0 89.9 89.9 89.9 89.9 89.9 87.7 84.4 85.2 85.5 85.3 86.8 88.0 89.8 90.1 85.4 80.9 76.5 72.3 70.0 70.0 70.0 70.0 70.0 70.0 70.0 70.0 70.0 70.4 71.4 72.2 72.8 74.2 76.9 78.3 79.9 82.3 84.7 87.1 89.4 90.2 90.9 92.5 93.8 96.1 99.3 100.2 100.5 100.6 100.7 100.5 100.1 100.1 100.4 100.5 100.5 100.6 100.6 103.3 104.8 104.9 108.3
63.8 61.3 60.0 60.0 60.0 60.0 60.0 60.0 60.0 60.0 60.0 60.0 60.0 60.0 60.0 60.0 60.0 60.0 60.0 60.0 60.0 60.0 60.0 60.0 60.0 60.0 60.0 60.0 60.0 60.0 60.0 60.4 61.6 62.5 63.0 63.3 64.3 65.9 67.7 69.3 70.0 70.0 70.0 69.8 69.4 68.7 68.3 68.3 68.5 68.5 68.5 68.8 69.3 69.7 70.5 71.4 72.9 74.5 75.7 77.0 78.6 80.3 81.9 82.1 86.6 87.7 89.6 90.3 90.7 90.0 90.0 90.0 90.0 90.0 90.0 90.0 90.0 90.0 88.2 86.8 87.6 87.7 88.1 89.2 90.0 90.0 90.0 85.2 80.0 76.9 74.0 70.9 70.0 70.0 70.0 70.0 70.0 70.0 70.0 70.0 70.0 70.8 71.8 72.4 73.3 76.3 78.2 79.8 81.5 83.2 85.0 86.8 88.5 90.1 91.6 91.9 92.5 97.8 100.0 100.3 100.4 100.5 100.5 100.5 100.4 100.6 100.8 101.1 101.3 101.4 105.3 107.3 107.4 109.0
62.4 60.1 60.0 60.0 60.0 60.0 60.0 60.0 60.0 60.0 60.0 60.0 60.0 60.0 60.0 60.0 60.0 60.0 60.0 60.0 60.0 60.0 60.0 60.0 60.0 60.0 60.0 60.0 60.0 60.0 60.1 61.1 62.2 63.1 63.5 64.1 65.1 66.6 68.2 69.5 70.0 70.0 70.0 69.8 69.4 68.8 68.9 69.1 69.3 69.4 69.1 69.0 69.4 69.8 71.1 72.3 73.8 75.4 76.4 77.4 78.8 80.5 82.2 83.3 88.4 89.0 89.2 90.1 90.5 90.0 90.0 90.0 90.0 90.0 90.0 90.0 90.0 90.0 89.3 89.4 90.2 90.0 89.0 89.9 90.0 90.0 89.5 84.1 79.4 77.5 75.5 72.9 71.6 70.3 70.0 70.0 70.0 70.0 70.0 70.0 70.0 70.2 71.1 71.8 72.1 75.2 77.5 79.3 81.1 83.0 84.9 86.6 88.2 90.4 91.0 90.6 90.5 97.5 100.0 100.0 100.1 100.1 100.2 100.8 100.3 100.5 101.3 102.5 104.9 106.4 108.4 109.8 109.9 109.9
60.5 60.0 60.0 60.0 60.0 60.0 60.0 60.0 60.0 60.0 60.0 60.0 60.0 60.0 60.0 60.0 60.0 60.0 60.0 60.0 60.0 60.0 60.0 60.0 60.0 60.0 60.0 60.0 60.0 60.1 60.8 61.8 62.9 63.6 64.0 64.7 65.7 66.9 68.1 69.3 70.0 70.0 70.0 69.8 69.3 69.3 69.7 70.1 70.7 71.0 70.1 69.6 69.9 71.1 72.5 73.5 75.3 76.6 77.4 77.8 79.0 81.1 84.2 87.4 90.0 90.4 90.1 90.9 90.5 90.0 90.0 90.2 90.7 91.9 91.1 90.8 90.1 90.0 89.9 90.4 91.1 91.4 90.3 90.0 90.0 90.0 89.0 83.5 79.3 77.5 76.0 74.2 72.5 70.3 70.0 70.0 70.0 70.0 70.0 70.0 70.0 70.0 70.5 71.0 71.1 73.7 76.7 78.7 80.7 82.9 84.9 86.6 88.9 90.0 90.0 89.8 89.7 91.1 94.9 98.1 98.5 99.6 99.8 100.8 100.2 100.4 100.9 102.1 106.2 108.2 109.8 110.0 110.0 110.0
60.0 60.0 60.0 60.0 60.0 60.0 60.0 60.0 60.0 60.0 60.0 60.0 60.0 60.0 60.0 60.0 60.0 60.0 60.0 60.0 60.0 60.0 60.0 60.0 60.0 60.0 60.0 60.0 60.5 60.9 61.6 62.5 63.6 64.2 64.6 65.3 66.0 67.1 68.1 69.0 70.0 70.0 70.0 69.7 69.4 69.8 70.4 71.5 72.5 73.8 73.0 70.6 71.2 73.5 75.1 75.5 77.3 78.3 78.8 78.8 79.6 82.2 85.2 88.4 90.0 90.8 91.2 90.5 90.1 90.0 90.0 90.6 91.2 94.2 93.6 92.1 90.6 90.0 90.0 90.5 91.5 92.3 91.8 90.0 90.0 90.0 87.4 82.8 79.3 78.0 77.1 75.2 72.4 70.2 70.1 70.3 70.1 70.2 70.4 70.6 70.3 70.0 70.0 70.3 70.4 71.9 75.1 77.3 80.0 81.3 82.5 82.8 81.7 87.6 86.8 87.7 89.7 90.8 92.1 95.5 95.9 97.5 99.3 100.0 99.7 100.1 100.7 100.9 104.8 107.6 110.0 110.0 110.0 109.2
60.0 60.0 60.0 60.0 60.0 60.0 60.0 60.0 60.0 60.0 60.0 60.0 60.0 60.0 60.0 60.0 60.0 60.0 60.0 60.0 60.0 60.0 60.0 60.0 60.2 60.6 61.2 60.2 62.1 61.5 62.2 63.2 64.5 65.1 65.5 66.1 66.8 67.7 68.5 69.2 70.0 70.0 70.0 69.8 69.7 70.3 71.0 72.5 74.1 76.6 75.8 72.0 73.7 75.6 76.6 77.2 78.8 79.6 80.0 79.6 80.2 82.8 85.1 87.2 89.8 90.3 91.2 90.9 91.2 90.1 91.5 92.7 92.5 97.9 97.5 93.9 90.5 90.0 90.0 90.5 91.6 92.3 91.1 90.0 89.8 89.3 88.7 85.3 80.1 79.5 79.1 78.3 76.9 72.9 71.4 71.4 71.3 71.4 71.6 71.7 71.4 70.8 70.3 70.0 70.0 70.3 71.6 71.7 71.0 79.9 79.8 79.8 79.9 80.6 82.9 85.5 89.2 90.0 89.8 91.7 92.9 94.6 96.2 99.4 97.9 98.6 99.5 100.1 103.6 107.1 110.0 110.0 108.7 107.2
60.0 60.0 60.0 60.0 60.0 60.0 60.0 60.0 60.0 60.0 60.0 60.0 60.0 60.0 60.0 60.0 60.0 60.0 60.0 60.0 60.0 60.0 60.1 60.7 62.1 63.0 63.6 62.8 64.0 62.3 63.0 64.1 65.3 65.9 66.4 67.0 67.7 68.5 69.2 69.8 70.3 70.9 71.4 70.4 70.5 71.2 72.1 74.7 76.8 79.5 78.8 74.1 76.3 77.6 78.3 79.4 80.4 81.3 81.5 81.9 82.2 86.8 86.9 87.6 89.3 90.1 91.7 93.2 94.4 92.8 94.6 96.9 98.7 100.0 100.3 99.0 97.3 92.4 92.7 94.7 95.0 94.1 90.8 89.8 89.9 90.0 90.0 89.7 83.8 80.7 82.6 80.4 79.0 76.6 74.7 73.7 73.0 72.7 72.7 72.8 72.4 71.9 71.4 70.9 70.3 70.0 70.2 70.0 70.0 72.2 76.5 78.5 79.1 79.2 79.8 81.3 83.7 87.1 88.9 90.6 90.3 92.1 92.9 96.7 96.2 97.1 98.1 99.2 100.4 100.8 107.4 106.3 103.3 101.6
60.0 60.0 60.0 60.0 60.0 60.0 60.0 60.0 60.0 60.0 60.0 60.0 60.0 60.0 60.0 60.0 60.0 60.0 60.0 60.0 60.0 60.0 60.3 60.9 63.6 65.3 65.9 65.6 65.6 63.0 63.7 64.7 65.8 66.2 66.7 67.3 68.1 68.7 69.4 70.1 70.9 71.5 72.4 71.5 71.8 73.6 76.1 78.1 79.4 80.0 80.0 79.6 78.6 79.4 79.4 79.8 81.0 82.4 82.5 84.6 84.0 87.6 87.7 88.1 89.5 90.3 92.1 93.8 94.8 95.4 96.1 97.0 98.1 99.6 100.4 100.5 99.3 96.9 95.8 96.8 97.9 98.7 97.1 90.5 90.1 90.1 90.2 90.2 88.3 83.9 84.6 81.9 80.2 78.9 77.3 75.9 74.9 74.2 73.9 73.7 73.3 72.8 72.3 71.8 71.1 70.1 70.0 70.0 70.3 73.2 76.0 79.1 79.4 79.1 79.1 79.6 80.8 83.3 85.1 89.5 89.2 89.8 90.2 91.3 93.3 95.1 96.9 98.9 100.0 100.0 102.3 100.8 100.0 100.0
60.0 60.0 60.0 60.0 60.0 60.0 60.0 60.0 60.0 60.0 60.0 60.0 60.0 60.0 60.0 60.0 60.0 60.0 60.0 60.0 60.0 60.1 60.7 61.2 66.3 68.5 68.7 68.6 67.5 63.7 64.3 65.2 66.2 66.6 66.9 67.5 68.2 68.9 69.5 70.3 71.0 71.3 72.3 72.5 73.3 75.3 77.5 78.9 80.0 80.0 80.0 79.7 80.2 81.2 81.1 80.9 83.7 84.8 83.8 87.6 85.9 89.1 89.0 89.2 90.2 91.7 94.8 95.7 96.2 98.1 98.2 98.3 98.5 99.9 100.5 100.9 100.0 98.8 98.8 99.1 99.8 100.0 99.1 94.6 91.7 91.2 91.4 90.8 89.0 85.9 85.2 82.7 81.0 79.8 79.4 78.6 77.8 77.1 76.7 76.3 75.6 74.8 74.0 73.6 73.3 72.1 71.5 71.5 72.3 80.0 80.0 80.0 80.0 80.0 80.0 80.0 80.0 80.5 82.8 87.7 88.0 88.9 90.0 91.7 92.9 93.7 95.0 95.8 99.0 98.9 99.9 99.7 99.6 100.7
60.0 60.0 60.0 60.0 60.0 60.0 60.0 60.0 60.0 60.0 60.0 60.0 60.0 60.0 60.0 60.0 60.0 60.0 60.0 60.4 62.1 64.1 66.0 68.1 69.7 70.0 70.0 70.0 69.9 69.8 69.6 69.2 68.7 68.4 68.6 68.9 69.4 69.7 69.9 70.1 70.5 70.7 72.1 73.4 74.7 76.6 78.4 79.7 80.0 80.0 80.0 79.9 81.1 82.9 83.3 83.5 86.4 88.0 89.9 90.0 89.2 90.1 90.9 91.6 93.6 97.0 98.4 98.3 99.6 100.4 100.6 100.3 99.5 100.0 100.6 100.9 100.0 99.2 99.7 99.9 100.0 100.0 100.0 98.1 94.6 92.5 91.3 90.4 89.2 86.7 85.4 83.2 81.5 80.0 79.7 79.1 78.3 77.7 77.4 77.2 76.7 76.0 75.4 75.4 75.5 74.7 74.7 74.8 76.5 80.0 80.0 80.0 80.3 80.1 80.0 80.0 80.0 80.0 81.2 84.8 87.0 88.1 89.5 89.7 91.0 92.0 93.1 93.6 95.3 95.2 99.2 99.0 99.6 101.5
60.0 60.0 60.0 60.0 60.0 60.0 60.0 60.0 60.0 60.0 60.0 60.0 60.0 60.0 60.0 60.3 60.3 60.2 63.0 60.5 61.3 63.4 67.2 69.1 69.9 70.0 70.0 70.0 70.0 69.6 69.3 68.9 68.4 68.4 68.4 68.5 68.9 69.2 69.4 70.0 69.9 70.2 71.5 73.7 75.1 76.8 78.6 80.1 80.8 81.4 81.6 81.6 82.1 85.2 85.6 86.2 87.8 89.1 89.9 90.0 89.6 91.5 94.4 95.8 96.8 98.7 100.1 99.5 99.9 100.9 102.6 103.1 101.3 103.3 105.7 107.0 106.3 101.1 99.8 100.0 100.0 100.0 100.0 97.8 94.4 92.6 90.3 89.7 86.9 85.0 83.5 82.6 81.4 80.0 79.8 79.2 78.3 77.8 77.5 77.3 77.0 76.6 76.3 76.3 76.3 76.5 76.9 76.6 77.2 80.0 80.0 80.0 80.3 80.7 80.4 80.1 80.0 80.0 80.1 82.4 84.9 87.3 88.5 88.9 90.0 90.4 91.9 92.1 91.5 91.2 98.5 98.7 99.5 100.5
60.0 60.0 60.0 60.0 60.0 60.0 60.0 60.0 60.0 60.0 60.0 60.0 60.0 60.0 60.0 60.4 60.7 60.7 61.8 61.0 61.3 62.1 63.5 64.1 69.9 69.9 69.9 69.9 69.9 68.7 68.5 68.4 68.4 68.4 68.4 68.4 68.4 68.5 68.6 69.9 69.9 69.9 70.2 72.3 74.4 76.5 78.6 80.3 81.1 81.8 82.1 82.5 83.3 86.8 87.3 87.9 89.1 90.6 91.6 91.7 92.6 97.5 99.1 99.8 102.1 100.0 101.6 100.6 99.9 100.6 104.4 106.0 104.3 105.4 107.6 109.2 109.6 102.9 99.8 100.0 100.0 99.8 99.4 95.1 92.4 91.6 90.0 89.0 86.9 85.2 83.8 82.8 81.5 80.1 79.8 79.2 78.4 78.2 77.9 77.7 77.4 77.1 76.9 77.0 77.3 78.2 79.3 78.5 78.4 80.0 80.0 80.3 80.7 81.1 80.9 80.6 80.3 80.0 80.2 81.9 83.8 86.1 88.3 88.5 89.4 89.5 90.1 90.1 90.0 90.4 97.4 98.9 98.9 99.8
60.0 60.0 60.0 60.0 60.0 60.0 60.0 60.0 60.0 60.0 60.0 60.0 60.0 60.0 60.0 60.4 60.8 61.0 61.5 61.3 61.5 61.8 62.4 62.7 69.8 69.9 69.9 69.8 69.8 68.4 68.4 68.4 68.6 68.7 68.4 68.4 68.4 68.8 69.3 70.0 70.8 70.4 71.7 74.8 76.2 77.6 79.0 80.3 81.2 82.1 82.9 83.9 85.4 88.6 89.3 89.8 90.5 93.3 92.1 94.2 96.8 99.4 101.5 104.8 110.2 107.9 107.2 104.9 100.8 106.4 109.0 109.7 108.2 108.4 109.5 110.0 110.0 109.9 102.1 99.8 99.5 99.4 99.1 94.4 91.0 91.0 90.3 89.5 87.4 85.9 84.3 83.2 81.8 80.4 79.8 79.3 78.9 78.8 78.5 78.2 78.1 78.2 78.5 78.9 79.4 80.0 80.0 80.2 79.8 80.0 80.0 80.3 80.7 81.2 81.3 81.0 80.6 80.2 80.0 80.9 82.5 84.5 87.1 88.0 88.8 89.2 89.8 90.0 90.7 91.2 99.8 99.9 99.9 99.9
60.0 60.0 60.0 60.0 60.0 60.0 60.0 60.0 60.0 60.0 60.0 60.0 60.0 60.0 60.2 60.9 61.2 61.4 61.9 61.7 61.9 62.1 62.8 63.1 69.7 69.8 69.8 69.7 69.6 68.4 68.4 68.4 69.3 69.3 69.0 69.0 68.7 69.2 69.7 70.7 71.6 71.6 72.6 75.1 76.3 77.4 78.7 80.0 81.3 82.6 84.3 86.9 88.8 90.2 90.3 90.4 91.3 96.0 94.6 97.9 99.8 100.4 101.4 102.2 108.9 108.8 109.8 109.0 106.7 109.5 110.1 110.0 110.0 110.0 111.6 110.0 110.0 108.4 100.1 99.3 99.0 98.9 98.6 94.9 90.2 90.2 90.2 90.1 88.6 87.0 85.2 83.8 82.3 80.8 79.9 79.6 79.8 79.8 79.4 79.0 78.8 78.5 78.5 78.8 79.4 79.6 80.1 81.0 80.8 80.4 81.2 82.8 83.5 83.5 83.0 82.8 82.6 82.0 80.8 88.2 88.2 88.5 88.8 89.1 89.4 89.9 90.8 90.9 93.9 98.2 100.2 100.2 100.2 100.2
60.0 60.0 60.0 60.0 60.0 60.0 60.0 60.0 60.0 60.0 60.0 60.0 60.0 60.2 60.6 61.6 61.9 62.1 62.9 62.4 62.6 62.9 63.7 64.2 69.3 69.3 69.3 69.0 69.0 68.4 68.7 69.4 70.0 70.0 69.7 69.7 69.4 69.7 70.1 71.3 72.3 72.6 73.5 75.3 76.5 77.4 78.4 79.7 80.8 82.1 84.1 87.2 89.3 90.7 91.1 91.3 92.7 98.6 95.4 99.2 100.6 100.4 101.0 104.6 108.3 110.0 110.0 110.0 109.0 109.9 110.2 110.0 110.0 110.0 112.6 110.0 110.0 106.1 100.4 99.5 99.4 99.0 95.5 91.3 89.9 89.8 89.9 89.9 86.3 84.9 83.6 82.7 81.7 80.6 79.8 79.9 80.3 80.4 80.1 79.8 79.6 79.3 79.3 79.8 80.6 80.4 79.9 80.6 81.2 81.5 82.1 83.2 83.8 84.0 83.7 83.6 83.6 83.1 82.1 88.3 88.3 88.4 88.7 89.1 89.5 90.2 91.5 91.9 94.1 97.4 99.8 101.0 101.6 103.0
60.0 60.0 60.0 60.0 60.0 60.0 60.0 60.0 60.0 60.0 60.0 60.2 60.2 60.4 60.7 62.1 62.4 62.5 63.5 62.8 63.0 63.4 64.3 64.9 69.0 69.0 69.0 68.8 69.3 68.5 69.1 69.7 70.2 70.4 70.2 70.1 69.6 69.8 70.5 71.6 72.7 73.2 74.0 75.3 76.8 77.4 78.0 79.2 80.0 81.2 83.0 85.9 88.2 90.5 92.5 95.6 99.7 100.1 98.5 97.7 100.0 100.0 100.1 103.6 106.9 109.2 110.0 110.0 110.1 110.3 111.0 110.0 110.0 110.0 112.8 109.9 109.2 108.1 105.5 102.9 101.1 99.6 97.4 91.1 89.4 89.3 89.4 89.5 86.9 85.1 83.5 82.6 81.6 80.6 79.8 79.9 80.4 80.9 81.0 80.6 80.4 80.4 80.3 81.2 82.5 82.1 80.5 82.5 82.2 82.4 83.1 84.3 84.9 84.9 84.6 84.6 84.6 84.3 83.6 88.9 88.8 88.9 89.0 89.2 89.6 90.2 91.4 91.6 93.1 95.8 98.5 100.3 101.7 103.2
60.0 60.0 60.0 60.0 60.0 60.0 60.0 60.0 60.0 60.0 60.0 60.3 60.4 60.4 60.5 62.4 62.6 62.8 63.6 63.2 63.4 63.8 64.7 65.2 68.7 68.7 68.7 68.9 69.5 68.8 69.3 69.9 70.4 70.9 70.8 70.6 70.0 70.0 71.8 73.2 74.0 74.2 75.0 76.1 77.8 78.2 78.5 79.4 79.6 80.2 82.1 84.8 87.1 89.5 90.4 90.6 91.3 95.9 90.0 91.0 99.5 99.3 99.7 102.1 105.2 107.5 110.0 110.0 110.6 110.8 111.1 110.0 110.0 110.0 118.6 110.0 109.9 109.8 109.7 109.4 106.8 101.0 99.5 94.1 89.7 89.4 89.2 89.1 87.8 85.4 83.3 82.3 81.3 80.2 79.8 79.9 80.2 80.8 81.4 81.4 81.4 81.9 82.4 83.4 84.8 84.4 82.6 84.6 83.5 83.6 84.3 85.6 86.1 85.8 85.3 85.4 85.4 85.2 84.8 89.3 89.2 89.2 89.2 89.3 89.5 89.9 90.6 90.6 91.6 93.0 96.8 98.6 100.1 100.2
60.0 60.0 60.0 60.0 60.0 60.0 60.0 60.0 60.0 60.0 60.0 60.2 60.2 60.2 60.2 62.4 62.8 63.1 63.7 63.5 63.8 64.3 65.0 65.5 68.3 68.4 68.5 69.0 69.8 69.3 69.7 70.2 70.9 71.4 71.5 71.5 70.5 70.9 73.2 74.7 75.3 75.3 75.9 76.7 78.7 79.2 79.3 79.9 79.7 79.8 81.0 83.3 85.4 88.4 89.8 90.0 90.0 90.0 90.0 90.1 94.4 97.0 99.0 101.6 104.6 107.1 110.0 111.2 112.2 112.7 114.4 115.6 117.2 119.4 120.0 117.5 111.6 110.7 110.7 110.8 110.3 106.0 101.6 98.0 91.4 90.0 89.7 89.6 88.8 86.6 84.6 83.6 82.6 81.6 80.2 79.9 80.1 80.6 81.3 81.8 82.0 83.3 84.3 85.5 86.9 86.0 84.5 85.5 84.3 84.5 85.3 86.4 86.8 86.6 85.9 85.9 85.9 85.8 85.6 89.6 89.5 89.4 89.5 89.3 89.3 89.7 89.9 89.9 90.9 91.3 94.2 96.2 98.9 100.0
60.0 60.0 60.0 60.0 60.0 60.0 60.0 60.0 60.0 60.0 60.0 60.0 60.0 60.0 60.0 62.6 63.0 63.4 64.1 64.1 64.5 65.1 66.0 66.6 68.1 68.4 68.8 69.4 70.0 70.0 70.3 71.2 72.2 72.5 72.4 72.2 71.3 72.0 74.5 75.9 76.6 76.9 77.7 78.5 79.6 80.0 80.1 80.3 80.3 79.9 80.1 81.8 83.8 87.7 89.5 89.7 89.4 89.6 90.1 90.7 96.3 97.6 99.9 102.1 104.9 107.5 110.0 110.5 111.3 111.9 112.5 112.4 112.7 113.9 119.7 113.1 111.3 110.6 110.1 110.3 110.1 106.4 102.6 100.0 95.9 92.0 90.9 90.3 89.8 88.0 86.2 84.7 83.2 81.6 80.0 80.0 80.3 80.9 81.7 82.3 82.6 84.5 86.5 88.0 89.0 88.0 86.5 86.7 85.1 85.4 86.3 87.4 87.7 87.4 86.7 86.6 86.6 86.5 86.4 89.8 89.7 89.7 89.7 89.5 89.6 89.6 89.8 89.8 90.0 90.1 91.2 91.6 93.5 96.0
60.0 60.0 60.0 60.0 60.0 60.3 60.0 60.0 60.0 60.0 60.0 60.0 60.0 60.0 60.0 60.6 61.4 62.2 63.0 63.7 64.3 64.9 65.7 66.6 67.8 68.4 69.1 69.9 70.2 70.3 70.9 71.8 72.9 73.2 73.0 72.8 72.0 73.2 75.6 76.8 77.4 77.8 78.6 79.5 80.1 81.0 81.2 81.6 83.6 82.7 80.2 84.2 85.9 87.6 88.8 89.0 89.6 90.3 90.8 91.4 97.1 98.5 100.3 102.7 105.4 108.1 110.0 110.0 110.6 110.9 111.0 110.0 110.0 110.0 116.3 110.0 110.0 110.0 109.1 109.5 108.5 102.7 101.2 100.2 98.1 94.5 93.4 93.4 90.7 89.1 86.9 84.7 82.6 80.4 80.1 81.1 82.5 83.7 84.7 85.3 86.3 87.7 89.3 90.0 90.2 89.8 89.0 88.8 88.6 87.9 87.9 88.4 88.6 88.4 87.8 87.6 87.6 87.6 87.6 90.0 90.0 90.0 90.0 90.0 90.0 90.0 90.0 90.0 90.0 90.0 90.0 90.0 90.0 90.5
60.0 60.0 60.0 60.0 60.5 61.6 60.3 60.1 60.0 60.0 60.0 60.0 60.0 60.0 60.0 60.5 61.3 62.2 62.9 63.7 64.3 65.0 65.8 66.6 67.8 68.4 69.1 69.9 70.4 70.6 71.3 72.2 73.1 73.5 73.6 73.4 72.8 74.2 76.1 77.6 78.1 78.2 78.8 79.6 80.3 81.5 82.1 82.8 87.4 87.5 83.4 87.2 88.2 88.4 88.8 89.2 90.0 91.0 91.7 92.0 97.0 98.3 100.1 103.3 107.7 109.2 110.0 110.0 110.6 110.9 111.0 110.0 110.0 110.0 112.7 110.0 109.6 108.9 107.2 107.3 106.0 102.0 100.4 99.6 96.9 94.6 95.5 96.5 90.9 89.8 89.9 89.7 89.4 88.9 81.5 82.8 87.8 88.1 88.4 89.0 89.5 89.5 90.0 90.4 90.6 90.4 90.1 89.7 89.4 88.6 88.7 89.3 89.4 89.1 88.5 88.5 88.5 88.7 89.0 90.0 90.0 90.0 90.0 90.0 90.0 90.0 90.0 90.0 90.0 90.0 90.5 90.7 90.5 90.4
60.0 60.0 60.0 60.1 63.3 64.3 60.6 60.4 60.3 60.0 60.0 60.0 60.0 60.0 60.1 61.1 61.8 62.6 63.3 64.0 64.7 65.3 66.1 66.8 67.8 68.5 69.2 69.9 70.5 70.8 71.6 72.5 73.2 73.8 74.0 73.8 73.4 74.9 76.8 78.6 79.1 79.0 79.0 79.4 80.5 83.1 85.1 87.9 90.1 90.3 89.6 89.3 89.3 90.0 90.0 90.0 90.0 90.6 91.3 91.1 97.1 98.3 99.9 103.4 109.6 109.9 110.0 109.8 110.0 110.0 109.9 109.8 109.9 109.9 110.4 109.9 107.3 106.5 104.9 104.5 102.8 100.6 100.0 100.0 99.0 99.6 99.9 100.1 95.6 90.5 89.9 89.7 89.5 89.0 83.4 84.6 88.4 88.7 88.8 89.3 89.8 90.0 90.3 90.6 90.9 90.6 90.3 90.0 89.6 89.3 89.8 90.2 90.2 90.0 89.5 89.3 89.2 89.4 89.8 90.4 90.6 90.3 90.6 90.0 90.1 90.0 90.0 90.0 90.0 90.2 91.3 91.5 91.4 91.4
60.0 60.0 60.4 60.5 68.4 68.1 60.8 60.6 60.4 60.1 60.0 60.0 60.2 60.6 60.7 62.3 63.0 63.6 64.1 64.7 65.2 65.8 66.5 67.1 68.1 68.6 69.3 69.9 70.6 71.1 72.2 73.2 74.1 74.7 75.2 75.7 76.2 77.5 78.6 79.7 80.1 80.4 79.8 79.8 80.1 82.7 85.4 88.3 90.1 90.4 89.9 89.6 90.0 90.0 90.0 90.0 90.0 90.0 90.6 90.3 96.9 97.8 99.0 100.6 102.6 105.9 108.8 109.9 109.9 110.0 109.9 109.9 109.6 109.6 109.8 109.7 104.5 104.3 103.4 103.2 102.2 100.4 99.8 99.3 98.0 97.5 98.6 99.2 92.8 90.5 89.9 89.7 89.4 89.0 85.4 86.2 88.4 88.6 88.8 89.3 89.8 90.0 90.3 90.7 91.0 90.8 90.4 90.1 89.7 89.8 90.5 90.9 91.1 91.6 90.0 90.1 90.2 90.3 91.1 91.8 91.5 91.5 91.7 91.1 91.1 90.6 90.4 90.0 90.0 90.0 90.5 91.3 91.9 92.1
60.0 61.7 64.0 68.4 70.0 70.0 68.0 65.2 63.3 62.1 60.3 60.0 60.1 60.8 61.3 62.1 62.9 63.5 64.0 64.7 65.3 65.8 66.3 67.0 68.0 68.5 69.2 69.8 70.4 71.0 72.4 73.4 74.4 75.1 75.7 76.5 77.3 78.3 79.4 80.0 80.4 83.3 83.0 81.2 79.9 81.2 84.2 87.1 89.9 90.4 90.5 90.9 90.3 90.0 90.0 90.0 90.0 90.0 90.0 90.0 92.2 96.8 98.1 99.5 100.8 104.3 107.6 109.3 110.0 110.3 110.3 110.0 109.6 109.0 109.0 109.0 102.0 102.4 101.8 102.0 101.9 100.4 99.6 98.4 96.6 95.5 94.9 94.8 90.7 90.1 89.9 89.7 89.4 88.9 86.8 87.1 88.5 88.8 89.0 89.5 89.9 90.1 90.4 90.8 91.1 90.7 90.3 90.0 89.9 90.5 91.1 91.6 91.9 94.5 92.8 92.8 92.5 92.5 92.8 93.2 92.5 92.5 92.3 92.0 91.8 91.3 90.8 90.0 90.0 90.7 91.5 92.1 92.6 92.9
60.0 61.7 63.2 65.1 70.0 70.0 64.5 63.2 62.2 61.3 60.4 60.0 60.1 60.8 61.5 62.1 62.9 63.5 64.0 64.8 65.2 65.7 66.2 66.8 67.8 68.2 68.8 69.5 70.0 70.7 72.1 73.2 74.3 75.2 75.9 76.7 77.7 78.7 79.8 80.9 81.7 87.7 88.7 86.6 82.2 86.9 87.5 88.6 89.9 90.3 90.9 91.6 90.3 90.0 90.0 90.0 90.3 90.7 90.9 91.0 99.5 99.8 99.8 99.7 99.7 102.3 106.7 108.4 110.0 110.2 110.4 110.0 109.5 107.4 106.0 102.5 99.9 100.1 100.1 100.1 100.4 99.9 98.6 97.8 96.2 95.4 92.3 91.3 90.1 90.0 89.7 89.4 89.1 88.6 86.9 87.3 88.5 88.8 89.1 89.3 89.8 92.1 93.1 93.6 93.8 93.3 92.9 92.2 91.3 92.5 93.2 93.7 93.7 97.6 95.9 95.6 94.9 94.6 94.4 94.8 93.9 94.1 94.1 93.8 93.9 93.4 93.2 92.7 90.7 92.3 94.1 94.2 94.1 94.2
60.5 60.9 61.3 61.2 69.6 69.5 61.0 60.7 60.5 60.2 60.0 60.0 60.2 60.9 61.7 62.2 63.0 63.7 64.1 64.9 65.4 65.7 66.1 66.6 67.6 68.0 68.4 69.1 69.7 70.2 71.5 72.7 74.2 75.3 75.9 76.8 78.0 79.1 80.9 84.6 87.9 90.0 90.0 89.9 88.4 88.9 89.0 89.4 90.0 90.3 91.1 92.0 90.4 90.0 90.0 90.0 90.2 92.7 93.1 94.3 99.6 100.2 100.5 101.9 101.9 107.4 108.9 109.8 110.1 110.7 110.6 110.0 109.2 107.3 105.9 103.0 100.1 99.8 99.5 99.6 99.8 99.7 97.6 96.5 93.6 91.4 90.1 90.0 90.0 90.0 89.3 89.0 88.8 88.6 87.7 88.1 89.0 89.5 89.9 89.6 89.8 90.5 91.5 92.5 93.3 93.9 94.0 94.1 93.4 95.2 96.9 98.3 99.5 100.0 99.1 98.6 97.7 97.2 96.8 96.9 96.5 96.3 96.0 95.6 95.6 95.1 94.9 94.3 92.3 93.7 95.5 95.4 95.2 95.5
60.8 61.3 61.6 61.2 68.8 68.7 61.0 60.8 60.5 60.3 60.1 60.0 60.3 61.0 61.7 62.3 63.3 64.0 64.1 65.2 65.5 65.8 66.2 66.6 67.7 67.9 68.3 68.9 69.5 69.8 70.9 72.3 74.0 75.4 76.1 77.0 78.2 79.5 81.9 85.5 88.7 90.0 90.0 90.0 89.5 89.3 89.6 90.2 90.5 92.0 91.9 94.6 91.5 90.9 90.8 90.6 90.0 91.5 94.9 98.7 100.3 101.6 101.9 105.8 105.8 108.5 109.7 110.0 111.5 111.9 110.6 110.0 109.0 108.4 108.2 107.4 102.1 101.2 99.7 99.2 99.2 99.1 99.3 99.5 98.2 97.7 91.1 90.8 90.5 90.0 89.8 89.4 89.2 89.1 88.5 88.9 89.7 90.0 90.6 90.6 90.6 92.9 93.6 94.3 94.8 94.9 94.9 95.2 95.2 96.5 97.4 98.5 99.5 100.2 100.5 100.4 99.8 99.2 98.4 98.2 97.7 97.6 97.2 96.8 96.7 96.3 96.2 95.8 94.1 95.2 96.3 96.1 96.1 96.2
61.9 63.4 63.6 62.2 68.3 68.5 62.9 63.1 63.2 63.4 62.8 60.7 63.3 64.1 64.1 65.9 66.5 66.5 66.4 66.7 66.9 67.1 67.3 67.6 68.7 68.8 69.0 69.3 69.8 69.9 70.9 72.5 74.4 76.0 76.5 77.2 78.5 79.9 82.6 86.0 89.0 90.0 90.0 90.0 90.0 90.0 89.7 90.8 92.5 95.0 94.1 98.4 96.0 94.4 93.4 93.1 92.6 97.3 97.3 98.8 99.9 102.3 104.4 109.4 109.2 109.5 109.8 109.7 112.3 113.2 113.2 109.7 109.8 109.7 109.4 108.7 102.8 101.7 100.1 99.6 99.3 99.5 99.7 99.8 99.4 99.4 93.0 91.6 91.1 90.2 89.9 89.5 89.4 89.5 89.5 89.6 89.7 90.0 90.8 91.6 91.7 93.1 93.9 94.7 95.2 95.3 95.3 95.7 96.4 97.1 97.7 98.5 99.5 100.1 100.8 101.1 100.7 100.3 99.6 99.1 98.5 98.5 98.0 97.8 97.8 97.4 97.3 96.9 95.7 96.4 97.1 96.9 97.0 97.1
64.9 66.0 65.6 62.7 67.9 68.3 63.4 63.5 63.7 63.8 63.3 61.5 64.0 64.7 64.7 66.3 66.8 66.9 66.8 67.1 67.3 67.4 67.7 68.0 68.9 69.0 69.2 69.6 69.9 70.6 72.1 74.0 76.2 77.1 77.3 77.8 78.9 80.4 82.7 85.5 87.9 90.1 91.1 91.5 90.8 91.8 95.5 95.1 96.7 98.5 99.6 100.0 99.6 98.2 97.0 96.3 96.2 99.5 98.4 99.7 100.2 104.2 108.3 110.0 110.0 110.0 110.0 110.0 117.8 116.8 114.7 110.0 110.0 109.9 109.9 109.9 105.6 104.4 101.3 100.1 100.0 100.0 100.0 100.0 100.0 100.0 99.8 96.6 93.7 91.4 89.9 89.7 89.8 90.5 91.4 91.3 90.0 89.9 90.5 91.7 92.2 93.0 94.1 95.1 95.7 95.6 95.6 95.9 97.9 98.2 98.4 98.6 99.2 100.0 100.4 101.2 101.6 101.1 100.6 99.9 99.3 99.2 98.8 98.9 99.0 98.5 98.5 98.2 97.1 97.5 98.0 97.8 97.8 98.0
68.4 68.7 68.1 65.3 69.8 69.8 65.2 65.0 65.0 65.0 64.3 62.4 65.1 65.8 65.8 67.4 67.7 67.8 68.5 68.8 68.9 69.1 69.2 69.3 69.6 69.6 69.7 69.9 70.5 71.5 72.8 75.3 77.4 78.0 77.9 78.1 79.2 80.8 82.6 84.7 86.7 89.2 90.5 91.6 91.7 91.4 91.6 96.8 98.5 99.6 99.9 100.0 99.6 98.6 98.2 99.2 99.9 100.0 99.5 99.7 100.9 104.4 107.9 110.0 110.0 110.0 110.0 110.0 119.3 119.1 118.3 110.0 110.0 110.0 110.0 110.0 108.9 107.8 103.5 100.5 100.0 100.0 100.3 100.5 100.7 100.2 98.5 95.8 93.5 90.9 89.9 90.2 91.1 93.2 93.9 93.5 91.5 90.2 90.1 91.0 92.0 92.9 94.4 95.7 96.3 96.2 96.0 96.6 99.5 99.6 99.7 99.7 99.7 100.5 101.1 101.7 102.0 101.5 101.2 100.4 99.7 100.1 99.8 100.2 100.2 99.8 99.8 99.6 98.7 98.8 98.9 98.5 98.7 98.9
70.0 69.9 69.4 69.6 70.0 70.0 69.0 68.6 68.3 67.8 66.7 63.9 66.4 66.7 66.6 68.0 68.2 68.3 69.6 70.0 70.0 70.0 70.0 70.0 70.0 70.0 70.0 70.0 70.8 71.8 73.0 76.3 78.5 79.0 78.8 78.2 79.3 80.8 82.5 84.5 86.5 88.8 90.2 91.9 92.9 93.7 95.8 99.0 100.0 100.0 99.9 100.0 100.0 100.0 99.8 99.5 100.0 100.7 100.9 99.7 100.0 102.7 105.1 109.4 109.9 112.6 115.2 118.8 120.0 119.9 119.4 116.4 112.1 111.3 111.2 110.9 109.7 109.5 105.9 102.3 100.7 100.7 100.9 101.1 100.7 99.9 98.1 96.3 94.4 90.9 90.4 91.6 93.3 97.2 97.7 98.0 95.1 93.5 93.8 95.6 95.5 96.8 97.5 97.9 98.2 98.6 99.2 99.7 100.1 100.4 100.5 100.5 100.5 102.3 103.5 103.9 103.9 103.9 103.8 103.3 101.1 102.2 101.3 101.5 101.6 101.2 101.1 100.8 100.2 100.1 99.8 99.4 99.5 99.8
70.0 70.2 70.0 69.9 70.0 70.0 69.3 69.0 68.7 68.2 67.6 65.2 67.0 67.2 67.1 68.2 68.5 68.6 69.6 70.0 70.0 70.0 70.0 70.0 70.0 70.0 70.0 70.0 71.1 72.4 73.9 77.4 79.3 79.8 79.8 78.8 79.4 80.6 82.5 85.0 87.3 89.6 91.1 92.4 93.6 95.8 98.1 100.0 100.0 100.0 99.9 100.0 100.0 100.0 100.0 100.0 100.1 102.5 101.4 99.9 100.0 101.0 104.3 109.3 109.8 112.1 114.0 116.8 119.4 120.0 120.0 118.7 115.9 113.3 111.7 110.7 110.3 110.4 109.8 107.4 104.1 101.6 100.7 100.7 100.5 100.0 99.7 99.1 98.4 93.5 93.5 97.4 99.3 100.0 100.1 100.1 99.8 98.9 97.4 98.0 97.7 98.1 98.3 98.7 98.9 99.0 99.5 99.8 100.0 100.4 100.8 101.1 101.3 102.6 104.8 105.2 105.1 105.1 105.3 105.1 103.4 104.1 102.8 102.9 103.0 102.8 102.7 102.4 101.9 102.3 102.5 101.0 101.5 102.3
70.0 70.3 70.0 69.9 70.0 70.0 69.4 69.1 68.7 68.3 67.7 66.3 67.3 67.7 67.6 68.3 68.8 68.8 69.7 70.0 70.0 70.0 70.0 70.0 70.0 70.0 70.0 70.1 72.0 74.0 76.2 78.6 80.0 80.0 80.0 79.9 79.7 80.2 82.6 85.9 88.9 90.5 91.4 91.8 93.5 96.5 98.5 100.0 100.2 100.3 100.0 100.3 100.2 100.2 100.1 100.0 100.9 107.2 107.9 102.6 100.6 105.1 108.4 110.1 110.3 112.0 113.0 114.4 117.6 119.7 119.0 114.3 112.2 110.8 110.6 110.1 109.9 109.9 108.0 105.5 103.6 100.9 100.0 100.0 100.0 100.0 99.4 98.9 98.6 95.7 96.7 99.3 100.0 100.2 100.5 100.3 99.9 99.0 98.3 98.3 97.9 98.3 98.8 99.2 99.2 99.1 99.4 99.7 100.0 100.3 100.8 101.2 101.6 103.6 106.3 106.7 106.6 106.6 107.0 107.1 105.7 105.8 104.2 104.1 104.3 104.4 104.1 103.9 103.6 104.6 105.7 104.7 104.8 105.2
70.0 70.3 70.0 69.9 70.0 70.0 69.3 69.0 68.6 68.2 67.7 66.8 67.7 68.1 68.1 68.6 69.1 69.2 69.8 70.0 70.0 70.0 70.0 70.0 70.0 70.0 70.0 70.1 72.3 74.7 77.1 79.6 80.0 80.0 80.0 79.9 79.7 80.0 82.5 86.4 89.6 90.5 90.5 90.7 91.9 95.4 97.6 99.5 100.4 101.2 100.6 101.2 101.2 102.2 103.5 104.3 108.3 109.8 112.0 109.4 107.0 109.1 109.1 110.0 110.0 110.0 110.0 110.0 113.7 116.6 116.1 110.0 110.0 110.0 110.0 109.4 108.4 108.5 104.5 102.7 101.5 100.1 100.0 100.0 100.0 100.0 98.9 98.4 98.5 97.3 98.3 99.7 100.0 100.2 100.7 100.4 100.1 99.4 99.2 98.9 98.4 98.8 99.4 99.9 99.9 99.6 99.5 99.8 100.2 100.9 101.5 102.0 102.5 105.7 108.1 108.3 108.3 108.2 108.7 109.0 108.1 107.8 105.9 105.6 105.8 106.1 105.7 105.4 105.6 106.9 108.8 108.4 108.1 108.2
70.0 70.0 70.0 69.9 70.0 70.0 69.0 68.7 68.3 68.0 67.7 66.9 68.0 68.7 68.7 68.9 69.5 69.6 69.9 70.0 70.0 70.0 70.0 70.0 70.0 70.0 70.0 70.0 72.3 75.2 78.0 80.0 80.0 80.0 80.0 80.0 79.7 80.0 81.2 84.0 87.4 89.9 89.9 90.1 91.0 93.7 96.2 98.6 100.0 100.8 100.5 100.6 100.8 103.7 105.5 107.3 109.6 111.1 118.2 112.4 110.1 110.1 109.6 110.0 110.0 110.0 110.0 110.0 111.8 113.4 113.3 110.0 110.0 109.9 109.7 108.3 107.1 107.0 103.9 102.4 101.3 100.1 100.0 100.0 100.0 100.0 98.9 98.4 98.4 98.0 98.8 99.4 99.9 100.1 100.5 101.1 101.4 100.7 100.5 99.9 99.4 99.6 100.0 100.6 100.8 100.5 99.9 100.1 101.4 102.6 103.5 104.3 105.0 107.7 109.4 109.6 109.6 109.6 110.3 110.7 110.2 109.6 108.8 108.3 107.9 107.9 107.9 108.4 109.0 109.8 110.7 110.9 110.6 110.4
70.0 70.0 70.0 69.9 70.0 70.0 69.0 68.7 68.4 68.2 68.0 67.5 68.6 69.4 69.3 69.4 69.9 70.0 70.1 70.1 70.0 70.0 70.0 70.0 70.0 70.0 70.0 70.1 72.1 74.4 76.4 79.4 80.0 80.0 80.0 80.0 80.0 79.9 80.2 82.1 85.7 89.2 89.2 89.5 90.4 92.4 94.5 97.4 99.1 100.5 100.1 100.1 100.2 104.3 106.1 108.0 109.7 110.0 119.1 110.0 110.0 110.0 110.0 110.0 110.0 110.0 110.0 110.0 110.0 110.5 111.3 110.0 109.6 108.7 108.5 107.2 105.9 105.9 103.3 102.4 101.6 100.5 100.0 100.0 100.0 100.0 98.9 98.4 98.4 98.2 99.0 99.0 99.9 100.0 100.3 100.9 101.8 101.7 101.4 100.7 100.0 99.9 100.4 101.0 101.5 101.5 100.1 99.9 100.8 102.6 104.2 105.8 107.5 109.4 110.0 110.5 110.5 110.5 112.1 111.8 111.1 110.5 109.8 109.0 108.9 109.4 108.8 108.8 109.4 110.2 111.1 112.0 111.9 111.5
70.0 70.1 70.0 69.9 70.0 70.0 69.1 68.8 68.8 69.0 69.1 69.4 69.8 70.1 70.0 69.9 70.5 71.0 71.3 71.4 71.4 71.3 71.3 71.5 71.2 70.4 70.3 71.7 74.5 75.7 76.9 79.1 79.5 79.9 80.2 80.3 80.4 80.2 79.9 82.5 85.2 88.7 88.8 88.8 89.8 91.2 93.1 96.1 98.0 99.9 100.0 99.8 99.9 101.7 103.7 105.9 108.7 110.0 114.5 110.0 110.0 110.0 110.0 110.0 110.0 110.0 110.0 109.9 109.6 109.8 109.5 109.5 108.4 107.6 107.5 106.3 104.6 104.6 102.3 101.8 101.5 100.7 100.2 100.0 100.0 100.0 99.1 98.6 98.5 98.2 98.8 99.1 99.8 100.0 100.3 101.1 102.2 102.8 103.0 102.8 101.9 101.6 102.6 102.7 102.9 104.9 101.2 100.1 102.4 103.9 105.3 106.7 108.0 109.7 110.0 110.8 111.0 111.2 113.4 112.7 112.1 111.3 110.2 109.8 110.2 111.1 110.2 109.8 110.6 111.7 112.8 113.4 112.8 111.9
70.0 70.1 70.0 69.9 70.0 70.0 69.1 68.8 68.9 69.1 69.3 69.6 70.0 70.6 70.9 70.2 71.3 71.9 72.4 72.7 73.1 73.6 73.9 74.2 73.9 73.2 73.0 74.3 77.4 77.6 78.3 79.3 79.5 79.7 80.2 80.9 81.4 81.3 80.8 85.1 87.7 89.8 89.7 89.6 89.6 90.3 91.6 94.1 96.7 99.5 99.4 99.0 99.3 100.7 102.9 104.8 107.5 109.9 111.0 110.0 110.0 109.9 109.4 109.9 110.0 110.0 110.0 110.0 109.7 109.4 108.5 108.4 107.5 106.6 106.5 105.5 103.5 103.8 102.0 101.7 101.6 100.9 100.5 100.1 100.0 100.0 99.4 99.1 99.0 98.6 98.9 100.0 100.1 100.3 101.1 102.5 103.7 104.0 104.4 104.3 103.8 103.6 104.2 104.5 105.3 108.5 103.2 101.7 106.9 107.4 108.1 108.8 109.6 110.0 110.0 111.1 111.4 111.7 115.6 114.7 114.0 113.7 112.0 111.3 111.6 113.4 112.0 111.6 112.5 114.1 116.2 116.5 114.7 113.2
70.0 70.1 70.0 69.9 70.0 70.0 69.1 69.0 69.1 69.3 69.4 69.6 70.0 70.9 72.1 72.0 73.1 73.4 73.7 74.0 74.7 75.9 76.6 76.8 76.5 75.9 75.8 76.4 78.4 78.3 78.8 79.4 79.3 79.5 80.0 81.1 82.5 82.8 83.2 87.6 89.1 90.1 90.0 90.0 90.0 90.3 91.6 93.9 95.7 98.8 98.9 98.9 99.2 100.5 102.6 104.3 106.8 109.0 110.1 110.0 110.0 109.7 109.2 109.8 110.0 110.0 110.0 110.0 110.0 109.6 108.2 107.7 107.0 106.0 105.8 105.0 102.2 102.7 101.7 101.5 101.5 101.1 100.6 100.1 100.0 100.0 99.9 99.8 99.7 99.4 99.9 100.8 101.3 102.0 103.3 105.2 106.4 106.2 106.3 106.1 106.0 106.1 107.2 108.4 109.4 110.1 109.9 107.9 109.4 108.7 109.0 109.5 109.9 110.0 110.3 111.6 112.1 112.5 118.1 116.8 116.0 115.3 113.6 112.9 113.2 115.4 113.9 113.6 114.5 116.1 118.3 118.7 117.2 116.2
70.0 70.2 70.1 70.0 70.0 70.0 69.3 69.2 69.4 69.7 69.9 69.9 70.6 71.7 73.1 73.5 74.2 74.5 75.0 75.5 76.6 78.2 79.2 79.4 79.1 78.5 78.5 78.6 79.2 79.1 79.3 79.7 79.6 79.6 79.8 80.6 82.3 83.6 84.5 87.6 89.3 90.3 90.4 90.3 90.6 91.7 93.6 96.2 96.8 98.7 99.1 99.1 99.4 100.4 102.6 104.4 106.8 109.0 110.2 110.0 110.0 109.9 109.3 109.2 109.9 109.9 110.0 110.0 110.0 110.0 109.2 108.3 107.6 106.4 105.9 104.7 100.8 101.3 100.9 100.7 100.9 101.0 100.8 101.2 100.1 100.5 100.6 100.7 100.4 99.9 99.9 100.9 101.9 102.7 103.6 106.2 107.8 107.7 107.7 107.5 107.7 107.5 107.5 108.5 109.6 110.1 109.9 108.9 109.2 108.7 108.9 109.4 109.8 110.7 111.7 114.7 116.4 118.5 120.0 119.3 118.7 118.0 117.0 116.0 115.9 117.8 116.8 117.2 118.2 119.3 120.1 120.3 119.7 119.0
70.0 70.3 70.3 70.1 70.0 70.0 69.5 69.6 69.8 70.6 71.3 71.6 73.2 74.9 76.4 75.9 76.4 76.6 77.1 78.0 79.1 80.1 80.9 81.2 80.9 81.4 81.5 81.4 80.9 80.3 79.9 80.0 80.0 80.0 80.0 80.1 81.7 83.6 84.9 87.5 89.5 90.4 90.8 90.8 91.5 92.3 93.7 96.0 96.5 98.9 99.6 99.5 99.5 100.3 102.3 104.2 106.3 108.5 110.1 110.0 110.0 109.9 109.4 108.4 109.1 109.6 110.0 110.0 110.0 110.0 109.3 107.4 105.7 103.9 102.5 100.7 99.8 100.0 100.3 100.3 100.4 100.4 100.4 101.2 100.9 101.2 101.4 101.2 101.0 100.6 100.1 101.4 102.3 103.6 104.7 107.4 109.2 109.2 109.2 109.1 109.5 109.4 108.5 109.0 109.9 110.0 109.7 108.9 109.1 108.8 108.9 109.2 109.5 110.0 111.0 114.4 116.3 118.6 120.0 120.0 119.5 118.8 118.1 119.0 119.8 119.7 119.0 118.1 118.9 119.9 120.4 120.8 120.0 119.3
70.0 70.6 70.3 70.2 70.0 70.0 70.2 70.3 70.9 72.2 73.0 73.3 74.7 76.8 78.3 77.9 77.8 77.8 78.1 78.8 79.9 80.4 81.6 82.2 82.0 84.2 84.5 84.6 84.5 83.5 81.0 80.5 80.0 80.0 80.0 80.0 81.2 83.6 85.7 88.3 90.1 90.8 91.0 91.2 92.3 93.0 94.4 96.2 96.8 99.4 99.9 99.9 99.9 101.5 103.2 104.7 106.5 108.3 110.0 110.0 110.0 109.8 108.6 107.3 109.0 109.8 110.0 110.0 110.0 110.0 109.4 107.4 105.5 103.3 102.5 100.7 99.8 100.0 100.2 100.5 100.7 100.7 100.9 102.3 101.9 102.4 102.6 102.8 102.8 102.3 102.6 106.4 107.0 108.3 109.3 109.9 110.0 110.0 110.5 110.5 110.7 110.3 109.9 109.4 109.9 110.1 109.8 109.0 109.1 109.3 109.5 109.8 110.5 110.3 110.0 112.6 115.2 117.5 120.0 120.0 120.0 120.0 119.2 118.8 119.7 120.2 119.5 119.4 119.9 120.6 121.2 122.1 122.2 120.7
79.4 79.1 78.0 74.2 71.2 70.8 71.6 71.7 72.5 74.2 75.3 75.9 77.1 78.6 79.9 79.8 79.3 79.2 79.4 79.9 80.4 80.9 82.5 83.1 82.9 87.6 88.0 88.3 88.8 87.6 82.1 81.4 80.5 80.0 80.0 80.0 80.9 83.5 85.9 88.6 90.3 90.8 90.8 90.9 93.3 94.3 96.2 97.5 98.5 99.6 100.2 100.2 100.2 102.4 103.2 104.0 105.1 107.0 108.8 109.9 109.7 107.5 105.3 103.8 106.4 106.5 109.0 109.3 109.2 109.4 103.4 102.9 102.4 101.3 101.1 100.3 99.9 100.0 100.0 100.2 100.4 100.4 100.6 102.5 102.8 103.2 103.5 103.7 103.8 103.5 105.1 107.0 107.2 108.1 109.0 109.8 110.0 110.0 111.4 111.5 111.3 110.8 110.2 110.3 110.7 110.0 109.7 108.9 109.8 110.0 110.3 110.8 113.3 113.3 110.9 116.9 117.2 118.1 119.5 120.0 120.0 120.8 120.0 119.3 119.5 120.1 120.3 120.1 120.9 121.4 122.0 123.2 123.6 123.0
79.7 79.3 78.8 75.8 72.7 72.4 73.4 73.7 75.0 77.0 77.6 78.2 79.3 80.0 80.9 81.2 80.7 80.6 80.7 81.3 82.8 85.0 87.0 88.0 89.5 90.0 90.4 90.8 90.9 90.1 88.5 85.4 82.8 80.4 80.1 80.5 80.6 83.3 85.5 87.9 90.0 90.3 90.3 90.3 93.8 94.9 96.5 97.8 98.9 100.0 100.0 100.0 100.0 100.0 100.0 100.0 100.4 103.6 107.4 108.4 106.7 102.5 101.4 101.1 104.5 104.7 107.3 107.3 107.3 107.7 102.0 101.7 101.3 100.3 100.3 100.0 99.8 100.0 100.0 100.0 100.1 100.1 100.3 102.3 103.3 103.8 104.1 104.3 104.6 104.4 107.3 108.3 108.1 108.5 108.9 109.6 110.0 110.0 111.5 112.1 112.2 112.0 112.0 112.2 111.0 110.0 109.7 109.6 109.7 110.0 111.1 111.7 115.6 115.9 114.3 117.9 117.5 117.7 119.2 119.7 120.0 120.8 121.4 120.8 121.0 123.7 123.1 122.8 123.0 123.5 124.6 126.2 125.9 125.1
79.6 79.2 78.7 76.9 74.2 74.0 75.1 75.5 76.7 77.5 78.1 78.7 79.4 80.1 81.2 82.1 82.3 82.3 82.4 82.9 84.2 86.1 88.0 88.6 89.8 90.0 91.1 91.9 91.3 90.2 89.3 86.0 83.0 80.3 80.5 81.7 82.9 85.0 85.7 86.8 89.6 89.9 89.9 90.0 92.1 93.8 95.4 97.2 99.0 100.0 100.0 100.0 100.0 100.0 100.0 100.0 100.3 101.7 104.4 105.0 102.6 100.6 100.0 99.9 100.2 100.9 103.3 104.2 104.7 104.8 101.0 100.8 100.2 99.7 99.1 99.5 98.9 100.0 100.0 100.0 100.0 100.0 100.1 101.2 102.4 103.4 104.1 104.8 105.4 105.8 109.7 109.6 109.5 109.5 109.5 109.4 109.9 110.0 110.9 111.6 112.1 112.3 113.7 114.5 113.3 111.6 111.0 110.8 110.2 109.9 110.4 111.6 118.6 118.9 117.6 119.0 118.5 118.3 119.6 119.8 119.9 120.4 121.5 122.4 123.1 125.4 124.8 124.1 124.1 124.5 126.1 127.9 128.0 127.8
79.6 79.2 78.7 77.8 75.6 76.0 77.0 77.6 78.5 78.7 79.4 80.3 80.5 82.2 83.2 83.6 83.8 84.1 84.5 85.4 87.1 88.6 89.7 89.8 89.6 90.0 90.8 91.7 90.7 90.0 89.3 88.6 88.0 83.8 85.7 84.3 86.0 87.9 87.9 90.0 90.0 90.0 90.0 90.0 90.8 92.8 94.7 96.7 98.7 100.0 100.0 100.0 100.0 100.0 100.0 100.0 100.2 101.3 102.2 102.1 101.0 100.1 99.7 99.7 100.1 100.8 102.0 102.7 102.8 102.3 100.0 99.9 100.1 99.3 98.2 99.1 98.9 100.0 100.0 100.0 100.0 100.0 100.0 100.6 102.3 104.0 105.4 106.5 108.0 109.7 110.0 110.5 110.9 110.7 110.4 110.0 109.9 109.9 110.2 111.2 111.8 111.9 115.1 117.2 115.4 112.6 112.0 111.5 110.8 110.0 112.4 118.2 120.0 120.0 120.0 120.0 119.8 119.7 120.1 120.6 122.6 124.7 124.5 124.8 125.9 128.1 127.5 126.5 126.4 127.0 127.9 129.5 129.9 130.2
78.3 78.9 78.3 77.8 77.0 77.2 77.7 78.2 79.2 79.6 80.6 81.7 82.4 83.5 84.3 84.7 85.3 85.7 86.2 87.0 88.5 89.5 90.0 90.4 89.9 90.0 90.1 91.8 91.7 90.1 89.8 89.1 88.9 86.0 87.4 86.2 87.4 88.5 88.4 90.2 90.0 90.0 90.0 90.0 90.9 92.7 94.2 95.9 97.6 99.5 100.0 100.0 100.0 100.0 100.0 100.0 100.1 100.4 100.3 100.0 99.5 99.3 99.3 99.7 100.1 100.8 101.8 101.6 100.9 100.0 100.0 98.7 98.3 97.0 96.2 98.5 98.9 100.0 100.0 100.0 100.0 100.0 100.0 101.7 103.9 105.1 106.0 106.6 107.3 108.2 109.8 110.8 111.9 112.2 112.3 111.3 111.8 112.0 116.8 117.1 117.7 118.9 119.9 119.9 119.1 119.5 116.7 116.0 115.2 113.2 119.1 119.8 120.0 120.2 120.3 120.1 120.0 120.0 121.1 121.6 126.1 127.6 127.0 127.2 128.5 129.7 129.6 128.4 128.2 128.6 129.5 130.5 131.8 132.4
72.4 77.6 76.9 76.9 76.9 76.9 77.9 78.5 79.6 80.8 82.0 83.1 84.0 84.8 85.5 85.9 86.5 87.1 87.3 87.5 88.6 89.6 90.0 90.8 90.8 94.3 94.5 96.8 95.1 90.8 90.6 89.9 89.5 88.2 88.6 87.4 88.8 89.3 89.1 90.4 90.0 90.0 90.0 90.0 91.2 92.8 93.9 95.3 96.6 98.3 99.6 100.0 100.0 100.0 100.0 100.0 100.1 100.7 100.8 100.1 99.9 99.4 99.3 99.5 100.2 100.6 100.9 100.3 100.9 100.5 100.0 99.1 97.6 96.1 94.4 98.3 99.2 100.0 100.0 100.0 100.1 100.2 100.3 103.4 106.5 107.0 107.1 107.5 107.9 108.3 109.5 110.2 111.6 112.7 113.3 113.0 114.7 114.9 117.9 118.0 117.8 118.4 119.6 120.0 119.7 119.7 118.1 117.4 116.6 115.5 119.0 119.6 120.0 120.0 120.0 120.1 120.4 120.6 122.9 124.0 129.4 129.2 128.8 129.4 130.0 130.5 130.5 130.1 129.8 129.6 130.5 131.8 133.2 134.6
71.1 77.5 76.9 76.9 76.9 77.4 79.0 79.4 79.7 81.1 82.4 84.1 85.8 86.4 86.7 87.0 88.1 88.7 88.8 88.2 88.5 89.5 91.9 95.0 98.6 100.0 98.9 99.3 98.5 94.0 92.6 90.5 89.8 89.1 89.4 89.7 90.1 90.0 89.9 90.0 90.0 90.0 90.0 90.0 91.0 92.5 93.4 94.7 95.6 97.3 98.4 99.9 100.0 100.0 100.0 100.0 100.1 100.8 100.8 100.2 99.9 99.5 99.0 93.7 98.2 99.1 99.2 98.8 99.7 100.5 99.9 97.6 94.6 92.8 91.2 90.4 93.7 97.5 99.9 100.3 100.5 100.6 100.7 104.2 107.8 108.0 108.2 108.5 108.8 109.1 110.0 111.1 112.6 113.7 114.4 114.3 117.6 117.7 119.3 119.3 118.8 118.1 118.9 119.8 120.1 119.9 119.1 118.3 117.7 116.6 117.5 117.9 120.0 120.0 120.0 120.0 120.4 121.5 125.0 127.7 129.8 129.9 129.9 129.9 130.0 131.2 131.4 132.5 131.8 131.6 133.8 137.0 137.6 138.3
72.2 79.6 77.7 77.2 77.8 79.2 80.1 80.1 81.9 84.1 85.7 87.2 88.4 88.2 88.2 88.6 89.7 90.0 90.0 89.7 89.4 90.0 92.6 95.7 98.9 100.0 100.0 100.0 99.8 97.9 94.2 90.3 89.5 88.8 88.7 88.7 91.0 91.1 91.0 90.3 90.3 90.0 90.0 90.0 90.7 91.9 92.8 93.9 94.2 95.9 96.9 98.4 99.5 100.0 100.0 100.0 100.1 100.8 100.7 100.3 99.6 98.7 97.8 90.9 95.8 96.1 96.3 96.0 96.5 98.5 94.7 92.5 91.4 90.5 90.0 91.0 94.2 98.4 100.2 100.8 101.2 101.2 101.4 105.1 108.9 109.0 109.2 109.5 109.9 110.0 111.1 114.3 116.2 116.7 117.7 119.3 120.0 120.0 120.0 120.0 119.9 119.4 119.5 120.0 120.0 120.0 119.4 119.1 118.8 117.8 117.9 117.8 120.0 120.0 120.0 120.0 120.0 120.4 123.4 125.7 128.8 130.1 130.6 130.7 131.0 132.9 133.1 135.2 134.8 135.4 137.6 139.7 140.0 140.0
78.9 80.3 79.8 79.4 79.6 80.0 81.0 81.1 84.2 86.3 87.7 89.2 90.0 89.9 89.5 89.8 90.0 90.0 90.0 90.0 89.8 90.2 92.5 95.2 97.6 100.0 100.0 100.0 99.2 95.0 91.6 89.9 90.0 89.0 89.5 89.9 90.3 91.1 91.8 90.9 91.8 91.0 90.1 90.1 91.5 92.6 93.0 93.9 94.1 95.1 95.9 97.3 98.4 99.8 100.0 100.0 100.1 100.3 99.7 99.5 95.4 93.5 91.0 90.0 90.7 92.2 92.9 93.1 93.4 93.8 91.8 90.5 90.0 90.0 90.0 93.8 96.2 99.9 101.2 102.0 102.4 103.4 105.6 108.6 109.9 110.0 110.0 110.1 110.2 110.2 111.3 115.9 117.8 118.2 118.5 119.6 120.0 120.0 120.0 120.0 120.0 120.0 119.9 120.0 120.4 121.2 120.7 120.7 120.2 119.7 119.4 118.8 120.0 120.0 120.0 120.0 120.1 120.0 121.8 124.4 127.6 129.4 130.6 131.0 131.8 133.7 134.3 137.4 137.0 137.9 139.8 140.0 140.0 140.0
79.0 80.0 80.0 79.6 79.7 80.6 81.7 82.1 86.2 87.9 89.5 90.0 90.0 90.0 90.0 90.0 90.0 89.8 90.0 90.1 90.2 90.6 93.4 96.9 98.0 99.6 100.0 99.7 98.7 96.5 96.0 93.0 92.4 90.0 89.6 90.1 90.9 92.0 92.9 92.8 94.1 93.6 93.0 92.6 97.7 96.8 96.0 95.6 93.6 94.6 95.2 97.4 98.6 99.8 100.0 100.0 100.0 100.1 98.3 96.8 94.5 92.7 90.5 90.0 90.3 90.5 90.7 91.6 91.3 90.5 90.0 90.0 90.0 90.0 90.2 96.9 97.6 100.4 101.3 101.6 101.6 102.8 105.2 108.9 110.0 110.1 110.2 110.5 110.7 110.7 112.2 117.1 119.4 119.7 119.7 119.6 120.0 120.0 120.0 120.0 120.0 120.0 120.0 120.0 122.1 123.2 123.0 122.0 121.1 120.1 119.7 119.3 120.0 120.0 120.0 120.5 121.8 121.6 125.6 126.5 128.3 129.5 130.3 130.5 132.0 134.5 135.7 140.0 139.0 139.4 140.0 140.0 140.0 140.0
78.5 80.0 80.0 79.7 80.1 81.4 83.0 84.3 88.3 89.9 90.0 90.0 90.0 90.0 90.0 89.1 88.7 87.1 88.3 89.7 90.3 91.9 93.1 97.2 99.1 100.0 99.9 100.0 99.1 97.6 97.8 96.7 96.0 91.4 89.8 90.4 91.3 92.4 93.8 93.8 95.9 96.0 95.7 95.3 98.5 97.5 96.5 95.7 93.1 93.3 93.7 97.7 99.4 100.0 100.0 100.0 99.9 98.8 95.9 94.8 93.6 93.3 91.9 90.2 90.0 90.0 89.4 90.0 90.0 90.0 90.0 90.0 90.0 90.0 92.8 96.7 97.0 99.9 100.6 100.7 100.6 100.4 100.6 106.4 109.7 109.7 109.9 110.7 112.0 114.0 117.5 119.8 120.0 120.0 120.0 120.0 120.0 120.0 120.0 120.0 120.0 120.0 120.0 120.0 122.9 125.2 125.7 122.7 121.4 120.4 119.9 120.1 120.9 121.5 120.2 121.7 122.9 123.7 126.9 126.9 128.7 128.9 129.9 130.0 132.7 136.4 139.7 140.0 140.0 140.0 140.0 140.0 140.0 140.0
72.7 77.6 78.6 80.6 81.1 80.4 85.5 88.5 90.5 90.0 90.0 90.0 90.0 89.7 86.2 85.1 87.2 84.0 87.2 89.3 89.6 91.3 92.7 97.9 99.9 100.0 99.9 100.0 100.0 99.3 99.7 100.0 100.0 98.8 93.3 96.4 98.0 97.2 97.2 99.0 98.3 98.7 98.7 98.1 99.4 99.3 100.0 97.2 92.2 91.3 91.1 96.5 99.7 100.0 100.0 98.7 98.2 95.5 92.3 91.9 92.3 93.2 92.3 90.7 90.1 90.0 89.4 90.0 90.0 90.0 90.0 90.0 90.0 90.0 90.2 92.9 92.2 98.8 100.1 100.1 100.0 100.0 100.0 106.1 109.2 109.2 109.4 109.8 111.2 113.1 116.9 119.6 120.1 120.2 120.2 120.1 120.6 120.6 120.5 120.4 120.3 120.3 120.2 120.2 125.0 128.0 129.1 126.6 125.1 123.7 121.6 122.0 123.3 124.2 122.0 123.0 124.6 125.9 128.3 128.2 129.7 129.7 129.7 130.0 131.2 134.3 136.5 139.6 140.0 140.0 140.0 140.0 140.0 140.0
71.3 74.8 76.7 79.2 80.0 79.9 83.5 89.3 88.8 89.9 87.3 88.7 85.6 83.3 79.7 79.9 80.0 80.1 82.7 85.6 87.6 90.4 91.9 99.5 100.0 100.0 99.9 100.0 100.0 100.0 100.0 100.0 100.0 99.7 97.5 98.2 98.1 98.3 98.8 99.8 100.0 100.0 100.0 100.0 99.9 98.5 95.7 93.5 91.0 90.0 90.0 90.2 90.9 98.5 96.9 94.0 92.1 90.6 89.8 89.6 90.0 90.4 90.9 90.0 90.0 90.0 89.4 90.0 90.0 90.0 90.0 90.0 90.0 90.1 90.0 90.0 90.0 93.7 99.1 99.8 99.8 99.8 100.0 102.1 106.0 107.7 108.1 108.9 110.0 111.7 114.4 117.4 119.6 120.2 120.3 120.4 121.4 121.1 121.0 121.0 121.3 123.5 124.6 126.6 128.7 129.8 130.0 129.4 128.8 128.2 124.8 124.8 126.1 126.9 124.2 124.6 126.2 127.8 129.4 129.0 130.0 130.0 130.0 130.0 130.1 133.2 135.5 138.4 139.8 140.0 140.0 140.0 140.0 140.0
70.4 71.1 72.2 70.1 78.3 79.7 80.0 80.0 78.5 79.6 78.5 80.0 80.0 80.8 80.0 79.8 80.2 80.0 80.4 80.2 83.4 87.1 89.9 96.8 98.0 95.8 98.2 100.0 100.0 100.0 100.0 100.0 100.0 99.5 98.4 98.1 98.7 99.1 99.7 100.0 100.0 100.0 100.0 100.0 100.0 99.9 97.0 93.3 90.0 90.0 90.0 89.9 90.6 93.4 93.0 92.1 90.4 89.9 89.1 89.0 89.9 90.3 90.0 89.0 89.0 87.9 85.1 90.0 90.0 90.0 90.0 90.0 90.3 92.0 91.9 91.9 91.5 99.0 99.1 99.1 99.4 100.2 100.6 105.3 109.1 109.3 108.9 108.8 109.3 110.5 112.5 115.3 117.7 119.4 120.0 120.1 121.2 120.9 120.8 120.5 120.5 123.9 125.5 127.4 128.9 130.0 130.0 130.0 129.5 128.9 127.6 127.0 128.1 129.5 127.4 129.2 129.6 130.0 130.4 130.0 130.4 130.4 130.0 130.0 130.0 131.5 134.5 137.3 139.1 140.0 140.0 140.0 140.0 139.3
69.5 69.1 69.3 69.6 76.2 80.1 80.0 78.0 75.8 77.6 77.8 80.0 80.0 80.4 79.7 79.8 80.0 80.0 80.0 84.2 82.9 84.3 88.3 89.8 91.8 90.9 93.3 96.4 97.7 98.6 97.3 100.0 100.0 99.7 98.7 98.5 99.3 99.8 100.0 100.0 100.0 100.0 100.0 100.0 100.0 100.0 97.6 92.8 90.0 90.0 90.0 89.4 89.8 90.2 89.7 90.1 90.7 90.0 89.3 89.2 89.9 90.3 90.0 89.5 86.3 85.1 82.8 90.0 90.0 90.0 90.0 90.1 90.8 93.3 94.9 95.7 95.6 99.5 99.4 99.5 100.0 100.6 101.0 107.1 109.9 109.9 109.8 109.7 109.5 109.9 111.3 113.4 115.9 117.4 119.2 119.7 120.6 120.6 120.5 120.2 120.0 123.3 125.2 127.6 129.2 130.0 130.0 130.0 129.9 129.3 128.5 129.4 130.1 130.2 129.8 129.4 129.7 130.2 131.2 131.6 133.2 133.2 132.8 132.2 132.5 137.8 137.8 138.8 139.3 140.0 140.0 140.0 140.0 139.8
66.7 67.4 67.4 68.9 70.8 77.8 74.0 72.0 70.5 70.0 71.9 75.7 79.1 78.5 76.5 77.2 80.0 80.2 84.6 90.1 82.8 80.6 88.3 90.2 89.2 90.0 89.6 90.0 90.0 90.0 90.0 100.0 100.0 100.0 99.9 99.3 99.7 100.0 100.0 100.0 100.0 100.0 100.0 100.0 99.9 99.3 94.8 92.0 90.0 90.0 90.0 88.6 88.9 87.9 88.5 89.5 90.2 89.9 88.2 85.8 85.4 88.5 84.1 81.3 80.0 80.4 80.2 85.6 86.6 87.2 88.1 89.6 90.7 94.6 98.4 99.6 100.0 99.9 99.9 100.1 100.8 103.3 106.8 109.8 110.2 110.1 110.0 110.0 110.0 110.0 112.9 115.1 116.9 118.0 119.7 120.0 120.0 120.0 120.0 120.0 120.0 121.2 123.4 126.8 129.9 130.0 130.0 130.0 130.0 129.5 128.8 129.6 130.1 130.2 129.9 129.5 129.9 130.8 131.8 132.8 135.7 135.7 135.5 136.1 136.2 138.8 138.5 139.1 139.5 140.0 140.0 140.0 140.0 140.0
64.0 65.2 65.5 65.7 69.4 69.9 69.9 69.8 69.9 71.2 71.9 77.6 79.5 76.9 74.4 72.1 79.4 79.7 80.0 83.2 80.0 80.0 83.4 87.5 87.3 89.9 89.5 90.0 90.0 90.0 90.3 94.5 94.2 99.4 99.8 100.0 100.0 100.0 100.0 100.0 100.0 100.0 100.0 100.0 99.0 97.6 95.0 92.2 90.6 89.8 89.3 87.6 87.6 85.3 86.0 86.1 88.9 87.8 83.4 82.3 82.2 81.9 80.0 80.0 80.0 80.1 80.2 83.9 85.6 86.5 87.4 89.0 90.5 97.8 100.3 100.2 100.2 100.1 100.1 100.5 102.0 104.8 108.0 109.9 110.1 110.0 110.0 110.3 110.2 110.4 112.9 114.8 117.1 119.1 120.0 120.0 119.8 120.0 120.0 120.0 120.0 121.5 122.6 126.0 129.6 130.0 130.0 130.0 130.0 130.0 130.0 130.0 130.2 130.3 130.0 129.5 129.9 130.9 132.0 134.0 138.9 138.5 138.3 139.9 140.0 139.8 139.4 139.4 139.6 140.0 140.0 140.0 140.0 140.0
63.4 64.6 64.4 65.1 68.0 69.4 69.4 69.8 70.0 70.5 69.9 76.0 79.8 79.4 73.6 70.1 77.6 80.0 80.0 80.0 80.0 80.0 80.0 84.5 84.5 88.3 84.9 88.6 89.3 90.0 90.0 90.3 89.9 95.3 100.0 100.0 100.0 100.0 100.0 100.0 100.0 100.0 99.7 99.5 97.2 96.4 94.4 91.0 90.9 90.2 89.5 88.1 87.1 82.7 84.3 84.3 85.6 84.1 81.5 80.2 80.0 80.0 80.0 80.0 80.0 80.0 80.2 82.8 84.8 86.3 87.4 89.2 90.4 98.4 99.0 97.6 99.4 99.9 100.0 100.2 100.4 100.6 100.8 105.6 108.4 108.6 108.9 110.1 110.4 110.6 110.7 111.5 112.4 113.1 117.5 117.6 116.7 119.4 119.4 119.3 119.8 120.4 120.5 120.9 126.1 128.9 129.8 129.4 129.6 130.0 130.0 130.0 130.3 130.4 130.1 129.6 130.7 133.7 136.4 139.3 140.0 140.0 141.2 140.0 140.0 140.0 140.0 140.0 140.0 140.0 140.0 140.0 140.0 140.0
63.5 64.5 63.4 64.8 67.3 68.9 69.9 70.0 70.0 70.3 69.8 79.6 80.6 77.9 70.5 70.0 77.7 80.2 78.9 80.0 80.0 80.0 80.0 81.4 80.6 80.2 81.5 85.4 87.8 89.9 89.7 90.1 95.4 99.6 100.0 100.0 99.7 99.9 100.0 100.0 100.0 99.9 98.7 98.2 96.4 95.5 94.5 90.0 90.2 90.5 90.0 86.5 82.8 80.0 81.0 81.7 82.7 81.8 80.3 80.0 80.0 80.0 80.0 80.0 80.0 80.1 80.0 81.3 83.9 86.1 87.8 90.0 90.9 94.8 95.1 93.5 98.5 99.5 99.5 99.8 100.0 100.2 100.4 103.3 105.8 106.6 107.8 109.8 110.0 110.1 110.2 110.4 110.8 111.3 113.5 113.9 113.7 119.1 119.1 118.9 119.0 119.9 120.0 120.3 122.7 124.3 128.8 128.6 129.3 130.1 130.6 131.1 132.1 134.2 133.1 130.6 134.9 137.3 138.5 139.7 140.0 140.0 143.7 140.0 140.0 140.0 140.0 140.0 140.0 140.0 140.0 140.0 140.0 140.0
61.5 62.8 61.8 63.0 66.4 68.8 69.8 70.0 70.0 69.7 70.1 80.0 77.4 70.9 70.0 72.4 81.6 79.0 74.3 80.0 80.0 80.0 80.0 80.1 80.4 79.9 80.1 83.2 87.6 89.2 90.3 91.2 100.0 100.0 100.0 100.0 99.7 99.6 99.8 100.0 100.0 99.9 98.0 96.5 94.4 92.4 90.3 89.8 89.7 90.0 90.0 87.5 83.8 80.2 80.3 80.7 80.3 80.0 80.0 80.0 80.0 80.0 80.0 80.0 80.3 81.5 80.5 86.1 87.0 87.8 89.1 90.0 90.0 92.2 91.4 90.0 90.8 94.0 97.0 99.0 99.4 99.7 99.9 100.9 102.9 104.2 104.7 109.2 109.6 109.7 110.0 110.0 110.0 110.0 110.0 110.2 110.6 115.4 117.7 118.1 119.1 119.6 119.6 119.8 119.8 120.0 122.7 125.9 127.4 129.4 130.1 130.7 131.6 133.9 134.0 132.3 136.7 137.8 138.4 139.7 140.0 140.0 147.6 140.0 140.0 140.0 140.0 140.0 139.8 140.0 140.0 140.0 140.0 140.0
60.4 60.5 60.0 61.2 63.9 69.5 69.5 70.0 70.0 69.9 70.0 72.2 70.2 70.0 70.0 70.6 71.1 70.0 70.0 73.0 76.5 79.0 79.9 80.1 79.9 80.6 81.9 87.7 90.0 90.2 90.1 93.8 99.5 100.0 100.0 100.0 99.8 99.4 99.3 99.3 100.0 99.8 97.8 96.1 93.9 92.6 90.8 89.2 88.2 88.5 87.9 83.4 82.2 80.5 79.8 79.7 79.6 80.0 80.0 80.0 80.0 80.0 80.0 80.0 80.0 81.5 81.8 86.0 87.2 87.8 88.7 90.0 90.0 90.1 90.0 90.0 91.6 94.3 96.6 98.4 99.0 99.2 99.3 99.6 100.4 101.8 102.5 107.7 109.2 109.6 109.9 109.6 109.5 109.6 109.5 109.7 110.3 115.3 118.3 118.6 119.5 119.1 119.1 119.4 119.8 120.9 125.9 128.5 128.2 128.7 129.7 130.2 131.2 134.0 134.5 133.9 139.3 139.2 138.7 139.8 142.9 146.4 150.0 149.4 146.3 140.5 140.4 140.4 139.6 139.4 140.0 140.0 140.0 140.0
60.8 60.3 60.0 60.1 66.3 70.0 70.0 70.0 69.6 69.5 70.0 70.0 70.0 70.0 70.0 70.0 70.1 71.1 75.6 79.7 78.8 79.8 79.7 79.8 80.3 79.9 81.3 86.4 88.4 89.8 90.2 93.7 98.9 100.0 100.0 99.5 98.6 98.0 97.5 95.9 97.8 96.5 94.2 93.7 92.0 91.4 90.6 89.7 88.0 87.2 85.8 83.1 82.3 80.7 79.9 79.6 79.4 80.0 80.0 80.0 80.0 80.0 80.0 80.0 80.1 81.1 81.9 85.7 87.7 88.9 89.2 89.9 89.8 89.7 89.8 90.1 91.7 93.8 95.7 97.5 99.3 99.6 99.7 99.6 99.6 100.1 101.0 104.5 107.1 108.6 109.3 108.8 108.8 109.0 109.5 110.4 111.5 119.0 119.9 119.7 119.9 119.4 119.4 120.0 121.7 123.2 129.2 129.8 129.6 129.3 129.1 129.7 130.4 133.6 136.1 139.0 140.0 140.0 140.0 140.8 143.8 146.5 149.4 148.0 143.1 140.0 139.5 139.2 138.6 139.2 139.9 140.0 140.0 140.0
61.2 60.7 60.0 60.0 63.2 69.6 70.2 68.9 65.0 60.5 62.5 68.0 68.5 69.9 69.8 69.9 69.9 76.6 80.0 80.0 80.0 80.4 80.0 80.3 82.1 87.5 83.1 89.2 89.0 89.8 90.1 94.0 100.0 100.0 99.6 98.5 97.6 97.1 96.5 93.7 94.9 94.1 92.3 91.2 90.0 90.0 90.0 89.9 88.2 86.7 84.2 82.1 81.9 80.4 79.9 79.6 79.4 80.0 80.0 80.0 80.0 80.0 80.0 80.1 81.2 82.9 83.1 88.8 89.4 89.5 89.6 89.2 89.3 90.0 90.3 90.6 94.5 96.4 97.2 97.7 99.6 99.9 100.0 100.0 100.0 99.9 100.0 101.9 105.3 107.6 108.6 108.7 109.1 109.4 110.4 113.0 116.7 120.0 120.0 120.0 120.0 120.0 120.3 121.7 126.2 127.0 129.8 130.0 130.0 130.0 130.0 130.0 131.4 134.9 136.3 138.1 140.0 140.0 140.0 140.0 140.0 140.0 145.5 140.0 140.0 140.0 139.4 138.8 138.1 138.3 138.9 139.8 140.0 140.0
60.2 60.2 60.0 60.0 63.6 69.9 70.0 64.6 61.6 60.0 68.5 70.0 69.9 70.5 70.0 70.9 72.6 75.7 79.2 79.9 80.0 80.3 80.1 80.7 86.6 90.0 89.5 90.0 90.0 92.1 91.6 94.4 99.6 100.0 99.8 98.8 97.7 96.9 95.9 91.2 92.5 92.7 91.7 91.1 90.0 89.4 90.0 89.8 87.8 86.2 81.9 80.8 80.7 79.8 79.8 79.5 79.2 80.0 80.0 80.0 80.0 80.0 80.4 80.5 82.1 83.3 83.5 89.6 89.8 89.9 89.9 89.8 89.8 89.6 90.0 90.2 94.3 96.1 97.3 98.8 100.0 100.2 100.2 100.2 100.1 100.8 100.9 109.0 109.6 109.6 109.6 109.7 109.9 110.2 112.0 114.9 118.3 120.4 121.0 120.6 121.0 121.1 123.7 128.2 129.9 129.5 130.3 130.5 130.2 130.3 130.3 131.9 135.5 138.5 138.2 138.8 140.0 140.0 140.0 140.0 140.0 140.0 141.8 140.0 139.9 139.6 138.7 138.0 137.1 137.1 138.5 139.6 140.0 140.0
60.3 60.0 60.0 60.0 60.4 64.1 62.3 60.1 60.0 64.7 69.8 70.5 70.0 74.7 76.6 76.3 79.3 78.7 80.3 79.7 80.4 81.1 80.1 80.5 83.8 89.8 89.2 90.0 91.1 99.9 98.2 98.7 100.0 100.0 100.0 98.3 96.0 93.6 91.1 89.9 90.0 90.6 90.4 90.4 89.8 88.0 87.3 85.3 83.1 81.5 80.0 79.6 79.3 78.9 79.0 78.8 78.8 80.0 80.0 80.0 80.0 80.0 81.1 81.7 83.7 85.4 86.7 89.4 90.0 90.0 90.0 90.0 90.8 90.4 89.9 90.0 92.4 94.9 96.7 98.3 100.0 100.4 100.6 100.8 100.5 102.1 102.3 109.0 109.9 109.9 109.9 110.0 110.5 110.8 113.2 116.3 118.6 120.2 120.8 121.3 121.9 122.8 125.8 128.7 130.1 130.2 130.7 130.8 130.5 131.2 132.0 134.2 138.1 139.7 139.4 138.9 140.0 140.0 140.0 140.0 140.0 140.0 140.3 139.8 139.4 139.0 137.9 137.3 134.5 133.5 136.0 138.3 139.9 139.7
59.9 59.8 59.4 59.5 59.9 59.9 59.7 60.0 63.5 71.1 70.3 70.1 74.9 80.0 79.5 80.0 80.0 79.8 82.1 84.0 84.4 87.1 87.2 89.5 89.3 90.0 89.9 90.0 95.8 100.0 99.9 100.0 100.0 100.0 99.4 97.2 95.5 93.7 91.9 90.0 89.2 89.4 89.3 88.6 87.3 85.8 84.5 81.8 81.8 80.9 80.0 79.4 78.5 78.5 79.1 78.8 78.7 80.0 80.0 80.0 80.0 80.0 80.9 82.5 84.7 86.8 88.9 90.0 90.3 90.4 90.5 90.2 94.0 93.6 92.1 91.7 97.9 98.4 98.7 98.9 99.6 99.9 100.3 101.5 102.0 105.2 107.5 109.8 110.2 110.2 110.1 110.2 110.3 111.0 114.3 116.6 118.0 119.7 120.1 120.7 122.4 123.3 125.7 127.6 129.6 130.3 130.6 132.2 132.0 134.0 136.4 138.9 140.0 140.0 140.0 140.0 140.0 140.0 140.0 140.0 140.0 140.0 140.4 139.9 139.4 138.9 137.8 136.5 132.4 131.1 133.1 137.9 138.6 139.1
59.5 59.4 59.5 59.7 59.6 59.6 59.9 60.0 62.2 69.5 69.5 69.6 70.1 71.2 71.2 79.5 79.2 81.6 87.7 89.9 89.5 89.6 89.8 89.9 90.1 90.2 91.4 96.0 99.9 100.0 100.0 100.0 100.0 100.0 98.8 97.0 95.4 93.8 91.8 90.2 88.8 88.3 88.1 86.2 84.9 82.6 80.9 80.0 80.5 80.9 79.7 78.3 77.1 77.6 78.4 78.5 78.7 79.4 79.7 80.0 80.0 80.0 80.6 82.7 85.1 87.4 89.7 90.3 90.6 90.7 90.8 90.5 97.3 96.6 94.9 93.3 98.5 99.0 99.1 99.2 99.3 99.6 100.0 100.7 101.3 104.9 106.7 109.3 110.0 110.0 110.0 110.0 110.0 111.2 114.2 116.2 117.2 119.2 119.6 120.0 121.4 123.1 125.2 126.1 128.9 129.7 130.0 132.4 134.1 137.1 139.5 139.7 140.0 140.0 140.0 140.0 140.0 140.0 140.0 140.0 140.0 140.0 139.2 137.5 136.7 135.5 133.2 131.7 130.1 129.4 130.6 132.0 135.1 135.9
58.2 59.4 59.7 61.0 59.9 60.3 60.5 63.2 64.7 68.7 68.5 69.9 70.0 69.9 69.9 74.2 79.2 80.8 86.9 90.0 89.4 90.0 93.1 97.3 97.6 97.2 98.6 100.0 99.8 100.0 99.9 99.6 100.0 100.0 98.9 96.6 94.5 92.3 90.2 89.4 88.1 87.8 87.4 84.3 84.5 83.5 82.3 80.3 80.1 80.2 79.8 78.7 77.1 77.8 78.8 79.1 79.4 79.8 79.9 80.0 80.0 80.0 80.0 82.1 84.9 87.1 89.6 91.2 92.2 93.3 95.7 97.7 99.9 99.8 98.3 97.8 99.6 99.9 99.9 99.9 99.9 99.9 100.0 100.0 100.1 102.3 103.4 108.2 109.8 109.8 109.7 109.6 109.7 110.2 111.8 115.0 117.6 118.6 118.6 119.3 120.6 123.0 126.2 126.7 129.6 129.9 130.0 133.1 135.2 138.0 139.8 139.7 139.9 139.3 138.9 139.6 140.0 140.0 140.0 140.0 140.0 139.4 138.0 136.7 135.9 134.5 132.4 131.1 129.9 128.5 129.8 130.2 131.3 132.2
56.2 60.2 63.3 69.6 66.3 67.4 68.8 69.8 69.1 70.0 70.0 70.1 70.9 77.5 75.2 78.0 79.4 79.6 80.2 88.3 89.0 90.7 97.1 99.4 100.0 100.0 100.0 100.0 99.8 100.0 99.3 98.2 98.4 98.3 95.5 93.8 92.7 91.4 90.2 89.4 88.2 87.6 86.9 82.2 83.2 82.7 82.1 80.7 80.5 80.2 80.0 79.4 76.2 78.4 79.1 79.1 79.4 79.8 79.9 80.0 80.7 80.3 80.5 84.1 86.8 87.9 89.4 90.9 91.9 93.9 96.5 99.0 100.0 100.0 100.0 99.4 99.9 100.0 100.0 100.0 100.0 100.0 100.0 100.0 100.0 101.0 102.7 106.6 108.9 108.8 108.8 109.2 110.2 111.1 113.1 116.9 119.2 119.4 119.4 119.8 121.5 125.2 128.3 128.7 130.3 130.7 130.7 135.1 137.5 139.6 139.7 139.7 139.0 138.2 137.2 137.4 139.6 139.8 139.2 138.7 139.2 137.3 136.2 134.3 133.5 132.2 131.1 130.4 129.7 128.0 129.8 130.2 131.1 131.9
58.3 59.9 62.1 70.0 70.0 70.0 69.5 72.1 81.0 80.2 70.1 70.3 70.1 77.4 80.3 80.3 83.7 81.5 83.0 88.9 89.5 92.3 99.2 100.0 100.0 100.0 100.0 100.0 99.8 100.0 99.3 97.8 97.1 96.0 94.9 94.0 93.1 92.0 90.8 89.7 87.4 85.2 82.8 80.0 80.9 81.0 80.8 80.1 80.1 80.1 80.0 79.7 74.1 78.0 79.3 79.1 79.4 79.8 79.9 80.0 80.4 81.1 81.3 84.0 87.3 87.7 88.7 90.1 90.9 93.0 94.3 96.3 99.0 100.0 100.0 99.3 99.9 100.0 100.0 100.0 100.0 100.0 100.0 100.1 101.2 103.7 105.0 107.6 108.3 108.3 108.5 109.4 110.6 111.4 117.3 120.0 120.2 120.0 120.0 120.8 126.5 129.2 130.0 129.9 130.0 130.3 130.4 131.0 131.6 134.7 139.5 138.2 137.3 136.1 134.8 134.8 137.0 138.5 137.7 136.8 136.7 134.9 133.4 131.5 130.9 130.4 130.1 129.5 128.9 123.7 129.7 130.1 130.9 131.5
60.0 60.4 70.0 69.9 71.4 72.0 72.3 79.1 80.8 80.0 74.4 70.0 70.0 75.2 80.6 86.4 89.8 87.6 87.6 89.8 90.0 91.6 92.8 98.7 99.5 100.0 100.0 100.0 99.8 100.0 99.8 98.5 97.0 94.0 94.2 94.1 93.4 92.5 91.2 90.2 87.8 85.0 82.1 79.9 80.1 80.0 79.8 79.8 79.9 80.0 80.0 79.4 70.4 76.9 79.4 79.1 79.4 79.8 79.9 80.0 80.3 81.2 81.7 83.5 88.8 88.4 88.2 89.4 90.0 91.4 92.3 93.0 97.3 99.5 99.7 99.8 100.0 100.1 100.2 100.2 100.1 100.0 101.6 102.8 104.1 108.0 107.7 109.5 109.4 109.5 109.4 109.2 109.8 110.1 113.3 117.7 119.9 120.2 120.5 121.2 123.4 127.5 129.9 129.1 129.4 130.0 130.0 130.0 130.0 132.5 137.3 136.2 135.4 134.2 133.0 132.6 134.1 136.9 136.1 134.7 134.1 133.0 131.9 130.6 130.1 129.9 128.7 126.4 121.6 120.0 123.9 128.5 130.3 130.2
60.0 60.9 67.1 69.3 70.5 71.8 71.4 70.7 78.1 79.6 79.7 72.2 77.4 79.2 84.7 90.0 89.3 90.0 90.0 90.0 90.0 90.0 90.0 93.4 98.5 99.9 99.7 100.0 99.8 100.0 98.6 97.0 95.5 91.1 92.8 93.5 93.0 92.1 90.9 89.8 87.7 85.7 83.5 80.7 79.7 78.8 78.2 78.3 78.6 78.5 76.2 71.1 70.0 70.6 71.9 73.3 74.7 76.0 77.3 78.8 80.1 82.5 84.7 87.8 89.9 89.6 89.3 89.9 89.9 91.4 92.8 94.3 97.3 99.8 100.1 100.2 100.1 100.1 100.2 100.5 100.2 100.1 104.4 105.9 106.6 109.1 108.8 109.7 109.7 109.8 109.6 109.6 110.2 110.2 113.7 117.1 119.1 119.5 120.1 120.5 121.8 126.0 129.4 128.4 128.9 130.0 130.0 130.0 130.0 131.6 134.8 134.5 133.9 133.5 131.2 130.5 131.5 135.4 134.8 133.5 132.5 132.3 132.0 131.0 130.3 130.0 129.2 125.7 121.6 119.8 120.5 123.7 127.9 127.4
60.0 60.0 66.1 70.1 69.7 70.0 70.0 69.9 71.3 78.6 80.0 79.8 80.1 80.0 80.2 81.4 84.5 90.0 90.0 90.0 89.4 87.3 90.0 90.6 93.0 98.0 97.2 99.1 99.1 96.7 92.6 91.0 90.2 89.6 90.2 90.3 90.5 90.3 90.1 89.8 88.0 86.1 84.3 81.5 80.4 79.0 77.6 77.0 77.1 76.7 74.5 71.2 70.1 70.3 71.7 73.1 74.4 75.8 77.1 78.9 80.1 82.9 85.8 89.2 90.4 90.1 90.0 90.0 90.2 91.7 93.6 96.6 99.3 100.1 100.0 100.0 99.8 100.1 100.4 102.5 103.4 105.4 108.9 109.2 109.7 110.0 109.9 110.0 110.0 110.0 110.0 110.0 110.2 111.5 114.3 116.9 118.8 119.0 119.5 119.9 120.5 123.5 127.7 127.8 129.0 130.0 130.0 130.0 130.0 131.1 132.9 131.7 130.8 130.3 129.8 129.5 129.8 130.1 130.6 131.8 130.4 130.7 131.5 131.3 130.6 130.2 130.0 126.1 121.5 119.8 120.3 122.0 123.8 123.1
60.0 60.0 61.3 65.2 68.3 70.0 70.0 69.9 75.3 80.0 80.0 80.0 80.0 80.0 79.6 80.0 83.8 90.0 90.0 88.2 82.2 80.0 90.0 91.0 92.5 96.1 95.4 97.3 96.1 93.3 91.4 90.8 90.1 89.4 90.0 90.2 90.4 90.5 90.2 90.0 88.5 86.5 84.3 82.0 80.3 78.8 77.2 76.2 75.9 75.3 73.4 70.1 70.1 70.1 71.7 73.3 74.6 76.2 77.8 79.5 81.1 83.8 86.6 89.5 90.1 90.0 90.0 90.0 90.0 90.1 90.2 90.3 93.8 99.1 99.1 98.8 98.5 99.6 99.9 101.9 104.1 107.2 109.9 110.1 110.1 110.2 110.1 110.0 110.0 110.0 110.0 110.0 110.5 113.0 117.3 118.5 119.1 119.2 119.4 120.1 121.3 124.0 129.2 128.8 129.1 130.0 130.0 129.8 130.0 130.5 131.5 131.5 130.8 130.1 129.7 129.5 129.9 130.4 130.6 130.4 129.7 129.4 130.1 130.4 130.6 130.2 129.7 125.6 121.3 119.8 120.5 120.6 120.8 120.1
60.9 60.0 60.0 60.0 62.6 67.6 69.3 70.1 72.4 78.6 78.0 79.2 80.0 79.8 78.7 80.0 82.0 89.1 84.1 80.2 80.0 80.1 88.3 90.0 90.4 92.5 92.6 93.3 92.3 90.4 90.0 89.9 89.1 88.4 89.8 90.1 90.3 90.5 90.2 89.9 88.1 86.0 83.7 81.8 80.0 78.4 76.5 75.1 74.3 72.9 71.1 69.9 70.0 70.0 71.2 73.0 74.6 76.5 78.4 80.0 80.8 81.6 81.9 82.1 89.0 88.6 88.9 89.6 89.7 90.0 90.2 90.4 92.3 97.4 97.7 97.4 97.4 98.9 99.6 101.3 103.0 104.8 108.3 110.0 110.2 110.4 110.4 110.3 110.2 110.3 110.2 110.0 111.2 114.7 118.8 119.3 119.7 119.7 119.7 120.6 121.9 124.2 129.9 129.8 129.8 130.0 130.0 129.1 128.5 129.4 129.9 130.5 130.6 130.0 129.6 129.6 129.9 130.3 130.3 129.8 129.1 128.8 129.8 130.2 130.4 130.1 128.2 124.7 121.9 119.9 120.0 120.0 120.0 120.0
61.2 60.0 61.0 60.3 60.0 60.5 66.7 70.1 70.9 72.7 70.7 79.5 80.0 79.8 79.0 80.0 80.0 81.1 80.0 80.6 80.0 80.1 86.7 90.1 90.3 91.6 90.8 90.3 89.9 90.0 90.0 88.9 86.1 84.8 89.7 90.0 90.2 90.3 90.1 88.9 86.9 85.1 83.0 81.5 80.1 78.4 75.8 74.2 73.8 72.5 70.7 69.9 70.0 70.6 72.6 73.9 75.1 77.0 78.5 80.0 80.7 81.1 81.2 81.2 86.2 86.3 87.7 89.3 89.4 89.7 89.8 90.0 90.8 94.5 95.9 96.2 97.1 99.1 100.2 101.5 101.9 102.4 106.2 108.2 109.7 110.2 110.1 110.3 110.5 110.9 110.8 110.6 112.7 116.8 119.7 119.8 119.9 120.0 119.9 121.5 124.3 128.0 130.0 130.0 130.0 130.0 129.5 128.5 127.5 128.4 129.6 130.2 130.2 129.4 129.2 129.4 129.8 130.1 130.0 129.2 128.6 128.3 129.2 129.9 130.2 130.1 127.8 123.8 121.3 119.9 120.0 120.0 120.0 120.2
67.3 60.3 67.3 65.1 63.5 62.4 68.5 69.9 70.3 71.0 70.0 72.5 71.7 70.6 70.4 77.7 79.9 80.0 79.9 79.7 79.9 83.1 89.7 90.0 90.4 91.1 90.9 90.4 90.0 89.2 88.7 86.6 81.8 80.4 85.6 89.3 90.2 90.0 89.2 87.4 85.3 84.1 81.9 80.9 80.0 78.3 74.4 72.7 73.1 72.0 70.2 69.9 70.1 71.1 72.8 74.0 75.3 77.3 78.8 80.1 80.6 80.7 80.6 80.5 83.8 84.0 86.7 89.1 89.2 89.4 89.5 89.7 89.7 90.6 93.2 95.2 97.3 99.8 100.5 100.8 100.6 100.7 104.1 106.1 107.2 109.8 109.8 110.1 110.5 111.3 113.2 115.1 118.4 120.0 120.3 120.2 120.2 120.3 120.2 123.6 126.5 128.7 129.9 130.0 130.0 129.6 128.7 125.3 125.2 126.3 127.3 129.1 128.5 126.7 126.2 129.3 129.7 129.9 130.0 129.3 127.6 126.9 129.1 129.7 130.1 128.8 124.4 121.7 119.6 118.7 120.0 120.0 121.1 122.3
70.0 67.2 70.0 70.7 68.9 67.2 70.0 70.0 70.0 70.0 70.0 70.0 70.0 70.7 71.5 78.9 79.4 79.4 79.4 80.2 82.4 83.8 88.9 90.0 90.2 90.8 91.4 91.1 90.2 89.7 88.6 82.6 79.9 79.9 80.9 85.7 89.3 89.1 87.7 84.9 82.0 81.5 80.6 80.1 79.2 77.1 71.4 70.8 72.0 71.3 69.9 69.9 70.5 71.6 73.0 73.9 75.4 77.8 79.2 80.2 80.3 80.3 80.1 80.1 81.1 81.7 85.8 89.2 89.4 89.3 89.3 89.8 89.9 91.8 93.8 95.1 96.9 99.4 100.1 100.2 100.0 100.1 102.5 104.1 104.7 109.4 109.5 109.6 109.9 110.8 112.8 114.6 117.6 119.7 120.2 120.3 120.2 120.3 120.2 121.3 122.0 123.6 128.6 129.4 129.3 127.7 125.6 121.3 121.8 123.6 125.5 126.7 126.0 123.9 122.6 125.8 126.1 128.5 129.0 125.3 122.9 122.6 123.9 125.4 128.6 124.6 120.9 119.8 118.0 115.1 120.0 120.0 121.8 123.4
70.4 69.6 69.9 72.0 70.5 69.9 70.0 70.0 70.0 70.0 70.0 70.0 70.5 73.1 75.0 79.9 79.3 79.9 79.9 82.7 89.4 90.1 90.0 90.0 90.9 91.9 91.5 91.2 90.5 90.0 89.9 85.9 81.0 80.0 80.2 82.9 87.0 87.0 84.9 81.7 80.3 80.0 79.7 79.2 77.4 72.1 69.9 69.9 70.3 70.1 69.8 69.9 70.7 71.1 72.3 72.9 73.5 76.6 77.8 79.9 79.9 80.0 80.0 80.0 80.0 80.0 82.0 87.8 89.5 89.4 89.3 90.2 90.3 92.5 93.2 93.1 92.9 95.9 99.8 99.9 99.8 99.8 100.8 101.8 101.8 108.3 108.6 108.9 109.3 109.8 111.5 113.5 115.9 118.6 120.0 120.0 120.0 120.0 120.0 120.0 120.0 120.9 125.6 127.3 127.3 123.9 121.5 117.9 119.4 120.5 121.0 122.9 123.0 121.1 120.5 122.6 123.2 126.0 126.8 122.4 120.6 120.7 122.3 122.2 123.9 120.4 119.4 118.5 112.6 111.7 120.0 120.2 121.1 122.1
70.9 69.8 70.7 78.6 76.7 76.1 70.4 70.0 70.0 70.0 70.0 70.1 73.3 76.9 79.4 81.5 80.0 81.0 80.0 80.0 82.9 88.8 89.8 90.0 90.2 91.1 90.6 90.1 90.3 90.0 90.0 86.5 81.8 80.0 80.3 81.5 84.5 85.0 83.2 81.6 80.4 80.0 79.8 79.6 79.6 73.5 70.5 70.0 69.7 69.6 69.7 69.9 70.2 70.3 71.3 71.7 71.7 74.5 75.4 79.7 79.7 79.8 79.6 79.4 79.9 81.2 84.6 89.5 90.0 90.0 90.0 90.3 90.5 92.1 92.1 91.8 91.4 95.5 99.7 99.7 99.6 99.6 99.9 99.9 99.9 101.8 104.9 107.6 108.3 109.8 110.2 112.6 115.0 117.9 119.9 120.0 120.0 120.0 120.0 120.0 120.0 120.6 123.1 123.8 122.6 120.4 118.9 111.0 116.0 119.5 120.5 121.5 120.6 119.4 120.0 120.1 120.7 122.1 121.5 120.3 113.1 117.4 120.3 121.3 121.6 120.3 117.5 113.2 110.0 110.0 114.3 118.9 120.0 120.8
77.3 70.4 78.3 80.0 80.0 80.1 77.9 70.4 70.0 71.0 73.5 72.7 77.5 79.9 84.1 87.3 83.8 84.0 80.0 79.9 85.9 88.9 90.0 90.0 90.1 90.1 89.8 89.5 89.0 89.6 88.9 83.3 80.8 80.0 80.4 81.2 82.7 83.2 83.0 82.0 80.6 80.6 80.0 80.0 80.0 77.1 70.6 69.9 69.6 69.5 69.5 69.8 70.0 70.0 70.6 71.1 71.0 73.9 75.0 79.2 79.2 79.2 79.1 79.2 80.1 82.8 86.4 90.0 90.1 90.2 90.2 90.3 90.1 91.0 90.8 90.6 90.2 95.7 99.3 99.5 99.6 99.5 99.5 99.8 100.7 105.2 107.9 108.4 109.0 110.3 111.7 113.6 115.2 118.0 119.5 120.0 120.0 120.0 120.0 120.0 120.0 120.2 121.2 122.6 121.6 120.7 119.2 110.0 112.1 118.3 120.5 119.6 117.8 117.0 120.0 120.0 120.7 121.1 120.1 113.4 109.9 115.7 120.2 121.1 121.4 120.3 111.7 113.3 110.0 110.9 119.8 119.3 119.9 120.0
81.0 79.7 80.3 80.0 80.0 79.7 71.9 70.0 70.0 72.2 79.2 79.9 79.7 79.8 89.4 90.0 90.0 89.9 89.2 86.0 90.0 90.0 90.0 90.0 90.0 90.0 89.1 88.6 85.7 86.8 85.9 82.0 80.4 79.8 80.3 81.1 81.5 82.0 82.0 80.8 80.1 80.1 80.0 79.2 78.8 71.7 69.7 69.5 69.4 69.2 69.2 69.7 70.0 70.0 70.1 70.4 70.4 73.1 74.4 78.5 78.5 78.5 78.6 79.0 80.1 81.4 82.7 87.6 89.1 90.0 90.0 90.0 90.0 90.0 90.0 90.0 90.1 91.8 95.1 99.1 99.7 99.5 99.4 100.3 102.1 108.9 109.3 109.6 109.9 111.1 112.6 114.3 116.3 118.9 120.0 120.0 120.0 120.0 120.0 120.0 119.5 119.6 119.6 120.2 120.5 120.8 119.6 110.7 109.9 112.2 118.8 114.8 112.1 111.9 120.0 120.3 120.8 120.9 120.3 109.9 110.0 114.1 118.9 120.3 120.5 117.7 110.0 110.3 110.0 116.1 120.0 120.0 119.9 119.9
81.4 81.6 80.4 79.8 79.3 77.4 70.6 70.1 70.7 70.5 78.9 81.3 83.3 89.7 90.0 90.0 90.0 90.0 90.0 89.7 90.0 90.0 90.0 90.0 90.1 90.0 89.1 88.2 82.5 84.5 84.0 81.5 80.8 79.8 79.9 80.6 81.0 80.7 80.1 79.8 79.0 79.2 77.3 76.1 74.7 70.7 69.8 69.5 69.4 69.2 69.2 69.4 70.0 70.0 70.0 70.0 70.0 70.7 72.0 75.0 77.4 77.8 77.7 78.2 79.4 80.4 81.0 85.8 88.1 90.0 90.0 90.0 90.0 90.0 90.0 90.0 91.1 94.3 97.4 100.0 100.1 100.0 100.0 101.7 105.4 109.9 109.9 110.2 110.4 111.9 114.3 116.4 118.3 119.9 120.0 120.0 120.0 120.0 120.0 119.3 118.9 118.8 119.4 120.0 120.2 120.0 116.0 111.6 109.8 110.4 112.5 110.3 110.0 116.4 120.0 120.4 119.8 119.2 119.7 113.4 109.9 110.3 113.6 116.4 114.7 111.3 110.0 110.0 110.2 110.4 119.8 120.1 120.8 121.7
87.3 83.1 80.4 80.0 80.0 80.0 76.0 77.3 78.4 72.1 79.8 80.0 80.3 87.3 89.3 90.0 90.0 90.0 90.0 89.8 90.0 90.0 90.0 90.0 90.1 89.9 86.7 82.6 80.0 81.0 81.2 80.1 80.0 79.9 79.0 80.0 80.4 80.8 80.2 79.7 78.1 77.7 74.1 73.6 72.1 69.9 69.6 69.3 69.3 69.2 69.2 69.8 70.0 70.0 70.1 70.2 70.1 72.6 73.9 77.6 79.3 79.2 78.8 78.5 79.2 79.8 79.8 80.8 83.9 89.1 86.6 89.7 89.6 89.3 89.7 89.9 90.1 92.5 96.4 98.9 99.9 100.6 101.2 105.2 109.0 110.3 110.4 110.6 110.8 112.1 114.2 115.4 117.3 119.0 120.0 120.0 120.0 119.9 118.9 117.6 118.1 119.0 119.7 120.0 120.1 118.8 110.4 110.4 110.0 109.8 110.1 110.1 114.8 120.0 120.0 119.6 117.7 116.0 115.9 111.3 109.9 110.0 111.2 110.0 110.0 110.0 110.0 110.0 110.0 110.0 112.4 119.8 121.6 123.7
88.7 88.2 84.9 80.4 80.0 80.0 79.6 79.1 80.0 78.5 79.8 80.0 80.0 84.2 88.6 90.0 90.0 90.0 90.0 89.8 90.0 90.0 90.0 90.0 90.0 89.1 86.9 84.3 80.4 80.0 80.0 80.0 80.0 79.8 78.5 79.2 80.6 80.8 80.2 79.7 77.6 76.5 70.5 71.4 70.4 69.5 69.3 69.0 69.2 69.4 69.8 69.9 70.0 70.1 70.5 70.4 70.4 73.4 74.6 78.8 79.6 79.7 79.3 79.0 79.0 79.3 79.7 80.6 81.0 80.8 80.0 82.1 85.7 87.3 89.7 90.0 90.0 90.4 94.5 97.9 99.0 99.5 100.6 103.3 106.4 109.6 110.1 110.6 110.7 111.2 111.5 110.8 110.7 113.5 116.9 117.9 118.4 118.3 116.3 114.3 116.9 118.3 119.3 120.0 120.4 120.0 111.5 110.0 109.3 109.4 110.4 113.1 119.7 120.0 119.9 117.9 116.0 113.7 113.2 110.9 110.3 109.7 110.6 110.0 110.0 110.0 110.4 110.5 112.5 115.3 119.6 121.1 123.3 126.5
84.9 88.8 88.8 83.2 80.4 81.5 80.6 79.9 80.0 80.0 80.0 81.3 81.9 88.3 90.0 90.0 90.0 90.0 89.5 89.9 90.0 90.0 90.0 90.0 90.0 89.2 88.5 88.5 83.8 80.1 80.0 80.0 80.0 77.8 76.7 79.2 79.9 80.4 80.4 80.0 76.9 73.2 70.0 70.0 69.7 68.9 68.5 68.8 69.4 69.7 69.9 69.9 70.3 70.4 70.7 70.8 70.7 73.4 74.7 79.3 79.8 79.9 79.8 79.5 79.5 79.6 80.0 80.6 80.1 81.1 82.0 87.2 87.6 88.7 90.2 91.5 92.6 93.8 99.7 99.5 99.4 99.3 99.7 101.6 105.0 108.4 109.6 110.3 110.8 111.1 111.4 110.6 110.4 111.4 113.4 114.8 116.1 116.7 114.3 111.3 115.5 118.2 119.2 120.0 120.5 120.0 115.6 110.5 108.0 109.7 110.6 112.0 119.2 119.9 117.8 114.5 112.4 110.9 109.9 110.1 110.2 109.8 110.0 110.0 110.0 110.5 111.4 112.9 117.6 120.2 120.9 123.3 126.5 129.3
89.2 88.7 89.7 88.7 84.4 84.7 81.7 80.4 81.4 80.5 80.1 80.4 80.6 86.0 89.2 89.0 88.4 88.3 89.1 89.8 90.0 90.0 90.0 90.0 90.2 89.9 89.8 89.8 88.3 80.8 80.9 80.0 80.0 76.7 72.4 76.2 78.0 79.1 80.0 80.0 78.2 75.3 71.0 70.0 69.4 68.9 68.3 68.7 69.4 69.7 69.9 70.0 70.9 71.5 72.3 73.0 74.8 78.2 79.6 80.0 80.0 80.0 80.0 80.0 80.0 80.0 80.5 82.5 82.3 83.5 84.6 89.0 88.7 89.0 90.0 91.8 92.9 96.4 100.0 99.9 99.9 99.9 100.1 102.9 106.8 109.4 109.7 110.0 110.0 110.0 110.0 110.0 110.0 109.9 110.0 111.2 112.1 111.0 110.3 109.5 111.5 114.5 117.8 120.1 120.1 120.0 116.7 111.0 103.9 108.0 110.0 110.0 116.1 117.1 113.4 111.2 110.1 109.1 106.9 106.8 107.4 103.2 110.0 110.0 110.0 111.3 112.5 114.8 118.4 121.1 122.8 125.6 128.6 130.4
89.2 89.7 90.0 88.7 85.8 85.6 82.9 81.3 82.2 81.2 80.5 80.7 81.1 85.1 87.4 87.0 86.3 86.7 88.8 89.7 89.9 90.0 90.0 90.0 90.3 89.9 90.0 90.0 90.0 87.9 83.8 81.3 77.2 71.2 70.0 70.8 72.6 75.1 77.1 78.2 71.9 71.1 70.0 70.0 69.9 69.6 68.4 69.0 69.4 69.7 69.9 69.9 70.4 71.2 72.7 73.4 75.2 78.0 79.4 80.1 80.3 80.2 80.1 80.0 80.0 80.1 80.5 84.5 84.7 85.9 86.9 89.7 89.6 89.3 89.8 92.1 93.8 97.5 100.0 100.5 100.4 100.4 101.5 107.6 109.5 110.0 110.0 110.0 110.0 110.0 110.0 110.0 110.0 109.9 108.8 109.4 110.4 110.4 109.9 109.3 110.1 110.6 111.2 117.9 117.7 117.7 110.0 109.7 101.3 102.5 110.0 110.0 112.8 111.8 110.3 108.7 106.5 103.5 102.2 102.7 100.7 100.5 107.3 110.1 110.7 111.7 112.5 116.6 120.1 121.9 123.9 126.5 129.0 130.4
86.8 88.9 90.0 89.6 88.1 87.4 85.0 82.9 83.5 82.3 80.7 80.3 80.6 83.6 86.1 85.3 83.4 84.3 88.7 89.5 89.7 90.0 90.0 90.0 89.6 88.5 88.7 89.8 89.9 84.8 82.6 80.6 78.3 74.3 70.2 70.1 71.2 72.4 73.6 74.9 71.6 71.0 70.0 70.0 69.8 69.4 66.9 68.3 69.2 69.5 69.8 69.9 70.0 70.5 72.3 73.2 74.3 77.0 78.5 80.0 80.6 80.8 80.6 80.2 80.1 80.3 81.4 87.1 87.2 88.4 89.5 89.9 89.9 89.9 89.8 90.9 92.9 95.5 98.9 100.3 101.5 101.7 103.3 107.8 109.8 110.0 110.0 110.0 110.0 110.0 110.0 109.7 109.3 108.9 107.6 108.9 109.9 110.3 109.8 108.9 109.8 110.3 110.7 114.4 114.6 114.1 110.0 110.0 102.8 100.3 108.3 110.0 111.7 111.1 109.7 106.1 102.6 100.2 99.9 100.1 100.4 108.1 109.9 109.6 110.7 110.7 110.6 114.4 120.2 120.9 123.9 125.7 127.4 129.7
83.0 87.0 88.2 80.9 80.7 80.9 80.6 80.4 80.3 80.4 80.0 80.0 80.0 82.0 84.0 82.7 80.4 81.1 87.7 88.5 89.3 89.9 90.0 89.9 88.5 87.2 86.8 88.1 88.4 82.1 81.7 80.8 79.8 77.3 71.5 70.0 70.0 70.5 71.5 72.5 71.3 70.8 70.0 69.9 69.6 68.8 64.8 67.4 69.0 69.3 69.5 69.8 70.0 70.0 71.3 72.7 73.7 76.3 78.0 79.6 80.5 80.7 81.5 81.0 81.0 82.3 85.4 89.2 89.6 90.0 90.2 90.2 90.1 90.0 90.0 93.8 94.9 97.5 99.1 99.7 100.8 102.1 103.0 106.6 108.9 110.0 110.0 110.0 110.0 110.0 110.0 109.8 109.1 108.8 105.1 108.8 109.7 110.2 109.4 105.8 109.2 110.0 109.9 110.3 111.6 112.3 110.0 110.0 104.3 99.8 104.3 109.7 110.6 109.8 105.8 102.0 99.9 100.3 100.1 100.6 108.9 110.0 110.0 110.0 109.9 109.9 109.9 110.2 118.1 119.9 121.8 124.0 126.0 129.2
80.7 83.1 84.4 80.0 80.0 80.0 80.0 80.0 80.0 80.0 79.9 79.3 79.9 80.5 80.9 80.0 79.5 79.9 80.1 80.6 82.3 87.9 88.7 88.2 85.4 84.3 84.3 86.1 86.3 80.0 80.0 80.0 80.0 79.8 74.9 70.6 70.0 70.0 70.0 70.3 70.6 70.8 70.0 69.4 67.7 65.6 61.8 63.8 65.8 66.6 67.4 68.3 69.6 70.0 71.5 73.1 74.4 77.3 79.2 80.2 80.1 80.1 82.0 81.8 82.5 84.1 86.5 89.5 89.9 90.1 90.0 90.0 90.0 90.5 90.4 93.6 94.4 96.8 99.3 99.3 100.1 101.8 103.6 106.5 109.1 110.0 110.0 110.0 109.7 109.2 109.8 108.9 108.5 108.2 101.2 104.2 106.0 108.0 103.3 100.7 108.4 108.9 109.9 110.0 111.0 111.4 109.4 109.1 102.0 99.9 100.0 103.8 103.3 103.9 100.8 99.9 100.6 102.1 102.8 104.9 109.1 110.2 110.5 110.9 111.4 111.7 114.2 114.9 118.8 119.4 120.8 123.9 126.7 128.2
81.4 80.5 81.0 80.0 80.0 80.0 80.0 80.0 80.0 80.0 79.6 78.7 78.1 79.6 79.9 78.9 79.6 80.0 80.3 80.8 81.7 85.6 86.5 86.0 83.7 82.9 82.9 84.2 84.4 80.0 80.0 80.0 80.0 80.0 78.1 72.4 70.9 70.0 70.0 70.0 70.0 70.3 70.0 68.2 65.0 62.5 60.1 60.9 62.6 64.2 65.8 67.6 69.8 70.5 72.0 72.8 73.7 76.8 78.4 79.6 78.9 79.2 80.1 80.9 80.9 80.7 80.7 86.6 87.5 89.9 89.8 89.5 89.6 90.5 91.1 92.7 93.3 95.1 99.8 99.7 99.7 100.5 103.5 106.8 109.8 110.0 110.0 110.0 108.7 107.3 106.9 104.6 103.2 101.1 99.8 100.5 101.6 102.2 100.3 100.0 102.0 105.3 109.2 109.8 109.4 109.8 109.4 108.0 102.8 99.9 99.9 100.8 100.0 100.0 100.0 100.1 102.0 103.7 105.2 107.5 109.3 110.3 111.0 113.7 118.7 119.0 119.4 119.6 119.7 120.6 124.2 127.4 128.8 129.3
80.5 82.4 82.3 80.5 80.7 80.8 81.0 80.0 80.0 80.0 78.5 75.4 73.8 75.8 75.1 76.3 79.0 79.9 80.5 80.8 81.8 83.6 84.5 84.1 82.3 81.3 81.2 83.1 83.2 80.0 80.0 80.0 80.0 80.0 77.9 73.6 71.8 70.6 69.4 68.8 69.5 68.3 68.9 64.7 62.1 61.0 60.0 60.5 62.8 64.8 67.0 69.3 70.3 70.8 71.6 71.5 71.3 75.4 76.6 78.0 77.9 78.9 80.1 80.6 80.3 80.2 80.2 83.9 84.9 89.4 89.2 89.0 89.5 90.9 92.0 94.4 96.5 98.7 100.2 100.1 100.1 103.5 106.3 108.3 109.9 110.0 110.0 109.9 108.2 106.5 104.1 103.9 102.5 100.7 99.7 99.9 100.8 100.9 99.7 100.0 103.8 108.1 110.0 108.8 108.5 109.8 110.0 107.7 103.5 100.3 99.9 100.6 100.0 99.9 101.0 101.7 103.8 106.4 108.4 110.1 109.7 109.9 110.7 115.8 120.2 120.5 120.4 120.4 121.2 123.1 128.7 129.5 130.0 129.9
82.8 83.5 81.1 80.6 81.2 80.9 80.3 79.7 79.8 79.1 73.1 70.6 70.1 71.5 70.1 71.3 75.8 79.8 80.5 80.5 81.5 82.6 82.1 81.4 80.4 79.8 79.8 80.4 81.2 80.0 80.0 79.7 79.6 79.2 75.7 73.2 72.0 71.1 70.0 68.8 68.5 65.0 66.1 63.7 61.4 60.3 60.0 60.6 63.0 64.9 67.0 69.3 70.5 71.1 71.2 71.0 70.7 75.6 76.7 77.1 78.0 79.5 80.2 80.1 80.0 80.0 80.0 81.1 82.3 88.1 88.3 88.5 89.5 90.7 91.1 93.9 95.2 97.2 99.5 100.4 101.2 103.4 105.6 107.7 109.8 110.0 109.3 107.5 103.7 100.8 100.0 100.4 100.7 100.1 99.8 98.9 99.4 99.7 99.7 100.4 102.2 103.7 106.5 105.4 107.4 109.8 109.6 105.1 102.1 100.1 99.9 100.6 99.9 100.1 101.9 103.0 105.2 107.4 109.4 110.3 110.5 110.5 110.0 113.5 118.5 120.4 121.1 121.9 124.3 127.5 130.0 130.2 130.3 130.2
80.0 80.3 79.7 80.0 80.0 80.0 80.0 79.4 78.7 77.2 71.9 71.0 69.8 69.8 70.1 72.0 73.9 77.6 79.4 79.5 80.0 80.8 81.0 80.2 79.7 79.3 79.4 80.1 80.8 80.0 79.8 78.3 76.4 76.8 72.5 72.2 71.9 71.2 70.4 68.6 65.8 61.3 63.0 61.5 60.2 60.0 60.1 60.8 63.4 64.8 66.7 68.8 70.2 70.6 70.6 70.4 70.1 74.4 75.3 75.8 76.2 77.3 80.0 80.0 79.9 79.9 79.9 79.9 79.9 82.3 85.3 86.7 88.3 90.1 90.2 93.5 95.0 97.0 99.3 100.0 100.0 100.0 100.0 100.0 106.1 108.6 106.1 103.4 100.6 100.0 99.9 100.4 100.9 100.2 99.9 99.1 97.2 99.1 99.9 100.0 100.9 101.7 103.2 101.8 102.2 103.6 103.2 100.3 99.7 98.2 100.1 100.0 99.9 101.0 103.0 104.2 106.6 108.7 110.5 111.8 112.1 114.2 112.1 116.8 118.9 119.6 120.3 122.4 124.8 126.7 129.4 130.3 131.8 133.0
80.0 80.0 79.4 80.0 80.0 80.0 80.0 80.0 79.0 74.0 70.1 69.9 69.5 69.8 70.5 71.5 74.0 76.2 77.5 78.4 79.8 80.6 80.6 79.9 79.3 78.8 78.1 78.6 79.6 79.3 77.9 76.6 72.4 74.6 71.1 71.2 71.5 71.1 70.5 69.0 64.8 60.0 60.7 60.1 60.0 60.0 60.2 61.4 63.3 64.3 66.1 68.2 70.0 70.1 70.1 70.0 70.0 71.9 72.5 73.3 73.1 73.4 79.8 79.7 79.3 79.2 79.2 79.7 79.9 81.3 83.6 85.5 86.7 89.4 89.4 91.2 94.2 97.2 99.9 100.0 100.0 100.0 100.0 100.0 104.4 106.1 103.4 102.2 100.8 100.1 99.6 100.2 100.6 100.3 99.9 99.2 95.0 99.1 99.9 100.0 100.8 100.7 100.6 99.3 99.9 100.0 98.6 96.8 94.3 90.5 94.7 99.7 99.8 101.4 103.6 105.4 107.9 109.8 111.1 112.4 113.0 117.2 117.3 117.9 119.5 119.3 120.2 122.0 125.4 126.8 128.7 129.6 133.3 138.2
79.9 80.0 79.4 79.2 79.9 80.0 80.0 80.0 80.0 77.1 72.1 69.8 69.3 68.3 69.5 70.0 70.4 71.9 73.9 75.6 78.1 79.4 79.4 78.6 77.1 76.0 74.2 75.2 76.5 75.7 72.3 70.2 69.7 70.4 70.0 70.0 70.0 70.0 70.0 69.6 67.1 60.2 60.0 60.1 60.0 60.0 60.3 61.0 62.0 62.3 62.3 63.3 69.8 69.9 69.9 69.8 69.6 69.6 70.6 71.9 71.7 71.9 79.1 78.8 78.3 78.5 79.3 80.2 80.4 84.2 85.9 86.8 87.7 89.8 90.0 92.5 95.2 98.1 100.0 100.0 100.0 100.0 100.0 100.0 102.7 103.4 101.9 101.2 100.3 99.3 96.9 97.3 99.4 99.8 95.6 93.1 90.5 91.2 93.8 99.4 99.8 98.4 97.9 96.7 97.0 96.7 93.9 91.7 90.1 92.1 99.4 100.3 100.2 103.7 106.0 107.6 109.4 111.2 113.5 115.8 118.1 120.0 120.0 119.7 120.3 120.0 120.9 122.7 127.8 128.7 129.7 130.1 132.8 136.3
79.8 80.0 79.7 78.2 77.8 79.3 80.0 80.0 79.9 76.3 72.0 69.8 69.4 67.4 69.6 70.0 70.6 71.8 72.8 74.2 76.6 77.9 77.9 77.4 75.9 74.8 72.8 73.2 73.6 73.0 71.7 70.5 69.9 70.0 70.0 70.0 70.0 70.0 70.0 70.0 69.9 62.7 60.0 60.2 60.0 60.0 60.0 60.9 61.6 61.8 61.7 62.6 69.4 69.7 69.6 69.3 69.2 69.5 70.3 70.8 70.2 70.3 76.1 76.9 77.4 78.1 79.3 80.5 81.2 85.1 86.5 88.0 89.7 90.5 91.7 94.7 96.4 98.3 99.9 100.0 100.0 100.0 100.0 100.0 101.0 100.5 99.7 99.1 97.9 94.3 90.6 90.1 93.4 96.3 90.4 90.2 90.0 90.3 90.9 96.0 96.1 94.7 94.6 93.7 93.5 92.7 91.3 90.0 91.8 96.3 100.4 101.3 101.8 104.4 106.2 107.5 109.2 111.3 113.7 116.0 118.4 120.4 120.9 120.2 124.1 120.4 124.4 128.4 129.9 130.1 130.0 130.3 130.3 130.5
77.0 80.8 79.7 77.8 75.2 77.6 79.5 79.8 77.0 73.2 70.5 69.7 69.3 64.1 69.9 70.0 70.8 71.6 71.9 73.1 75.1 76.1 76.3 76.0 74.7 73.7 71.4 71.2 71.7 72.0 71.4 70.5 69.8 68.8 69.7 69.8 70.0 70.0 70.0 70.0 69.8 62.3 60.0 60.0 60.0 60.0 60.0 60.2 60.9 61.0 60.9 61.7 68.5 69.4 69.4 69.2 69.2 69.6 69.9 69.8 69.8 70.4 72.6 74.9 76.5 77.2 78.1 79.8 80.4 83.6 85.5 87.5 88.8 90.2 92.2 93.7 95.0 96.8 98.8 100.0 100.0 100.0 100.0 100.0 100.6 100.0 98.2 95.6 94.3 92.3 90.1 90.1 91.3 92.8 90.3 90.0 90.0 90.6 91.1 93.3 92.6 91.6 92.1 92.1 91.9 91.2 90.2 90.1 93.0 97.2 99.5 101.0 102.7 104.4 106.4 107.6 109.2 111.3 113.7 115.8 117.9 120.1 121.3 121.3 128.1 122.3 126.6 129.3 130.0 130.0 130.0 130.0 130.0 130.0
73.7 79.8 76.3 73.4 70.7 73.1 75.5 76.6 73.4 71.1 70.0 66.7 63.2 60.0 63.8 69.8 70.2 70.4 70.3 71.1 72.5 73.1 72.9 71.8 70.5 70.0 70.0 70.0 69.8 70.0 70.0 69.1 66.8 66.7 67.8 68.9 69.8 70.0 70.0 69.8 67.7 62.3 60.3 60.0 60.0 60.0 60.0 60.0 60.5 60.4 60.2 61.6 68.5 68.8 68.7 68.8 69.3 69.8 69.9 70.1 70.0 72.7 76.6 77.9 78.1 78.2 78.4 79.4 79.7 81.0 83.3 87.4 88.0 89.3 90.7 92.4 94.0 95.8 97.9 99.7 100.0 100.0 100.0 99.7 99.8 100.0 96.4 91.7 91.0 91.4 90.0 90.1 91.2 91.9 90.2 90.0 90.0 90.8 90.8 90.7 90.0 90.0 90.0 90.2 90.0 90.1 91.6 93.6 97.9 100.3 99.9 100.2 102.2 103.9 107.1 107.7 109.1 111.3 114.2 116.5 118.9 121.4 123.7 126.4 129.9 127.8 128.8 129.8 130.0 130.0 129.7 129.3 128.9 130.0
69.9 75.3 70.3 70.0 69.6 70.5 72.0 72.7 70.5 70.4 70.0 66.9 63.1 60.0 61.0 66.7 68.8 69.6 69.3 69.9 70.2 71.1 71.4 71.3 70.4 70.1 70.0 69.6 69.0 68.7 68.6 66.2 62.0 62.9 64.9 65.8 67.4 68.2 68.2 67.7 64.2 60.5 60.0 60.0 60.0 60.0 60.0 60.0 60.0 60.0 60.0 60.1 62.2 65.1 67.2 68.3 69.4 70.2 70.2 70.4 70.3 74.6 79.0 79.0 78.8 78.9 79.0 79.4 80.3 82.5 84.6 88.8 89.2 89.1 90.2 92.2 94.0 96.1 98.1 99.9 100.0 100.0 100.0 98.6 97.1 97.8 93.3 90.8 90.0 90.2 90.0 90.2 90.9 90.8 90.0 90.0 90.0 90.4 90.3 90.0 90.8 92.1 92.9 92.0 93.3 90.4 94.5 97.1 100.1 101.1 100.6 100.0 102.1 104.4 108.6 108.9 110.0 112.3 115.7 117.1 118.9 120.2 120.7 120.8 127.6 120.8 120.8 121.5 129.3 127.9 127.3 127.1 126.3 129.9
69.6 70.4 70.3 69.9 69.4 69.3 69.5 70.5 69.5 69.8 70.0 66.6 62.6 59.9 60.5 64.2 67.0 68.6 69.6 70.0 70.6 71.6 71.3 71.7 70.8 70.4 70.1 69.7 68.1 66.7 65.6 62.1 60.2 60.2 60.3 61.3 63.1 64.8 64.9 63.7 60.8 60.0 60.0 60.0 60.0 60.0 60.4 60.4 60.1 60.0 60.9 62.3 67.3 68.6 69.0 69.5 70.0 70.5 70.7 70.9 70.8 76.4 79.5 79.5 79.4 79.4 79.4 79.7 81.2 83.7 85.7 89.5 89.9 89.8 93.6 93.2 94.1 96.2 98.1 99.9 100.0 100.0 99.1 95.9 93.3 94.5 93.1 91.2 90.3 90.0 90.0 90.0 90.0 90.0 90.0 90.0 90.0 90.0 90.0 90.2 94.5 95.9 98.0 99.2 100.8 90.4 99.1 100.3 101.4 103.8 104.4 102.3 106.4 108.2 110.1 110.5 111.6 114.8 118.0 118.5 118.7 120.0 120.4 120.5 124.5 120.5 120.4 120.9 126.6 125.5 125.0 124.9 124.3 129.7
67.5 70.7 70.4 69.8 68.5 67.8 64.4 67.5 65.6 65.9 67.0 61.5 60.4 59.8 60.1 63.1 66.2 69.4 70.0 70.4 71.3 71.4 71.3 72.0 71.3 71.0 70.3 70.0 69.2 66.9 65.2 61.9 60.2 60.0 60.1 61.0 62.1 62.9 62.8 61.9 60.5 60.0 60.0 60.0 60.0 60.1 60.9 60.9 60.5 60.5 62.4 63.9 67.6 69.1 69.5 70.0 70.4 70.9 71.0 71.2 71.1 78.5 79.8 79.9 79.8 79.9 79.9 79.7 81.4 85.5 87.7 90.0 90.0 90.0 98.3 94.3 93.6 93.6 93.6 97.0 98.9 97.3 93.4 90.0 90.1 91.1 91.5 90.4 90.0 90.0 90.0 90.0 90.0 90.0 90.0 90.0 90.4 90.3 90.0 91.9 99.6 99.6 100.5 100.7 100.1 91.8 100.8 101.8 103.2 106.6 107.6 106.1 107.8 108.7 110.1 111.9 113.2 115.9 119.5 119.7 119.8 119.9 120.2 120.2 123.0 120.1 120.1 120.4 124.0 123.2 122.8 122.9 122.2 129.6
67.3 70.7 70.2 69.0 65.1 61.0 60.0 61.3 62.1 62.6 62.6 60.4 59.8 59.9 61.3 64.7 68.0 70.0 70.0 70.6 71.0 70.2 70.8 71.4 71.3 71.1 70.3 70.0 69.7 67.7 65.6 62.8 61.1 60.1 60.0 60.0 60.6 61.3 61.6 61.5 60.7 60.0 60.0 60.0 60.0 60.2 61.1 61.5 61.3 61.1 64.0 65.5 68.1 69.5 70.0 70.8 71.6 72.8 74.6 77.1 79.3 80.0 80.0 80.0 80.0 80.0 82.3 81.5 85.9 88.9 89.2 90.2 92.6 95.4 99.7 100.0 98.4 96.7 94.6 95.6 96.1 94.4 92.3 90.2 90.0 91.0 90.8 90.2 89.9 90.0 90.0 90.0 90.0 90.0 90.4 91.6 91.9 90.7 90.1 90.1 98.7 100.0 101.3 100.9 100.2 98.9 101.5 103.6 105.8 108.9 110.2 109.7 109.3 109.5 110.2 112.7 114.9 117.6 119.9 119.8 120.1 120.0 120.1 120.0 121.3 120.0 120.0 120.1 121.3 120.7 120.5 120.8 120.3 126.9
60.4 66.6 67.3 62.1 60.5 60.1 60.0 60.6 60.9 59.9 59.6 59.6 59.1 59.9 61.1 64.5 67.9 70.0 70.0 70.2 70.1 69.5 70.1 70.6 70.8 70.6 70.1 69.5 67.9 65.6 64.1 62.7 61.5 60.6 60.0 58.7 57.8 59.1 59.4 59.6 60.0 60.0 60.0 60.0 60.0 60.0 60.4 61.6 62.2 62.4 65.4 67.0 68.8 70.1 70.6 71.2 71.9 72.9 74.6 76.7 78.5 80.0 80.5 80.6 80.4 80.5 85.5 85.8 86.3 89.5 89.2 89.7 90.0 90.0 96.5 91.1 90.0 90.7 91.8 93.1 93.1 92.2 91.1 90.0 88.6 89.5 88.3 87.1 88.6 90.0 90.0 90.1 90.4 91.3 92.2 94.2 94.2 93.7 100.2 91.0 94.2 100.0 101.0 101.2 102.3 100.0 101.3 105.0 108.7 110.7 111.6 112.6 111.3 110.9 113.2 115.8 116.8 118.6 119.5 119.8 120.0 120.0 120.0 119.9 120.0 120.0 120.0 120.0 120.0 120.0 120.0 120.0 120.2 121.3
59.3 60.7 62.3 61.2 61.0 60.4 60.0 59.5 59.2 58.1 57.5 58.9 59.2 60.0 61.2 64.2 67.3 69.9 70.0 69.7 69.1 66.8 69.4 69.9 70.4 70.1 69.0 67.6 65.9 63.2 62.3 61.9 61.0 60.8 59.9 59.8 55.3 55.8 54.8 54.5 60.0 60.0 60.0 60.0 60.0 60.0 60.3 61.6 62.6 63.0 65.9 67.3 69.0 70.2 71.0 71.6 72.2 73.1 74.5 76.2 77.9 79.4 80.9 81.9 82.1 83.9 88.9 89.7 89.7 90.0 90.0 89.2 90.0 90.0 95.0 90.9 90.0 90.0 90.8 91.6 91.3 90.2 88.2 85.6 83.6 84.5 83.5 81.4 85.4 88.7 89.4 89.9 91.1 92.9 94.1 97.3 97.7 99.4 100.5 100.3 91.1 98.0 101.6 103.2 108.7 105.8 107.0 107.7 109.5 110.8 111.9 115.1 114.1 113.9 115.5 116.5 117.4 119.6 119.5 119.6 120.0 119.8 119.6 119.3 120.0 120.0 120.0 120.0 120.0 120.0 120.0 120.0 120.3 123.8
58.6 59.7 60.5 60.7 61.2 60.8 60.0 59.8 58.7 57.5 56.3 58.9 59.5 60.0 60.0 60.6 61.4 66.9 68.1 64.2 62.1 59.9 63.2 67.5 70.1 69.2 67.3 66.1 64.0 61.3 60.7 60.8 60.3 60.3 59.5 54.5 50.3 50.3 50.0 50.0 53.2 56.4 59.2 60.0 60.0 60.0 60.0 61.2 62.4 63.3 66.2 67.3 68.8 70.1 71.1 72.0 72.6 73.4 75.0 76.7 78.3 79.7 81.5 82.9 84.1 87.2 89.8 90.1 89.6 90.0 90.0 89.9 90.0 90.0 92.0 90.4 90.0 90.0 89.6 89.8 89.0 85.7 82.2 80.0 80.0 80.0 80.0 80.2 85.3 88.7 89.1 89.7 90.7 93.8 95.5 99.9 99.6 98.9 100.1 101.3 101.1 100.2 104.1 108.5 110.0 110.3 109.4 109.3 110.1 111.5 112.9 118.9 117.2 117.0 118.0 118.3 119.5 120.0 120.0 119.8 118.9 118.8 118.8 118.7 120.0 120.0 120.0 120.0 120.0 120.0 120.2 122.6 126.2 128.8
57.8 59.5 60.0 60.4 60.9 60.9 60.0 59.8 59.0 56.4 53.4 59.1 59.7 60.0 60.0 60.8 61.2 64.9 65.3 62.4 60.9 60.0 59.9 60.8 68.3 64.5 62.6 62.0 60.7 59.8 58.6 59.8 59.3 58.6 56.0 51.1 50.0 50.0 50.4 50.5 57.4 58.8 60.0 60.0 60.0 60.0 60.0 61.0 62.4 63.5 67.3 68.1 69.1 70.1 71.1 71.8 72.3 72.7 74.3 76.1 77.9 79.3 80.3 81.1 81.4 81.7 87.7 88.8 89.5 89.7 88.8 88.5 89.6 90.0 91.4 90.3 90.0 90.0 87.8 87.0 84.4 81.0 80.0 80.3 80.8 80.9 81.7 83.9 89.5 89.9 90.2 90.1 90.0 94.2 98.5 100.4 101.3 100.9 104.5 104.6 104.2 104.6 108.3 109.5 110.0 111.2 110.5 109.6 110.4 114.1 117.5 120.0 120.0 119.9 120.0 119.7 120.0 120.0 120.0 119.8 118.3 118.3 118.6 118.6 120.0 120.0 120.0 120.0 120.4 120.6 120.9 126.5 128.3 130.0
53.9 59.5 59.9 60.3 60.1 60.1 60.0 59.9 58.5 53.3 50.3 58.1 59.2 60.0 60.0 60.5 60.5 63.2 63.0 61.3 60.8 60.0 59.6 60.8 63.9 62.3 60.3 60.5 60.0 57.9 55.4 56.5 54.7 53.4 51.3 50.0 50.0 50.5 51.0 51.7 58.0 59.5 60.0 60.0 60.0 60.0 60.0 61.0 62.6 63.9 68.7 69.4 69.9 70.5 71.1 71.4 71.5 71.9 73.5 75.4 77.4 79.0 80.0 80.7 80.9 81.2 85.6 86.7 87.6 87.8 87.2 87.4 88.5 89.6 90.6 90.1 90.0 89.9 87.0 84.6 81.7 80.0 80.6 81.7 82.2 83.0 85.9 89.2 90.4 91.5 92.0 91.8 92.1 97.2 98.3 99.9 101.2 102.6 105.1 106.0 106.1 108.0 109.4 109.1 110.1 112.0 112.9 112.2 113.6 116.6 117.7 119.5 120.0 120.0 120.0 120.0 120.0 120.0 119.9 119.8 118.1 118.2 119.1 119.7 120.0 120.2 120.1 120.4 121.4 123.8 127.6 130.0 130.0 130.4
50.5 54.5 57.6 59.8 57.7 57.2 59.0 53.7 51.7 50.1 50.3 53.0 55.2 58.6 59.9 59.8 59.7 60.1 60.9 60.8 60.5 58.8 55.7 60.7 61.4 60.0 57.6 57.0 55.6 52.0 50.0 51.4 50.3 50.0 50.0 50.2 50.2 50.0 50.1 51.0 58.7 60.0 60.0 60.0 60.0 60.0 60.0 61.4 64.3 67.7 70.0 70.1 70.1 70.2 70.3 70.4 70.7 71.7 73.6 75.9 78.0 79.4 80.2 80.3 80.2 80.5 83.9 84.6 85.7 86.1 85.8 85.6 87.2 88.2 89.4 90.0 89.2 86.8 82.9 81.5 80.0 80.3 81.5 82.6 83.2 84.5 87.0 89.0 90.5 92.2 93.2 93.3 96.1 98.5 99.1 99.7 100.8 103.6 107.1 108.0 109.3 110.0 110.0 110.0 110.1 112.2 113.9 114.8 116.2 117.7 118.4 119.6 120.0 120.0 120.0 120.0 120.0 120.0 119.8 119.7 116.9 118.4 119.4 119.9 120.2 120.6 120.7 120.9 121.9 124.2 127.1 129.6 130.2 130.2
49.5 50.2 51.4 56.1 53.9 53.7 54.7 51.3 50.3 50.0 50.6 52.3 52.8 55.3 58.1 58.1 59.7 60.5 61.2 60.3 59.4 54.1 50.0 57.4 60.3 58.8 55.8 53.0 51.9 50.7 50.0 50.1 50.0 50.2 50.5 50.9 51.0 50.5 50.7 50.0 55.9 59.8 60.2 60.3 60.4 61.3 60.1 62.2 63.0 64.2 69.9 69.9 69.9 70.0 70.1 70.2 70.3 70.6 71.5 73.2 75.5 78.2 79.7 80.0 80.0 80.0 82.1 82.6 83.5 83.8 83.6 82.6 84.3 85.5 86.7 87.4 84.8 82.1 80.2 80.0 80.0 81.1 82.4 83.4 84.3 85.7 87.5 89.2 91.2 93.7 95.5 97.7 99.9 100.0 100.1 100.1 106.4 107.7 109.6 109.9 109.9 110.6 110.7 110.4 114.5 117.6 117.5 118.1 118.9 119.4 120.0 120.0 120.0 120.0 120.0 120.0 120.0 119.8 119.2 119.1 113.5 116.5 119.0 119.6 119.7 120.0 120.1 120.2 120.4 120.8 122.6 128.5 129.8 129.8
50.0 50.6 51.4 53.2 51.7 51.2 52.1 50.6 50.0 50.0 51.1 52.7 51.6 53.1 56.9 58.1 59.9 60.4 60.6 60.1 56.8 52.5 50.0 51.2 54.8 52.5 50.8 50.0 50.0 50.0 50.0 50.1 50.2 51.4 51.9 52.7 52.7 51.8 54.5 54.1 59.7 59.7 59.9 59.9 60.0 60.9 60.6 61.5 61.4 61.3 69.7 69.8 69.7 69.7 69.8 69.9 70.0 70.3 70.7 71.1 71.5 74.9 78.2 78.7 78.9 79.9 80.4 80.8 81.9 82.3 82.3 81.9 83.0 83.1 83.5 83.2 81.6 80.2 80.0 80.0 80.0 81.6 83.0 84.2 85.4 86.9 88.5 90.1 92.2 95.3 96.5 98.6 100.5 100.9 101.2 101.9 108.2 109.5 110.3 110.5 110.6 111.6 112.1 113.1 119.3 119.5 119.7 120.0 120.0 120.0 120.0 120.0 120.0 120.0 120.0 120.0 120.0 119.8 119.2 118.5 111.2 113.8 117.0 118.4 119.1 120.0 120.0 120.0 120.2 120.6 122.8 127.0 128.9 129.0
49.8 50.4 50.0 50.4 50.0 50.0 50.0 50.0 50.0 50.0 50.0 51.1 50.1 50.2 53.6 53.5 56.1 55.8 57.8 58.7 51.7 50.2 50.0 51.0 51.1 50.1 50.0 50.0 50.2 50.2 50.2 50.3 51.3 52.8 53.7 55.3 56.4 57.2 58.9 60.0 60.0 60.0 60.0 60.0 60.0 60.3 60.8 61.0 60.9 60.9 69.2 69.5 69.4 69.4 69.4 69.5 69.6 69.9 70.2 70.5 71.0 73.3 76.7 77.5 77.7 78.4 78.8 79.3 80.3 80.7 80.9 81.0 82.1 82.2 82.1 81.4 80.4 80.0 80.0 80.0 81.0 82.4 83.8 85.2 86.5 88.0 89.5 90.9 92.8 97.3 97.3 98.4 100.5 102.2 103.5 106.9 110.0 110.4 110.9 111.1 111.4 113.7 115.9 118.2 120.0 120.0 120.0 120.0 120.0 120.0 120.0 120.0 120.0 120.0 120.0 120.0 119.9 117.8 114.8 112.1 110.0 110.7 112.1 113.1 117.0 119.1 119.1 119.4 119.6 120.1 122.0 124.9 127.9 128.5
49.2 50.0 50.0 50.0 50.0 50.0 50.0 50.0 50.0 50.0 50.0 50.2 50.0 50.0 51.1 51.6 51.2 50.0 51.7 52.8 50.9 50.0 50.0 50.0 50.0 50.0 50.0 50.2 50.7 50.6 50.7 50.7 52.5 54.1 55.2 56.8 57.9 59.0 60.0 60.0 60.0 60.0 60.0 60.0 60.0 60.0 60.5 60.6 60.4 60.4 68.2 68.8 69.1 69.0 69.1 69.2 69.3 69.5 69.8 70.1 70.4 72.1 74.5 75.8 76.4 77.2 77.6 77.9 79.1 79.2 79.4 80.2 80.9 81.3 80.8 80.2 80.0 80.0 80.1 81.0 82.1 83.5 84.8 86.2 87.4 88.8 90.2 91.5 93.3 99.4 98.9 99.0 100.9 102.6 104.0 107.0 109.7 110.4 110.5 110.4 111.7 112.7 114.1 115.7 119.0 119.7 120.0 120.0 120.0 120.0 120.0 119.9 120.0 120.0 120.0 120.0 120.0 119.0 115.8 112.8 110.0 110.2 111.4 112.5 115.4 119.1 119.3 119.1 119.1 119.4 120.1 122.5 128.9 129.2
48.9 50.0 50.0 50.0 50.0 50.0 50.0 50.0 50.0 50.0 50.0 50.0 50.0 50.0 51.1 50.8 50.1 50.0 50.1 50.0 50.0 50.0 50.0 50.0 50.0 50.0 50.0 50.0 50.2 50.9 51.3 51.5 53.5 54.6 55.5 56.7 57.8 58.9 60.0 60.0 60.0 60.0 60.0 60.0 60.0 60.0 60.1 60.2 60.1 60.0 66.5 67.5 68.3 68.7 68.8 68.9 69.0 69.2 69.5 69.7 70.0 71.1 72.6 73.8 74.7 75.7 76.2 76.6 77.6 77.7 78.0 79.0 80.0 80.2 80.0 80.0 80.0 80.1 80.4 82.1 83.1 84.4 85.8 86.9 88.2 89.5 91.7 94.2 98.1 100.2 100.1 100.0 102.1 102.3 103.7 105.4 108.8 109.9 110.0 110.0 112.4 113.3 114.9 116.8 119.0 120.0 120.0 120.0 119.7 119.7 119.2 119.4 120.0 120.0 120.0 120.0 120.0 119.7 116.2 112.8 110.0 110.0 110.4 111.8 113.8 119.6 119.8 119.7 119.3 119.7 122.0 125.4 129.9 130.0
48.0 50.0 50.0 50.0 50.0 50.0 50.0 50.0 50.0 50.0 50.0 50.0 50.0 50.0 50.0 50.0 50.0 50.0 50.0 50.0 50.0 50.0 50.0 50.0 50.1 50.5 50.3 50.1 51.2 51.2 51.3 51.5 54.6 55.8 56.5 57.4 58.3 59.2 60.0 60.0 60.0 60.0 60.0 60.0 60.0 60.0 60.0 60.0 60.0 60.0 60.9 62.4 64.1 65.7 67.1 68.1 68.3 68.5 68.9 69.2 69.6 70.3 71.4 72.1 73.0 73.9 74.6 75.1 76.2 76.2 75.8 76.6 77.8 79.9 79.7 79.5 79.8 79.9 79.9 80.9 82.4 83.9 85.3 86.8 88.1 89.7 92.0 94.1 97.4 99.9 100.6 100.4 102.1 102.4 102.7 103.8 108.2 109.5 109.5 109.9 111.7 113.4 115.1 117.6 119.7 120.0 119.3 118.3 117.6 117.7 117.7 117.2 118.6 119.5 119.1 118.9 119.5 117.1 111.4 110.4 110.0 110.0 111.3 113.9 117.6 120.1 120.1 120.0 120.0 120.5 127.6 129.4 130.0 130.0
48.3 50.0 50.0 50.0 50.0 50.0 50.0 48.2 48.3 49.7 49.9 49.8 49.9 50.0 50.0 50.0 50.0 50.0 50.0 50.0 50.1 50.2 50.4 50.4 50.4 50.6 50.3 50.2 51.1 51.3 51.8 52.6 55.8 56.7 57.2 58.0 58.7 59.6 60.0 60.0 60.1 60.1 60.1 60.0 60.0 60.0 60.0 60.0 60.1 60.3 63.3 64.6 65.8 66.8 67.7 68.1 68.3 68.5 68.7 69.0 69.3 69.8 70.8 71.7 72.5 73.2 73.8 74.2 74.9 74.9 74.4 74.9 75.4 79.5 79.1 79.1 79.5 80.2 81.0 82.8 83.9 85.0 86.1 87.4 88.3 89.6 91.7 93.9 96.7 99.4 100.5 100.8 102.4 102.9 103.6 104.9 108.3 109.7 109.8 110.0 110.0 110.0 110.0 110.0 115.7 117.2 116.2 115.6 114.9 115.4 116.0 115.4 116.7 117.5 117.0 116.9 117.3 114.2 110.5 110.1 110.0 110.0 110.2 112.3 115.2 119.2 120.0 120.0 120.0 120.3 125.1 127.0 129.1 130.0
44.8 50.0 50.0 49.2 50.0 49.9 45.9 40.1 40.1 44.0 47.2 47.3 49.5 49.5 49.8 49.8 50.0 50.0 50.0 50.1 50.3 50.5 50.7 50.7 50.7 50.8 50.5 50.4 51.4 51.9 52.6 53.4 56.4 57.2 57.8 58.3 59.0 59.8 60.2 60.5 60.7 60.9 60.8 60.7 60.4 60.2 60.1 60.0 60.1 60.7 68.6 68.9 68.9 68.9 68.8 68.9 69.0 69.1 69.1 69.2 69.4 69.6 70.1 71.1 72.0 72.5 72.9 73.2 73.7 73.4 72.6 72.9 72.9 78.9 78.8 79.2 79.8 81.0 82.1 83.4 84.4 85.5 86.6 88.1 88.6 89.4 91.2 93.7 96.5 99.3 100.1 100.2 103.1 104.0 105.7 107.4 109.2 110.0 110.0 110.0 110.0 110.0 110.0 110.0 114.7 113.7 113.6 113.4 112.9 113.5 114.5 113.9 114.8 115.3 114.8 114.8 114.5 112.0 110.4 110.0 110.0 110.0 110.0 110.6 112.4 117.5 118.7 119.4 119.4 119.8 120.4 121.5 125.6 127.7
34.0 45.2 45.4 43.7 44.4 41.7 40.0 40.7 44.7 48.2 48.9 48.7 49.9 49.9 50.1 50.1 50.1 50.2 50.1 50.2 50.3 50.4 50.6 50.6 50.6 50.7 50.6 50.7 52.1 52.6 53.4 54.3 57.1 57.9 58.4 58.6 59.1 59.7 60.1 60.5 60.8 61.0 61.0 60.9 60.6 60.4 60.2 60.2 60.2 61.2 68.4 69.2 69.2 69.2 69.1 69.2 69.3 69.4 69.3 69.2 69.4 69.6 69.9 70.7 71.3 71.5 71.8 72.0 72.4 71.8 70.8 70.7 70.2 78.3 78.7 79.2 79.6 80.8 82.3 83.8 85.1 86.1 87.2 89.1 89.6 90.3 92.0 93.2 94.7 97.6 99.4 99.8 101.4 103.4 105.3 107.6 109.8 110.0 110.0 110.0 110.0 110.0 110.0 110.0 113.5 110.2 110.8 111.0 110.7 111.5 113.2 113.0 113.3 113.4 113.0 112.2 111.5 110.4 110.0 110.0 110.0 110.0 110.0 110.0 111.1 114.4 116.9 119.3 119.4 119.9 120.6 121.2 123.6 124.8
39.9 41.1 42.3 41.0 40.7 41.1 39.9 44.3 48.8 49.9 49.8 49.7 49.9 49.9 49.9 50.1 50.3 50.5 50.4 50.4 50.6 50.7 50.9 50.9 50.9 51.0 50.8 50.9 52.2 52.7 53.1 53.7 57.8 58.8 59.3 59.3 59.2 59.6 60.0 60.4 60.7 61.0 61.1 61.1 60.9 60.7 60.5 60.4 60.4 61.7 68.1 69.5 69.5 69.5 69.4 69.5 69.6 69.7 69.7 69.4 69.6 69.5 69.6 70.0 70.3 70.2 70.3 70.6 70.6 70.1 69.9 70.1 71.0 75.8 78.2 79.4 79.6 80.1 82.2 84.5 86.0 87.3 88.9 90.1 90.3 90.7 93.2 94.2 96.0 97.9 99.1 100.0 102.2 104.3 106.7 109.1 110.0 110.0 110.0 110.0 110.0 110.0 110.0 110.0 110.5 110.0 109.3 109.2 109.6 110.0 110.6 111.3 111.9 112.1 111.7 111.2 110.9 110.3 110.0 110.0 110.0 110.0 110.0 110.0 111.3 114.5 117.3 120.0 120.0 120.2 120.5 120.2 121.4 122.3
40.0 39.9 39.9 39.9 40.0 40.1 47.8 50.1 50.0 50.0 50.0 50.0 50.0 50.0 50.0 50.2 50.3 50.4 50.4 50.4 50.5 50.8 51.2 51.6 51.8 52.6 53.1 53.6 55.0 55.8 56.8 57.9 59.2 59.8 60.0 60.0 60.0 59.9 60.1 60.3 60.5 60.7 60.9 61.0 60.8 60.7 60.5 60.4 60.5 62.2 67.6 69.7 69.8 69.8 69.8 69.8 69.9 69.9 69.9 69.8 69.9 69.9 69.9 69.9 69.9 69.9 69.9 69.9 69.9 69.9 71.4 72.7 73.8 78.2 79.0 80.2 80.9 83.7 85.6 86.9 87.4 88.1 89.4 90.5 90.9 91.3 93.2 94.2 95.7 97.7 99.2 99.7 101.3 103.2 105.0 107.4 109.8 110.0 110.0 110.0 110.0 110.0 110.0 110.0 110.7 110.0 109.5 108.8 109.7 110.1 110.7 110.9 110.9 110.4 110.4 110.9 110.8 110.4 110.0 110.0 110.0 110.0 110.0 110.1 113.0 116.0 119.1 120.0 120.0 120.0 120.0 119.9 119.7 120.0
40.5 40.0 40.0 43.6 41.5 39.9 40.3 48.7 49.8 49.8 50.0 50.0 50.0 50.1 50.1 50.3 50.7 50.5 50.4 50.5 50.7 50.9 51.2 51.5 51.9 52.8 53.7 54.8 55.6 56.8 58.0 59.2 59.9 60.1 60.2 60.1 60.0 60.0 60.1 60.1 60.5 60.6 60.9 60.9 61.0 60.8 60.7 60.8 61.2 63.3 67.9 69.8 69.8 69.8 69.8 69.8 69.9 69.9 70.0 69.9 70.0 70.0 70.5 70.0 70.0 70.1 72.0 72.1 71.0 71.5 74.1 75.5 76.7 79.5 80.0 81.4 82.5 85.9 87.6 88.3 88.5 88.9 89.9 91.0 91.5 92.1 94.2 95.8 97.3 98.8 100.0 100.0 102.3 102.9 104.1 105.8 108.2 109.8 110.0 110.0 110.0 109.6 109.5 109.9 110.0 109.6 109.1 108.3 108.6 109.2 109.8 109.8 110.0 110.0 110.0 110.1 110.0 109.7 110.0 110.0 110.0 110.0 110.0 110.0 112.0 114.4 116.7 119.4 120.0 120.0 119.9 119.6 119.4 120.0
