ncols         134
nrows         134
xllcorner     100000.188
yllcorner     1080025.188
cellsize          74.62406015037593900
NODATA_value  -9999
41.0 39.9 44.0 50.0 50.0 44.9 40.7 40.1 44.9 48.5 49.8 49.8 49.8 50.1 50.3 50.3 51.0 50.5 50.3 50.4 50.6 50.8 50.8 50.9 51.3 52.0 53.0 54.0 54.8 56.2 57.6 59.1 60.0 60.3 60.3 60.3 60.1 60.0 60.0 60.0 60.3 60.5 60.8 60.8 61.2 61.7 62.0 62.4 63.3 65.3 68.0 69.9 69.9 69.9 69.8 69.9 70.0 70.1 70.3 72.1 72.7 72.7 73.5 72.7 72.3 73.8 75.4 75.4 74.4 74.6 76.6 77.8 78.9 80.0 80.5 82.9 84.1 88.0 89.3 89.6 89.7 90.0 90.5 91.6 92.0 92.4 94.4 95.8 97.3 98.9 99.9 100.1 100.5 100.7 100.8 100.6 105.8 107.5 109.2 109.4 108.4 108.0 107.6 107.7 108.1 107.2 105.0 105.5 107.1 108.1 108.7 108.7 109.7 109.7 110.0 110.2 110.0 109.4 110.0 110.0 110.0 110.0 110.0 110.0 110.8 111.9 113.1 117.0 117.9 119.5 119.2 118.0 118.2 119.1
45.4 39.9 41.3 49.1 50.2 49.5 46.2 49.5 50.0 50.0 50.0 50.0 50.0 50.0 50.1 50.0 50.8 50.2 50.1 50.2 50.4 50.5 50.5 50.5 50.7 51.4 52.2 53.1 53.9 55.2 56.8 58.7 60.0 60.0 60.0 60.0 60.0 60.0 60.0 60.0 60.4 61.0 61.5 61.7 62.1 62.5 63.5 64.9 66.5 68.0 69.2 70.0 70.0 70.0 70.0 70.1 70.2 70.3 71.0 76.2 77.0 75.4 76.3 76.1 76.1 77.4 78.4 78.7 77.5 76.8 78.2 80.0 80.0 80.5 82.3 87.1 88.7 89.9 90.1 90.1 90.1 90.1 90.5 91.1 91.2 92.3 93.9 95.2 96.5 99.1 99.9 99.8 100.2 100.5 100.6 100.5 103.9 105.0 106.9 107.5 106.6 106.4 105.9 105.6 106.2 105.5 103.7 104.1 106.8 107.4 107.9 108.2 109.7 109.9 110.1 110.4 110.1 109.6 110.0 110.0 110.0 110.0 110.0 110.3 111.3 112.4 113.1 114.9 115.1 118.7 118.4 117.6 118.0 119.2
47.3 41.0 39.9 45.5 50.0 50.0 49.8 49.9 50.0 50.0 50.0 50.0 50.0 50.0 50.0 50.0 50.1 50.0 50.0 50.0 50.1 50.3 50.2 50.2 50.2 50.2 50.3 50.4 50.3 50.4 50.4 50.4 59.9 60.0 59.9 59.9 59.9 59.7 59.6 59.7 60.2 60.7 61.3 61.4 61.7 62.1 63.2 64.9 66.8 68.3 69.4 70.1 70.4 70.4 70.3 70.4 70.6 70.7 71.6 76.1 76.9 78.1 78.9 79.3 80.0 80.0 80.0 80.0 80.0 79.2 80.1 80.7 81.0 81.3 83.0 86.9 88.4 90.0 90.6 90.6 90.6 90.6 91.0 90.9 91.6 93.7 95.8 97.4 98.8 99.9 100.1 100.0 100.2 100.2 100.2 100.1 102.6 103.3 104.8 105.5 105.2 105.1 104.2 103.7 104.4 103.8 102.3 102.8 107.3 107.8 108.5 109.4 110.0 110.0 110.1 110.1 109.6 109.1 110.0 110.0 110.0 110.0 110.0 110.2 111.0 111.9 112.3 113.1 112.3 117.8 117.6 117.3 117.9 119.7
50.0 42.6 39.9 44.2 48.7 50.0 49.8 50.0 50.0 50.0 50.0 50.0 50.0 50.0 50.0 50.0 50.0 50.0 50.0 50.0 50.0 50.2 50.2 50.1 50.1 50.2 50.2 50.2 50.1 50.1 50.0 50.0 59.8 59.9 59.8 59.8 59.7 59.4 59.3 59.4 59.9 60.3 60.8 61.0 61.3 61.6 62.0 63.7 65.9 67.8 68.9 69.9 70.4 70.8 71.1 71.4 71.7 73.2 74.9 76.4 78.9 80.0 80.1 80.1 80.1 80.1 80.2 80.2 80.1 80.0 80.1 80.5 81.1 82.2 84.2 88.5 89.5 89.6 90.2 90.9 91.1 91.1 90.9 90.4 90.8 92.9 95.3 97.2 98.7 99.9 100.2 100.1 100.0 100.0 100.0 100.0 100.7 101.2 102.6 103.7 103.6 103.5 102.5 101.6 102.3 102.0 100.5 100.9 107.1 107.7 108.5 109.3 110.0 110.0 110.0 109.4 108.4 107.3 109.4 110.0 110.0 110.0 110.0 110.0 110.1 110.6 110.8 110.5 110.0 110.6 113.3 115.7 118.0 120.0
50.0 43.7 40.8 44.1 47.1 49.9 49.8 50.0 50.0 50.0 50.0 50.0 50.0 50.0 50.0 50.0 50.0 50.0 50.0 50.0 50.0 50.0 50.0 50.0 50.0 50.0 50.0 50.0 50.0 50.0 50.0 50.0 51.5 54.9 57.0 58.4 58.6 58.6 58.6 58.6 59.3 59.8 60.4 60.5 60.8 61.1 61.2 62.1 64.3 66.8 68.0 69.4 69.9 70.3 70.7 71.0 72.4 73.2 74.7 76.2 78.4 79.9 80.4 80.6 80.6 80.7 80.7 80.6 80.5 80.4 81.2 82.8 85.0 87.3 89.2 90.0 90.2 90.0 90.2 90.3 90.4 90.3 90.1 90.0 90.2 91.5 93.7 95.6 97.4 99.0 99.9 100.0 99.5 99.6 99.8 99.5 99.3 99.7 100.2 101.1 101.4 100.9 100.2 99.9 100.2 100.0 100.0 100.0 100.4 101.5 102.4 103.1 107.8 108.8 108.2 106.4 105.4 102.9 106.4 107.6 107.6 108.0 108.5 109.6 109.8 110.0 110.0 110.0 110.0 111.1 113.6 115.5 117.6 120.0
50.0 41.9 40.3 42.9 45.1 47.4 49.9 50.0 50.0 50.0 50.0 50.0 50.0 50.0 50.0 50.0 50.0 50.0 50.0 50.0 50.0 50.0 50.0 50.0 50.0 50.0 50.0 50.0 50.0 50.0 50.1 50.5 54.3 56.7 57.7 58.6 58.6 58.6 58.6 58.6 59.0 59.5 60.0 60.0 60.3 60.5 60.7 61.2 62.7 66.0 67.2 69.0 69.5 69.8 70.2 70.5 72.2 72.8 74.3 76.1 78.2 79.7 80.4 80.7 81.0 81.0 81.1 81.0 80.8 80.7 81.5 83.0 84.6 86.4 88.2 89.4 90.0 90.0 90.0 90.0 90.0 90.0 90.0 89.9 90.0 90.4 90.8 91.0 91.2 95.5 98.2 98.5 98.0 98.2 98.3 98.1 97.9 98.8 99.4 99.8 100.3 100.3 99.9 99.8 100.0 100.0 100.0 100.0 100.3 101.2 102.1 102.5 105.3 106.5 106.0 104.6 103.8 101.4 105.9 107.6 107.7 107.8 107.9 109.5 109.7 109.8 109.8 109.5 109.9 110.6 111.5 112.1 113.0 119.6
50.0 40.0 40.6 42.2 43.2 45.4 49.9 50.0 50.0 50.0 50.0 50.0 50.0 50.0 50.0 50.0 50.0 50.0 50.0 50.0 50.0 50.4 50.3 50.0 50.0 50.1 50.3 50.3 50.5 50.5 50.8 51.2 58.1 58.8 59.1 59.1 58.8 58.6 58.6 58.6 59.0 59.3 59.7 59.8 60.0 60.2 60.4 61.0 62.0 64.7 66.3 68.5 69.0 69.3 69.7 70.0 71.6 72.7 73.8 76.4 78.6 80.0 80.2 80.2 80.4 80.7 80.5 80.4 80.3 80.4 80.6 81.3 81.9 82.8 84.0 87.8 89.3 89.5 89.3 89.6 90.0 89.9 89.7 89.6 89.9 90.1 90.4 90.5 90.6 93.8 96.3 96.7 96.3 96.7 96.8 96.7 96.6 98.1 98.9 99.3 99.5 99.6 99.1 99.1 99.6 99.6 99.6 99.9 100.2 100.9 101.5 101.7 103.3 103.7 103.0 101.8 101.0 100.0 100.8 102.0 103.3 104.5 105.7 108.5 109.0 109.1 109.0 109.2 110.0 110.7 111.5 112.1 112.9 119.8
50.0 44.9 39.9 40.1 40.3 40.0 41.5 46.7 49.9 50.1 50.3 50.6 50.5 50.4 50.4 50.3 50.2 50.2 50.1 50.1 50.1 51.1 50.9 50.6 50.6 50.8 50.9 51.0 51.1 51.2 51.4 51.9 59.5 59.5 59.4 59.4 59.3 59.4 59.5 59.5 59.5 59.5 59.7 59.7 59.9 59.9 60.0 60.5 61.6 63.7 65.3 67.7 68.4 68.7 69.1 69.7 70.9 71.8 72.7 75.0 76.9 79.6 80.0 80.0 80.2 80.3 80.2 80.1 80.1 80.1 80.3 81.1 81.2 81.3 81.6 86.6 88.3 88.8 88.7 89.0 89.3 89.2 89.0 88.9 89.3 89.9 90.2 90.3 90.4 92.7 94.3 94.9 94.8 95.2 95.4 95.4 95.4 97.3 98.3 98.7 98.9 99.0 98.6 98.8 99.3 99.4 99.6 100.0 100.6 100.9 101.0 100.8 101.7 102.1 101.7 100.8 100.1 100.0 100.6 101.8 103.2 104.7 105.9 108.2 108.4 108.6 108.6 108.9 109.7 111.5 113.7 115.7 117.9 120.0
50.0 50.0 49.8 47.6 41.3 41.2 40.3 40.4 45.7 50.0 50.2 50.6 50.6 50.6 50.6 50.5 50.4 50.4 50.2 50.2 50.2 51.7 51.4 51.1 51.2 51.5 51.6 51.7 51.9 51.9 52.2 52.8 59.2 59.2 59.3 59.3 59.4 59.5 59.6 59.6 59.5 59.5 59.6 59.7 60.0 59.9 60.0 60.0 60.9 62.5 64.2 66.6 67.5 68.1 68.7 69.8 70.5 70.9 71.5 73.6 74.7 78.9 79.2 79.3 80.0 80.1 80.0 80.0 80.0 80.0 80.1 81.4 81.3 81.3 81.2 85.7 87.3 88.0 88.0 88.3 88.7 88.6 88.4 88.5 88.9 89.4 89.9 90.1 90.2 92.0 93.2 93.6 93.7 94.0 94.2 94.2 94.2 96.5 97.6 98.0 98.2 98.5 98.2 98.5 99.1 99.3 99.8 100.0 100.4 100.0 100.0 100.0 100.0 100.1 100.1 100.0 100.0 100.0 100.4 101.6 103.2 104.8 106.1 108.7 108.8 109.0 109.1 109.2 109.3 110.7 112.8 114.9 117.1 119.4
50.0 50.0 50.0 50.0 47.1 44.1 41.6 40.1 43.9 49.9 50.1 50.4 50.6 50.7 50.7 50.7 50.6 50.6 50.4 50.5 50.4 52.2 51.9 51.7 51.9 52.2 52.4 52.5 52.6 52.7 53.0 53.6 59.2 59.2 59.4 59.5 59.5 59.7 59.7 59.7 59.7 59.6 59.7 59.9 60.4 60.0 59.9 60.2 60.7 63.1 64.8 66.5 67.3 67.8 68.4 69.0 69.9 70.2 70.6 72.1 72.7 78.2 78.7 79.1 79.6 79.8 79.8 79.7 79.5 79.8 80.1 80.8 81.0 81.3 81.4 84.2 85.8 86.8 87.0 87.6 87.9 87.9 87.7 87.6 88.0 88.6 89.3 89.6 90.0 90.8 91.6 92.1 92.3 92.6 92.8 92.9 92.9 95.4 96.7 97.2 97.6 98.0 97.7 98.4 99.3 99.3 99.3 99.9 99.9 99.9 99.9 99.9 99.9 99.9 99.9 99.8 99.9 99.9 100.4 101.7 103.5 105.3 106.6 109.3 109.4 109.5 109.7 109.7 109.6 110.2 110.6 111.3 111.8 118.1
50.0 50.0 50.0 50.0 47.7 45.4 42.4 40.5 39.9 41.9 50.0 50.3 50.6 50.7 50.9 50.9 50.8 50.8 50.6 50.7 50.6 52.7 52.4 52.2 52.6 52.9 53.1 53.1 53.3 53.4 53.7 54.3 59.3 59.4 59.6 59.6 59.7 59.8 59.9 59.9 59.9 59.8 59.8 60.0 60.7 60.7 60.0 59.9 60.2 61.6 63.2 64.6 66.3 67.3 67.7 69.2 69.8 69.8 70.2 71.1 71.8 75.9 77.3 78.2 79.0 79.4 79.2 79.1 78.9 79.4 79.8 80.1 80.6 80.9 81.1 83.1 84.4 85.6 86.0 86.7 87.2 87.2 87.1 87.0 87.4 88.1 88.7 89.0 89.5 90.0 90.5 90.7 91.1 91.4 91.5 91.7 91.8 94.6 95.9 96.5 96.9 97.4 97.2 97.9 99.1 99.0 98.8 99.9 99.9 99.8 99.7 99.6 99.6 99.6 99.6 99.7 100.1 100.1 102.2 105.3 107.0 107.9 108.0 109.6 109.7 109.8 110.0 110.0 110.0 111.3 111.8 112.2 112.7 117.2
50.0 50.0 50.0 50.0 48.1 46.6 42.0 39.9 43.6 49.8 49.8 50.0 50.4 50.7 50.9 51.1 51.1 51.2 51.1 51.1 51.0 53.3 53.0 52.9 53.2 53.7 53.9 54.0 54.3 54.5 55.0 55.7 59.3 59.4 59.6 59.6 59.7 59.9 60.0 60.0 60.0 60.0 60.1 60.9 61.9 61.6 60.9 60.0 59.9 61.2 63.0 64.7 66.1 67.1 68.2 69.6 70.1 70.0 70.2 71.9 72.4 76.3 77.3 77.9 78.4 78.8 78.7 78.6 78.7 79.3 79.8 80.2 80.6 80.6 80.7 82.7 83.7 84.7 85.2 86.0 86.6 86.7 86.6 86.5 86.7 87.5 88.0 88.4 88.7 89.3 89.9 89.9 90.0 90.1 90.1 90.4 90.5 92.9 93.9 94.8 95.5 96.2 96.2 97.1 98.6 98.5 98.4 99.7 99.7 99.5 99.4 99.3 99.2 99.4 99.7 99.8 100.6 100.9 103.4 107.2 107.9 108.1 108.7 110.0 110.0 110.0 110.0 110.0 110.0 111.3 111.6 111.8 111.7 115.2
50.0 50.0 50.0 50.0 49.9 49.0 41.2 40.4 45.6 50.0 50.1 50.5 50.9 51.1 51.3 51.4 51.3 51.4 51.2 51.3 51.2 53.8 53.6 53.4 54.0 54.5 54.8 55.0 55.4 55.7 56.3 56.9 59.4 59.5 59.7 59.7 59.8 60.0 60.0 60.0 60.0 60.0 61.0 61.4 63.2 63.0 62.0 61.1 60.2 60.2 62.2 64.3 66.0 67.1 68.7 70.0 70.4 70.3 70.4 72.4 73.0 76.5 77.2 77.4 77.8 78.3 78.2 78.4 78.8 79.7 80.0 80.3 80.4 80.3 80.3 82.3 83.3 84.1 84.7 85.3 85.9 86.1 86.1 86.0 86.3 86.9 87.5 87.8 88.1 88.6 89.8 89.8 89.8 89.8 89.8 89.8 89.9 90.4 91.1 92.0 93.0 94.1 94.5 95.8 97.6 98.1 98.3 99.3 99.2 98.9 98.9 98.8 98.9 99.4 99.9 100.3 101.3 101.4 104.3 108.3 108.6 108.8 109.4 110.0 110.0 110.0 110.0 110.0 110.0 111.6 111.8 111.7 111.5 113.7
50.0 50.0 50.0 50.0 50.0 49.6 41.0 40.0 44.9 49.9 50.3 50.6 50.9 51.4 51.6 51.7 51.7 51.8 51.6 51.8 51.7 54.4 54.2 54.0 54.6 55.1 55.3 55.4 55.5 55.6 55.9 56.3 59.9 59.9 60.0 60.0 60.0 60.0 60.1 60.1 60.1 60.0 61.9 62.8 66.7 66.9 65.7 64.1 62.5 68.1 69.0 68.9 68.9 69.1 69.5 69.9 70.2 70.5 70.8 72.6 73.2 76.0 76.7 76.9 77.4 77.8 78.1 78.6 79.3 80.0 80.1 80.2 80.1 80.1 80.1 81.7 82.7 83.8 84.2 84.9 85.5 85.6 85.7 85.7 85.9 86.5 87.0 87.2 87.5 88.0 89.6 89.6 89.6 89.6 89.6 89.6 89.8 90.4 91.0 91.9 92.8 93.7 94.2 96.0 98.1 98.5 98.5 98.8 98.7 98.7 98.8 99.0 99.3 99.9 100.4 100.7 101.6 101.7 104.8 109.2 109.4 109.5 109.4 110.0 110.0 110.0 110.0 110.0 110.0 111.5 111.7 111.5 111.4 112.5
50.0 50.0 50.0 50.0 50.0 50.0 40.0 41.0 43.5 49.6 50.2 50.6 50.8 51.3 51.5 51.5 51.6 51.8 51.9 51.9 51.9 54.7 54.6 54.6 55.3 55.8 56.1 56.4 56.9 57.3 57.9 58.5 59.7 59.8 60.0 60.1 60.2 60.4 60.5 60.5 60.4 60.4 62.9 63.6 68.1 68.6 67.7 66.0 64.7 68.6 69.4 69.1 69.0 68.9 69.1 69.8 69.9 70.2 70.5 71.8 72.5 74.6 75.6 76.4 76.9 77.3 77.6 78.1 78.8 79.7 80.0 80.0 80.0 80.0 80.0 80.8 81.8 83.2 83.8 84.3 84.8 85.0 85.2 85.2 85.5 86.0 86.4 86.7 87.0 87.5 89.4 89.4 89.4 89.4 89.4 89.5 89.8 90.2 90.8 91.6 92.4 93.3 93.9 96.0 98.4 98.9 98.9 98.8 98.9 99.0 99.2 99.1 99.3 99.9 100.7 101.4 102.3 102.5 105.3 109.7 109.9 109.9 110.0 110.0 110.0 110.0 110.0 110.0 110.0 111.7 111.7 111.5 111.3 112.3
50.0 50.0 50.0 50.0 50.0 50.0 40.0 40.6 41.9 50.3 50.3 50.5 50.6 51.3 51.5 51.4 51.5 51.7 52.0 52.2 52.2 55.2 55.1 55.2 55.9 56.4 56.7 57.1 57.5 58.0 58.6 59.2 59.9 60.1 60.5 60.6 60.8 61.1 61.3 61.9 62.6 63.6 66.4 67.7 69.5 70.0 69.7 68.6 67.5 69.3 69.9 69.9 69.8 69.8 69.8 70.0 70.0 69.9 70.1 70.7 71.3 72.8 73.8 74.6 75.6 76.5 76.8 76.8 76.9 79.2 79.5 79.6 79.6 79.5 79.6 80.0 80.7 81.4 81.8 82.4 83.0 83.4 83.9 84.2 84.6 85.3 85.8 86.1 86.3 86.8 89.3 89.3 89.3 89.4 89.5 89.6 89.9 90.2 91.0 91.7 92.4 93.2 93.8 96.3 99.0 99.3 99.3 99.3 99.3 99.5 99.5 99.4 99.5 99.9 101.4 102.5 104.0 106.1 108.5 110.0 110.0 110.0 110.0 110.0 110.0 110.0 110.0 110.0 110.0 111.7 111.5 111.2 111.1 112.2
50.0 50.0 50.0 50.0 50.0 50.0 49.0 40.1 39.9 41.0 50.1 50.2 50.4 51.2 51.3 51.3 51.3 51.6 51.9 52.4 52.5 55.5 55.4 55.5 56.2 56.8 57.1 57.3 57.7 58.2 58.7 59.4 60.0 60.5 60.9 61.2 61.4 61.8 62.2 63.3 64.5 66.0 68.2 69.3 70.0 70.0 70.0 69.9 69.3 69.8 70.0 70.0 70.0 70.0 70.0 70.1 70.2 70.0 70.2 71.9 72.2 74.3 75.0 75.5 76.2 76.8 76.7 76.8 76.8 78.7 79.0 79.1 79.1 79.0 79.1 79.5 80.0 80.6 81.3 81.8 82.5 83.0 83.5 83.8 84.3 84.8 85.3 85.7 86.0 86.5 89.5 89.6 89.6 89.7 89.7 89.7 90.1 90.7 91.6 92.3 92.9 93.6 94.1 96.7 99.6 99.6 99.6 99.6 99.7 99.8 99.9 99.8 99.8 100.2 101.7 102.7 104.0 105.8 107.9 109.7 110.0 110.0 110.0 110.0 110.0 110.0 110.0 110.0 110.0 111.3 111.1 110.9 110.8 112.0
50.0 50.0 50.0 50.0 50.0 50.0 50.0 46.9 42.1 40.0 48.8 50.0 50.2 50.9 51.2 51.1 51.1 51.4 51.7 52.2 52.5 55.8 55.5 55.6 56.6 57.2 57.6 57.7 57.8 58.1 58.7 59.2 59.9 60.7 61.2 61.5 61.9 62.3 62.7 63.8 65.1 66.5 68.3 69.4 70.0 70.0 70.0 70.0 70.0 70.0 70.0 70.0 70.0 70.0 70.0 70.1 70.4 70.3 70.3 71.8 72.2 74.1 74.7 75.2 75.8 76.4 76.4 76.5 76.6 78.2 78.5 78.6 78.6 78.6 78.8 79.1 79.7 80.2 80.9 81.6 82.3 82.8 83.3 83.7 84.1 84.7 85.1 85.5 86.0 86.6 89.7 89.8 89.8 89.9 90.0 90.0 90.5 91.4 92.7 93.2 93.7 94.5 95.0 97.4 99.7 99.7 99.8 99.7 99.8 99.9 100.0 100.0 100.0 100.7 101.9 102.3 103.5 104.6 105.9 108.2 108.8 109.6 110.0 110.0 110.0 110.0 110.0 110.0 110.0 110.9 110.7 110.5 110.4 111.5
50.0 50.0 50.0 50.0 50.0 50.0 50.0 50.0 48.9 41.5 50.0 50.0 50.0 50.6 50.8 50.9 51.0 51.3 51.6 52.2 52.5 56.1 55.8 55.8 57.0 57.8 58.2 58.2 58.3 58.5 59.0 59.6 60.3 60.9 61.4 61.7 62.1 62.4 62.9 63.9 65.0 66.2 67.9 68.9 69.9 70.0 70.0 70.0 70.0 70.0 70.0 70.0 70.0 70.0 70.0 70.0 70.3 70.5 70.5 71.6 71.9 73.5 74.1 74.7 75.3 75.8 76.1 76.1 76.3 77.7 78.0 78.1 78.1 78.2 78.5 78.9 79.5 80.0 80.8 81.5 82.3 82.9 83.4 83.9 84.3 85.0 85.7 86.4 87.3 88.1 89.8 90.0 90.0 90.1 90.1 90.2 90.7 92.1 93.4 93.7 93.9 95.3 95.7 97.8 99.9 99.9 99.9 100.0 100.0 100.0 100.1 100.0 100.1 100.5 101.5 102.0 103.1 104.1 104.7 107.0 107.6 108.4 109.5 110.0 109.8 109.2 109.2 109.9 110.0 110.3 110.2 110.0 110.0 110.7
50.0 50.0 50.0 50.0 50.0 50.0 50.0 50.0 49.7 45.7 50.0 50.0 50.0 50.3 50.7 50.7 50.8 51.1 51.5 52.1 52.4 56.6 56.1 56.1 57.6 58.6 58.9 59.0 58.8 58.9 59.3 59.9 60.5 61.1 61.5 61.8 62.2 62.5 62.8 63.6 64.5 65.6 67.5 68.2 69.6 70.0 70.0 70.0 70.0 70.0 70.0 70.0 70.0 70.0 70.0 70.0 70.4 70.6 70.8 71.6 71.9 73.4 73.9 74.4 75.0 75.5 75.8 75.9 76.1 77.3 77.6 77.7 77.8 78.0 78.4 78.9 79.5 80.0 80.8 81.7 82.4 83.1 83.5 83.9 84.6 85.5 86.5 87.6 88.6 89.5 90.1 90.3 90.3 90.4 90.5 90.6 91.1 92.6 94.1 95.0 96.2 98.0 98.9 99.7 100.0 100.1 100.0 100.0 100.1 100.1 100.2 100.2 100.2 100.5 100.6 100.6 100.8 100.9 101.7 105.4 105.7 106.6 107.7 108.5 107.8 107.3 107.6 108.2 109.5 110.0 109.6 109.4 109.5 109.9
50.0 50.0 50.0 50.0 50.0 50.0 50.0 50.0 49.7 48.2 50.0 50.0 50.0 50.2 50.6 50.5 50.5 50.9 51.3 52.0 52.3 57.3 56.5 56.5 58.3 59.4 59.6 59.7 59.6 59.5 59.9 60.2 60.9 61.4 61.7 62.0 62.2 62.5 62.8 63.6 64.4 65.3 67.8 68.1 69.3 69.6 70.0 70.3 70.4 70.5 70.4 70.2 70.1 70.0 70.0 70.2 70.6 70.5 70.6 71.8 72.1 75.3 75.5 75.7 75.9 76.2 76.3 76.4 76.6 77.3 77.5 77.7 77.9 78.1 78.5 78.9 79.5 79.8 80.4 81.2 82.1 82.6 83.1 83.4 84.0 85.0 86.1 87.2 88.4 89.4 90.1 90.5 90.7 90.8 90.9 90.8 90.9 91.9 92.9 93.5 94.6 97.1 98.1 98.9 99.7 100.1 100.1 100.3 100.3 100.4 100.4 100.4 100.4 100.5 100.4 100.4 100.5 100.5 101.2 104.0 104.3 105.2 106.1 106.7 106.0 105.7 105.9 106.4 107.5 108.3 108.6 108.8 108.9 109.8
50.0 50.0 50.0 50.0 50.0 50.0 50.0 50.0 49.7 48.6 50.0 50.0 50.1 50.6 50.7 50.3 50.3 50.6 51.3 53.0 54.5 57.8 57.8 58.5 59.4 60.0 60.1 60.1 60.0 60.0 60.0 60.2 61.0 61.4 61.6 61.7 62.1 62.9 63.6 64.3 65.1 65.9 68.7 68.8 69.6 69.6 69.9 70.1 70.4 70.5 70.6 70.4 70.2 70.1 70.0 70.3 70.8 70.7 70.7 71.6 71.9 75.1 75.3 75.5 75.7 76.0 76.0 76.2 76.4 77.0 77.2 77.4 77.6 77.9 78.2 78.6 79.3 79.7 80.0 80.8 81.5 82.1 82.5 82.8 83.2 84.0 85.0 86.1 87.4 88.8 89.7 90.3 90.5 90.5 90.6 90.5 90.5 91.3 91.9 92.3 93.1 96.3 97.3 98.3 99.1 99.9 100.1 100.3 100.5 100.6 100.7 100.6 100.6 100.6 100.2 100.3 100.3 100.4 100.7 102.5 102.8 103.7 104.7 105.0 104.3 104.1 104.5 104.8 105.6 106.8 107.7 108.3 108.6 109.7
50.4 50.5 50.4 50.3 50.3 50.2 50.1 50.1 50.1 49.5 50.0 50.0 50.2 50.3 50.2 50.0 50.0 50.2 51.0 53.1 54.9 58.5 58.3 59.1 59.9 60.2 60.3 60.3 60.2 60.2 60.2 60.4 61.2 61.6 61.9 62.0 62.7 63.5 64.2 65.0 65.7 66.5 69.6 69.6 69.9 69.8 70.0 70.2 70.5 70.6 70.7 70.6 70.4 70.2 70.1 70.4 70.6 70.7 71.0 73.2 73.5 74.9 75.2 75.4 75.5 75.7 75.9 76.1 76.3 76.8 76.9 77.2 77.4 77.7 78.2 78.6 79.1 79.5 79.8 80.5 81.1 81.6 81.9 82.1 82.5 83.0 83.7 84.6 85.9 87.6 88.8 89.9 90.1 90.2 90.2 90.1 90.2 90.7 91.1 91.2 91.7 95.2 96.2 97.4 98.4 99.2 99.9 100.2 100.4 100.6 100.7 100.8 100.7 100.5 100.1 100.1 100.2 100.2 103.1 101.0 101.3 102.3 103.1 103.2 102.5 102.5 103.0 103.0 103.9 105.9 107.4 108.5 109.1 109.9
50.6 50.8 50.7 50.6 50.6 50.4 50.4 50.3 50.3 50.0 50.0 50.0 50.0 50.0 50.0 50.0 50.0 50.2 51.1 52.2 53.2 59.0 58.1 58.5 59.8 60.4 60.7 60.8 60.6 60.6 60.6 60.9 61.9 62.5 63.5 64.3 65.3 66.3 67.2 68.1 69.0 69.7 70.0 70.0 70.0 70.0 70.1 70.3 70.3 70.4 70.4 70.4 70.4 70.2 70.2 70.2 70.3 70.3 71.0 74.6 74.9 75.0 75.2 75.4 75.5 75.8 75.9 76.1 76.3 76.7 76.8 77.1 77.3 77.6 78.0 78.3 78.9 79.2 79.5 79.9 80.5 80.9 81.2 81.4 81.7 82.0 82.2 82.5 83.2 84.6 87.2 88.7 89.7 89.9 90.0 90.0 90.0 90.2 90.4 90.5 90.6 92.5 92.7 94.4 97.0 98.2 98.0 99.9 99.8 99.8 99.8 99.8 99.8 99.8 99.9 99.8 99.8 99.8 99.9 99.8 99.9 100.7 101.5 101.4 100.7 100.7 101.2 101.1 101.6 104.3 107.5 108.7 109.6 110.0
50.8 50.9 50.8 50.6 50.6 50.5 50.5 50.4 50.4 50.2 50.0 50.0 50.0 50.0 50.0 50.0 50.0 50.0 50.5 52.8 55.9 59.9 59.2 59.5 60.1 60.4 60.7 60.9 60.8 60.8 60.9 61.2 61.9 62.1 62.5 63.1 63.9 64.9 65.6 66.7 67.7 68.5 69.8 69.8 70.0 70.0 70.1 70.2 70.2 70.3 70.4 70.3 70.3 70.3 70.2 70.2 70.2 70.2 70.9 74.3 74.5 74.7 74.9 75.1 75.2 75.4 75.5 75.8 75.9 76.3 76.5 76.7 77.0 77.3 77.5 77.9 78.5 78.9 79.2 79.5 79.9 80.2 80.4 80.6 80.9 81.1 81.2 81.3 81.5 81.9 85.6 87.4 88.9 89.4 89.5 89.5 89.6 89.8 89.8 89.9 90.1 91.3 91.8 93.1 95.1 96.8 97.5 99.7 99.8 99.8 99.8 99.8 99.8 99.8 99.8 99.9 99.9 99.9 99.9 99.6 99.4 99.6 100.0 99.8 99.5 99.6 99.8 99.7 100.0 101.7 103.9 106.0 108.1 110.0
50.9 51.0 50.9 50.7 50.7 50.6 50.6 50.5 50.6 50.4 50.2 50.0 50.0 50.0 50.0 50.0 50.0 50.0 50.0 51.1 56.5 60.0 59.7 59.8 60.1 60.3 60.4 60.8 61.0 61.0 61.1 61.3 61.6 61.6 61.6 61.9 62.5 63.3 63.8 64.9 65.9 66.7 68.7 68.9 69.2 69.9 70.1 70.1 70.1 70.2 70.2 70.2 70.2 70.2 70.1 70.1 70.1 70.1 70.7 73.7 74.0 74.3 74.5 74.6 74.8 75.0 75.0 75.3 75.3 75.8 75.9 76.2 76.4 76.6 76.8 77.1 77.8 78.2 78.6 79.1 79.4 79.7 79.9 80.1 80.3 80.5 80.6 80.6 80.8 81.2 84.2 86.2 88.3 88.8 88.9 88.9 89.0 89.3 89.3 89.4 89.8 91.0 92.2 93.6 95.3 96.6 97.7 99.2 100.0 100.0 100.0 100.0 100.0 100.0 99.5 99.3 99.8 100.0 99.8 99.5 99.1 98.7 99.3 99.1 98.9 99.1 99.2 99.3 99.6 100.1 101.9 103.8 105.6 108.5
54.9 54.4 54.4 54.3 53.7 53.7 53.1 52.8 51.7 51.4 51.2 50.7 50.0 50.0 50.0 50.0 50.0 50.0 50.0 51.1 54.9 59.7 60.0 59.9 60.0 60.0 60.2 60.5 60.8 60.9 61.0 61.3 61.4 61.4 61.4 61.3 61.6 62.3 62.6 63.6 64.5 65.2 67.7 68.0 68.4 69.0 69.8 70.0 70.0 70.0 70.1 70.1 70.1 70.0 70.0 70.0 70.0 70.0 70.6 73.2 73.4 73.9 74.1 74.2 74.4 74.6 74.5 74.7 74.6 75.2 75.3 75.5 75.6 75.7 75.9 76.1 77.1 77.7 78.1 78.7 79.0 79.3 79.4 79.5 79.8 79.9 79.9 80.0 80.1 80.5 82.8 84.4 86.9 87.8 88.1 88.1 88.3 88.6 88.7 89.2 89.8 90.9 91.7 92.9 94.4 95.5 96.1 97.6 98.8 99.5 100.0 100.0 100.0 99.8 99.3 98.7 98.8 99.0 97.8 98.4 98.2 97.7 98.6 98.4 98.4 98.7 98.8 99.1 99.4 100.0 100.1 100.5 101.1 106.3
55.1 54.6 54.6 54.5 54.0 54.0 53.4 53.1 52.1 51.8 51.6 51.2 50.5 50.5 51.0 50.0 50.0 50.0 50.0 51.6 53.0 58.4 60.0 60.0 60.0 60.0 60.0 60.3 60.5 60.6 60.7 60.9 61.0 61.0 61.0 61.0 61.0 61.2 61.3 61.8 62.4 62.8 66.7 66.8 67.1 67.7 68.3 69.2 69.5 70.0 70.0 70.0 70.0 70.0 70.0 70.0 70.0 70.0 70.4 72.5 72.8 73.3 73.5 73.7 73.8 74.0 74.0 74.1 74.1 74.6 74.6 74.9 75.0 75.0 75.1 75.3 76.6 77.2 77.7 78.2 78.6 78.9 79.0 79.2 79.3 79.4 79.5 79.5 79.7 79.9 80.9 82.1 84.0 85.6 86.7 87.2 87.5 87.8 88.1 88.9 89.8 90.4 90.9 91.8 92.9 93.8 94.1 96.1 97.3 98.0 99.3 99.9 99.2 98.3 97.3 97.0 97.5 97.8 96.5 97.7 97.4 96.7 97.9 97.7 97.7 98.2 98.5 98.8 99.2 99.8 100.0 100.2 100.4 104.1
55.3 54.8 54.8 54.8 54.2 54.2 53.7 53.5 52.5 52.2 52.1 51.7 51.1 51.2 52.4 51.2 51.2 50.0 50.0 50.2 50.2 52.6 54.8 56.7 59.9 60.0 60.0 60.0 60.2 60.4 60.5 60.6 60.7 60.7 60.7 60.7 60.7 60.8 60.7 60.9 61.1 61.1 65.6 65.7 66.0 66.3 66.9 68.1 68.4 69.0 69.6 69.8 69.7 69.7 69.5 69.4 69.6 70.0 70.2 70.6 70.9 71.5 71.8 72.1 72.5 72.8 73.0 73.2 73.4 73.9 74.0 74.2 74.2 74.2 74.3 74.6 75.9 76.6 77.1 77.7 78.1 78.4 78.5 78.7 78.8 79.0 79.1 79.1 79.3 79.6 80.1 81.3 82.6 84.2 85.5 86.3 86.8 87.2 87.7 88.5 89.4 90.1 90.4 91.0 92.0 92.6 92.9 94.5 95.6 96.4 97.8 98.5 97.7 96.7 95.4 95.3 96.0 96.5 95.3 96.8 96.6 95.8 97.2 97.0 97.1 97.7 98.0 98.4 98.9 99.6 100.0 100.1 100.4 102.4
55.5 55.1 55.1 55.0 54.5 54.5 54.0 53.8 52.9 52.7 52.6 52.3 51.7 51.8 53.8 52.6 52.0 50.2 50.0 50.0 50.0 50.0 50.0 50.4 52.8 54.9 57.0 59.8 60.0 60.1 60.2 60.3 60.4 60.4 60.4 60.4 60.4 60.5 60.4 60.5 60.5 60.4 64.5 64.6 64.8 65.0 65.4 66.9 67.2 67.8 68.5 68.6 68.7 68.7 68.7 68.8 69.1 69.6 70.0 70.4 70.7 71.2 71.5 71.9 72.2 72.6 72.8 73.0 73.1 73.6 73.7 73.9 73.9 73.9 73.9 74.1 75.6 76.3 76.9 77.4 77.7 78.0 78.1 78.3 78.5 78.6 78.7 78.8 79.0 79.4 79.8 80.7 81.7 83.0 84.3 85.3 86.2 86.6 87.0 87.5 88.4 89.5 90.0 90.4 91.1 91.8 92.2 93.3 94.0 94.8 96.2 96.8 96.1 95.3 94.4 94.3 94.9 95.3 94.4 96.3 96.1 95.1 96.6 96.5 96.7 97.3 97.6 98.2 98.6 99.6 99.8 100.0 100.2 101.1
52.4 52.2 52.0 51.9 51.8 51.8 51.8 51.8 51.8 51.7 51.7 51.7 51.7 51.7 52.7 51.7 50.4 50.2 50.0 50.0 50.0 50.0 50.0 50.0 50.0 50.0 50.4 51.6 57.2 60.0 60.0 60.2 60.3 60.3 60.3 60.2 60.3 60.4 60.3 60.4 60.4 60.3 63.5 63.5 63.7 63.8 64.0 65.9 66.2 66.8 67.4 67.7 67.9 68.0 68.0 68.3 68.7 69.3 69.8 70.2 70.5 71.0 71.4 71.7 72.0 72.3 72.5 72.8 72.9 73.3 73.3 73.6 73.6 73.5 73.5 73.7 75.4 76.1 76.5 77.0 77.3 77.5 77.8 77.9 78.1 78.3 78.4 78.6 78.8 79.2 79.6 80.1 81.0 82.1 83.3 84.4 85.3 86.1 86.4 86.9 87.8 88.8 89.3 90.0 90.5 91.2 91.7 92.5 92.9 93.6 94.6 95.2 94.6 94.0 93.3 93.1 93.7 94.2 93.5 95.8 95.6 94.7 96.2 96.2 96.6 97.3 97.7 98.2 98.8 99.8 100.0 100.1 100.4 101.1
52.7 52.4 52.3 52.1 51.8 51.8 51.8 51.8 51.8 51.8 51.7 51.7 51.7 51.7 54.6 52.1 50.4 50.1 50.0 50.0 50.0 50.0 50.0 50.0 50.3 50.1 50.1 50.0 50.3 54.8 58.9 60.1 60.2 60.1 60.2 60.1 60.1 60.2 60.2 60.2 60.3 60.2 62.4 62.4 62.7 62.5 62.5 64.9 65.3 65.8 66.4 66.7 67.1 67.3 67.5 67.8 68.4 69.0 69.6 70.1 70.4 70.8 71.2 71.5 71.9 72.2 72.3 72.6 72.6 73.0 72.9 73.2 73.2 73.1 73.1 73.2 75.1 75.8 76.2 76.6 77.0 77.2 77.4 77.6 77.8 78.0 78.1 78.4 78.6 79.0 79.4 79.9 80.6 81.6 82.7 83.7 84.8 85.6 86.1 86.6 87.5 88.4 89.0 89.8 90.5 91.1 91.4 91.7 91.7 92.5 93.6 94.0 93.3 92.8 92.2 92.0 92.4 93.0 92.5 95.6 95.5 94.6 96.2 96.3 96.7 97.7 98.3 98.9 99.5 100.0 100.0 100.6 100.9 101.8
52.6 52.6 52.6 52.4 52.0 51.9 51.8 51.8 51.9 51.9 51.8 51.9 51.8 51.7 56.9 53.9 50.5 50.3 50.2 50.0 50.0 50.0 50.0 50.0 51.2 50.8 51.8 50.8 50.0 50.1 53.2 58.0 60.0 60.0 60.0 60.0 60.0 60.1 60.0 60.1 60.1 60.1 61.4 61.3 61.6 61.3 61.1 63.7 64.2 64.8 65.5 65.9 66.4 66.7 67.1 67.5 68.1 68.7 69.3 69.9 70.3 70.6 71.0 71.4 71.7 72.0 72.1 72.4 72.3 72.7 72.5 72.8 72.8 72.7 72.6 72.7 74.9 75.6 76.0 76.3 76.6 76.9 77.1 77.3 77.5 77.7 77.9 78.1 78.5 78.8 79.2 79.7 80.2 81.2 82.2 83.1 84.2 85.1 85.7 86.2 87.1 88.0 88.6 89.5 90.2 90.8 90.9 90.6 90.3 91.2 92.4 92.7 91.9 91.4 91.2 90.8 91.2 91.8 91.5 95.2 95.2 94.3 95.6 95.5 96.0 97.6 98.1 98.8 99.4 99.9 100.0 100.4 100.8 101.6
52.8 52.8 53.0 52.8 52.4 52.3 52.1 52.0 52.0 52.0 52.0 52.0 52.0 51.8 59.2 57.0 50.7 50.5 50.5 50.0 50.2 50.0 50.0 50.0 50.9 51.2 53.9 52.5 51.5 50.6 50.0 50.5 52.4 54.3 56.2 56.3 58.9 60.0 59.9 60.0 60.1 60.0 60.3 60.2 60.4 60.1 60.0 61.4 62.2 63.0 63.8 64.4 64.9 65.4 65.9 66.4 67.1 67.8 68.6 69.4 70.1 70.4 70.8 71.2 71.5 71.8 72.0 72.1 72.1 72.3 72.2 72.4 72.4 72.3 72.2 72.3 74.6 75.4 75.7 76.0 76.3 76.7 76.8 77.0 77.3 77.5 77.8 78.1 78.4 78.8 79.3 79.7 80.2 81.0 82.0 82.9 83.8 84.6 85.3 85.9 86.6 87.4 88.1 88.8 89.6 90.2 90.1 89.8 89.6 89.9 90.6 90.9 90.4 90.0 90.0 89.7 90.0 90.6 90.4 92.4 92.8 92.7 93.8 93.6 93.8 95.2 95.6 96.5 97.3 98.2 99.4 99.7 100.3 100.8
55.6 55.7 56.0 56.1 56.3 56.6 56.9 57.2 57.5 57.9 58.3 58.8 59.3 59.7 60.0 59.5 58.0 56.4 53.9 51.9 52.2 51.3 50.1 50.0 50.4 50.9 57.4 55.7 54.3 56.4 53.2 51.2 50.2 50.0 50.0 50.0 50.9 57.2 57.0 58.9 60.0 60.0 60.0 60.0 60.0 60.0 60.1 61.2 61.8 62.4 63.1 63.6 64.2 64.6 65.1 65.8 66.5 67.3 68.1 68.9 69.9 70.3 70.7 71.0 71.3 71.6 71.7 72.0 71.8 72.0 71.7 72.1 72.0 71.9 71.8 71.8 74.4 75.2 75.5 75.8 76.1 76.4 76.7 76.9 77.2 77.5 77.8 78.2 78.5 78.9 79.3 79.8 80.2 80.7 81.3 81.9 82.5 83.2 83.8 84.3 85.3 86.7 87.1 88.0 89.0 89.5 89.4 88.9 88.6 89.1 89.7 89.8 89.3 89.0 89.1 88.7 88.9 89.5 89.9 90.4 91.2 91.7 92.7 92.8 92.8 94.0 94.3 95.1 95.8 96.9 97.9 98.5 99.9 100.4
55.7 55.8 56.0 56.2 56.3 56.6 56.8 57.2 57.4 57.8 58.3 58.7 59.2 59.7 60.0 60.0 58.9 57.3 55.5 54.3 53.5 52.3 50.8 50.2 54.3 58.7 60.0 59.2 58.9 60.0 59.8 58.7 55.8 53.7 52.4 51.9 50.0 51.5 52.4 52.3 54.9 59.6 59.5 59.5 59.8 59.6 59.8 60.2 60.9 61.4 62.1 62.6 63.4 63.8 64.3 64.9 65.8 66.8 67.6 68.4 69.6 70.1 70.4 70.9 71.2 71.4 71.5 71.7 71.5 71.6 71.3 71.6 71.5 71.3 71.3 71.3 74.2 75.0 75.4 75.7 76.0 76.3 76.5 76.8 77.2 77.5 77.8 78.3 78.7 79.1 79.5 79.9 80.4 80.8 81.3 81.8 82.3 82.8 83.3 83.8 84.7 86.0 86.6 87.4 88.4 88.9 88.7 88.2 87.7 88.1 88.9 88.8 88.2 88.1 88.3 88.3 88.7 89.5 90.1 90.6 91.0 90.9 92.0 91.8 91.8 92.8 92.9 93.5 93.7 95.2 96.1 96.4 97.9 99.9
54.7 54.7 55.0 55.2 55.2 55.4 55.5 55.7 55.8 56.0 56.2 56.5 57.0 57.3 59.9 60.0 57.6 56.8 56.2 56.3 53.5 52.7 52.0 50.0 52.9 57.9 60.0 60.0 60.0 60.0 60.0 60.0 60.0 59.2 57.1 56.6 50.8 50.0 50.0 50.1 53.4 59.4 59.1 59.6 60.1 60.0 60.0 60.0 60.0 60.3 61.0 61.5 62.5 63.0 63.5 64.0 65.1 66.3 67.5 68.4 69.6 70.1 70.5 70.9 71.1 71.3 71.2 71.5 71.2 71.2 70.7 71.2 71.0 70.8 70.7 70.7 74.0 74.8 75.2 75.6 75.9 76.2 76.5 76.8 77.1 77.6 77.9 78.3 78.7 79.2 79.6 80.0 80.5 80.9 81.4 81.9 82.3 82.8 83.2 83.7 84.5 85.7 86.1 86.9 87.7 88.2 87.9 87.6 87.1 87.4 88.1 87.9 87.4 87.5 88.0 88.3 89.2 89.8 90.0 90.4 90.4 90.1 91.2 90.9 90.9 91.8 91.8 91.9 91.8 93.1 93.5 93.2 93.7 96.0
55.4 55.5 55.8 55.9 55.8 56.0 56.0 56.1 55.9 56.0 56.3 56.5 56.7 57.0 59.9 59.9 57.9 57.7 58.0 59.1 57.7 57.9 59.1 53.5 58.9 59.7 60.0 60.0 60.0 60.0 60.0 60.0 60.0 60.0 60.0 59.4 56.2 52.0 51.9 55.9 59.7 60.0 60.0 60.0 60.4 60.3 60.1 60.0 60.0 60.0 60.0 60.4 61.4 62.2 62.7 63.2 64.2 65.7 67.3 68.6 69.8 70.2 70.5 70.9 71.0 71.0 70.9 71.0 70.8 70.7 70.3 70.6 70.5 70.4 70.3 70.3 73.7 74.6 75.0 75.3 75.7 76.0 76.3 76.6 77.0 77.3 77.8 78.2 78.6 79.0 79.4 79.9 80.3 80.7 81.2 81.7 82.2 82.7 83.1 83.5 84.1 85.1 85.6 86.3 87.1 87.5 87.2 87.0 86.4 86.6 87.3 87.1 86.9 87.2 87.9 88.1 89.3 89.9 90.0 90.4 90.5 90.1 90.8 90.2 90.2 91.5 91.3 91.4 91.3 91.7 92.0 91.5 91.7 91.5
55.8 56.0 56.3 56.3 56.2 56.3 56.4 56.5 56.5 56.6 56.9 57.2 57.4 57.8 59.6 59.7 58.9 59.2 59.8 60.0 59.6 59.9 60.0 58.9 59.2 59.3 60.0 60.0 60.0 60.0 60.0 60.0 60.0 60.0 60.0 60.0 59.8 57.7 58.0 59.9 60.0 60.0 60.0 60.0 60.9 60.7 60.5 60.3 60.3 60.1 60.0 60.0 60.5 61.2 61.9 62.3 63.2 64.8 66.8 68.3 69.8 70.0 70.2 70.2 70.1 70.0 70.0 70.2 70.1 70.0 69.7 70.1 70.1 70.0 69.9 69.9 70.1 70.7 71.4 72.1 72.8 73.5 74.0 74.6 75.1 75.7 76.2 76.7 77.5 78.1 78.9 79.5 80.1 80.6 81.1 81.6 82.1 82.5 82.9 83.3 83.8 84.7 85.1 85.8 86.6 86.8 86.5 86.3 85.8 86.1 86.6 86.5 86.4 87.0 87.8 87.1 89.1 89.8 90.0 90.4 90.3 89.9 90.0 90.0 90.0 90.2 90.4 90.6 90.5 90.3 90.3 90.0 90.0 90.0
56.2 56.3 56.6 56.6 56.4 56.6 56.7 56.8 56.8 57.0 57.4 57.7 58.0 58.3 59.6 59.7 59.5 59.6 60.0 60.0 59.9 59.8 60.0 59.8 59.5 59.2 60.0 60.0 60.1 60.0 60.0 60.0 60.0 60.0 60.0 60.0 60.0 60.0 59.0 59.8 60.0 60.0 60.0 60.0 61.0 61.0 60.8 60.6 60.5 60.2 60.0 60.0 60.0 60.2 60.9 61.4 62.3 64.0 66.5 68.5 70.0 70.1 70.2 70.2 70.1 70.0 70.0 70.0 69.6 65.1 61.7 69.9 70.0 70.0 70.0 70.0 71.5 72.3 72.8 73.3 73.8 74.3 74.6 75.1 75.5 76.0 76.5 77.0 77.6 78.2 78.8 79.3 80.0 80.2 80.6 81.0 81.4 81.7 82.0 82.3 82.7 83.4 83.9 84.6 85.4 85.6 85.2 84.9 84.2 84.2 84.7 84.3 83.9 84.0 84.4 83.5 86.3 88.8 90.0 90.4 90.2 89.8 89.8 90.0 90.0 90.3 90.2 90.4 90.2 90.0 90.0 90.0 90.0 90.0
56.7 56.7 56.8 56.8 56.7 56.9 57.0 57.2 57.2 57.4 57.8 58.2 58.6 58.9 59.8 59.8 60.0 60.0 60.0 60.0 60.0 60.0 60.3 60.1 59.9 59.5 60.0 60.0 60.3 60.0 60.0 60.0 60.0 60.0 60.0 60.0 60.0 60.0 60.0 59.7 60.0 60.0 60.0 60.0 60.7 61.0 61.1 61.0 60.8 60.5 60.3 60.0 60.0 60.0 60.0 60.3 61.3 62.5 65.2 67.9 69.9 70.0 69.8 70.0 69.1 70.0 68.4 69.3 61.1 61.7 67.3 69.9 69.5 70.0 70.3 70.3 71.5 72.2 72.7 73.2 73.7 74.1 74.4 74.8 75.3 75.8 76.3 76.8 77.4 78.0 78.6 79.2 79.8 80.0 80.2 80.4 80.6 80.9 81.1 81.2 81.4 81.8 82.2 83.1 83.9 84.0 83.4 82.7 82.4 82.3 82.0 81.7 81.4 80.7 80.1 80.0 82.0 85.3 89.2 90.1 90.1 89.8 89.6 90.0 89.0 88.4 89.9 90.0 89.9 90.0 90.0 90.0 90.0 90.0
57.0 56.9 57.1 57.0 57.0 57.1 57.3 57.5 57.6 57.9 58.3 58.7 59.2 59.5 59.9 60.0 60.0 60.0 60.0 60.0 60.0 60.0 60.3 60.2 60.0 59.6 60.0 60.0 60.0 60.0 60.0 60.0 60.0 60.0 60.0 60.0 60.0 60.0 60.0 60.0 60.0 60.0 60.0 60.0 60.2 60.6 60.9 61.1 61.2 61.0 60.6 60.4 60.3 60.0 60.0 60.0 60.0 60.3 60.7 61.0 65.1 62.8 66.0 67.4 63.1 65.6 61.7 62.3 60.5 62.9 70.0 70.1 70.0 70.0 70.4 70.4 72.3 72.9 73.3 73.5 73.8 74.1 74.5 74.9 75.4 75.9 76.4 76.9 77.4 78.0 78.7 79.2 79.8 80.0 80.2 80.4 80.6 80.9 81.1 81.2 81.4 81.7 82.0 82.6 83.3 83.3 82.9 82.4 82.3 82.2 82.0 81.8 81.4 80.9 80.2 80.0 80.9 82.9 85.8 87.7 89.7 89.5 89.6 87.1 80.2 80.0 82.3 88.8 89.6 89.9 90.0 90.0 90.0 90.0
54.6 55.1 55.5 55.9 56.3 56.8 57.2 57.6 58.0 58.3 58.8 59.3 59.7 60.0 60.2 60.2 60.4 60.6 60.7 60.9 60.8 60.7 60.5 60.3 60.1 59.9 60.0 60.0 60.0 60.0 60.0 60.0 60.0 60.0 60.0 60.0 60.0 60.0 60.0 60.0 60.0 60.0 60.0 60.0 60.0 60.2 60.5 60.8 61.1 61.3 61.0 60.8 60.8 60.5 60.4 60.0 60.0 60.0 60.2 60.4 60.3 60.1 62.0 62.6 60.5 60.9 60.5 60.5 60.5 63.7 69.2 70.1 70.2 70.1 70.1 70.2 72.4 73.1 73.6 73.3 73.6 73.8 74.3 74.7 75.2 75.8 76.3 76.8 77.3 78.0 78.7 79.3 79.8 80.0 80.3 80.5 80.7 80.9 81.1 81.3 81.5 81.8 82.0 82.5 82.9 83.0 82.8 82.5 82.1 82.0 82.0 81.7 81.0 80.8 80.5 80.0 80.1 81.2 82.5 82.8 81.1 81.0 85.9 80.0 80.8 87.0 89.4 90.0 90.0 90.0 90.0 90.0 90.0 90.0
54.7 55.2 55.7 56.1 56.6 57.0 57.5 58.0 58.4 58.7 59.2 59.8 60.1 60.2 60.4 60.5 60.7 60.8 61.0 61.0 60.9 60.9 60.5 60.3 60.2 60.0 60.0 60.0 60.1 60.2 60.0 60.0 60.0 60.0 60.0 60.1 60.2 60.3 60.3 60.2 60.1 60.0 60.4 60.1 62.9 62.8 62.8 62.8 62.8 62.8 62.4 62.3 62.7 62.9 63.8 68.0 60.1 60.0 60.0 60.0 60.0 60.0 60.8 60.6 60.5 60.5 60.6 60.9 60.5 60.5 61.7 69.9 70.1 69.8 70.0 70.1 71.7 72.5 73.0 72.9 73.2 73.5 73.9 74.2 74.8 75.4 75.9 76.5 77.1 77.9 78.7 79.4 79.9 80.2 80.4 80.6 80.8 81.0 81.2 81.3 81.5 81.8 82.1 82.1 82.1 82.2 81.9 81.5 81.3 81.1 80.7 80.4 79.9 80.1 80.5 80.1 79.2 80.1 80.0 80.0 80.0 80.0 80.0 80.6 87.9 90.1 90.0 90.0 90.0 90.0 90.0 90.0 90.0 90.0
54.7 55.2 55.8 56.3 56.8 57.3 57.7 58.2 58.7 59.1 59.6 60.0 60.2 60.4 60.6 60.7 60.8 61.0 61.1 61.1 61.0 61.0 60.6 60.5 60.3 60.1 60.0 60.0 60.1 60.5 60.3 60.0 60.0 60.0 60.0 60.1 60.4 60.7 60.9 60.8 60.7 60.2 61.3 61.0 64.3 64.3 64.6 64.8 65.4 65.7 65.7 66.1 67.3 68.5 69.8 69.9 68.5 60.3 60.0 60.0 61.7 61.3 63.9 65.0 61.9 62.0 67.1 63.6 61.6 60.5 60.5 63.1 67.7 67.2 68.9 69.9 70.1 70.7 71.4 72.0 72.5 72.9 73.2 73.5 73.9 74.6 75.1 75.7 76.3 77.2 78.3 79.2 79.8 80.1 80.4 80.5 80.7 80.9 81.1 81.2 81.5 81.8 82.0 82.0 82.0 82.0 81.8 81.4 81.0 80.8 80.7 80.3 79.5 79.7 80.1 78.0 70.9 79.3 79.9 80.0 80.0 81.4 82.6 84.1 88.1 89.7 90.0 90.0 90.0 90.0 90.0 90.0 90.0 90.0
55.2 55.7 56.2 56.7 57.1 57.6 58.1 58.6 59.1 59.4 60.0 60.2 60.4 60.5 60.6 60.8 60.9 61.1 61.3 61.5 61.7 61.9 61.9 61.8 61.6 61.2 60.3 61.0 60.7 60.7 60.4 60.0 60.0 60.0 60.0 60.0 60.1 60.5 60.7 60.9 60.9 60.5 62.2 61.9 64.6 64.7 65.0 65.2 65.8 66.2 66.4 66.9 68.0 69.0 69.8 70.0 70.0 69.4 62.0 66.3 70.0 68.7 68.8 70.0 69.4 69.3 70.0 69.0 67.0 61.4 60.5 60.6 63.0 65.8 68.2 70.0 70.7 71.2 71.8 72.0 72.3 72.6 72.9 73.1 73.4 74.1 74.5 75.0 75.5 76.4 77.5 78.5 79.2 79.9 80.1 80.4 80.5 80.7 80.9 81.0 81.3 81.6 81.5 81.5 81.5 81.4 81.1 80.7 80.3 80.1 80.2 79.0 71.6 70.5 70.2 70.2 74.2 80.0 80.8 81.2 81.9 88.4 90.0 90.0 90.0 90.0 90.0 90.0 90.0 90.0 90.0 90.0 90.0 90.0
55.8 56.2 56.7 57.1 57.6 58.0 58.5 58.9 59.4 59.8 60.1 60.3 60.5 60.6 60.8 60.9 61.1 61.2 61.3 61.6 61.9 62.2 62.2 62.1 61.9 61.6 60.9 61.4 61.1 61.0 60.8 60.2 60.2 60.0 60.0 60.0 60.0 60.2 60.4 60.7 60.7 60.9 62.8 62.7 64.5 64.7 65.0 65.2 65.7 66.1 66.3 66.8 67.8 68.6 69.5 70.0 70.0 70.0 69.9 70.0 70.0 69.0 70.0 70.0 70.0 70.0 70.0 70.0 70.0 65.7 61.1 60.5 60.5 63.3 67.9 70.1 70.7 71.3 71.8 71.6 71.9 72.2 72.4 72.6 72.9 73.3 73.7 74.0 74.2 74.9 76.1 77.3 78.3 79.0 79.8 80.1 80.3 80.5 80.7 80.8 81.1 81.4 81.2 81.1 81.0 80.9 80.6 80.2 80.0 79.5 79.5 72.8 70.0 72.8 74.2 77.9 79.9 80.4 82.1 83.5 87.5 90.0 90.0 90.0 90.0 90.0 90.0 90.0 90.0 90.0 90.0 90.0 90.0 90.0
57.2 57.6 57.9 58.2 58.6 58.9 59.2 59.6 59.9 60.1 60.4 60.5 60.7 60.8 61.0 61.1 61.2 61.4 61.6 61.8 62.1 62.4 62.5 62.4 62.2 62.0 61.5 61.7 61.4 61.4 61.1 60.4 60.6 60.4 60.1 60.0 60.0 60.0 60.2 60.4 60.5 60.6 63.1 63.3 64.4 64.7 65.0 65.2 65.6 66.0 66.2 66.6 67.6 68.3 69.1 69.8 70.0 70.0 70.0 70.0 70.0 70.0 70.0 70.0 70.0 70.0 70.0 70.0 69.7 68.8 68.0 63.8 60.5 60.8 65.0 69.5 70.4 70.9 71.3 71.2 71.5 71.7 71.9 72.1 72.4 72.6 72.7 72.9 72.9 73.4 74.3 75.6 77.0 77.9 78.7 79.5 80.0 80.2 80.4 80.6 80.8 81.1 81.2 81.1 80.9 80.8 80.4 80.2 79.7 72.2 70.0 71.0 78.5 79.3 79.9 80.3 80.7 80.3 83.3 86.1 88.7 90.0 90.0 90.0 90.0 90.0 90.0 90.0 90.0 90.0 90.0 90.0 90.0 90.0
60.0 60.0 60.0 60.0 60.0 60.0 60.0 60.0 60.0 60.5 60.8 60.9 61.0 61.1 61.2 61.4 61.5 61.6 61.8 62.0 62.4 62.8 62.7 62.6 62.5 62.4 62.0 62.1 61.7 61.7 61.4 60.6 60.9 60.8 60.5 60.1 60.0 60.0 60.0 60.1 60.2 60.4 62.9 63.3 64.3 64.6 65.0 65.2 65.6 65.9 66.2 66.6 67.3 68.0 68.9 69.7 70.0 70.0 70.0 70.0 70.0 70.0 70.0 70.0 70.0 70.0 70.0 70.0 70.0 70.1 70.1 70.0 61.4 60.5 64.2 69.3 70.4 70.8 71.3 70.7 70.9 71.2 71.4 71.5 71.8 72.0 72.0 72.0 71.9 72.1 72.7 73.7 75.7 76.7 77.5 78.0 78.9 79.7 80.1 80.3 80.5 80.7 80.9 80.9 80.7 80.4 79.9 80.0 76.9 70.0 70.2 75.0 79.7 80.4 80.4 80.3 80.1 80.5 82.9 84.7 86.5 89.4 89.9 90.0 89.8 89.6 89.9 89.9 89.5 89.5 89.5 89.5 89.5 89.5
60.0 60.0 60.0 60.0 60.0 60.0 60.0 60.0 60.0 60.8 61.0 61.1 61.2 61.3 61.4 61.5 61.7 61.8 61.9 62.2 62.6 63.0 63.0 62.9 62.9 62.7 62.4 62.4 62.0 62.1 61.8 60.8 61.3 61.3 61.2 60.8 60.3 60.0 60.0 60.0 60.0 60.1 61.8 62.6 63.6 64.2 64.8 65.2 65.6 65.8 66.1 66.7 67.3 67.9 68.8 69.7 70.0 70.0 70.0 70.0 70.0 70.0 70.0 70.0 70.0 70.0 70.0 70.0 70.0 70.3 70.2 70.1 61.5 60.5 64.9 70.0 70.4 70.9 71.3 70.2 70.4 70.7 70.9 71.0 71.3 71.5 71.4 71.4 71.1 71.2 71.7 72.4 74.3 75.6 76.4 76.7 77.7 78.4 79.3 80.0 80.2 80.4 80.6 80.5 80.3 79.8 79.8 78.7 71.4 70.0 73.0 79.9 80.1 79.8 80.0 79.9 79.9 80.5 81.2 81.9 82.1 87.6 88.5 88.9 88.4 88.3 89.1 90.0 90.0 90.0 90.0 90.0 90.0 90.0
60.0 60.0 60.0 60.0 60.0 60.0 60.0 60.0 60.0 61.6 61.9 62.1 62.2 62.1 62.2 62.3 62.4 62.5 62.6 62.8 63.0 63.3 63.5 63.2 63.1 63.0 62.9 62.6 62.4 62.2 62.0 60.9 61.5 61.6 61.4 61.1 60.9 60.2 60.0 60.0 60.0 60.0 60.5 61.5 62.5 63.2 64.1 64.6 65.2 65.6 65.7 65.8 66.9 67.2 67.7 69.8 69.9 69.9 69.9 70.0 70.0 70.0 70.0 70.0 70.0 70.0 70.0 70.0 70.0 70.4 70.2 70.0 63.8 60.5 62.5 67.8 66.8 64.2 65.3 65.0 68.7 70.2 70.5 70.5 70.9 71.2 71.1 71.0 70.6 70.6 70.9 71.3 72.9 73.9 75.0 75.2 76.6 77.3 78.2 79.3 80.0 80.2 80.5 80.3 80.1 78.4 74.6 70.4 70.0 70.0 70.0 73.0 75.2 75.2 78.4 78.0 79.9 80.7 81.0 82.0 81.9 86.0 87.2 87.6 87.5 87.9 88.9 90.0 90.0 90.0 90.0 90.0 90.0 90.0
60.0 60.0 60.0 60.0 60.0 60.0 60.0 60.0 60.0 62.2 62.6 62.7 62.8 62.7 62.8 62.8 62.9 62.9 62.9 63.0 63.1 63.7 64.1 63.8 63.5 63.2 63.2 63.0 62.9 62.4 62.1 60.9 61.6 61.8 61.6 61.4 62.9 61.4 60.0 60.1 61.2 60.4 61.1 61.9 63.0 63.6 64.6 65.1 65.6 66.0 66.0 66.2 67.7 68.0 68.6 69.9 69.9 69.9 69.8 69.8 70.0 70.0 70.0 70.0 70.0 70.0 70.0 70.0 70.0 70.4 70.1 70.0 65.0 60.5 60.5 60.5 60.6 60.7 62.6 61.7 60.5 63.6 69.5 70.0 70.4 70.7 70.6 70.5 70.1 70.1 70.4 70.6 71.6 72.3 73.4 73.1 75.0 75.9 77.2 78.2 79.8 80.1 80.2 80.2 79.5 73.0 70.0 70.0 70.0 70.1 70.2 70.0 70.0 71.7 74.6 76.6 79.5 80.4 80.5 81.6 81.3 84.5 86.0 86.4 86.5 87.0 87.9 89.0 89.9 90.0 90.0 90.0 90.0 90.0
60.0 60.0 60.1 60.0 60.0 60.0 60.1 60.2 60.2 62.9 63.3 63.4 63.6 63.5 63.6 63.7 63.9 64.0 64.4 64.7 64.9 65.4 66.0 65.8 65.6 65.3 64.9 65.5 65.9 65.4 65.1 65.4 64.2 64.7 64.9 64.5 64.0 62.5 60.5 61.0 63.8 62.9 67.4 67.3 68.0 67.6 67.7 67.5 67.6 67.4 66.9 67.2 68.6 69.0 69.3 70.0 70.0 70.0 70.0 70.0 70.0 70.0 70.0 70.0 70.0 70.0 70.0 70.0 70.0 70.5 70.3 70.1 70.0 63.3 61.1 61.8 64.0 66.9 70.0 68.5 62.4 60.5 60.5 61.9 68.5 70.1 70.0 69.2 62.0 61.0 68.1 68.7 70.6 70.9 71.5 71.0 72.4 73.0 73.8 75.0 77.3 78.9 79.1 76.3 70.9 65.3 70.0 70.5 72.3 73.5 73.3 72.0 70.2 70.0 71.1 73.8 77.7 80.0 80.0 81.2 80.9 83.3 85.0 85.5 86.0 87.0 88.0 89.1 90.0 90.0 90.0 90.0 90.0 90.0
60.1 60.1 60.2 60.1 60.1 60.1 60.2 60.3 60.3 63.2 63.5 63.7 63.8 63.7 63.8 63.9 64.1 64.2 64.5 65.0 65.2 65.9 66.4 66.2 66.1 65.9 65.5 66.0 66.4 65.8 65.6 65.6 64.8 65.4 65.8 65.6 65.1 63.5 62.2 61.7 66.2 65.3 68.2 68.0 68.5 68.1 68.2 68.1 68.1 67.9 67.2 67.2 69.4 69.8 70.0 70.0 70.0 70.0 70.0 70.0 70.0 70.0 70.0 70.0 70.0 70.0 70.0 70.0 70.0 70.8 70.6 70.4 70.3 70.1 70.3 69.0 67.7 68.3 70.0 70.2 69.9 60.5 60.5 60.5 60.5 60.5 60.5 60.5 60.8 60.8 60.6 60.5 60.8 65.3 69.8 69.0 70.5 70.7 70.8 70.4 67.7 63.7 60.8 60.5 60.7 64.0 72.1 73.3 76.3 78.5 78.0 77.1 74.4 70.9 70.0 70.8 75.5 80.0 79.8 80.5 80.6 81.8 84.0 84.5 85.4 86.9 88.3 89.5 90.0 90.0 90.0 90.0 90.0 90.0
60.3 60.3 60.3 60.3 60.2 60.2 60.3 60.4 60.5 63.6 63.8 63.9 64.0 64.0 64.1 64.2 64.4 64.5 64.8 65.3 65.6 66.3 66.8 66.7 66.6 66.5 66.1 66.6 66.9 66.4 66.1 66.1 65.4 66.2 66.7 66.7 66.1 64.5 63.9 62.4 68.6 67.7 69.0 68.8 69.0 68.6 68.7 68.6 68.6 68.4 67.7 67.2 70.0 70.0 70.0 70.0 70.0 70.0 70.0 70.0 70.0 70.0 70.0 70.0 70.0 70.0 70.0 70.0 70.0 70.8 70.5 70.3 70.3 70.1 70.0 69.3 68.6 68.3 70.0 70.0 70.1 65.3 60.5 60.5 60.5 60.5 60.5 66.9 70.1 69.1 70.3 72.7 73.4 69.1 62.9 61.0 60.5 60.5 60.5 60.8 61.2 67.6 70.6 72.9 73.9 80.0 79.6 78.8 79.4 80.0 80.0 79.9 80.0 79.5 72.4 70.0 70.8 81.0 80.0 80.4 80.0 80.1 82.9 83.6 84.6 86.3 88.1 89.4 90.0 90.0 90.0 90.0 90.0 90.0
60.5 60.5 60.6 60.5 60.4 60.5 60.6 60.5 60.6 64.1 64.3 64.5 64.6 64.5 64.6 64.7 64.9 65.0 65.4 65.9 66.1 66.8 67.3 67.2 67.1 67.0 66.8 67.2 67.4 67.1 67.0 67.5 66.9 67.3 67.8 68.0 67.3 65.5 65.6 63.0 70.0 69.9 69.8 69.6 69.5 69.2 69.2 69.1 69.1 69.2 69.5 69.8 70.0 70.0 70.0 70.0 70.0 70.0 70.0 70.0 70.0 70.0 70.0 70.0 70.0 70.0 70.0 70.0 70.0 70.7 70.4 70.3 70.2 70.0 69.9 69.2 70.0 70.0 70.0 70.0 71.0 70.9 70.9 65.9 64.1 62.3 60.6 61.9 71.1 72.3 76.4 79.0 80.5 80.3 80.0 78.5 78.1 74.3 75.4 76.1 70.5 70.3 73.4 80.0 80.0 80.2 80.0 80.0 80.0 80.0 80.0 80.0 80.0 80.0 79.6 74.7 70.1 70.4 79.8 80.0 79.6 80.2 81.8 82.2 82.9 84.8 87.3 89.0 90.0 90.0 90.0 90.0 90.0 90.0
60.6 60.6 60.7 60.5 60.4 60.5 60.4 60.3 60.4 64.5 64.8 64.9 65.0 64.8 64.9 65.0 65.2 65.4 65.7 66.2 66.5 67.3 67.7 67.6 67.6 67.5 67.4 67.7 67.9 67.6 67.3 67.6 67.1 67.8 68.6 68.9 68.3 66.5 67.3 63.7 70.0 70.0 70.0 70.0 69.9 69.7 69.7 69.6 69.6 69.6 69.3 69.6 70.0 70.0 70.0 70.0 70.0 70.0 70.0 70.0 70.0 70.0 70.0 70.0 70.0 70.0 70.0 70.0 70.0 70.8 70.6 70.3 70.3 70.1 70.0 69.5 69.9 70.0 70.4 70.4 77.1 76.9 79.4 75.6 72.7 70.4 70.8 61.8 61.7 70.6 74.6 74.9 79.3 80.0 80.0 80.0 80.0 80.0 80.0 80.0 77.9 77.8 80.0 80.0 80.0 80.0 80.0 80.0 80.0 80.0 80.0 80.0 80.0 80.0 80.0 80.0 77.7 70.3 70.0 70.3 74.3 80.0 80.9 80.7 81.4 83.2 86.3 88.1 89.9 90.0 90.0 90.0 90.0 90.0
60.7 60.8 60.7 60.4 60.3 60.4 60.3 60.2 60.3 65.1 65.4 65.4 65.5 65.3 65.3 65.4 65.6 65.8 66.0 66.5 66.9 67.7 68.1 68.1 68.1 68.1 68.0 68.2 68.4 68.2 68.1 68.6 68.7 69.0 69.5 70.0 69.7 69.3 69.1 69.8 70.0 70.0 70.0 70.0 70.0 70.0 70.0 70.0 70.0 70.0 69.9 69.9 70.0 70.0 70.0 70.0 70.0 70.0 70.0 70.0 70.0 70.0 70.0 70.0 70.0 70.0 70.0 70.0 70.1 71.4 71.3 71.2 71.0 70.8 70.4 70.1 69.9 72.0 73.4 76.5 79.9 80.0 80.0 80.0 78.1 76.7 77.4 70.4 62.7 62.5 71.7 74.2 80.3 80.5 80.0 80.0 80.0 80.0 80.0 80.0 80.0 79.5 80.0 80.0 80.0 80.0 80.0 80.0 80.0 80.0 80.0 80.0 80.0 80.0 80.0 80.0 80.0 77.9 71.0 70.0 70.0 70.0 70.4 72.8 80.0 81.5 83.6 84.8 88.4 90.0 90.0 90.0 90.0 90.0
60.5 60.6 60.7 60.4 60.3 60.4 60.2 60.2 60.3 65.3 65.5 65.6 65.6 65.4 65.5 65.6 65.7 65.9 66.3 66.8 67.2 68.1 68.6 68.6 68.6 68.7 68.7 68.8 68.9 68.7 68.6 69.0 69.2 69.7 70.0 70.0 70.0 69.7 70.0 69.9 70.0 70.0 70.0 70.0 70.0 70.0 70.0 70.0 70.0 70.0 69.9 69.9 70.0 70.0 70.0 70.0 70.0 70.0 70.0 70.0 70.0 70.0 70.0 70.0 70.0 70.0 70.1 70.1 70.2 74.5 75.0 75.4 74.6 74.5 72.6 71.2 71.0 76.0 78.1 79.7 80.0 80.0 80.0 80.0 80.0 80.0 80.0 78.4 74.3 67.0 60.5 65.3 66.8 69.4 72.2 75.6 79.4 80.0 80.0 80.0 80.0 80.0 80.0 80.0 80.0 80.0 80.0 80.0 80.0 80.0 80.0 80.0 80.0 80.0 80.0 80.0 80.0 80.0 79.8 79.6 72.8 74.0 71.4 70.0 72.4 79.8 82.4 81.8 87.5 90.0 90.0 90.0 90.0 90.0
60.4 60.5 60.5 60.2 60.2 60.3 60.1 60.1 60.2 65.8 66.0 66.0 66.0 65.7 65.8 65.9 66.0 66.2 66.5 67.0 67.6 68.6 69.1 69.1 69.1 69.2 69.3 69.4 69.4 69.2 69.1 69.3 69.6 70.0 70.0 70.0 70.0 69.8 70.0 69.9 70.0 70.0 70.0 70.0 70.0 70.0 70.0 70.0 70.0 70.0 69.9 69.9 70.0 70.0 70.0 70.0 70.0 70.0 70.0 70.0 70.0 70.0 70.0 70.0 70.0 70.0 70.1 70.1 70.3 73.2 73.8 74.2 74.0 74.2 73.1 72.1 72.3 76.1 77.8 79.3 80.0 80.0 80.0 80.0 80.0 80.0 80.0 80.0 80.0 75.9 71.2 71.8 71.1 66.8 61.7 70.0 74.1 79.9 80.0 80.0 80.0 80.0 80.0 80.0 80.0 80.0 80.0 80.0 80.0 80.0 80.0 80.0 80.0 80.0 80.0 80.0 80.0 80.0 80.0 80.0 80.0 80.0 79.0 72.3 70.0 72.0 80.4 79.9 82.6 90.0 90.0 90.0 90.0 89.5
60.4 60.6 60.6 60.1 60.1 60.1 60.0 60.0 60.1 66.6 66.7 66.8 66.6 66.2 66.3 66.4 66.6 66.9 67.2 67.7 68.1 69.1 69.5 69.6 69.6 69.9 70.0 70.0 70.0 69.9 69.6 69.7 69.7 70.0 70.0 70.0 70.0 70.0 70.0 69.9 70.0 70.0 70.0 70.0 70.0 70.0 70.0 70.0 70.0 70.0 70.0 70.0 70.0 70.0 70.0 70.0 70.0 70.0 70.0 70.0 70.0 70.0 70.0 70.0 70.0 70.0 70.0 70.0 70.1 71.4 72.3 73.0 73.5 73.9 73.1 72.6 72.9 75.5 76.7 78.1 79.7 80.0 80.0 80.0 80.0 80.0 80.0 80.0 80.0 80.0 80.0 80.0 78.4 80.4 77.7 69.1 72.7 79.0 80.0 80.0 80.0 80.0 80.0 80.0 80.0 80.0 80.0 80.0 80.0 80.0 80.0 80.0 80.0 80.0 80.0 80.0 80.0 80.0 80.0 80.0 80.0 80.0 80.0 79.9 72.9 70.1 72.9 78.9 80.4 83.9 84.7 85.9 81.1 80.0
60.0 60.0 60.0 60.0 60.0 60.0 60.0 60.0 60.0 61.0 62.4 63.5 64.2 64.6 65.2 65.7 66.1 66.6 67.3 68.0 68.6 69.6 70.0 70.0 70.0 70.0 70.0 70.0 70.0 70.0 70.0 69.9 69.7 70.0 70.0 70.0 70.0 70.0 70.0 69.9 70.0 70.0 70.0 70.0 70.0 70.0 70.0 70.0 70.0 70.0 70.0 70.0 70.0 70.0 70.0 70.0 70.0 70.0 70.0 70.0 70.0 70.0 70.0 70.0 70.0 70.0 70.0 70.0 70.0 70.4 71.3 72.1 72.9 73.6 73.4 73.0 73.4 75.4 76.5 77.7 79.4 79.9 80.0 80.0 80.0 80.0 80.0 80.0 80.0 80.0 80.0 80.0 80.0 80.0 77.6 69.4 71.8 80.3 80.0 80.0 80.0 80.0 80.0 80.0 80.0 80.0 80.0 80.0 80.0 80.0 80.0 80.0 79.9 80.0 80.0 80.0 80.0 80.0 80.0 80.0 80.0 80.0 80.0 80.0 80.0 78.0 74.2 80.0 80.0 80.0 80.0 80.0 80.0 80.0
60.0 60.0 60.0 60.0 60.0 60.0 60.0 60.0 60.0 60.3 61.9 63.4 64.3 64.6 64.5 65.2 66.0 66.8 67.7 68.5 69.3 70.0 70.0 70.0 70.0 70.0 70.0 70.0 70.0 70.0 70.3 70.0 70.0 70.6 70.6 70.4 70.3 70.2 70.0 69.9 70.0 70.0 70.0 70.1 70.1 70.3 70.4 70.6 70.5 70.4 70.3 70.2 70.0 70.0 70.0 70.0 70.0 70.0 70.0 70.0 70.0 70.0 70.2 70.0 70.3 70.3 70.4 70.4 70.3 74.1 74.6 74.9 74.8 75.0 74.5 74.3 74.7 76.5 77.4 78.2 79.5 79.8 80.0 80.0 80.0 80.0 80.4 80.7 80.6 80.4 80.4 80.3 80.2 80.1 80.0 70.5 69.7 70.9 76.7 74.7 71.0 78.9 79.7 80.0 80.0 80.0 80.0 80.0 80.0 80.0 79.9 77.2 79.2 80.1 80.0 80.0 80.0 80.0 80.0 80.0 80.0 80.0 80.0 80.0 80.0 80.0 80.0 80.0 80.0 80.0 80.0 80.0 80.0 80.0
60.0 60.0 60.0 60.0 60.0 60.0 60.0 60.0 60.2 62.9 64.8 65.7 65.9 65.8 64.9 65.7 66.5 67.3 68.1 68.9 69.7 70.0 70.0 70.0 70.0 70.0 70.0 70.0 70.0 70.0 70.5 70.2 70.3 70.6 70.5 70.3 70.2 70.1 70.0 69.9 70.0 70.0 70.1 70.3 70.3 70.5 70.6 70.6 70.5 70.3 70.3 70.2 70.0 70.0 70.0 70.0 70.0 70.2 70.1 70.0 70.0 70.0 70.1 70.3 70.2 70.3 71.1 71.1 71.1 74.1 74.6 74.9 74.9 75.1 74.9 74.8 75.2 76.8 77.5 78.2 79.3 79.8 80.0 80.0 80.0 80.0 80.4 80.7 80.7 80.6 80.6 80.5 80.4 80.2 80.1 80.0 71.2 70.2 69.8 69.9 69.8 69.7 69.7 74.4 79.9 80.0 80.0 80.0 78.1 69.7 69.7 69.7 69.8 79.5 80.0 80.2 80.4 80.2 80.7 80.4 80.6 80.7 80.4 80.4 80.2 80.1 80.2 84.1 85.0 83.0 84.0 89.2 87.9 88.0
58.8 59.6 59.1 57.3 58.9 59.2 59.5 60.1 61.1 67.9 68.0 67.8 67.4 66.8 65.3 66.1 66.8 67.6 68.2 69.0 69.7 70.0 70.0 70.0 70.0 70.0 70.0 70.0 70.0 70.0 70.7 70.3 70.6 70.7 70.5 70.3 70.2 70.1 70.0 69.9 70.0 70.0 70.1 70.2 70.2 70.4 70.6 70.7 70.5 70.3 70.3 70.1 70.0 70.0 70.0 70.0 70.0 70.2 70.2 70.0 70.0 70.0 70.0 70.0 70.0 70.0 71.5 71.8 71.8 73.8 74.3 74.7 74.9 75.1 75.0 75.0 75.6 76.8 77.4 78.1 79.1 79.7 80.0 80.0 80.0 80.0 80.4 80.7 80.8 80.8 80.6 80.6 80.4 80.3 80.1 80.0 78.5 79.2 77.4 80.0 80.0 80.0 71.2 69.7 69.7 73.7 79.2 77.2 69.7 71.5 78.7 80.0 78.3 69.7 77.9 80.0 80.0 80.0 80.7 80.6 81.1 81.1 81.3 82.0 83.0 83.8 85.7 88.5 90.0 89.3 89.6 90.0 90.0 90.0
56.5 57.7 57.5 57.0 58.8 59.0 59.3 60.0 66.9 69.9 69.7 69.6 69.3 69.2 70.0 70.0 70.0 70.0 70.0 70.0 70.0 70.0 70.0 70.0 70.0 70.0 70.0 70.0 70.0 70.0 70.9 70.4 70.8 70.7 70.6 70.4 70.2 70.1 70.0 70.0 70.0 70.0 70.1 70.2 70.2 70.4 70.6 70.7 70.6 70.4 70.4 70.2 70.1 70.0 70.0 70.0 70.1 70.2 70.4 70.4 70.1 70.0 70.0 70.0 70.0 70.0 70.5 71.3 71.9 72.7 73.4 73.9 74.3 74.7 74.9 75.0 75.5 76.5 77.2 78.0 79.0 79.5 80.0 80.0 80.0 80.0 80.3 80.6 80.8 80.8 80.8 80.7 80.6 80.5 80.4 80.2 80.1 79.9 80.0 80.1 80.2 80.2 80.0 80.0 72.3 69.7 69.7 69.7 74.3 80.0 80.1 80.2 80.1 79.6 69.7 71.9 79.2 79.9 80.5 80.1 80.6 80.6 81.1 82.2 84.3 86.6 89.2 90.0 90.0 90.0 90.0 90.0 90.0 90.0
54.2 55.6 56.1 57.0 59.3 59.4 59.7 59.6 64.9 70.0 70.0 69.9 69.7 69.5 70.0 70.0 70.0 70.0 70.0 70.0 70.0 70.0 70.0 70.0 70.0 70.0 70.0 70.0 70.0 70.0 71.1 70.5 70.9 70.7 70.6 70.4 70.2 70.1 70.0 70.0 70.0 70.0 70.2 70.5 70.8 71.1 71.4 71.6 71.8 72.0 71.8 71.8 71.7 70.5 70.2 70.1 71.3 71.5 71.4 70.9 70.6 70.4 70.3 70.3 70.3 70.3 72.5 73.1 73.3 76.5 76.6 76.6 76.6 76.7 76.7 76.7 77.0 77.9 78.3 78.8 79.4 79.6 79.9 80.0 80.0 80.0 80.2 80.5 80.7 80.8 81.0 81.1 81.2 81.3 81.2 80.8 80.4 80.2 80.2 80.5 80.5 80.5 80.3 80.2 80.1 80.0 79.1 80.0 80.1 80.3 80.4 80.3 80.2 80.0 77.1 70.7 69.8 75.9 79.9 77.5 80.0 80.1 80.3 80.4 80.4 80.3 80.8 89.9 90.0 89.9 89.9 89.9 89.8 89.7
52.3 53.9 55.0 56.8 59.5 59.6 60.0 60.0 63.5 70.0 70.0 70.0 69.9 69.8 70.0 70.0 70.0 70.0 70.0 70.0 70.0 70.0 70.0 70.0 70.0 70.0 70.0 70.0 70.0 70.0 71.2 70.5 71.0 70.8 70.6 70.4 70.3 70.2 70.1 70.0 69.9 70.0 70.2 70.5 70.8 71.1 71.4 71.6 71.8 72.1 72.0 71.9 72.0 70.9 70.6 70.5 71.6 71.9 71.8 71.4 71.0 70.8 70.7 70.7 70.7 70.7 73.0 73.8 74.0 76.7 76.7 76.8 76.6 76.7 76.8 76.9 77.2 77.8 78.1 78.6 79.3 79.6 79.8 80.0 80.0 80.0 80.1 80.4 80.6 80.8 81.0 81.1 81.2 81.4 81.4 81.0 80.7 80.5 80.5 80.8 80.8 80.8 80.6 80.5 80.4 80.3 80.2 80.2 80.4 80.5 80.5 80.4 80.2 80.0 79.9 80.5 75.5 70.8 69.9 69.9 72.7 79.9 80.1 80.1 80.2 80.1 80.7 89.7 89.8 89.7 89.6 89.9 89.9 90.0
50.0 52.3 54.4 57.9 60.0 60.0 59.9 60.9 66.0 70.0 70.0 70.0 70.0 69.8 70.0 70.0 70.0 70.0 70.0 70.0 70.0 70.0 70.0 70.0 70.0 70.0 70.0 70.0 70.0 70.0 71.3 70.6 71.1 70.8 70.6 70.4 70.3 70.2 70.1 70.0 69.9 70.0 70.2 70.6 70.8 71.2 71.4 71.7 72.0 72.1 72.1 72.2 72.1 71.3 70.9 70.8 72.0 72.2 72.2 71.7 71.4 71.2 71.1 71.1 71.1 71.2 73.5 74.4 74.7 77.0 77.0 76.9 76.8 76.8 76.8 77.0 77.2 77.8 78.1 78.5 79.3 79.5 79.8 80.0 80.0 80.0 80.1 80.4 80.6 80.8 81.0 81.1 81.3 81.4 81.5 81.2 81.0 80.9 80.8 81.1 81.1 81.0 80.9 80.8 80.7 80.6 80.5 80.5 80.7 80.8 80.8 80.8 80.6 80.5 82.4 82.2 80.4 80.2 81.5 79.9 70.1 80.6 80.1 79.8 79.8 79.8 79.9 84.9 89.5 89.8 89.9 89.8 90.1 90.0
49.8 50.1 52.6 56.3 59.5 59.9 59.9 61.2 68.6 70.0 70.0 70.0 70.0 70.0 70.0 70.0 70.0 70.0 70.2 70.4 70.6 70.8 71.0 71.1 71.3 71.5 71.7 71.9 72.1 72.3 72.3 71.2 72.2 72.8 73.0 73.0 73.0 72.9 72.8 71.1 70.3 72.2 72.0 72.8 73.2 73.1 73.3 73.2 73.2 73.1 72.7 72.5 72.5 71.5 71.2 71.2 72.3 72.5 72.6 72.2 71.9 71.7 71.5 71.6 71.6 71.6 74.2 75.3 75.5 77.5 77.5 77.5 76.8 76.7 76.7 76.7 76.7 76.7 76.7 76.7 80.0 80.0 80.0 80.0 80.0 80.0 80.1 80.4 80.5 80.7 80.9 81.1 81.3 81.5 81.6 81.4 81.2 81.2 81.1 81.3 81.3 81.3 81.2 81.1 81.0 81.0 80.9 80.9 81.0 81.1 81.2 81.1 81.0 80.9 85.5 88.1 86.3 85.1 83.8 81.1 74.8 76.8 80.6 87.1 86.4 85.6 88.7 90.0 90.0 90.0 90.0 90.0 90.0 90.0
50.0 50.0 50.4 52.2 58.3 59.9 59.9 59.8 65.5 70.0 70.0 70.0 70.0 70.0 70.0 70.0 70.0 70.0 70.2 70.4 70.6 70.8 71.0 71.3 71.5 71.7 71.9 72.1 72.3 72.5 72.6 71.5 72.5 73.1 73.2 73.3 73.4 73.2 73.1 71.5 70.6 72.5 72.3 73.0 73.4 73.4 73.5 73.5 73.4 73.4 72.9 72.8 72.8 71.9 71.7 71.6 72.7 72.9 73.0 72.6 72.3 72.1 72.1 72.1 72.1 72.2 74.8 75.8 76.1 77.9 77.9 77.7 77.2 77.0 76.7 76.7 76.7 76.7 76.7 77.0 80.0 80.0 80.0 80.0 80.3 80.5 81.0 81.6 81.9 82.2 82.4 82.7 82.9 83.1 83.0 82.5 82.0 81.9 81.8 82.2 82.3 82.4 82.3 82.3 82.3 82.4 82.4 82.8 83.9 85.2 86.3 87.4 88.4 89.2 89.7 90.0 90.0 89.9 89.5 90.1 86.0 79.6 79.7 87.8 88.7 89.3 90.2 90.3 88.6 90.0 90.0 90.0 90.1 90.2
53.1 50.0 50.0 52.8 56.9 59.8 62.7 69.4 69.9 70.0 70.0 70.0 70.0 70.0 70.0 70.0 70.0 70.0 70.3 70.5 70.7 70.9 71.2 71.4 71.6 71.9 72.1 72.3 72.5 72.7 72.9 71.9 72.8 73.3 73.5 73.6 73.6 73.4 73.4 71.8 71.0 72.7 72.6 73.2 73.7 73.6 73.7 73.7 73.7 73.7 73.2 73.2 73.2 72.2 72.0 72.0 73.1 73.4 73.4 73.1 72.7 72.6 72.6 72.6 72.7 72.7 75.3 76.2 76.6 78.1 78.1 78.0 77.5 77.4 77.0 76.8 76.8 77.1 77.2 77.4 80.0 80.0 80.0 80.1 80.3 80.5 81.0 81.7 82.0 82.3 82.6 82.8 83.0 83.3 83.3 82.8 82.4 82.3 82.2 82.6 82.8 82.8 82.8 82.9 83.0 83.1 83.2 83.8 84.9 86.0 87.1 88.1 88.8 89.5 90.0 90.0 90.0 90.0 90.0 90.0 90.0 89.1 79.2 79.2 79.2 79.2 79.4 81.5 81.1 80.2 90.3 88.7 89.1 90.0
58.1 50.6 51.3 60.0 60.0 60.0 60.0 70.0 70.0 70.0 70.0 70.0 70.0 70.0 70.0 70.0 70.0 70.0 70.3 70.5 70.8 71.0 71.3 71.6 71.8 72.1 72.3 72.6 72.7 73.0 73.2 72.2 73.1 73.6 73.7 73.8 73.9 73.7 73.6 72.2 71.4 73.0 72.9 73.5 73.9 73.9 74.0 74.0 73.9 73.9 73.5 73.4 73.5 72.6 72.5 72.4 73.4 73.8 73.8 73.5 73.2 73.1 73.1 73.0 73.1 73.3 75.7 76.8 77.2 78.5 78.4 78.2 77.9 77.7 77.4 77.3 77.3 77.6 77.7 77.9 80.0 80.0 80.0 80.2 80.3 80.3 81.1 81.8 82.1 82.4 82.7 83.0 83.2 83.5 83.5 83.1 82.7 82.6 82.5 83.0 83.2 83.3 83.3 83.4 83.6 83.7 83.9 84.6 85.6 86.6 87.6 88.4 89.1 89.6 90.0 90.0 90.0 90.0 90.0 90.0 90.0 90.0 90.0 89.5 89.8 80.7 79.5 79.2 80.0 80.0 79.9 79.9 80.6 84.2
59.8 55.1 54.6 60.0 60.0 60.0 68.5 70.0 70.0 70.0 70.0 70.0 70.0 70.0 70.0 70.0 70.0 70.0 70.3 70.6 70.9 71.1 71.4 71.7 72.0 72.3 72.5 72.7 73.0 73.3 73.5 72.6 73.4 73.9 74.0 74.1 74.1 74.0 73.9 72.5 71.8 73.3 73.2 73.7 74.2 74.1 74.2 74.2 74.2 74.1 73.8 73.7 73.7 73.0 72.8 72.8 73.8 74.1 74.1 73.9 73.7 73.6 73.5 73.5 73.6 73.8 76.0 77.3 77.9 78.9 78.7 78.5 78.3 78.1 77.8 77.8 77.8 78.0 78.1 78.4 80.0 80.0 80.0 80.1 80.1 80.1 81.0 81.7 82.1 82.5 82.7 83.0 83.3 83.6 83.6 83.3 83.0 82.9 82.9 83.3 83.5 83.6 83.6 83.7 83.9 84.1 84.4 85.0 85.8 86.7 87.5 88.2 88.8 89.3 89.8 90.0 90.0 90.0 90.0 90.0 90.0 90.0 90.0 90.0 90.0 90.0 88.5 90.1 79.9 80.4 86.9 83.1 79.9 79.9
59.7 57.1 56.3 60.0 60.0 60.0 60.1 67.0 70.0 70.0 70.0 70.0 70.0 70.0 70.0 70.0 70.0 70.1 70.4 70.7 71.0 71.3 71.6 71.9 72.2 72.5 72.7 73.0 73.3 73.6 73.8 72.9 73.8 74.2 74.3 74.3 74.3 74.2 74.1 72.9 72.1 73.6 73.5 74.0 74.3 74.4 74.4 74.4 74.4 74.3 74.1 74.0 74.0 73.3 73.1 73.1 74.1 74.4 74.4 74.2 74.0 73.9 73.9 74.0 74.0 74.1 76.2 77.9 78.5 79.3 79.0 78.8 78.7 78.5 78.3 78.2 78.3 78.5 78.6 78.9 80.0 80.0 80.0 80.0 80.0 80.0 80.8 81.6 81.9 82.3 82.6 82.9 83.2 83.5 83.7 83.5 83.3 83.3 83.2 83.6 83.7 83.8 83.8 84.0 84.2 84.4 84.7 85.2 86.0 86.8 87.5 88.2 88.7 89.2 89.7 90.0 90.0 90.0 90.0 90.0 90.0 90.0 90.0 90.0 90.0 90.0 90.0 90.0 87.3 87.4 90.0 90.4 90.0 89.2
59.7 57.9 58.6 60.0 60.0 60.0 60.0 60.7 69.9 70.0 70.0 70.0 70.0 70.0 70.0 70.0 70.0 70.1 70.4 70.7 71.0 71.3 71.6 71.9 72.3 72.6 72.9 73.2 73.5 73.8 74.1 73.2 74.1 74.4 74.5 74.6 74.4 74.4 74.3 73.2 72.5 73.8 73.7 74.2 74.6 74.5 74.6 74.5 74.6 74.4 74.2 74.1 74.2 73.6 73.5 73.5 74.3 74.5 74.6 74.4 74.3 74.2 74.1 74.1 74.2 74.3 76.3 78.4 79.2 79.7 79.4 79.1 79.1 78.9 78.7 78.7 78.7 79.0 79.0 79.3 80.0 80.0 80.0 80.0 80.0 80.0 80.0 80.4 80.7 81.1 81.5 81.9 82.4 82.7 83.1 83.2 83.3 83.4 83.4 83.8 83.8 83.9 83.9 84.1 84.3 84.5 84.9 85.3 86.0 86.6 87.3 87.9 88.4 88.9 89.5 89.9 90.0 90.0 90.0 90.0 90.0 90.0 90.0 90.0 90.0 90.0 90.0 90.0 90.0 89.9 90.0 90.0 90.0 90.0
59.6 58.6 58.1 60.0 60.0 60.0 60.7 65.6 70.0 70.1 70.3 70.3 70.3 70.4 70.5 70.5 70.5 71.2 71.7 71.9 72.0 72.2 72.4 72.5 72.7 72.9 73.0 73.2 73.3 73.5 74.1 73.7 74.2 74.5 74.6 74.7 74.9 74.9 74.8 73.7 73.0 74.3 74.3 74.8 75.2 75.3 75.4 75.5 75.6 75.6 75.5 75.5 75.7 75.1 75.0 75.2 76.3 76.7 77.0 77.0 77.2 77.4 77.7 78.1 78.6 79.0 79.3 79.5 80.0 80.0 79.9 79.7 79.6 79.4 79.3 79.2 79.2 79.4 79.5 79.8 80.0 80.0 80.2 80.4 80.5 80.3 81.2 82.0 82.3 82.7 83.0 83.3 83.6 83.9 84.1 83.9 83.9 83.8 83.8 84.2 84.4 84.5 84.6 84.8 85.0 85.3 85.6 86.0 86.6 87.2 87.8 88.3 88.8 89.2 89.7 90.0 90.0 90.0 90.0 90.0 90.0 90.0 90.0 90.0 90.0 90.0 90.0 90.0 90.0 90.0 90.0 90.0 90.0 90.0
59.7 59.3 58.9 60.0 60.0 60.0 60.4 60.4 69.6 70.0 70.2 70.3 70.3 70.4 70.6 70.5 70.6 71.3 71.6 71.8 72.0 72.2 72.3 72.5 72.7 72.8 73.0 73.2 73.3 73.5 74.2 73.9 74.4 74.7 74.8 74.9 75.2 75.1 75.1 74.1 73.4 74.6 74.6 75.1 75.4 75.5 75.6 75.7 75.8 75.9 75.8 75.9 76.0 75.6 75.6 75.8 76.8 77.2 77.4 77.6 77.7 78.0 78.3 78.7 79.0 79.4 79.7 79.8 80.0 80.0 80.0 79.9 79.8 79.7 79.6 79.7 79.7 79.9 80.0 80.2 80.4 80.5 80.7 80.9 81.0 80.8 82.1 82.8 83.1 83.4 83.6 83.9 84.1 84.5 84.6 84.3 84.2 84.2 84.3 84.6 84.8 84.9 85.0 85.2 85.4 85.8 86.1 86.6 87.1 87.7 88.2 88.7 89.0 89.4 89.8 90.0 90.0 90.0 90.0 90.0 90.0 90.0 90.0 90.0 90.0 90.0 90.0 90.0 90.0 90.0 90.0 90.0 90.0 90.0
67.4 66.1 63.7 64.8 63.5 61.5 60.3 60.8 69.3 70.0 70.2 70.3 70.2 70.3 70.5 70.5 70.7 71.3 71.7 71.8 72.0 72.2 72.3 72.5 72.7 72.8 73.0 73.2 73.4 73.5 74.4 74.1 74.6 74.9 74.9 75.1 75.4 75.3 75.3 74.4 73.8 74.8 74.9 75.3 75.5 75.6 75.7 75.9 75.9 76.1 76.0 76.1 76.3 75.9 76.0 76.2 77.0 77.3 77.5 77.7 78.0 78.3 78.5 78.9 79.2 79.5 79.7 80.0 80.0 80.0 80.1 80.6 80.8 81.0 81.2 81.4 81.6 81.8 82.0 82.2 80.8 80.9 81.3 81.4 81.5 81.3 83.6 84.7 84.6 84.7 84.8 84.9 85.1 85.4 85.3 84.9 84.7 84.8 84.9 85.3 85.4 85.5 85.6 85.9 86.1 86.4 86.6 86.5 86.6 86.7 86.8 86.9 86.9 87.0 90.0 90.0 90.0 90.0 90.0 90.0 90.0 90.0 90.0 90.0 90.0 90.0 90.0 90.0 90.0 90.0 90.0 90.0 90.0 90.0
60.0 60.0 60.0 60.0 60.0 60.0 60.0 64.9 70.0 70.0 70.2 70.2 70.1 70.1 70.5 70.4 70.6 71.4 71.7 71.9 72.1 72.2 72.4 72.6 72.8 72.9 73.1 73.3 73.4 73.6 74.6 74.4 74.9 75.2 75.2 75.2 75.6 75.6 75.6 74.7 74.1 75.1 75.1 75.4 75.7 75.7 75.9 76.0 76.0 76.1 76.1 76.2 76.4 76.2 76.2 76.5 77.0 77.2 77.5 77.7 77.9 78.2 78.5 78.9 79.1 79.4 79.6 79.9 80.0 80.0 80.1 80.6 81.0 81.2 81.4 81.6 81.8 82.0 82.2 82.5 81.3 81.4 81.8 81.9 82.0 81.8 84.0 85.0 85.0 85.0 85.1 85.2 85.4 85.6 85.5 85.2 85.0 85.1 85.2 85.5 85.6 85.8 85.8 86.0 86.3 86.6 86.9 86.5 86.5 86.5 86.5 86.5 86.5 86.5 90.0 90.0 90.0 90.0 90.0 90.0 90.0 90.0 90.0 90.0 90.0 90.0 90.0 90.0 90.0 90.0 90.0 90.0 90.0 90.0
60.0 62.0 60.5 63.3 62.3 61.2 60.3 60.3 66.7 65.4 70.0 70.1 70.0 70.1 70.3 70.4 70.5 71.2 71.5 71.6 71.8 72.0 72.1 72.3 72.5 72.6 72.8 73.0 73.1 73.3 74.7 74.5 75.0 75.3 75.3 75.4 75.8 75.8 75.8 75.0 74.5 75.2 75.2 75.5 75.8 75.8 75.9 76.0 76.0 76.1 76.1 76.2 76.3 76.2 76.3 76.4 76.9 77.1 77.3 77.4 77.6 77.9 78.3 78.6 78.9 79.2 79.3 79.8 80.0 80.0 80.1 80.5 80.8 81.1 81.3 81.5 81.7 81.9 82.1 82.3 81.7 81.9 82.3 82.4 82.5 82.3 84.3 85.2 85.2 85.1 85.2 85.4 85.5 85.8 85.7 85.2 85.1 85.3 85.3 85.6 85.8 85.9 85.9 86.1 86.4 86.6 87.0 86.5 86.5 86.5 86.5 86.5 86.5 86.5 90.0 90.0 90.0 90.0 90.0 90.0 90.0 90.0 90.0 90.0 90.0 90.0 90.0 90.0 90.0 90.0 90.0 90.0 90.0 90.0
60.4 60.0 60.0 60.0 60.0 60.0 60.0 60.0 60.2 67.8 70.0 70.0 70.0 70.0 70.3 70.3 70.4 71.6 72.2 72.4 72.6 72.8 72.2 72.3 72.5 72.6 72.8 73.0 73.2 73.3 73.5 74.5 75.3 75.2 75.2 75.2 75.2 75.2 75.2 75.3 74.7 75.4 75.4 75.7 75.9 76.0 76.2 76.4 76.5 76.7 76.9 77.0 77.2 76.3 76.4 76.5 77.1 77.1 77.3 77.5 77.6 77.8 78.1 78.5 78.8 79.1 79.6 79.8 79.9 80.0 80.1 80.4 80.8 81.0 81.2 81.4 81.6 81.8 81.8 81.8 82.2 82.3 82.8 83.0 83.0 82.8 83.4 83.9 84.1 84.3 84.5 84.8 85.0 85.2 86.0 85.4 85.3 85.3 85.5 85.7 85.8 85.9 86.0 86.2 86.5 86.7 86.9 86.5 86.5 86.5 86.5 86.5 86.5 86.5 90.0 90.0 90.0 90.0 90.0 90.0 90.0 90.5 90.7 90.9 91.1 91.3 91.4 91.6 91.6 91.5 91.4 91.3 91.3 91.2
60.0 60.0 60.0 60.0 60.0 60.0 60.0 60.0 60.2 69.6 70.0 70.0 67.6 70.0 70.0 70.2 70.3 70.8 71.2 71.4 71.6 72.0 71.7 71.8 72.0 72.2 72.3 72.5 72.7 72.9 73.1 74.3 75.3 75.2 75.2 75.2 75.2 75.2 75.2 75.5 75.0 75.6 75.5 75.5 75.6 75.8 76.0 76.1 76.3 76.5 76.7 76.9 77.1 76.3 76.4 76.5 77.1 77.2 77.4 77.5 77.7 77.9 78.2 78.5 78.9 79.2 79.6 79.8 80.0 80.0 80.1 80.5 80.8 81.0 81.2 81.5 81.7 81.9 81.8 81.8 82.6 82.7 83.2 83.4 83.4 83.3 83.6 83.9 84.1 84.3 84.5 84.7 84.9 85.1 86.2 85.5 85.4 85.5 85.6 85.8 85.8 86.0 86.1 86.2 86.4 86.6 86.8 86.5 86.5 86.5 86.5 86.5 86.5 86.5 90.0 90.0 90.0 90.0 90.0 90.0 90.0 90.3 90.5 90.8 91.0 91.2 91.4 91.5 91.7 91.7 91.6 91.6 91.6 91.5
60.0 60.0 60.0 60.0 60.0 60.0 60.0 60.0 60.0 63.3 61.7 63.7 60.9 69.8 70.1 70.2 70.3 70.9 71.2 71.4 71.8 72.1 71.7 71.8 72.0 72.2 72.4 72.5 72.7 72.9 73.1 74.5 75.7 75.2 75.2 75.2 75.2 75.2 75.2 75.8 75.4 75.9 75.8 75.5 75.7 75.9 76.1 76.2 76.4 76.6 76.8 77.0 77.2 76.5 76.6 76.7 77.2 77.4 77.6 77.7 77.8 78.1 78.4 78.7 79.1 79.4 79.7 79.9 80.0 80.0 80.1 80.6 80.9 81.1 81.3 81.5 81.7 81.9 81.8 81.8 82.9 83.1 83.7 83.8 83.8 83.7 83.7 83.9 84.1 84.3 84.5 84.7 84.9 85.1 86.6 85.7 85.7 85.7 85.7 85.9 86.0 86.0 86.1 86.3 86.4 86.6 86.8 86.5 86.5 86.5 86.5 86.5 86.5 86.5 90.0 90.0 90.0 90.0 90.0 90.0 90.0 90.2 90.4 90.6 90.8 91.0 91.3 91.4 91.7 91.8 91.7 91.6 91.5 91.4
60.0 60.0 60.0 60.0 60.0 60.0 60.0 60.0 60.0 60.0 60.0 60.0 62.3 70.1 70.0 70.1 70.2 70.9 71.3 71.5 72.0 72.3 71.7 71.9 72.1 72.3 72.5 72.7 72.9 73.1 73.2 74.7 76.0 75.2 75.2 75.2 75.2 75.2 75.2 76.1 75.7 76.1 76.0 75.7 75.8 76.0 76.2 76.4 76.6 76.8 77.0 77.2 77.4 76.8 76.9 77.0 77.5 77.7 77.9 78.0 78.2 78.5 78.8 79.2 79.5 79.7 80.0 80.0 80.0 80.0 80.2 80.8 81.2 81.4 81.6 81.8 82.0 82.1 81.8 81.9 83.3 83.5 84.1 84.2 84.3 84.1 84.0 84.1 84.2 84.4 84.6 84.8 85.0 85.2 86.9 86.0 85.9 86.0 86.0 86.1 86.1 86.1 86.2 86.3 86.5 86.6 86.8 86.5 86.5 86.5 86.5 86.5 86.5 86.5 90.0 90.0 90.0 90.0 90.0 90.0 90.0 90.1 90.3 90.5 90.7 90.9 91.1 91.3 91.6 91.8 91.9 91.8 91.6 91.5
60.0 60.0 60.0 60.0 60.0 60.0 60.0 60.0 60.0 60.0 60.0 60.0 60.0 62.9 70.0 70.0 70.1 70.7 71.0 71.4 71.8 72.2 71.6 71.8 72.0 72.1 72.3 72.5 72.7 72.9 73.1 74.8 76.3 75.2 75.2 75.2 75.2 75.2 75.2 76.5 76.0 76.4 76.2 75.7 75.8 76.0 76.2 76.3 76.5 76.7 76.9 77.1 77.3 76.9 77.0 77.2 77.6 77.8 77.9 78.1 78.2 78.4 78.8 79.1 79.4 79.7 80.0 80.0 80.0 80.0 80.2 80.8 81.2 81.3 81.5 81.7 81.9 82.1 82.0 82.1 83.6 83.9 84.4 84.5 84.6 84.5 84.1 84.0 84.2 84.4 84.6 84.8 85.0 85.2 87.3 86.3 86.1 86.2 86.2 86.3 86.3 86.3 86.3 86.4 86.5 86.7 86.9 86.6 86.6 86.6 86.6 86.6 86.5 86.5 90.0 90.0 90.0 90.0 90.0 90.1 90.3 90.9 91.3 91.6 92.0 92.4 92.7 92.9 93.1 93.3 93.3 93.4 94.0 94.1
60.0 60.0 60.0 60.0 60.0 60.0 60.0 60.0 60.0 60.0 60.0 60.0 60.2 60.1 67.6 69.2 70.0 70.2 70.5 70.8 71.2 71.6 71.6 71.6 71.6 71.8 72.0 72.2 72.4 72.6 72.7 74.7 76.5 75.2 75.2 75.2 75.2 75.2 75.2 76.8 76.3 76.7 76.5 75.7 75.7 75.7 75.9 76.1 76.2 76.4 76.6 76.8 77.0 76.9 77.1 77.1 77.5 77.7 77.9 78.0 78.1 78.2 78.3 78.6 78.9 79.3 79.9 79.9 80.0 80.0 80.1 80.5 80.9 81.1 81.3 81.5 81.7 81.9 82.1 82.2 83.7 83.9 84.7 84.9 84.9 84.8 84.2 83.9 84.0 84.2 84.4 84.6 84.8 85.0 87.6 86.5 86.4 86.4 86.4 86.5 86.5 86.4 86.3 86.4 86.6 86.8 87.0 86.9 86.9 86.9 86.9 86.9 86.8 86.5 90.0 90.0 90.0 90.0 90.0 90.0 90.2 90.7 91.1 91.5 91.9 92.3 92.6 93.0 93.2 93.4 93.5 93.6 94.2 94.4
60.8 60.5 60.0 60.0 60.0 60.0 60.0 60.0 60.0 60.0 60.0 60.0 60.1 63.4 70.0 70.0 70.0 70.1 70.3 70.7 71.0 71.5 71.6 71.6 71.6 71.7 71.8 72.0 72.2 72.4 72.6 74.8 76.9 75.2 75.2 75.2 75.2 75.2 75.2 77.2 76.7 76.9 76.8 75.7 75.7 75.7 75.7 75.9 76.0 76.2 76.4 76.6 76.8 77.1 77.2 77.3 77.7 77.9 78.1 78.1 78.3 78.3 78.3 78.4 78.5 78.8 79.8 79.8 79.9 80.0 80.1 80.4 80.6 80.8 81.0 81.2 81.4 81.6 82.0 82.2 83.6 84.0 85.1 85.3 85.3 85.1 84.3 83.9 83.9 84.0 84.2 84.4 84.6 84.8 88.0 86.8 86.7 86.7 86.7 86.8 86.7 86.6 86.5 86.5 86.7 87.0 87.1 87.3 87.3 87.3 87.3 87.2 87.1 86.8 90.0 90.0 90.0 90.0 90.0 90.0 90.0 90.5 90.9 91.3 91.7 92.0 92.5 92.8 93.1 93.4 93.5 93.8 94.2 94.5
62.2 60.1 60.0 60.0 60.0 60.0 60.0 60.0 60.0 60.0 60.5 61.1 67.1 67.3 69.9 70.1 70.0 70.6 71.1 71.5 72.1 72.6 71.6 71.6 71.8 72.0 72.2 72.3 72.5 72.7 72.9 75.3 77.5 75.2 75.2 75.2 75.2 75.2 75.2 77.6 77.2 77.3 77.1 75.7 75.7 75.7 75.8 75.9 76.1 76.3 76.5 76.7 76.8 77.4 77.5 77.6 77.9 78.2 78.4 78.5 78.5 78.6 78.5 78.5 78.6 78.9 79.7 79.7 79.8 80.0 80.0 80.3 80.5 80.7 80.9 81.1 81.3 81.5 82.0 82.2 83.9 84.3 85.6 85.8 85.8 85.6 84.4 83.9 83.9 83.9 84.1 84.3 84.5 84.7 88.3 87.1 87.0 87.0 87.0 87.0 86.9 86.8 86.6 86.7 87.0 87.2 87.4 87.6 87.6 87.6 87.6 87.5 87.4 87.1 90.0 90.0 90.0 90.0 90.0 90.0 90.0 90.3 90.7 91.2 91.7 92.3 92.7 93.2 93.6 93.9 94.2 94.5 95.0 95.4
64.0 60.0 60.0 60.0 60.0 60.0 60.0 60.0 60.0 60.0 60.0 63.1 70.2 69.7 69.7 70.0 70.1 70.6 71.0 71.5 72.2 72.7 71.6 71.6 71.8 71.9 72.1 72.3 72.5 72.7 72.9 75.5 77.9 75.2 75.2 75.2 75.2 75.2 75.2 78.0 77.5 77.7 77.4 75.7 75.7 75.7 75.8 75.9 76.1 76.3 76.5 76.7 76.9 77.7 77.8 78.0 78.2 78.5 78.7 78.8 78.9 78.9 78.8 78.8 78.8 79.0 79.8 79.7 79.8 80.0 80.0 80.3 80.6 80.8 81.0 81.2 81.4 81.5 82.1 82.3 84.3 84.9 86.3 86.4 86.4 86.1 84.6 83.9 83.9 83.9 84.1 84.3 84.5 84.7 88.7 87.4 87.3 87.3 87.3 87.3 87.2 87.0 86.9 86.9 87.2 87.4 87.6 88.0 88.0 87.9 87.9 87.8 87.7 87.4 90.0 90.0 90.0 90.0 90.0 90.0 90.0 90.2 90.6 91.1 91.6 92.1 92.6 93.0 93.4 93.9 94.2 94.5 95.0 95.3
64.5 60.0 60.0 60.0 60.0 60.0 60.0 60.0 60.0 60.0 60.0 60.0 61.1 62.8 67.5 70.0 70.1 70.5 71.0 71.5 72.2 72.8 71.6 71.6 71.7 71.9 72.0 72.2 72.4 72.6 72.8 75.7 78.3 75.2 75.2 75.2 75.2 75.2 75.2 78.3 77.9 78.0 77.8 75.7 75.7 75.7 75.7 75.9 76.1 76.3 76.4 76.6 76.8 78.0 78.1 78.3 78.4 78.8 79.1 79.2 79.3 79.3 79.2 79.0 79.1 79.3 79.9 79.9 79.8 79.9 80.0 80.3 80.5 80.7 80.9 81.1 81.3 81.5 82.1 82.3 84.8 85.3 86.9 87.1 87.0 86.7 84.8 83.9 83.9 83.9 84.1 84.3 84.5 84.6 89.0 87.8 87.7 87.7 87.7 87.6 87.5 87.3 87.2 87.2 87.5 87.7 87.9 88.3 88.3 88.3 88.2 88.1 88.0 87.7 90.0 90.0 90.0 90.0 90.0 90.0 90.0 90.3 90.6 91.1 91.6 92.0 92.5 92.9 93.3 93.7 94.0 94.3 94.9 95.3
62.2 60.0 60.0 60.0 60.0 60.0 60.0 60.0 60.0 60.0 60.0 60.0 60.0 60.5 64.0 69.7 70.0 70.5 70.9 71.6 72.3 73.0 71.6 71.6 71.7 71.9 72.1 72.3 72.5 72.7 72.8 75.9 78.7 75.2 75.2 75.2 75.2 75.2 75.2 78.8 78.4 78.3 78.1 75.7 75.7 75.8 76.0 76.1 76.3 76.5 76.7 76.9 77.0 78.3 78.5 78.7 78.8 79.2 79.4 79.5 79.6 79.7 79.5 79.4 79.5 79.7 80.0 80.0 80.0 79.9 80.0 80.2 80.4 80.6 80.9 81.1 81.2 81.5 82.0 82.2 85.2 85.9 87.5 87.7 87.6 87.2 85.0 83.9 83.9 84.1 84.2 84.5 84.7 84.9 89.3 88.1 87.9 88.0 88.0 87.9 87.8 87.5 87.4 87.5 87.8 88.0 88.3 88.7 88.6 88.6 88.5 88.4 88.3 88.0 90.0 90.0 90.0 90.0 90.0 90.0 90.0 90.3 90.7 91.3 91.9 92.4 92.8 93.3 93.7 94.2 94.4 94.8 95.4 95.7
60.0 60.0 60.0 60.0 60.0 60.0 60.0 60.0 60.4 60.0 60.7 60.1 60.3 60.2 60.3 67.7 70.0 70.4 70.8 71.6 72.5 73.2 71.6 71.7 71.9 72.1 72.4 72.6 72.8 73.1 73.3 76.4 79.1 75.2 75.2 75.2 75.2 75.2 75.2 79.1 78.8 78.6 78.4 76.3 76.5 76.7 77.0 77.2 77.4 77.7 77.9 78.1 78.3 78.7 78.9 79.0 79.3 79.5 79.7 79.9 80.0 80.0 80.0 79.9 79.9 80.1 80.2 80.3 80.4 80.6 80.7 80.9 81.1 81.3 81.5 81.7 81.9 82.1 82.6 82.9 86.4 86.9 88.4 88.4 88.3 87.9 85.3 84.3 84.5 84.7 84.9 85.1 85.3 85.5 89.7 88.4 88.3 88.4 88.3 88.3 88.1 87.9 87.8 87.9 88.2 88.5 88.7 89.0 89.0 88.9 88.8 88.7 88.6 88.3 90.0 90.1 90.0 90.0 90.0 90.0 90.0 90.4 90.8 91.4 91.9 92.5 93.0 93.5 94.0 94.4 94.7 95.1 95.6 96.0
60.8 60.0 60.0 60.0 60.0 60.0 60.0 60.0 62.5 60.0 61.3 63.9 63.9 62.9 62.2 64.7 69.2 70.3 70.8 71.7 72.8 73.7 72.3 72.6 73.0 73.4 73.8 74.2 74.6 75.0 75.4 77.6 79.4 77.1 77.4 77.7 78.0 78.1 78.1 79.6 79.3 79.2 79.0 78.6 78.7 78.8 78.9 78.9 79.1 79.1 79.2 79.3 79.4 79.2 79.3 79.5 79.7 79.9 80.1 80.4 80.7 81.0 81.2 81.5 81.8 82.1 82.4 82.6 82.9 83.2 83.5 83.8 84.1 84.3 84.5 84.8 85.1 85.4 84.7 85.0 87.5 87.8 89.0 89.0 88.9 88.5 88.2 88.2 88.5 88.8 89.0 89.3 89.6 89.9 90.1 89.9 89.8 89.6 89.4 89.3 89.2 89.0 88.9 88.8 88.8 89.0 89.2 89.4 89.3 89.3 89.4 89.5 89.7 89.9 90.0 90.2 90.2 90.0 90.0 90.0 90.1 90.5 91.1 91.7 92.4 93.0 93.5 94.0 94.5 94.9 95.1 95.6 96.1 96.4
60.0 60.0 60.0 60.0 60.0 60.0 60.1 61.7 69.9 65.8 68.3 69.0 67.7 67.8 69.2 69.9 69.9 70.3 71.1 72.2 73.5 74.5 72.9 73.4 73.9 74.4 74.9 75.4 75.9 76.5 77.0 78.6 79.8 78.5 79.0 79.5 80.0 80.0 80.0 79.9 79.7 79.6 79.5 80.0 80.0 80.0 80.0 80.0 80.0 80.0 80.0 80.0 80.0 79.6 79.7 79.8 80.0 80.3 80.6 80.9 81.1 81.4 81.7 82.0 82.2 82.5 82.8 83.1 83.4 83.6 83.9 84.2 84.5 84.6 84.9 85.2 85.5 85.7 85.1 85.5 88.0 88.2 89.5 89.5 89.4 89.0 88.5 88.5 88.8 89.1 89.3 89.6 89.9 90.2 90.1 89.9 89.8 89.5 89.4 89.3 89.2 89.1 88.9 88.9 89.0 89.2 89.5 89.7 89.6 89.5 89.5 89.5 89.6 89.9 90.0 90.5 90.9 90.6 90.3 90.3 91.2 93.3 93.9 94.4 95.0 95.3 95.5 95.7 95.9 96.0 96.0 96.2 96.7 97.0
60.0 60.0 60.0 60.0 60.0 60.0 60.2 61.5 67.4 66.7 69.6 70.0 69.7 69.3 69.6 70.0 70.0 70.2 71.1 72.4 74.0 75.2 73.8 74.5 75.2 76.0 76.7 77.4 78.1 78.9 79.6 80.0 80.0 80.0 80.0 80.0 80.0 80.0 80.0 80.0 80.0 79.8 79.7 80.0 80.0 80.0 80.0 80.0 80.0 80.0 80.0 80.0 80.0 79.8 80.0 80.3 80.7 81.0 81.4 81.8 82.1 82.5 82.8 83.2 83.6 83.9 84.3 84.7 85.0 85.4 85.8 86.1 86.4 86.8 87.2 87.5 87.9 88.2 88.4 88.9 89.1 89.6 90.0 90.0 90.0 89.7 90.0 90.0 90.0 90.0 90.0 90.0 90.2 90.3 90.0 89.8 89.6 89.5 89.5 89.4 89.3 89.2 89.2 89.2 89.4 89.6 89.8 90.0 90.0 89.9 89.8 89.7 89.6 89.8 90.0 90.4 91.1 91.2 91.1 91.0 91.8 93.6 94.2 94.8 95.4 95.7 95.8 96.0 96.3 96.3 96.3 96.6 97.0 97.3
60.2 60.0 60.0 60.0 60.0 60.0 60.0 60.9 65.5 68.6 70.0 69.9 70.0 70.0 70.1 70.5 71.1 73.0 74.4 76.0 77.1 77.7 75.2 75.8 76.4 77.0 77.7 78.3 78.9 79.5 80.0 80.0 80.0 80.0 80.0 80.0 80.0 80.0 80.0 80.0 80.0 80.0 79.8 80.0 80.0 80.0 80.0 80.0 80.0 80.0 80.0 80.0 80.0 80.1 80.4 80.8 81.1 81.5 81.8 82.2 82.5 82.9 83.2 83.5 83.9 84.2 84.6 84.9 85.3 85.6 86.0 86.3 86.7 87.0 87.4 87.7 88.0 88.4 88.5 89.0 89.3 89.7 90.0 90.0 90.0 90.0 90.0 90.0 90.0 90.0 90.0 90.3 90.6 90.3 90.0 89.8 89.8 89.9 89.8 89.7 89.6 89.4 89.5 89.6 89.8 89.9 90.1 90.3 90.3 90.2 90.1 90.0 89.9 89.8 90.0 90.4 91.1 91.5 91.6 91.7 92.3 93.8 94.4 95.1 95.7 96.0 96.1 96.4 96.6 96.6 96.6 96.8 97.3 97.6
60.0 60.0 60.0 60.0 60.0 60.0 60.0 60.1 62.6 68.1 68.1 68.7 70.1 70.3 70.3 70.7 72.1 75.2 76.4 77.7 78.4 78.5 75.8 76.4 76.9 77.5 78.1 78.7 79.2 79.8 80.0 80.0 80.0 80.0 80.0 80.0 80.0 80.0 80.0 80.0 80.0 80.0 80.0 80.0 80.0 80.0 80.0 80.0 80.0 80.0 80.0 80.0 80.1 80.4 80.7 81.1 81.4 81.7 82.1 82.4 82.7 83.1 83.4 83.8 84.1 84.4 84.8 85.1 85.4 85.8 86.1 86.5 86.8 87.1 87.5 87.8 88.1 88.5 88.6 89.1 89.5 89.9 90.0 90.0 90.0 90.0 90.0 90.0 90.0 90.0 90.7 91.1 91.6 91.8 91.8 90.2 90.1 90.2 90.2 90.0 89.9 89.7 89.6 89.7 89.9 90.1 90.4 90.6 90.7 90.6 90.5 90.4 90.1 89.9 89.9 90.3 91.0 91.6 92.0 92.2 92.7 94.1 94.7 95.4 96.1 96.3 96.5 96.7 96.9 96.9 96.9 97.1 97.6 98.0
60.0 60.0 60.0 60.0 60.0 60.0 60.0 60.0 61.3 65.1 66.0 69.5 70.3 70.4 70.1 70.4 72.8 76.2 77.4 78.4 79.0 79.0 75.7 76.3 76.8 77.3 77.9 78.4 78.9 79.5 80.0 80.0 80.0 80.0 80.0 80.0 80.0 80.0 80.0 80.0 80.0 80.0 80.0 80.0 80.0 80.0 80.0 80.0 80.0 80.0 80.0 80.0 80.4 80.7 81.1 81.4 81.7 82.1 82.4 82.8 83.1 83.5 83.8 84.2 84.5 84.9 85.2 85.6 85.9 86.2 86.5 86.8 87.2 87.5 87.9 88.2 88.6 88.9 89.2 89.5 90.0 90.0 90.0 90.0 90.0 90.0 90.0 90.0 90.0 90.0 91.5 91.7 92.1 92.3 92.4 91.3 90.7 90.8 90.6 90.4 90.1 89.9 89.8 89.9 90.1 90.5 90.8 91.2 91.4 91.3 91.2 91.0 90.9 90.4 91.0 93.9 93.8 93.5 93.2 93.2 93.9 97.0 97.1 97.4 97.6 97.5 97.4 97.4 97.6 97.5 97.6 97.8 98.2 98.5
60.0 60.0 60.0 60.0 60.0 60.0 60.0 60.2 60.8 63.9 61.9 68.6 70.0 70.0 70.0 70.2 71.3 74.3 76.0 78.3 79.1 79.4 74.6 75.2 75.8 76.4 77.1 77.7 78.3 78.9 79.6 80.0 80.0 80.2 80.4 80.7 81.0 81.2 81.4 81.6 81.8 82.0 82.3 82.5 82.7 82.9 83.1 83.3 83.5 83.7 83.9 84.1 84.3 84.5 84.7 84.9 85.1 85.3 85.5 85.7 85.9 86.1 86.4 86.6 86.8 87.0 87.1 87.3 87.6 87.8 88.0 88.2 87.7 87.4 87.4 87.4 87.4 87.4 87.4 87.4 90.0 90.0 90.1 90.0 90.0 90.0 90.1 90.1 90.1 90.8 92.3 92.4 92.8 93.1 93.5 92.4 91.4 91.4 91.3 91.0 90.6 90.3 90.0 90.2 90.6 91.1 91.5 91.7 91.9 91.8 91.7 91.5 91.4 91.0 91.7 94.7 94.6 94.3 94.0 94.0 94.6 97.5 97.5 97.8 98.0 98.0 97.9 97.9 98.0 98.1 98.0 98.2 98.7 99.0
60.0 60.0 60.0 60.0 60.0 60.0 60.0 60.0 60.0 60.2 60.0 65.8 70.0 70.0 70.0 70.1 72.3 75.3 75.8 76.7 77.0 77.0 74.8 75.4 76.0 76.6 77.2 77.8 78.4 79.0 79.7 80.0 80.0 80.2 80.5 80.9 81.0 81.3 81.5 81.6 81.7 81.8 81.9 82.0 82.1 82.2 82.3 82.4 82.5 82.6 82.7 82.8 82.9 83.0 83.1 83.2 83.4 83.6 83.8 84.0 84.2 84.3 84.4 84.5 84.7 84.9 85.2 85.3 85.5 85.6 87.6 87.8 87.7 87.8 87.9 88.1 88.2 88.3 88.4 88.6 90.0 90.0 90.0 90.0 90.0 90.0 90.1 90.2 90.2 91.3 92.8 92.9 93.3 93.8 94.6 93.5 92.2 92.3 92.0 91.7 91.2 90.8 90.5 90.7 91.2 91.7 92.1 92.4 92.5 92.3 92.2 92.0 91.9 91.7 92.5 95.5 95.4 95.1 94.8 94.8 95.4 97.4 97.5 97.7 97.9 98.0 98.1 98.2 98.3 98.4 98.5 98.7 99.0 99.2
60.0 60.0 60.1 60.0 60.0 60.0 60.0 60.0 60.0 60.0 60.0 61.4 68.4 69.9 70.0 70.2 73.3 76.0 77.5 79.8 80.0 80.0 80.0 80.0 80.0 80.0 80.0 80.0 80.0 80.0 80.0 80.0 80.0 80.2 80.8 81.3 81.2 81.6 81.7 81.7 81.6 81.6 81.6 81.6 81.6 81.6 81.6 81.6 81.6 81.6 81.6 81.6 81.6 81.6 81.8 81.9 82.1 82.3 82.5 82.7 82.8 82.9 82.9 82.8 82.9 83.2 83.5 83.7 83.7 83.7 87.2 87.6 87.8 88.1 88.3 88.6 88.9 89.2 89.4 89.7 90.0 90.0 90.0 90.0 90.0 90.0 90.0 90.1 90.1 91.0 92.2 92.5 92.8 93.5 94.8 94.2 92.7 92.7 92.6 92.3 91.7 91.3 91.0 91.2 91.7 92.2 92.6 92.9 93.0 92.9 92.7 92.6 92.5 92.3 93.2 96.0 96.0 95.8 95.5 95.5 95.9 96.9 97.1 97.3 97.5 97.7 97.9 98.1 98.3 98.5 98.7 98.9 99.0 99.2
60.0 60.0 60.9 60.0 60.0 60.0 60.0 60.0 60.0 60.0 60.0 62.1 68.9 69.9 70.1 71.5 76.7 78.7 79.6 80.0 80.0 80.0 80.0 80.0 80.0 80.0 80.0 80.0 80.0 80.0 80.0 80.0 80.0 80.3 80.9 81.6 81.1 81.1 81.3 81.5 81.6 81.6 81.6 81.6 81.6 81.6 81.7 81.6 81.6 81.6 81.6 81.6 81.6 81.9 82.1 82.3 82.4 82.5 82.7 82.8 83.0 83.0 83.0 82.9 83.0 83.3 83.5 83.7 83.6 83.7 86.8 87.1 87.4 87.7 88.1 88.4 88.7 89.1 89.4 89.7 90.0 90.0 90.0 90.0 90.0 90.0 90.0 90.0 90.0 90.9 92.0 92.4 92.9 94.1 95.6 95.3 93.1 93.2 93.1 92.8 92.2 91.8 91.5 91.7 92.3 92.7 93.2 93.5 93.6 93.4 93.3 93.2 93.1 93.1 93.9 96.6 96.7 96.5 96.2 96.2 96.6 97.5 97.7 97.9 98.1 98.3 98.6 98.8 99.0 99.2 99.4 99.6 99.8 100.1
60.0 60.3 60.7 60.0 60.0 60.0 60.0 60.0 60.0 60.0 60.0 62.9 69.6 70.2 71.4 74.3 79.1 80.0 80.0 80.0 80.0 80.0 80.0 80.0 80.0 80.0 80.0 80.0 80.0 80.0 80.0 80.3 80.7 81.1 81.5 81.9 82.0 82.5 82.5 82.4 82.3 82.0 81.8 81.6 81.7 81.9 82.0 81.8 81.7 81.6 81.6 81.6 81.9 82.2 82.3 82.5 82.7 82.9 83.1 83.3 83.4 83.4 83.4 83.4 83.5 83.7 84.0 84.1 84.1 84.2 87.3 87.7 87.9 88.2 88.4 88.7 88.9 89.2 89.5 89.8 90.0 90.0 90.0 90.0 90.0 90.0 90.0 90.0 90.0 90.5 91.5 92.0 92.9 94.3 96.3 96.4 93.4 93.5 93.4 93.2 92.7 92.3 92.0 92.3 92.8 93.2 93.6 93.9 94.0 93.9 93.8 93.7 93.7 93.7 94.6 97.3 97.4 97.2 96.9 96.8 97.2 97.6 97.8 98.0 98.3 98.5 98.7 99.0 99.2 99.4 99.6 99.8 100.1 100.6
63.8 62.3 61.7 60.5 60.0 60.0 60.0 60.0 60.0 60.0 60.0 60.6 63.6 69.8 71.5 73.9 79.9 80.0 80.0 80.0 80.0 80.0 80.0 80.0 80.0 80.0 80.0 80.0 80.0 80.0 80.0 80.4 80.8 81.3 81.7 82.1 82.3 82.8 82.7 82.6 82.5 82.3 82.1 81.9 82.0 82.2 82.3 82.2 82.1 81.8 81.7 81.9 82.2 82.5 82.6 82.8 83.0 83.1 83.4 83.4 83.6 83.7 83.6 83.5 83.6 83.9 84.1 84.2 84.2 84.2 87.2 87.5 87.7 88.0 88.3 88.6 88.9 89.2 89.5 89.8 90.0 90.0 90.0 90.0 90.0 90.0 90.0 90.0 90.0 90.1 90.7 91.5 92.6 94.4 97.0 97.5 93.4 93.5 93.5 93.4 93.0 92.8 92.6 92.7 93.2 93.6 94.0 94.3 94.5 94.3 94.3 94.2 94.3 94.4 95.2 97.9 98.1 97.9 97.6 97.4 97.8 97.7 97.9 98.2 98.4 98.7 98.9 99.1 99.4 99.7 99.8 100.1 100.6 101.0
69.5 66.6 65.7 62.5 60.0 60.0 60.0 60.0 60.0 60.0 60.0 60.2 65.7 70.0 69.9 70.5 78.7 80.0 80.0 80.0 80.0 80.0 80.0 80.0 80.0 80.0 80.0 80.0 80.0 80.0 80.0 80.4 80.9 81.4 81.9 82.4 82.6 83.0 83.0 82.9 82.7 82.6 82.4 82.3 82.4 82.5 82.6 82.5 82.4 82.2 82.1 82.3 82.5 82.8 83.0 83.1 83.3 83.4 83.7 83.8 83.9 84.0 83.9 83.9 84.0 84.2 84.5 84.5 84.5 84.6 87.3 87.6 87.8 88.1 88.4 88.7 88.9 89.2 89.5 89.8 90.0 90.0 90.0 90.0 90.0 90.0 90.0 90.0 90.0 90.2 91.7 92.5 93.9 96.1 98.5 99.0 94.1 94.2 94.1 94.0 93.6 93.3 93.2 93.3 93.7 94.1 94.6 94.9 95.1 95.1 95.1 95.2 95.3 95.6 96.2 98.5 98.8 98.6 98.4 98.3 98.6 99.3 99.6 99.9 100.1 100.2 100.1 100.1 100.5 100.6 100.5 100.9 101.5 102.1
70.2 68.1 68.0 65.4 60.2 60.0 60.0 60.0 60.0 60.0 60.0 60.0 60.2 67.4 69.4 69.7 69.7 80.0 80.0 80.0 80.0 80.0 80.0 80.0 80.0 80.0 80.0 80.0 80.0 80.0 80.0 80.4 81.0 81.5 82.1 82.7 82.7 83.1 83.1 83.1 83.0 82.8 82.7 82.6 82.7 82.8 82.9 82.8 82.7 82.5 82.4 82.6 82.8 83.1 83.2 83.4 83.5 83.7 83.9 84.1 84.1 84.2 84.1 84.2 84.3 84.5 84.7 84.8 84.8 84.9 87.3 87.5 87.7 88.0 88.3 88.6 88.9 89.2 89.5 89.8 90.0 90.0 90.0 90.0 90.0 90.0 90.0 90.0 90.0 90.9 93.8 95.5 96.7 98.0 99.5 100.0 99.9 99.6 99.4 99.2 98.6 97.7 96.9 96.7 97.0 97.2 97.4 97.2 96.9 96.8 96.9 97.1 97.2 97.1 97.4 99.2 99.7 99.5 99.1 99.1 99.3 100.0 100.0 100.2 100.6 100.8 100.7 100.4 101.2 101.4 101.3 101.7 102.1 102.6
70.0 69.9 70.0 69.8 62.1 60.0 60.0 60.0 60.0 60.0 60.0 60.0 60.1 64.9 70.0 69.9 70.0 79.6 80.0 80.0 80.0 80.0 80.0 80.0 80.0 80.0 80.0 80.0 80.0 80.0 80.0 80.5 81.1 81.7 82.3 82.9 82.9 83.3 83.3 83.3 83.2 83.0 82.9 82.9 83.0 83.1 83.2 83.1 83.0 82.8 82.7 82.9 83.1 83.4 83.6 83.7 83.8 84.0 84.3 84.4 84.5 84.6 84.6 84.6 84.7 84.9 85.2 85.3 85.3 85.4 87.4 87.7 87.9 88.2 88.4 88.7 88.9 89.2 89.5 89.8 90.0 90.0 90.0 90.0 90.0 90.0 90.0 90.0 90.1 93.2 97.7 97.4 97.9 99.1 100.0 100.0 99.9 99.7 99.4 99.2 99.0 98.3 97.7 97.4 97.6 97.7 97.8 98.0 98.2 98.5 98.8 99.1 99.4 99.6 99.8 99.9 100.1 100.0 99.9 99.7 99.8 100.1 100.4 100.9 101.3 101.5 101.4 100.9 101.9 102.1 102.1 102.4 102.8 103.3
77.1 72.7 71.9 70.1 66.2 60.1 60.7 60.7 60.2 60.0 60.0 60.0 60.0 61.2 66.3 68.9 69.3 78.9 80.0 80.0 80.0 80.0 80.0 80.0 80.0 80.0 80.0 80.0 80.0 80.0 80.0 80.5 81.2 81.9 82.6 83.2 83.1 83.4 83.5 83.5 83.4 83.3 83.2 83.1 83.2 83.4 83.5 83.4 83.3 83.1 83.0 83.2 83.4 83.7 83.8 83.9 84.2 84.3 84.6 84.7 84.7 84.9 84.9 84.9 85.0 85.2 85.5 85.6 85.6 85.8 87.6 87.8 88.0 88.3 88.5 88.8 89.0 89.3 89.5 89.8 90.0 90.0 90.0 90.0 90.0 90.0 90.4 90.6 91.1 94.6 99.2 98.6 98.9 99.9 100.0 100.0 99.8 99.5 99.3 99.0 99.0 98.6 98.1 97.9 97.9 97.7 97.9 98.1 98.3 98.6 98.9 99.2 99.5 99.7 99.8 100.0 100.4 100.5 100.7 100.4 100.5 100.8 101.1 101.7 102.3 102.3 102.0 101.3 102.6 102.9 102.9 103.1 103.4 103.9
78.4 75.7 76.9 69.9 68.1 62.1 62.4 62.0 60.9 60.0 60.0 60.0 60.0 60.8 60.4 67.9 70.6 75.1 80.0 80.0 80.0 80.0 80.0 80.0 80.0 80.0 80.0 80.0 80.0 80.0 80.0 80.6 81.3 82.0 82.8 83.5 83.2 83.5 83.6 83.6 83.5 83.5 83.5 83.4 83.5 83.6 83.7 83.7 83.6 83.4 83.4 83.5 83.7 83.9 84.1 84.2 84.4 84.5 84.7 84.9 85.0 85.0 85.1 85.1 85.2 85.4 85.7 85.8 85.9 86.0 87.5 87.8 88.0 88.3 88.5 88.8 89.0 89.3 89.5 89.8 90.0 90.0 90.0 90.0 90.0 90.0 90.2 91.6 94.1 98.2 100.0 99.8 100.0 100.0 100.0 100.0 99.8 99.4 99.2 98.9 99.0 98.7 98.4 98.0 97.9 97.7 97.9 98.2 98.3 98.5 98.8 99.2 99.5 99.6 99.8 100.0 100.4 100.5 100.8 100.9 101.1 101.4 101.8 102.2 102.8 102.9 102.7 101.7 103.2 103.6 103.6 103.8 104.0 104.4
79.5 80.0 80.2 70.1 68.2 63.7 61.8 61.4 60.3 60.0 60.0 60.0 60.0 60.0 60.5 65.5 68.4 69.1 70.2 76.2 80.0 80.0 80.0 80.0 80.0 80.0 80.0 80.0 80.0 80.0 80.0 80.6 81.4 82.2 83.0 83.8 83.2 83.4 83.5 83.6 83.6 83.6 83.6 83.6 83.7 83.9 83.9 83.9 83.8 83.7 83.7 83.8 84.0 84.2 84.3 84.4 84.6 84.7 84.9 85.0 85.1 85.2 85.2 85.2 85.3 85.5 85.7 85.8 85.8 86.0 87.3 87.6 87.8 88.1 88.4 88.7 88.9 89.2 89.5 89.8 90.0 90.0 90.0 90.0 90.0 90.0 90.0 90.4 93.9 97.6 100.0 100.0 100.0 100.0 100.0 100.0 99.8 99.4 99.1 98.9 98.9 98.7 98.4 98.0 97.9 97.8 98.0 98.2 98.4 98.6 98.8 99.2 99.5 99.7 99.9 100.1 100.5 100.6 100.9 101.4 101.6 102.0 102.3 102.7 103.4 103.4 103.2 102.1 103.8 104.3 104.3 104.4 104.6 105.0
79.8 80.1 77.9 70.2 69.4 64.4 60.8 60.4 60.1 60.0 60.0 60.0 60.0 60.0 60.0 61.3 62.3 66.9 69.0 71.7 79.9 80.0 80.0 80.0 80.0 80.0 80.0 80.0 80.0 80.0 80.0 80.7 81.6 82.4 83.3 84.0 83.2 83.5 83.6 83.7 83.8 83.8 83.8 83.8 83.9 84.1 84.2 84.1 84.1 84.0 83.9 84.0 84.2 84.4 84.5 84.7 84.8 84.9 85.1 85.2 85.2 85.3 85.4 85.4 85.5 85.6 85.8 85.9 86.0 86.1 87.3 87.5 87.7 88.0 88.3 88.6 88.9 89.2 89.5 89.8 90.0 90.0 90.0 90.0 90.0 90.0 90.0 90.0 92.1 95.8 99.6 100.0 100.0 100.0 100.0 100.0 99.7 99.5 99.2 98.9 98.9 98.7 98.3 98.0 97.9 97.9 98.2 98.4 98.5 98.7 98.9 99.2 99.5 99.7 100.0 100.3 100.6 100.7 101.0 101.8 102.1 102.4 102.8 103.2 103.8 103.9 103.7 102.4 104.4 105.0 105.0 105.0 105.1 105.5
80.0 80.0 77.0 70.5 67.6 60.7 60.0 60.0 60.0 60.0 60.0 60.0 60.0 60.2 60.1 60.0 60.0 62.1 66.4 69.8 75.7 80.0 80.0 80.0 80.0 80.0 80.0 80.0 80.0 80.0 80.0 80.8 81.7 82.6 83.4 84.3 83.3 83.4 83.6 83.8 83.8 83.9 84.0 84.0 84.1 84.3 84.3 84.3 84.3 84.2 84.2 84.4 84.5 84.7 84.8 84.8 84.9 85.1 85.3 85.4 85.4 85.5 85.5 85.5 85.6 85.8 85.9 86.0 86.1 86.2 87.3 87.5 87.7 88.0 88.3 88.6 88.9 89.2 89.5 89.8 90.0 90.0 90.0 90.0 90.0 90.0 90.0 90.0 91.7 94.5 98.4 99.8 100.0 100.0 100.0 100.0 100.0 100.0 99.6 99.4 99.3 99.1 98.7 98.4 98.2 98.1 98.3 98.5 98.7 98.8 99.0 99.2 99.6 99.8 100.0 100.4 100.8 100.8 101.1 102.1 102.5 102.8 103.2 103.6 104.3 104.5 104.3 102.8 105.0 105.7 105.8 105.7 105.8 106.1
80.0 79.0 74.5 69.0 64.9 60.0 60.7 64.9 60.0 60.0 60.0 60.0 60.0 60.3 60.5 60.6 60.6 67.1 68.7 69.9 74.1 80.0 80.0 80.0 80.0 80.0 80.0 80.0 80.0 80.0 80.0 80.8 81.8 82.7 83.7 84.6 83.3 83.6 83.8 83.9 83.9 84.0 84.1 84.2 84.4 84.5 84.6 84.6 84.5 84.5 84.5 84.6 84.8 84.9 85.0 85.1 85.2 85.4 85.5 85.6 85.7 85.7 85.7 85.8 85.8 86.0 86.1 86.2 86.3 86.4 87.5 87.7 87.9 88.2 88.4 88.7 89.0 89.2 89.5 89.8 90.0 90.0 90.0 90.0 90.0 90.0 90.5 90.8 93.7 95.4 98.3 99.2 99.8 100.0 100.0 100.0 100.0 100.0 99.9 99.6 99.6 99.3 99.0 98.7 98.5 98.4 98.6 98.8 99.0 99.0 99.1 99.3 99.7 99.9 100.2 100.6 101.0 101.1 101.4 102.5 102.9 103.3 103.7 104.1 105.2 105.3 105.0 103.4 105.7 106.5 106.6 106.4 106.5 106.8
82.1 77.9 74.6 69.9 69.7 62.8 67.8 69.9 64.4 61.2 60.0 60.0 60.0 60.0 60.0 61.6 62.5 68.2 69.7 69.9 72.0 78.0 79.9 80.0 80.0 80.0 80.0 80.0 80.0 80.0 80.0 80.8 81.9 82.9 83.9 84.8 83.3 83.6 83.8 84.0 84.0 84.0 84.1 84.2 84.5 84.6 84.8 84.7 84.7 84.7 84.7 84.8 85.0 85.1 85.2 85.3 85.4 85.6 85.7 85.8 85.8 85.9 86.0 85.9 86.0 86.2 86.3 86.4 86.5 86.6 87.6 87.8 88.0 88.3 88.5 88.8 89.0 89.3 89.5 89.8 90.0 90.0 90.0 90.0 90.0 90.3 91.4 91.8 94.2 95.6 98.1 98.8 99.3 99.9 100.0 100.0 100.0 100.0 100.0 99.8 99.7 99.5 99.1 98.8 98.7 98.6 98.8 99.1 99.5 99.3 99.4 99.6 99.8 100.1 100.6 101.0 101.5 101.7 102.1 103.1 103.5 104.0 104.4 105.1 106.1 106.2 105.8 104.4 106.5 107.3 107.5 107.3 107.3 107.7
83.0 80.6 77.3 71.6 70.0 69.9 72.3 69.9 61.5 60.6 60.0 60.0 60.0 60.0 60.6 62.2 64.5 69.9 69.8 69.9 70.1 70.1 76.6 79.9 80.0 80.0 80.0 80.0 80.0 80.0 80.0 80.9 82.0 83.1 84.2 85.1 83.3 83.6 83.9 84.1 84.1 84.1 84.3 84.4 84.7 84.8 84.9 84.9 84.9 84.9 84.9 85.1 85.2 85.3 85.4 85.5 85.6 85.7 85.9 86.0 86.0 86.1 86.0 86.0 86.2 86.2 86.4 86.5 86.5 86.6 87.5 87.7 87.9 88.2 88.4 88.7 89.0 89.2 89.5 89.8 90.0 90.0 90.0 90.0 90.0 90.0 91.1 92.1 93.4 94.9 97.5 98.2 98.7 99.4 99.9 100.0 100.0 100.0 100.0 100.0 99.9 99.7 99.4 99.0 99.0 99.0 99.2 99.6 100.0 99.8 99.7 99.8 100.0 100.5 100.9 101.4 101.8 102.0 102.4 103.5 104.0 104.5 105.1 105.8 106.9 106.9 106.5 105.0 107.2 108.1 108.2 107.9 107.9 108.2
79.7 78.5 78.5 72.3 70.0 69.7 79.9 70.4 60.3 60.0 60.0 60.0 60.0 60.0 60.3 60.8 62.0 69.1 70.0 69.6 70.0 70.5 78.7 80.0 80.0 80.0 80.0 80.0 80.0 80.0 80.0 80.9 82.0 83.2 84.3 85.4 83.5 84.0 84.2 84.4 84.4 84.4 84.6 84.7 85.0 85.2 85.2 85.2 85.2 85.2 85.2 85.3 85.5 85.6 85.7 85.7 85.9 86.0 86.1 86.2 86.2 86.3 86.3 86.2 86.3 86.4 86.5 86.6 86.6 86.7 87.5 87.7 87.9 88.2 88.4 88.7 89.0 89.2 89.5 89.8 90.0 90.0 90.0 90.0 90.0 90.0 91.0 92.2 93.4 94.9 97.2 97.8 98.3 98.9 99.6 100.0 100.0 100.0 100.0 100.0 99.9 99.9 99.6 99.4 99.3 99.4 99.6 100.0 100.5 100.4 100.3 100.4 100.4 101.4 102.5 103.4 103.6 104.4 104.7 105.0 105.4 105.8 106.2 106.7 107.8 107.7 107.3 106.2 108.0 108.9 109.0 108.6 108.5 108.8
79.8 79.7 79.8 72.9 69.9 69.9 74.8 70.0 60.6 60.3 60.2 60.0 60.0 60.0 60.0 60.0 60.0 68.6 69.0 69.0 69.4 73.4 80.2 80.0 80.0 80.0 80.0 80.0 80.0 80.0 80.0 81.0 82.2 83.4 84.6 85.7 83.9 84.4 84.6 84.8 84.7 84.8 84.9 85.1 85.3 85.5 85.6 85.5 85.6 85.5 85.5 85.6 85.8 85.9 86.0 86.0 86.1 86.3 86.4 86.5 86.4 86.5 86.5 86.5 86.5 86.6 86.7 86.8 86.9 86.9 87.7 87.9 88.1 88.3 88.6 88.8 89.1 89.3 89.5 89.8 90.0 90.0 90.0 90.0 90.1 91.0 92.1 93.0 94.4 95.8 97.3 97.7 98.1 98.7 99.3 100.0 100.0 100.0 100.0 100.0 100.0 99.7 99.4 99.4 99.6 99.8 100.1 100.5 101.0 101.0 100.9 101.0 101.1 102.0 102.9 103.5 103.7 104.1 104.4 105.4 105.8 106.3 106.8 107.3 108.5 108.4 108.0 107.0 108.8 109.7 109.9 109.3 109.0 109.3
79.8 79.9 80.0 76.0 70.1 70.0 69.9 69.7 65.5 63.0 60.0 60.0 60.2 60.0 60.0 60.0 61.2 68.2 67.6 68.5 69.6 70.4 76.4 78.2 79.4 80.0 80.0 80.0 80.0 80.0 80.0 81.0 82.3 83.5 84.8 85.9 83.8 83.9 84.3 84.5 84.6 84.7 84.9 85.1 85.4 85.6 85.7 85.7 85.7 85.7 85.7 85.9 86.0 86.1 86.2 86.2 86.3 86.5 86.6 86.7 86.7 86.7 86.7 86.7 86.7 86.9 87.0 87.1 87.2 87.3 88.0 88.2 88.4 88.6 88.8 89.0 89.2 89.4 89.6 89.8 90.0 90.2 90.9 90.6 91.7 92.6 94.1 94.4 96.1 97.1 98.3 98.4 98.5 98.8 99.2 99.8 100.0 100.0 100.0 100.0 100.0 99.7 99.6 99.8 99.9 100.1 100.6 101.1 101.6 101.6 101.5 101.6 101.8 102.6 103.5 104.3 104.6 105.2 105.6 106.1 106.6 107.0 107.5 108.1 109.2 109.1 108.9 109.3 109.7 110.4 110.7 110.1 109.7 109.9
79.9 79.9 80.0 75.2 70.0 70.3 70.0 70.3 69.0 67.3 62.5 62.4 61.7 60.0 60.0 60.0 60.0 60.0 60.1 61.6 65.3 69.4 70.3 69.9 72.6 79.7 80.0 80.0 80.0 80.0 80.0 81.1 82.4 83.7 85.0 86.2 83.8 84.3 84.7 84.9 85.0 85.1 85.3 85.5 85.8 86.0 86.1 86.0 86.1 86.1 86.0 86.2 86.3 86.4 86.4 86.5 86.6 86.7 86.9 87.0 87.0 87.0 87.0 87.0 87.0 87.2 87.3 87.4 87.5 87.6 88.3 88.5 88.6 88.8 89.0 89.2 89.4 89.6 89.8 90.0 90.1 91.2 92.0 92.4 93.3 93.8 95.1 95.2 97.0 97.8 98.8 98.9 98.9 99.1 99.4 99.8 100.2 100.5 100.8 101.1 101.4 101.7 102.0 102.3 102.7 100.7 101.4 101.9 102.4 102.3 102.2 102.3 102.4 103.3 104.4 105.4 105.7 106.8 107.2 107.0 107.4 107.9 108.3 109.0 110.0 109.8 109.6 109.7 110.0 110.8 111.6 111.6 111.1 113.1
80.8 80.1 79.5 75.1 70.0 70.7 70.0 70.9 79.1 69.2 69.1 68.8 66.1 62.5 60.8 60.0 60.0 60.0 60.0 61.3 64.1 69.3 69.1 70.0 74.5 80.0 80.0 80.0 80.0 80.0 80.0 80.3 80.7 81.1 81.4 81.7 82.1 82.3 82.5 82.7 82.9 83.1 83.2 83.4 83.6 83.8 84.0 84.2 84.4 84.6 84.8 85.0 85.1 85.3 85.5 85.7 85.9 86.1 86.3 86.5 86.7 86.9 87.1 87.3 87.5 87.6 87.8 88.0 88.2 88.4 88.6 88.8 89.0 89.2 89.4 89.6 89.8 90.0 90.1 90.2 90.4 91.8 92.8 94.0 94.7 95.1 96.1 96.0 97.6 97.6 99.2 99.2 99.3 99.4 99.6 100.1 100.4 100.8 101.2 101.5 101.9 102.2 102.6 102.9 103.3 101.4 102.1 102.5 103.1 103.0 102.9 103.0 103.3 104.3 105.5 106.4 106.8 107.8 108.1 108.0 108.4 108.8 109.3 109.9 110.3 110.2 110.2 112.1 110.1 113.5 113.9 113.5 113.6 117.0
81.9 80.9 80.0 78.6 72.7 74.1 70.2 72.1 79.1 72.8 80.0 68.2 66.0 63.4 60.3 60.2 60.1 60.0 60.0 60.4 63.0 68.1 68.1 69.6 75.9 79.1 79.3 80.0 80.0 80.0 80.0 80.3 80.6 80.9 81.1 81.4 81.8 82.0 82.2 82.4 82.6 82.8 83.0 83.2 83.4 83.6 83.8 84.0 84.2 84.4 84.6 84.8 85.0 85.2 85.4 85.6 85.8 86.0 86.2 86.4 86.6 86.8 87.0 87.2 87.4 87.6 87.8 88.0 88.2 88.4 88.6 88.8 89.0 89.2 89.4 89.6 89.8 90.1 90.4 90.6 90.7 92.2 93.1 95.7 96.4 96.5 97.0 96.8 98.4 97.6 99.5 99.6 99.6 99.6 99.9 100.3 100.7 101.0 101.4 101.7 102.1 102.4 102.8 103.1 103.5 102.1 102.7 103.1 103.6 103.5 103.6 103.8 104.0 105.0 106.0 106.7 107.1 108.0 108.3 108.3 108.7 109.1 109.6 110.3 110.9 110.9 110.8 113.0 111.1 115.6 116.9 118.0 119.5 120.0
83.1 82.0 80.8 79.7 77.6 78.6 70.6 72.3 77.8 80.2 79.2 70.7 68.8 69.0 69.8 64.3 62.2 60.1 60.0 60.0 62.1 66.3 67.5 69.7 70.0 74.8 77.0 79.7 79.9 80.0 80.0 80.2 80.5 80.8 81.0 81.3 81.6 81.8 82.0 82.2 82.4 82.6 82.9 83.1 83.3 83.5 83.7 83.9 84.1 84.3 84.5 84.8 85.0 85.2 85.4 85.6 85.8 86.0 86.2 86.4 86.7 86.9 87.1 87.3 87.5 87.7 87.9 88.1 88.3 88.6 88.8 89.0 89.2 89.4 89.6 89.8 90.1 90.4 90.3 90.4 90.9 92.6 93.6 97.7 98.1 97.9 97.8 97.6 99.1 97.6 99.8 99.9 99.9 99.9 100.3 100.6 101.0 101.3 101.7 102.0 102.4 102.7 103.1 103.4 103.8 102.7 103.3 103.8 104.2 104.2 104.3 104.5 104.8 105.7 106.5 107.1 107.5 108.4 108.7 108.8 109.2 109.7 110.1 110.8 111.3 111.2 111.1 112.6 111.9 116.3 117.0 117.9 119.3 120.0
83.5 82.8 82.1 81.4 80.7 80.0 79.5 78.9 79.9 80.1 74.4 69.4 70.6 70.8 69.0 67.5 63.8 60.6 60.0 60.0 61.7 65.3 67.5 69.3 70.0 72.1 74.7 79.2 79.4 79.7 79.8 80.0 80.2 80.5 80.7 80.9 81.2 81.4 81.6 81.9 82.1 82.3 82.5 82.8 83.0 83.2 83.4 83.6 83.9 84.1 84.3 84.5 84.8 85.0 85.2 85.4 85.7 85.9 86.1 86.3 86.5 86.8 87.0 87.2 87.4 87.7 87.9 88.1 88.3 88.5 88.8 89.0 89.2 89.4 89.6 89.9 90.3 90.7 90.0 90.2 91.1 94.2 95.7 99.4 99.7 99.3 98.9 99.0 99.9 100.2 100.6 100.9 101.2 101.5 101.8 102.1 102.4 102.7 103.0 103.4 103.7 104.0 104.3 104.6 104.9 103.4 104.0 104.5 105.0 105.1 105.3 105.5 105.9 106.6 107.2 107.7 108.2 108.9 109.2 109.3 109.8 110.1 110.5 111.1 111.6 111.6 111.3 112.8 113.0 117.0 117.8 118.3 119.4 120.0
83.5 82.8 82.1 81.5 80.8 80.1 80.0 79.3 80.0 80.0 74.3 77.3 79.9 75.8 70.5 80.3 68.4 62.0 60.0 60.0 61.4 65.7 68.4 69.2 70.0 69.8 71.9 76.3 79.0 80.0 80.0 80.2 80.5 80.7 81.0 81.3 81.6 81.8 82.0 82.2 82.4 82.6 82.8 83.0 83.2 83.4 83.6 83.8 84.0 84.3 84.5 84.7 84.9 85.1 85.3 85.5 85.7 86.0 86.2 86.4 86.6 86.8 87.0 87.2 87.4 87.6 87.9 88.1 88.3 88.5 88.7 88.9 89.1 89.3 89.6 89.8 90.0 90.0 90.0 90.0 92.1 95.4 98.8 100.0 100.0 100.0 99.9 99.7 100.0 100.4 100.7 101.0 101.4 101.7 102.0 102.3 102.6 103.0 103.3 103.6 103.9 104.2 104.5 104.8 105.1 104.1 104.7 105.1 105.6 105.7 105.9 106.2 106.5 107.1 107.7 108.2 108.6 109.2 109.5 109.8 110.2 110.5 110.8 111.1 111.5 111.9 112.1 113.5 114.8 118.1 118.7 119.4 120.0 120.0
83.6 82.9 82.3 81.7 81.0 80.3 79.9 79.8 80.0 80.0 79.9 79.7 80.0 79.5 80.1 73.9 67.6 65.3 60.0 60.0 61.1 67.2 69.9 69.9 69.9 70.0 74.2 78.0 79.1 79.8 80.0 80.2 80.4 80.6 80.8 81.1 81.4 81.6 81.8 82.0 82.2 82.4 82.6 82.8 83.1 83.3 83.5 83.7 83.9 84.1 84.3 84.6 84.8 85.0 85.2 85.4 85.6 85.8 86.0 86.2 86.4 86.6 86.8 87.0 87.2 87.4 87.6 87.9 88.1 88.3 88.5 88.7 88.9 89.2 89.5 89.8 90.0 90.0 90.0 90.0 90.8 94.4 98.2 100.0 100.0 100.0 100.0 100.0 100.0 101.6 101.9 102.1 102.4 102.7 103.0 103.2 103.5 103.8 104.1 104.4 104.6 104.9 105.2 105.5 105.8 104.8 105.3 105.7 106.0 106.2 106.3 106.6 106.9 107.3 107.9 108.4 108.9 109.4 109.7 110.0 110.0 110.0 110.3 110.7 111.2 112.1 113.7 115.5 117.5 119.3 120.0 120.0 120.0 120.0
83.5 82.9 82.3 81.6 81.0 80.2 79.9 80.0 80.0 80.0 80.0 80.0 80.0 80.0 80.0 71.0 80.2 68.1 60.0 60.0 63.8 69.9 70.2 70.3 70.6 75.7 79.6 80.0 80.0 80.0 80.0 80.2 80.4 80.6 80.8 81.0 81.2 81.4 81.6 81.8 82.0 82.2 82.4 82.6 82.8 83.0 83.2 83.4 83.6 83.8 84.0 84.2 84.4 84.6 84.8 85.0 85.2 85.4 85.6 85.8 86.0 86.2 86.4 86.6 86.8 87.0 87.2 87.4 87.6 87.8 88.0 88.1 88.5 88.9 89.3 89.7 90.0 90.0 90.0 90.0 90.0 90.8 92.1 93.3 94.5 99.9 99.9 99.5 99.6 100.1 100.4 100.7 101.0 101.3 101.6 101.9 102.2 102.5 102.8 103.1 103.3 103.6 103.9 104.2 104.5 105.1 105.6 105.9 106.2 106.2 106.3 106.4 106.5 106.8 107.2 107.6 107.8 108.5 108.8 109.1 109.4 109.9 110.0 110.6 111.3 112.0 113.6 116.3 118.6 120.0 120.0 120.0 120.0 120.1
85.8 85.4 85.0 84.6 84.2 80.9 80.0 80.1 80.1 80.4 80.1 80.1 80.4 80.2 80.0 78.6 70.0 67.2 60.0 60.0 67.9 70.0 70.0 70.9 70.3 76.4 78.9 80.0 80.0 80.0 80.0 80.2 80.5 80.8 81.0 81.3 81.6 81.8 81.9 82.1 82.3 82.5 82.7 82.9 83.1 83.3 83.4 83.6 83.8 84.0 84.2 84.4 84.6 84.7 84.9 85.1 85.3 85.5 85.7 85.9 86.1 86.2 86.4 86.6 86.8 87.0 87.2 87.4 87.6 87.7 87.9 88.1 88.5 88.9 89.3 89.7 90.0 90.0 90.0 90.0 90.0 90.2 91.6 93.1 94.6 98.9 98.9 99.1 100.1 100.4 100.7 100.9 101.2 101.5 101.8 102.1 102.4 102.6 102.9 103.2 103.4 103.7 104.0 104.3 104.6 105.7 106.1 106.5 106.7 106.8 106.8 106.8 106.8 107.1 107.4 107.7 107.8 108.3 108.6 108.8 109.1 109.7 109.8 110.0 110.7 111.3 111.8 114.0 117.0 119.1 119.7 119.8 119.9 120.0
85.6 85.2 84.8 84.3 83.9 81.2 80.1 80.4 80.3 80.4 80.0 80.1 80.3 80.1 79.9 80.0 71.5 67.8 60.0 60.0 66.8 68.6 69.7 69.9 69.8 72.3 76.7 80.0 80.0 80.0 80.0 80.3 80.6 80.9 81.1 81.4 81.7 81.9 82.1 82.3 82.5 82.7 82.9 83.1 83.3 83.5 83.7 83.9 84.1 84.3 84.5 84.7 84.9 85.1 85.3 85.5 85.7 85.9 86.1 86.2 86.4 86.6 86.8 87.0 87.2 87.4 87.6 87.8 88.0 88.2 88.4 88.6 88.9 89.2 89.5 89.8 90.0 90.0 90.1 91.1 92.2 93.2 94.2 95.2 96.2 98.6 98.8 99.4 100.1 100.4 100.7 100.9 101.2 101.5 101.8 102.0 102.3 102.6 102.8 103.1 103.3 103.6 103.9 104.2 104.4 106.3 106.7 107.1 107.3 107.3 107.3 107.4 107.4 107.6 107.8 108.0 107.9 108.0 108.3 108.6 108.8 109.6 109.7 109.8 110.0 110.4 110.7 110.9 112.3 115.4 116.6 117.6 118.7 119.8
84.9 84.4 83.9 83.4 82.9 81.2 80.5 80.8 80.4 80.2 79.9 79.7 80.0 79.6 77.6 77.0 70.1 70.1 59.6 59.8 65.7 69.6 70.0 70.4 69.9 72.4 75.4 78.8 80.0 80.0 80.0 80.3 80.6 81.0 81.3 81.6 81.9 82.2 82.4 82.6 82.9 83.1 83.3 83.5 83.8 84.0 84.2 84.5 84.8 85.0 85.2 85.5 85.7 85.9 86.2 86.4 86.6 86.8 87.1 87.3 87.5 87.7 87.9 88.1 88.3 88.6 88.8 89.0 89.2 89.4 89.6 89.8 90.1 90.1 90.1 90.2 90.2 90.7 91.5 92.4 93.3 94.2 95.1 96.0 96.9 98.4 98.9 99.6 100.1 100.4 100.6 100.9 101.2 101.4 101.7 102.0 102.2 102.5 102.8 103.0 103.2 103.5 103.8 104.0 104.3 106.9 107.3 107.7 107.9 108.0 108.0 108.0 108.0 108.2 108.3 108.4 108.2 107.9 108.0 108.3 108.6 109.4 109.5 109.7 109.6 109.9 110.2 110.3 111.3 113.1 113.9 114.8 115.6 116.4
84.8 84.3 83.8 83.3 82.9 80.8 80.7 80.6 80.1 80.0 80.0 79.1 79.9 79.6 76.2 74.1 70.2 68.0 59.6 61.0 66.1 70.0 70.6 72.6 70.0 70.9 75.3 78.1 79.9 80.0 80.7 82.1 82.7 83.3 83.9 84.5 85.2 85.8 86.4 87.0 87.6 88.3 88.9 89.5 90.0 90.0 90.0 90.0 90.0 90.1 90.1 90.1 90.1 90.1 90.1 90.1 90.1 90.1 90.1 90.2 90.2 90.2 90.2 90.2 90.2 90.2 90.7 91.2 91.6 92.1 92.5 92.9 93.3 93.7 94.2 94.6 95.1 95.6 96.0 96.4 96.8 97.3 97.7 98.1 98.6 99.3 99.6 99.9 100.2 100.5 100.7 101.0 101.2 101.5 101.7 102.0 102.3 102.5 102.8 103.0 103.2 103.5 103.7 104.0 104.2 107.6 108.0 108.3 108.5 108.6 108.6 108.6 108.6 108.8 108.9 108.9 108.6 107.9 107.9 108.1 108.3 109.6 109.5 109.6 109.5 109.6 109.9 110.1 110.7 111.9 112.6 113.3 114.1 114.8
84.1 83.6 83.0 82.5 81.9 80.7 80.5 80.2 79.9 79.7 77.5 75.6 77.5 79.3 73.9 73.0 70.5 70.0 59.5 61.4 66.6 72.1 78.5 80.3 70.8 70.0 73.3 76.2 79.1 80.0 80.7 82.1 83.2 84.3 85.4 86.5 87.6 88.7 89.8 90.0 90.0 90.0 90.0 90.1 90.3 90.5 90.8 91.0 91.2 91.5 91.7 91.9 92.1 92.4 92.6 92.8 93.0 93.3 93.5 93.7 93.9 94.2 94.4 94.6 94.9 95.1 95.3 95.5 95.8 96.0 96.2 96.4 96.7 96.9 97.1 97.4 97.6 97.8 98.0 98.3 98.5 98.7 98.9 99.2 99.4 99.7 99.8 100.1 100.3 100.6 100.8 101.1 101.3 101.6 101.8 102.1 102.3 102.6 102.8 103.1 103.3 103.5 103.7 104.0 104.2 108.3 108.6 108.9 109.1 109.2 109.2 109.2 109.2 109.3 109.3 109.3 109.1 107.9 107.9 108.0 108.2 109.7 109.7 109.7 109.5 109.5 109.7 109.9 110.5 111.5 112.3 113.1 113.9 114.7
84.0 83.5 83.0 82.4 81.9 80.4 80.2 80.1 79.6 79.7 77.4 73.3 70.9 74.3 72.6 71.8 70.1 68.2 59.5 61.6 67.6 70.0 70.6 71.1 70.0 70.5 73.8 77.1 80.0 80.6 80.2 83.7 84.9 86.1 87.3 88.5 89.7 90.1 90.3 90.5 90.7 90.9 91.1 91.3 91.5 91.7 91.9 92.1 92.3 92.5 92.7 92.9 93.1 93.3 93.5 93.7 93.9 94.1 94.3 94.5 94.7 94.9 95.1 95.3 95.5 95.7 96.0 96.2 96.4 96.6 96.8 97.0 97.2 97.4 97.6 97.8 98.0 98.2 98.4 98.6 98.8 99.0 99.2 99.4 99.6 99.8 100.0 100.3 100.5 100.7 101.0 101.2 101.5 101.7 101.9 102.2 102.4 102.7 102.9 103.1 103.4 103.6 103.9 104.1 104.4 108.9 109.2 109.5 109.7 109.8 109.8 109.8 109.8 110.0 109.8 109.7 109.5 107.9 107.9 108.0 108.1 109.9 109.9 109.8 109.5 109.5 109.6 109.8 110.2 111.1 111.9 112.7 113.6 114.4
83.5 83.0 82.4 81.8 81.3 80.1 80.0 79.9 80.0 79.4 75.9 71.0 70.0 70.0 70.5 69.6 65.3 61.3 59.4 62.5 69.8 70.0 72.4 70.0 70.0 70.2 73.4 76.0 79.1 80.0 80.0 81.8 83.9 86.1 88.1 90.0 90.2 90.4 90.6 90.8 91.0 91.2 91.4 91.6 91.8 92.0 92.2 92.4 92.6 92.8 93.0 93.2 93.4 93.6 93.8 94.0 94.2 94.4 94.6 94.8 95.0 95.2 95.4 95.6 95.8 96.0 96.2 96.4 96.6 96.8 97.0 97.2 97.4 97.6 97.8 98.0 98.2 98.4 98.6 98.8 99.0 99.2 99.4 99.6 99.8 100.0 100.4 100.9 101.4 101.9 102.4 102.8 103.3 103.8 104.3 104.7 105.2 105.7 106.2 106.6 107.1 107.5 108.0 108.5 109.0 109.5 109.9 110.0 110.0 110.0 110.0 110.0 110.0 110.0 110.0 110.0 109.9 110.0 110.0 110.0 110.0 110.0 110.0 110.0 110.0 110.0 110.0 110.0 110.0 110.7 111.5 112.3 113.2 114.0
