ncols         134
nrows         134
xllcorner     190000.188
yllcorner     1180025.188
cellsize          74.62406015037593900
NODATA_value  -9999
613.3 578.2 550.3 525.3 503.1 475.1 444.1 425.8 419.4 411.8 391.1 360.0 336.6 323.0 313.7 300.9 285.5 274.2 262.4 253.8 245.6 238.1 231.5 229.1 231.1 238.8 249.0 251.0 246.6 232.6 219.2 203.7 173.1 150.9 157.1 172.1 182.5 183.0 172.5 162.2 158.2 177.7 190.1 190.5 180.0 159.4 145.1 123.9 113.7 147.4 169.5 169.3 154.1 143.8 127.5 106.8 92.1 78.5 67.3 59.3 53.6 48.5 44.4 40.0 40.0 40.0 40.0 40.3 44.2 48.9 54.7 59.9 68.3 65.3 70.2 80.6 65.6 42.0 18.5 6.1 -6.8 -17.9 -20.0 -7.1 4.4 12.2 8.5 -2.3 -26.1 -49.1 -42.2 -32.9 -18.0 -3.9 10.9 28.1 38.7 50.7 70.6 91.5 91.1 83.3 74.5 66.9 62.0 55.1 40.5 20.8 15.4 14.5 10.6 5.0 10.0 12.1 20.0 19.5 26.9 37.8 42.5 47.9 41.0 35.3 36.7 29.9 13.8 0.1 5.3 13.4 21.1 20.0 7.1 -15.0 -40.5 -37.1
600.2 600.6 576.1 543.0 520.4 489.5 458.6 440.9 434.1 419.4 401.9 374.5 351.0 335.9 327.6 318.5 294.3 278.3 268.4 259.3 250.3 235.1 226.1 219.0 216.7 229.4 241.4 243.1 237.9 221.9 208.9 180.4 157.4 155.9 182.2 199.0 206.3 205.5 192.7 172.5 164.3 182.4 190.0 190.0 179.3 161.9 147.9 127.4 120.3 150.6 173.9 181.1 168.6 153.5 136.9 109.3 98.1 82.1 71.8 62.6 55.9 49.8 45.2 40.0 40.0 40.0 38.8 38.8 39.5 50.7 59.7 66.1 71.6 75.1 87.5 91.1 63.4 40.5 20.6 5.9 -9.0 -17.3 -26.9 -17.7 -8.9 -6.9 -6.3 -19.5 -39.2 -48.6 -33.6 -18.1 -2.1 10.6 25.6 37.9 47.3 58.6 78.7 97.2 102.2 101.3 94.8 87.1 81.0 70.5 55.8 36.3 33.1 26.2 17.2 9.6 10.0 14.5 21.5 24.1 21.3 36.9 50.3 55.8 56.2 51.8 44.4 30.7 9.9 12.9 22.5 26.5 28.7 19.8 3.4 -10.2 -31.5 -23.2
557.8 580.3 580.8 561.2 534.0 503.3 473.8 453.1 445.7 433.9 417.4 394.3 373.3 361.3 346.5 330.1 310.1 288.4 269.3 260.1 250.9 236.1 227.1 215.8 207.0 214.0 236.0 240.1 226.5 210.9 186.3 163.8 161.8 175.9 200.0 219.1 227.5 226.2 212.2 191.6 178.7 187.0 190.0 187.9 172.1 156.7 140.9 125.6 119.9 146.0 170.1 175.7 165.4 155.9 142.6 119.9 108.2 89.1 77.4 66.1 57.5 50.8 46.8 40.2 40.0 40.0 38.7 39.1 40.0 57.6 69.8 77.3 74.0 77.8 88.3 90.1 58.1 44.2 24.3 7.5 -5.7 -15.1 -25.4 -30.6 -20.9 -22.6 -24.7 -31.4 -50.6 -40.3 -29.3 -5.3 8.5 18.1 25.0 27.1 35.8 43.9 67.3 90.1 107.9 110.9 108.3 106.3 97.9 86.9 72.9 59.3 51.1 38.9 25.6 12.1 9.6 22.5 31.9 42.2 38.6 39.9 54.9 61.2 64.1 60.0 47.2 27.2 10.7 26.2 35.3 37.2 30.6 11.0 -10.6 -20.5 -28.2 -4.1
520.5 534.0 530.9 530.5 527.4 508.6 483.3 466.3 450.7 437.9 423.9 403.6 388.5 380.7 366.9 342.6 318.3 294.1 266.1 252.9 243.3 231.6 222.8 214.5 201.8 199.5 212.2 222.0 212.2 193.3 169.2 170.7 183.7 197.4 215.2 234.0 240.6 240.4 233.4 205.6 189.2 187.0 187.0 175.9 159.5 145.4 135.4 124.7 120.3 142.2 162.5 158.4 139.9 136.9 139.2 125.2 112.7 99.2 83.7 70.3 63.5 57.4 49.3 42.9 40.0 40.0 38.7 38.8 40.0 55.6 70.2 80.6 73.9 65.2 62.7 72.6 65.8 50.6 33.4 14.4 -4.2 -21.4 -32.8 -39.3 -34.2 -36.1 -41.1 -47.8 -48.1 -42.2 -31.6 -7.0 12.2 21.1 17.1 11.7 19.2 33.0 56.4 79.4 95.5 103.0 106.4 111.8 108.3 95.0 83.8 71.2 59.1 48.9 34.4 18.1 9.5 24.7 39.9 51.3 49.4 45.1 52.8 66.1 70.4 61.2 42.8 27.8 21.1 37.2 49.7 44.8 26.5 3.5 -20.7 -11.5 -0.4 8.9
490.4 502.5 495.0 492.8 492.9 488.0 472.0 459.9 449.0 434.4 420.6 398.3 379.2 371.9 365.8 344.0 316.8 287.9 257.1 243.3 236.7 226.9 214.1 205.5 197.1 190.3 191.8 202.2 194.0 178.8 175.7 190.3 206.9 220.2 234.4 243.2 248.3 251.7 243.5 223.3 200.2 188.2 176.1 163.3 151.4 145.5 139.4 128.3 124.6 145.9 157.0 149.3 129.9 113.8 119.3 120.0 107.8 97.1 83.6 75.3 71.3 63.1 57.2 50.0 40.0 40.0 38.2 35.3 39.9 52.3 64.1 74.0 68.4 46.9 35.3 47.0 67.5 64.4 40.6 17.1 -2.7 -27.0 -40.0 -38.3 -40.4 -40.1 -35.5 -33.0 -36.0 -39.8 -35.8 -7.6 17.7 21.1 0.1 5.4 16.3 29.1 43.5 59.5 69.8 68.7 82.7 99.7 104.4 97.7 87.5 72.1 59.0 51.1 38.9 27.5 9.4 24.4 42.6 51.2 51.5 54.9 62.0 69.3 70.3 64.2 48.8 31.9 31.0 48.4 51.5 42.1 23.6 -7.3 -6.5 14.0 19.7 20.0
465.6 467.6 445.3 446.8 458.2 452.4 443.0 438.1 433.0 422.4 409.1 382.3 361.8 348.6 340.9 322.2 296.2 271.0 259.7 256.2 252.6 239.0 223.5 212.3 200.6 194.6 187.4 180.0 178.9 187.0 195.8 207.5 223.5 238.9 248.3 253.6 259.8 262.5 251.5 228.8 202.5 183.4 166.4 158.4 151.2 152.1 149.6 133.6 131.2 150.0 151.3 145.9 128.5 109.4 96.0 95.9 88.4 80.0 71.9 68.5 60.0 59.6 51.2 49.0 40.0 40.0 36.7 30.1 39.8 50.4 61.3 69.5 66.6 46.3 28.7 32.9 51.6 61.3 45.4 22.4 2.5 -22.7 -31.3 -20.4 -20.7 -16.0 -8.0 -4.9 -10.0 -21.2 -30.8 -12.5 13.3 8.9 -5.3 -0.5 8.4 16.2 29.8 38.7 45.0 58.9 83.3 100.0 101.2 98.7 89.9 74.6 55.6 46.2 37.3 28.2 16.4 25.5 38.9 48.0 51.9 62.0 70.1 70.0 70.6 69.1 54.4 37.8 45.9 50.0 49.5 33.4 14.6 -11.4 7.4 29.7 24.0 1.6
451.5 432.7 412.3 417.5 428.6 423.7 413.3 414.3 414.5 408.6 397.5 379.8 362.0 340.7 330.9 311.7 296.8 284.5 280.8 280.5 270.9 256.7 238.4 216.3 208.6 205.0 191.4 191.7 201.3 214.9 222.7 228.4 239.2 253.2 261.9 264.0 271.4 269.8 254.4 225.6 197.2 175.2 167.6 167.9 163.6 165.0 157.9 140.2 138.9 151.2 149.1 140.4 124.7 106.5 89.2 91.1 89.5 82.7 78.6 70.7 63.3 59.9 56.1 49.2 40.8 36.8 32.5 29.6 34.1 48.1 59.8 62.4 60.3 48.3 26.3 20.3 32.4 43.3 39.9 21.5 2.5 -15.9 -30.6 -18.5 -8.8 4.2 14.3 12.5 7.8 -3.0 -26.8 -29.7 -11.9 -12.5 -19.7 -10.5 -0.6 7.8 16.0 30.0 46.6 71.2 94.3 101.2 101.3 100.0 92.8 81.2 63.2 48.1 34.8 26.0 19.7 20.8 30.7 36.0 43.6 53.1 62.4 69.2 70.6 69.2 54.6 50.8 56.4 49.7 34.2 17.0 -1.5 9.3 25.7 38.8 18.5 0.9
430.9 409.5 386.6 381.6 395.8 397.9 388.8 388.5 385.1 383.1 381.1 374.7 363.6 349.5 338.4 326.1 311.8 306.5 303.8 294.2 275.4 257.9 240.8 225.8 221.6 215.2 198.2 202.3 224.1 238.8 247.8 252.2 256.5 268.6 269.9 269.7 279.1 277.1 256.0 225.6 202.4 183.1 183.4 184.4 178.0 173.0 162.4 143.4 141.2 152.8 148.3 135.7 118.3 99.8 108.0 113.1 110.9 105.2 97.7 90.0 80.1 68.3 60.6 52.3 42.4 36.2 30.5 29.3 32.1 45.4 52.3 59.9 57.8 47.2 30.7 9.6 12.5 24.1 28.6 16.3 4.2 -8.2 -29.0 -23.8 -6.9 13.1 25.8 29.7 26.7 16.6 1.2 -15.0 -21.1 -21.5 -19.8 5.2 18.4 21.4 30.6 44.5 62.3 86.4 107.5 109.1 102.3 98.3 91.4 79.9 64.1 52.9 39.9 27.7 19.3 21.3 29.0 28.8 34.8 41.6 49.7 62.2 71.5 69.4 67.3 67.5 60.7 53.0 33.5 9.2 0.2 24.5 39.6 39.9 24.0 18.9
399.7 390.0 366.9 346.0 352.6 365.4 364.8 358.0 354.6 353.6 357.7 362.9 360.4 353.6 344.5 337.1 331.3 332.7 321.5 296.5 273.8 259.0 247.9 240.1 230.3 221.1 202.6 209.1 234.6 255.5 269.6 276.1 279.0 270.7 267.2 270.7 279.3 276.4 258.4 240.6 222.7 203.6 199.5 195.2 185.7 178.5 165.0 144.3 146.0 160.6 155.8 139.7 122.9 114.4 125.6 129.5 125.8 119.2 113.0 102.6 88.2 71.4 55.8 48.6 39.3 34.0 30.0 29.8 33.1 44.7 50.5 55.0 50.6 44.4 28.2 8.0 0.2 10.8 14.4 8.8 -1.3 -10.5 -21.6 -30.6 -14.7 4.3 21.7 30.8 39.7 33.5 23.5 14.6 10.1 -3.0 -20.7 -0.7 14.1 19.2 26.5 43.1 71.2 99.7 110.1 108.9 92.8 91.5 89.1 75.2 61.5 51.8 40.5 29.8 27.1 29.3 36.7 41.7 40.8 50.1 61.5 72.4 80.3 82.9 80.8 73.3 68.6 57.4 33.6 8.9 10.6 30.1 41.6 39.5 34.2 41.5
377.8 373.5 355.6 326.0 318.9 333.3 343.3 340.5 336.1 340.9 346.0 351.7 356.7 350.0 348.8 346.2 341.6 340.7 331.2 308.2 289.4 270.3 263.8 257.7 246.3 226.9 208.4 209.8 233.0 256.3 278.4 280.8 277.4 262.1 257.6 268.9 270.7 262.0 247.8 236.7 228.8 214.6 203.7 196.3 184.9 174.6 160.7 143.2 152.1 167.1 163.2 147.3 127.7 122.1 131.7 131.0 130.0 129.8 122.7 109.9 92.3 69.7 58.8 48.0 38.8 33.6 30.0 29.7 33.2 43.3 50.1 51.3 50.0 41.0 29.6 12.9 0.1 -2.7 9.0 10.9 4.1 -5.6 -20.2 -30.3 -27.0 -10.7 6.5 24.7 40.5 40.0 32.3 30.5 22.9 14.4 -3.6 -10.9 -2.2 14.0 34.4 52.1 79.7 105.0 111.4 102.7 88.2 91.1 86.7 70.4 54.5 44.5 35.3 30.3 36.7 33.4 39.8 46.5 47.9 58.1 75.0 85.3 92.9 90.0 89.2 77.1 62.7 46.5 19.9 15.2 25.5 40.5 45.5 41.7 49.5 57.0
362.2 365.5 351.5 317.9 300.8 307.7 316.7 322.4 318.7 327.6 336.2 342.6 349.1 348.8 348.4 350.5 350.3 349.7 339.9 321.0 304.5 290.6 276.2 266.1 253.2 232.5 216.6 220.4 233.6 254.8 273.1 272.6 249.7 244.2 251.3 260.7 260.7 239.4 221.1 209.1 207.0 199.3 186.1 176.1 162.7 157.6 149.5 149.7 160.4 172.4 168.1 148.1 128.7 135.8 139.3 135.6 130.2 131.0 129.9 117.7 97.3 79.7 66.6 53.6 40.8 33.0 30.0 29.2 32.8 42.7 50.0 50.7 53.2 49.2 38.2 18.4 0.7 -10.3 0.1 10.2 3.8 -10.9 -21.0 -22.7 -29.3 -23.4 -3.5 22.9 34.6 31.5 29.7 27.6 23.3 21.7 9.6 -7.0 -10.3 12.7 35.5 60.2 81.3 97.6 104.6 89.2 78.6 87.9 78.9 63.3 45.3 39.6 38.3 40.3 45.3 43.0 42.4 52.3 58.0 70.7 84.8 92.5 100.5 97.5 88.5 68.0 52.0 35.4 18.6 26.8 44.9 54.8 51.0 49.4 53.9 60.2
354.8 353.9 332.9 307.3 289.4 296.3 299.0 297.7 306.8 322.3 329.8 331.9 340.2 340.0 337.1 340.5 349.1 350.0 348.5 335.4 318.7 303.9 290.5 272.2 251.8 233.6 230.5 239.5 248.3 260.0 265.1 253.0 232.5 231.3 242.9 249.4 244.7 217.9 200.0 187.0 179.4 170.4 168.5 168.1 163.2 160.8 156.2 164.8 175.7 178.7 162.1 140.9 140.5 149.3 140.2 134.6 129.3 126.4 125.2 120.0 104.8 87.0 69.7 56.1 43.6 33.4 20.7 23.7 33.8 42.7 51.0 54.2 59.5 55.6 41.3 16.7 -0.5 -10.2 -10.9 -6.8 -7.3 -20.2 -9.9 -3.8 -14.4 -26.2 -11.7 11.5 25.5 21.0 22.2 23.2 27.7 31.2 27.3 15.1 -1.6 9.0 27.7 46.5 68.7 85.3 90.3 79.2 69.1 68.5 61.9 49.3 42.2 44.1 48.5 50.1 56.1 53.5 50.1 59.9 68.0 80.4 89.8 90.0 94.7 89.8 77.7 63.2 44.8 23.1 21.6 42.3 61.5 67.2 60.1 55.5 51.2 56.4
334.0 332.1 319.2 306.5 286.0 279.5 283.0 288.3 301.9 320.5 320.4 322.6 330.3 330.6 325.3 329.7 340.2 347.5 343.3 340.2 329.4 314.4 300.4 283.7 266.0 254.7 251.6 258.5 264.7 262.3 257.6 239.5 219.5 219.5 231.9 234.9 223.2 200.4 187.5 179.3 178.4 181.3 184.5 187.9 185.6 177.6 169.3 178.9 182.7 177.4 158.7 150.3 157.1 152.3 144.8 131.5 125.7 119.7 117.9 115.5 107.9 90.4 72.6 58.5 46.9 35.2 23.4 20.3 32.8 41.9 50.5 53.9 60.0 56.5 37.2 11.8 -1.9 0.8 4.9 -4.6 -15.6 -5.3 12.6 11.2 -1.5 -18.1 -20.9 0.2 10.9 10.3 11.1 18.8 24.9 36.8 39.8 26.6 0.4 8.9 21.7 30.9 50.5 63.0 77.5 73.9 64.4 58.7 55.7 56.1 55.1 54.9 61.1 65.1 68.7 68.7 67.5 72.0 80.2 85.0 90.0 90.0 90.8 81.3 68.6 56.7 41.5 22.4 29.3 57.9 70.0 70.1 66.6 57.7 50.1 38.9
312.5 314.3 309.2 297.2 282.7 264.5 268.1 286.3 299.8 313.3 311.2 317.4 322.1 318.7 311.3 318.7 331.1 337.1 339.8 336.2 329.1 320.7 306.2 293.2 280.1 270.8 270.2 271.0 271.1 268.8 256.1 237.1 217.1 208.4 208.2 206.4 200.7 189.4 192.2 196.9 204.0 208.5 214.4 216.8 211.7 199.6 180.8 187.8 190.5 179.1 170.0 163.1 161.6 158.3 148.5 137.0 128.1 118.0 109.3 107.1 101.4 92.5 76.2 63.1 49.7 39.6 30.1 19.2 28.7 38.5 45.2 50.0 52.8 45.2 19.9 0.8 4.2 25.8 35.1 24.5 17.4 23.7 26.4 18.0 4.4 -11.0 -21.4 -12.3 0.9 8.2 9.5 17.1 22.4 38.5 44.2 32.7 9.1 -0.4 7.5 19.5 31.1 48.1 64.4 72.8 63.8 64.1 72.2 73.0 67.4 67.8 74.8 80.4 85.6 86.2 84.5 85.8 88.5 87.4 87.0 86.8 78.8 64.1 51.7 39.4 29.4 26.3 46.0 68.5 70.0 70.0 69.9 62.0 41.7 23.0
291.3 293.3 288.3 278.7 267.7 251.7 251.7 279.6 290.4 297.4 302.5 307.5 310.8 301.3 294.1 301.5 306.5 310.7 310.9 317.5 321.2 320.0 309.1 297.3 288.0 281.0 277.6 269.8 261.6 258.5 247.3 232.6 217.3 208.8 207.6 200.0 200.0 205.3 218.9 224.8 228.7 232.6 237.9 237.4 228.7 211.1 198.4 199.5 198.1 189.2 174.6 165.1 159.8 160.2 154.5 146.4 138.2 125.7 108.6 99.2 96.4 90.8 78.6 64.4 50.6 43.4 34.2 19.0 19.6 28.2 35.1 38.4 35.7 24.4 8.9 7.4 26.7 43.7 51.6 48.7 40.5 40.0 32.8 22.0 9.8 -7.0 -20.9 -20.8 -5.4 13.1 21.2 25.0 29.4 42.2 52.2 44.7 30.3 23.0 10.3 17.9 43.8 60.6 75.1 79.3 72.8 85.8 94.0 89.7 79.4 86.8 98.7 104.0 106.0 106.6 106.0 103.9 98.8 90.0 80.6 70.1 52.5 35.4 29.6 30.7 38.8 51.8 63.7 71.6 70.0 70.0 60.3 41.2 19.6 -0.5
275.8 275.3 274.7 271.4 262.0 244.6 238.7 254.9 267.7 282.3 289.9 292.4 288.5 280.0 275.0 281.1 289.3 291.6 292.7 298.4 308.9 311.8 304.4 291.9 285.3 282.6 279.3 266.2 251.3 243.9 234.4 224.8 219.5 226.7 226.9 212.8 202.5 220.5 237.1 242.8 247.8 249.0 249.4 247.4 238.1 225.9 216.1 212.4 204.8 193.2 172.7 153.6 142.0 142.7 150.2 150.3 143.4 132.9 115.7 97.3 90.1 90.6 82.6 65.8 55.8 47.9 40.3 27.8 19.8 9.3 13.4 19.8 14.4 9.1 11.3 26.5 47.2 57.7 60.6 54.3 44.8 37.4 27.4 19.1 3.3 -13.5 -21.4 -17.9 -1.2 20.9 33.2 42.4 45.3 49.7 60.4 52.2 40.8 29.1 11.8 20.1 45.9 68.3 85.1 88.0 85.7 102.5 111.7 105.0 99.9 108.2 121.7 128.8 131.3 132.0 127.1 114.6 106.9 85.6 70.0 49.2 38.4 41.1 41.3 55.1 66.1 73.2 79.3 79.1 69.5 59.3 45.9 28.6 -0.0 0.2
262.7 257.1 254.9 255.8 253.4 242.6 229.6 239.2 248.7 261.1 268.0 265.4 257.8 252.1 251.2 260.4 270.6 274.5 277.0 282.3 291.4 296.8 288.8 269.5 275.1 280.0 280.0 272.8 257.7 244.8 234.7 229.3 220.4 232.2 241.1 232.9 219.0 218.2 237.3 248.7 253.2 259.2 264.1 260.4 248.7 238.9 231.7 221.8 211.3 189.2 160.9 145.6 138.3 128.5 130.7 143.2 140.0 136.7 117.8 99.5 89.7 90.1 88.0 71.9 60.6 53.8 47.5 41.1 34.8 19.8 13.3 11.5 9.8 14.8 30.0 49.1 51.3 50.0 51.2 41.6 33.8 23.5 13.0 2.7 -9.5 -19.9 -20.2 -14.2 6.7 31.7 48.8 60.5 61.3 59.8 60.1 51.9 30.9 19.7 26.8 33.4 48.3 73.8 89.5 89.9 93.2 114.2 127.1 126.5 122.6 130.9 143.4 149.3 146.4 141.8 135.1 117.3 100.4 77.3 55.2 48.4 52.9 57.4 60.1 73.1 82.1 87.3 89.8 80.9 65.4 47.5 30.5 9.5 0.7 7.3
255.5 250.0 246.1 240.6 241.5 233.9 228.7 228.4 230.9 240.4 245.3 243.5 240.3 237.2 232.8 239.0 248.5 252.8 253.6 262.0 273.1 275.4 266.8 249.7 254.5 277.0 281.0 276.8 262.6 253.7 249.4 243.0 234.7 234.8 243.9 247.3 240.2 231.1 231.7 243.9 255.0 266.6 278.3 272.9 264.1 253.4 240.2 225.8 208.7 176.5 161.0 161.1 155.3 140.2 118.8 122.8 134.3 130.0 119.4 102.9 88.3 85.1 90.6 80.7 68.2 60.1 52.8 46.8 41.6 28.3 32.1 34.9 30.5 34.4 40.0 47.3 45.8 43.9 40.7 26.8 15.4 6.5 -2.7 -11.2 -19.9 -20.0 -18.5 -8.0 12.5 42.9 62.1 69.8 67.4 62.2 60.9 48.9 39.7 20.8 36.1 50.9 63.6 81.5 90.6 90.0 95.7 121.1 137.4 147.1 146.0 150.3 160.1 158.5 146.1 134.4 120.7 105.3 87.2 62.8 49.8 58.8 69.8 76.8 79.1 82.9 89.1 90.1 87.0 74.7 64.2 50.6 30.8 9.8 9.8 9.9
249.4 243.5 239.6 233.8 228.5 224.6 221.7 217.8 220.7 221.7 226.5 229.1 227.9 223.0 216.2 219.0 227.5 234.3 240.0 250.4 258.6 261.6 251.5 227.3 237.8 264.0 279.9 279.4 270.3 264.6 261.6 250.3 241.2 238.7 249.7 261.0 261.1 254.7 245.8 248.0 254.0 267.7 275.3 271.4 267.4 258.5 239.5 218.9 199.7 188.5 186.7 183.0 169.3 150.1 130.0 111.1 116.0 127.2 120.7 109.7 89.3 80.0 90.2 83.7 72.9 63.9 57.1 51.3 47.0 39.3 41.5 43.0 40.1 40.3 40.1 39.4 37.2 35.3 30.3 19.4 0.6 -6.9 -10.0 -10.0 -17.1 -14.4 -10.8 1.8 20.8 47.3 69.1 70.0 69.4 64.5 61.9 57.4 54.4 33.2 29.5 46.3 64.9 80.8 90.9 95.9 99.4 117.7 140.2 157.2 159.5 160.7 159.2 147.7 123.5 109.2 100.7 88.3 71.5 59.3 63.0 76.5 89.5 97.7 99.7 100.4 99.4 91.6 79.1 67.4 58.5 51.7 43.3 13.6 10.4 20.8
243.2 238.8 231.3 226.7 220.9 217.2 215.4 210.3 212.9 212.1 210.2 209.1 207.8 207.0 203.5 200.6 210.5 219.2 225.7 233.9 242.8 245.5 235.9 211.3 225.9 252.4 265.5 271.0 274.0 276.0 268.3 254.2 247.9 243.5 250.9 267.8 272.8 271.0 265.6 261.4 264.1 272.2 279.5 278.3 266.8 249.5 234.0 223.3 220.1 218.5 214.8 207.0 185.7 160.4 140.3 120.9 109.1 115.4 120.3 110.8 90.4 78.0 83.8 80.0 79.4 67.2 59.4 54.5 49.3 45.2 44.8 46.0 41.3 40.3 37.4 33.7 30.7 25.2 13.9 0.7 -1.4 -9.8 -10.0 -10.0 -10.4 -5.3 5.2 17.0 34.1 51.5 68.0 69.5 64.5 61.3 62.5 61.0 60.7 41.1 31.6 41.4 52.7 71.1 88.7 100.3 99.6 116.3 137.5 160.5 160.0 159.8 150.5 128.1 100.6 88.8 79.2 68.9 67.6 62.9 70.4 83.1 96.9 114.5 118.1 117.5 113.9 91.7 73.2 58.5 48.5 44.9 39.1 16.5 9.5 21.4
237.9 231.7 225.7 218.8 215.3 210.4 208.5 206.0 208.1 207.0 202.5 198.9 193.8 195.4 191.0 183.8 198.0 205.7 203.0 205.7 215.2 224.7 219.1 199.9 217.1 234.8 250.1 265.9 279.0 280.7 275.2 266.9 256.5 250.1 255.1 268.3 279.5 281.1 279.0 277.3 281.1 284.7 286.2 281.9 273.3 260.2 247.9 243.9 242.7 241.6 236.3 221.3 200.8 175.7 149.9 129.4 108.6 100.7 107.7 102.0 86.5 69.7 76.5 80.0 80.0 77.0 65.9 58.7 52.4 48.3 46.9 46.2 41.0 38.5 32.5 28.2 21.2 16.7 13.2 16.0 6.2 -8.6 -10.0 -10.0 -3.9 6.6 16.7 30.5 41.9 53.1 60.9 62.0 59.2 59.8 60.0 60.5 60.1 46.6 40.9 53.9 65.9 78.2 89.9 105.5 110.0 112.9 131.1 148.1 158.6 154.4 143.3 119.5 108.7 104.3 95.7 86.3 82.3 75.8 69.7 85.5 105.4 122.6 127.4 125.4 118.6 89.2 67.0 50.8 40.4 37.8 29.2 21.9 16.2 29.9
229.2 225.3 222.1 217.4 210.3 205.1 200.6 200.5 202.9 202.5 200.5 193.6 187.6 182.8 179.9 176.7 185.3 190.1 182.1 182.0 191.9 198.9 194.4 188.6 205.2 218.2 236.8 254.2 267.2 279.1 272.1 270.3 265.9 259.9 262.0 271.2 284.6 289.8 284.7 286.6 290.3 290.0 291.6 291.1 284.9 274.8 266.8 262.6 260.8 253.8 241.1 221.8 203.0 181.9 159.1 139.5 116.4 96.2 92.5 84.6 78.5 71.3 69.6 71.7 80.0 79.6 71.6 67.7 60.5 56.1 50.1 49.8 41.3 36.6 30.1 28.3 25.1 29.1 31.0 24.9 7.0 -6.3 -10.0 -10.0 0.8 13.3 25.9 42.3 49.3 50.3 53.1 52.0 49.8 56.7 60.0 60.5 60.3 51.2 40.8 51.7 66.5 78.6 89.1 105.2 118.7 119.9 128.0 140.0 154.0 159.5 148.2 133.7 132.6 126.5 117.2 110.6 103.4 89.5 78.3 89.1 111.6 120.3 121.4 116.9 98.5 78.6 66.2 56.1 51.3 42.1 33.5 29.6 19.7 30.0
222.3 219.4 217.3 212.4 207.4 200.0 197.7 195.8 198.8 198.2 195.2 191.0 185.8 179.4 170.1 169.7 175.4 176.6 171.9 170.1 173.3 179.1 177.1 181.4 194.0 204.5 222.1 238.1 253.0 265.8 270.0 270.0 268.9 262.7 260.9 263.7 270.4 278.2 280.2 283.0 290.7 292.8 300.2 301.1 302.1 288.0 281.6 270.5 260.9 240.2 219.0 205.5 189.4 171.8 157.5 141.1 123.2 101.6 88.2 81.2 83.7 80.4 72.8 60.2 69.7 69.6 70.0 70.2 64.2 60.7 53.3 50.3 44.0 38.4 31.9 29.1 30.3 31.2 29.8 23.1 10.3 -6.1 -10.0 -10.0 5.3 20.9 35.3 48.1 50.0 50.0 38.3 35.9 38.3 50.0 57.5 60.5 66.6 63.2 60.2 51.1 58.0 73.9 87.6 99.3 116.8 124.8 133.2 146.7 160.5 172.0 161.9 152.9 151.4 148.1 138.4 125.5 113.1 92.6 86.6 99.7 116.9 124.6 121.0 109.1 94.0 85.4 81.5 72.7 60.9 48.0 34.7 29.6 26.3 29.8
215.9 213.5 210.7 207.8 203.1 198.9 193.5 189.9 192.5 192.7 190.8 187.2 182.6 178.3 170.2 166.0 169.1 169.0 167.4 166.3 166.6 169.8 169.8 175.5 181.4 192.3 205.4 219.6 239.3 251.4 264.9 266.4 261.0 255.6 249.4 245.6 251.0 259.3 271.2 276.2 279.8 287.2 293.0 300.2 300.0 297.6 282.1 261.9 238.4 209.3 190.4 172.3 157.9 149.0 138.1 128.9 120.0 102.8 89.9 89.4 91.0 86.4 71.9 58.7 51.8 49.8 56.5 62.8 60.0 58.7 53.5 50.5 44.5 38.4 30.9 22.7 25.3 19.9 15.3 13.3 3.2 -9.4 -10.0 -10.0 3.8 25.0 44.7 50.0 50.0 43.6 20.8 29.0 34.8 38.8 49.5 64.0 71.0 75.2 71.8 61.5 54.0 68.3 82.5 90.9 101.0 112.6 126.6 142.0 156.7 168.3 170.6 168.7 167.5 162.3 151.0 134.8 113.0 99.3 106.2 117.2 126.5 132.3 128.2 116.2 107.6 104.2 101.1 90.4 69.5 50.6 39.4 30.9 33.5 38.0
208.2 208.5 204.1 200.1 198.6 193.7 190.0 187.7 187.1 187.9 185.4 181.5 178.4 173.5 167.5 159.7 161.5 163.5 163.0 161.4 160.5 163.8 165.8 168.8 170.7 178.9 190.9 206.3 224.9 237.3 245.2 250.9 246.5 242.9 236.9 228.7 229.7 240.9 260.8 270.0 268.8 269.4 278.4 288.5 295.8 289.5 275.0 249.5 218.7 193.7 172.0 161.0 148.3 134.4 121.0 113.2 105.5 98.9 96.7 96.4 92.4 83.0 68.2 59.8 66.5 58.0 49.7 49.4 52.3 53.2 50.0 49.7 43.5 37.2 28.6 18.8 13.5 8.7 5.8 -0.3 -0.8 -7.8 -10.0 -10.0 1.4 24.3 47.9 50.0 50.0 29.4 20.2 36.5 45.4 48.7 53.1 68.5 78.2 82.4 83.4 74.3 62.5 59.7 70.9 78.1 85.8 94.9 107.9 127.4 139.8 154.7 169.0 170.0 170.0 169.5 152.3 131.4 117.2 118.5 126.1 133.7 136.7 141.8 138.1 130.6 129.1 128.2 122.3 100.1 77.2 52.4 37.6 40.1 49.8 57.3
200.6 201.8 199.4 196.0 193.0 190.1 187.6 185.3 181.9 182.9 181.2 177.5 173.6 170.1 165.0 160.0 159.7 160.9 160.1 158.5 156.8 158.5 161.2 162.3 164.0 169.5 177.5 193.5 210.5 218.8 226.4 230.0 225.4 219.9 213.9 211.8 219.2 232.0 256.2 263.4 260.2 255.2 260.0 271.1 278.1 277.3 271.5 257.0 233.0 213.8 196.8 177.4 163.4 146.5 126.1 115.0 113.6 111.6 108.7 104.5 98.2 84.2 69.4 75.6 71.3 65.0 52.0 40.8 40.8 50.6 50.0 46.6 42.2 39.9 32.4 22.8 19.8 16.7 16.4 9.0 1.5 -1.2 -9.9 -10.0 -1.8 18.9 43.0 51.6 41.8 20.8 23.1 40.6 50.5 54.5 57.7 67.5 79.9 89.0 93.2 87.4 74.6 63.7 59.2 65.7 70.2 80.3 88.0 98.4 117.3 135.6 157.6 170.0 170.0 167.8 145.8 129.3 129.4 137.8 146.7 146.3 143.0 150.0 149.1 144.9 139.3 133.6 119.9 94.8 72.2 48.4 38.6 44.9 61.2 70.2
196.6 195.2 194.1 191.2 188.3 185.9 183.5 180.8 178.3 176.9 175.9 172.2 168.9 166.8 163.3 160.2 159.3 155.6 156.4 154.7 151.0 151.3 156.9 157.9 158.8 163.1 169.0 179.5 191.4 200.1 204.2 205.6 202.4 194.2 189.3 197.1 210.5 229.6 253.6 261.2 259.8 249.6 246.2 259.5 266.1 263.5 269.3 269.5 251.5 233.9 218.9 198.3 174.3 152.9 133.6 131.5 130.6 126.5 121.1 113.2 102.7 79.5 83.9 85.7 76.9 66.0 53.2 43.0 39.8 39.3 41.7 40.6 40.0 38.4 32.7 28.5 21.8 21.1 20.5 11.7 2.7 -7.6 -10.0 -8.5 -1.9 12.0 35.4 44.4 31.7 18.5 28.6 47.8 58.6 60.0 60.0 68.3 79.0 92.3 100.0 97.4 87.4 77.3 67.1 70.6 76.4 84.4 89.4 94.5 103.8 112.4 137.8 164.1 170.1 158.9 148.1 144.7 151.4 156.4 150.0 149.4 142.7 150.0 150.0 150.0 148.2 136.0 112.2 84.9 61.7 50.0 43.9 55.5 69.5 74.1
191.3 188.9 189.5 187.4 184.9 182.0 180.9 179.4 174.8 169.9 170.2 169.5 165.2 164.0 162.0 159.4 151.5 149.8 151.2 150.2 148.7 149.0 151.3 153.3 151.5 155.8 158.7 164.4 171.5 177.8 183.1 183.9 179.5 174.2 179.8 196.1 212.2 233.6 255.9 264.4 260.7 245.4 232.9 244.1 254.0 250.0 259.5 269.2 259.4 239.0 221.8 203.6 177.3 157.4 152.0 150.4 147.5 142.3 132.8 119.6 104.2 86.3 94.3 91.9 82.7 63.4 49.6 40.1 39.2 30.8 32.1 32.8 33.5 32.4 30.2 23.9 20.5 20.2 14.1 6.0 -1.7 -9.9 -9.8 -5.8 -1.4 6.9 24.3 32.5 17.1 16.5 36.2 57.2 70.1 69.7 63.6 69.0 78.2 94.5 100.0 100.0 96.7 84.3 71.5 77.0 93.3 104.1 111.1 119.4 125.0 127.1 133.8 160.4 167.1 161.1 161.4 163.6 165.8 160.0 156.5 144.3 137.5 144.4 150.0 150.0 148.1 131.0 102.2 74.7 58.0 49.5 51.3 68.6 71.7 59.0
187.8 184.2 184.8 183.3 181.0 177.5 171.4 171.9 171.8 169.8 167.4 164.5 160.6 161.1 160.4 156.6 152.1 149.7 149.2 146.5 145.8 145.6 148.0 149.6 148.3 147.9 147.9 150.1 154.7 162.0 167.3 168.8 162.8 170.4 186.3 200.5 221.1 241.8 257.9 270.4 268.4 249.0 229.2 227.4 233.0 229.6 240.7 256.1 253.7 236.6 216.7 194.4 176.4 172.5 176.0 177.4 171.2 157.3 140.4 120.5 100.2 99.8 107.3 99.5 85.2 70.0 49.3 40.4 39.6 30.4 27.4 20.7 23.3 24.2 19.8 17.2 13.7 9.5 2.4 0.1 -5.1 -10.0 -9.8 -4.4 -2.0 2.9 12.8 19.0 9.6 20.9 41.5 63.3 70.0 69.5 58.0 61.5 76.0 89.4 100.0 100.0 100.0 88.1 72.4 79.3 105.5 123.8 134.9 143.1 146.6 150.4 156.5 168.5 170.4 171.8 174.6 174.7 170.0 167.9 157.4 142.0 126.1 131.9 143.1 149.8 140.8 124.9 95.4 71.0 60.0 55.1 60.7 71.8 69.5 48.0
180.8 178.9 179.9 179.1 176.4 172.8 169.8 168.1 170.2 168.6 161.8 159.9 158.7 157.2 157.3 153.6 151.8 149.7 144.9 141.6 142.0 141.2 143.9 146.1 145.5 142.2 142.6 145.2 147.8 150.2 156.8 157.0 159.6 174.2 187.9 204.4 226.4 243.5 261.7 270.0 270.9 257.2 235.1 219.8 219.2 215.5 219.7 235.9 242.1 232.9 217.3 203.2 198.4 200.3 202.9 193.9 180.6 159.4 136.9 114.2 108.7 111.3 110.3 100.9 82.2 63.2 49.6 51.2 43.7 35.9 30.1 29.2 19.2 19.2 18.9 13.0 11.1 6.9 0.9 -1.8 -5.9 -9.9 -5.5 1.2 -0.3 -0.5 3.2 9.3 10.5 24.6 41.3 54.7 60.8 50.5 42.1 44.1 60.9 79.5 95.6 100.0 100.0 88.7 71.5 79.8 111.0 133.4 150.5 151.0 153.7 160.3 163.2 171.0 177.3 180.6 181.1 179.6 172.5 164.4 150.4 131.3 117.0 114.0 123.5 128.1 126.3 116.9 91.6 69.7 60.9 58.3 68.6 77.1 62.6 37.4
179.0 175.8 173.3 172.0 171.6 170.8 169.1 161.6 164.9 163.2 161.7 159.3 157.5 153.2 154.3 152.9 151.8 150.1 144.2 139.9 139.6 139.2 140.0 141.6 140.8 139.7 138.3 140.1 142.8 146.2 148.5 149.1 157.8 168.7 184.9 202.9 220.7 235.6 254.2 275.9 278.1 264.9 240.5 220.2 208.4 204.2 202.9 218.7 230.7 230.8 228.7 223.4 218.9 216.9 210.9 198.1 178.3 153.3 131.4 121.2 121.2 118.4 111.4 95.6 71.8 58.4 61.4 58.7 47.4 39.0 40.0 40.1 31.0 19.7 14.8 9.8 9.7 5.2 1.5 0.0 0.0 -3.9 0.3 10.0 8.1 0.5 -0.1 6.1 12.4 20.0 28.6 31.4 34.4 30.2 33.4 42.5 47.4 66.9 83.9 98.7 99.2 85.4 72.3 85.9 109.9 129.3 147.5 150.5 148.9 148.6 154.7 163.0 174.8 180.6 180.8 176.9 168.3 157.7 140.7 133.7 124.3 109.8 99.8 102.8 103.5 100.5 90.3 70.8 66.8 67.6 79.0 80.0 52.7 30.1
170.3 169.6 167.1 166.9 165.9 165.4 161.6 160.4 159.9 161.5 160.6 158.3 153.1 149.9 150.7 150.8 150.5 148.9 145.0 140.9 139.6 138.6 136.8 139.6 140.0 138.1 134.5 138.6 140.2 143.0 145.2 147.6 152.6 164.3 181.8 198.9 205.2 218.5 245.6 271.7 280.4 269.3 243.3 223.6 200.4 198.3 190.2 204.7 219.6 230.2 230.0 230.0 226.8 221.6 213.8 196.2 173.6 154.8 148.8 144.2 133.1 121.8 107.5 86.6 69.1 76.2 70.7 60.6 49.1 46.7 41.7 39.7 33.1 26.3 17.9 12.0 8.6 5.2 1.3 0.0 0.0 -1.5 -0.0 9.5 10.0 10.3 5.5 10.0 10.3 17.2 18.6 19.3 29.6 36.6 49.4 61.7 61.9 63.5 77.8 89.8 92.5 81.7 78.9 86.8 102.7 120.6 134.3 141.8 134.9 130.0 135.8 151.1 172.5 181.8 184.8 175.4 166.9 160.2 156.0 151.3 138.5 127.6 114.7 95.0 79.9 81.8 80.9 69.8 62.2 69.9 70.3 70.4 48.7 16.0
163.3 161.1 161.4 162.6 160.6 160.7 159.5 156.5 154.6 156.9 157.2 153.6 151.9 150.1 148.8 149.2 149.3 145.7 143.1 140.4 136.3 131.2 130.6 133.4 135.1 130.6 129.7 133.0 137.4 141.1 141.9 146.9 152.4 162.8 177.0 185.1 189.6 215.1 243.1 264.5 274.3 269.1 248.6 225.8 202.3 188.8 179.1 188.7 205.4 219.1 230.0 230.1 224.4 214.2 210.1 199.2 181.1 172.3 170.5 162.3 142.9 120.5 101.9 94.8 93.8 89.6 76.3 59.1 55.4 51.3 42.5 37.3 30.5 24.9 17.4 11.8 8.0 3.5 0.1 0.0 0.0 -0.1 -0.4 5.9 10.0 11.0 9.4 10.0 10.1 17.0 27.3 37.5 45.0 55.1 66.8 73.8 72.7 69.6 78.0 88.9 95.5 84.0 78.7 83.3 93.0 106.8 117.9 122.8 119.1 132.6 141.5 157.4 175.5 189.1 191.5 183.5 175.9 172.4 168.5 161.0 153.2 141.8 127.5 99.1 85.2 74.1 67.7 61.4 58.3 62.1 69.1 58.4 33.7 -1.7
159.7 159.5 154.7 157.9 155.7 155.6 154.6 151.5 150.3 152.5 153.1 151.6 151.2 150.1 149.2 144.8 145.5 143.6 141.7 139.2 135.1 130.8 129.6 130.9 132.1 130.5 129.5 130.7 133.8 137.6 138.4 142.2 148.6 157.9 164.8 167.8 186.0 208.9 230.9 252.9 268.0 264.4 251.3 227.7 203.6 193.7 188.6 178.4 186.9 203.9 217.8 224.1 217.6 198.7 199.0 199.9 192.4 190.8 183.3 170.8 147.3 125.7 113.5 110.7 107.5 97.3 74.4 60.4 63.5 56.7 42.6 32.4 26.8 19.5 17.5 12.1 9.4 3.0 0.0 0.0 0.9 0.0 -0.3 8.4 10.0 16.0 15.4 10.2 10.1 17.8 34.0 45.3 54.7 67.5 79.3 85.4 85.5 82.2 85.6 97.6 101.5 92.9 79.3 84.0 92.0 99.0 106.9 111.5 126.2 147.4 161.0 173.1 186.0 194.7 199.8 191.6 190.0 182.9 175.8 167.1 157.7 145.5 126.5 99.8 85.3 76.3 62.5 52.2 46.5 60.3 60.9 41.8 9.5 -10.8
163.2 160.4 149.9 150.5 151.1 150.9 150.8 149.9 148.1 149.4 149.4 148.4 149.1 148.3 142.2 139.8 140.6 140.8 140.1 137.6 134.2 130.8 129.6 127.2 129.2 128.7 129.1 130.1 132.6 133.8 135.8 139.1 144.3 149.9 154.7 162.6 179.1 198.3 219.1 243.7 253.4 255.9 247.0 227.3 202.8 195.0 192.4 186.5 170.4 187.6 203.1 211.9 209.0 185.4 182.4 193.0 190.0 191.0 187.2 175.0 156.6 140.3 130.9 124.3 114.4 97.6 75.0 76.4 74.5 62.8 44.8 33.3 24.5 19.6 19.6 12.3 10.2 1.0 0.0 0.2 7.5 0.1 -0.0 8.2 14.0 20.0 20.2 19.2 17.1 20.0 29.5 44.4 57.0 71.2 82.9 92.4 100.5 101.3 102.9 109.1 108.6 98.3 86.7 89.4 96.1 111.3 120.3 121.9 131.6 150.1 166.8 182.4 195.0 200.1 200.3 194.6 185.6 177.6 170.1 161.6 147.5 131.7 111.8 94.5 83.9 72.9 58.5 45.5 33.1 35.0 47.8 35.4 3.7 -14.5
168.5 162.7 158.4 150.2 149.8 149.7 149.8 149.6 144.9 145.6 144.5 141.8 143.6 143.3 140.8 139.5 139.3 140.3 139.0 136.0 133.0 129.9 126.2 121.0 124.0 125.0 125.3 128.7 130.8 130.0 131.2 136.7 140.7 144.8 147.8 157.6 173.4 190.8 209.9 233.1 241.9 240.3 235.1 221.1 201.0 192.4 199.5 197.5 175.0 171.2 183.6 195.3 194.9 174.4 168.8 183.7 184.4 176.0 178.6 175.0 168.6 158.4 148.2 134.3 117.1 92.6 83.3 91.5 81.7 63.5 44.2 34.2 28.2 21.2 20.7 13.0 5.0 0.0 0.0 8.3 10.7 9.6 5.7 9.8 10.5 18.5 19.7 20.1 19.4 20.0 22.8 38.1 53.1 69.0 81.5 95.9 109.9 112.2 113.3 119.4 115.8 104.9 88.4 90.5 95.6 102.3 113.5 120.6 127.0 131.4 151.6 179.0 194.1 200.1 200.1 191.1 175.5 164.4 156.5 143.1 130.9 119.6 108.2 100.6 90.8 79.3 69.1 64.2 51.7 25.9 29.7 29.2 4.2 -16.4
170.9 166.0 161.6 156.4 151.7 149.4 148.5 148.4 142.3 141.7 140.0 139.8 139.9 138.7 136.9 133.5 134.2 137.5 135.5 133.2 131.7 130.3 125.0 120.0 120.0 120.5 120.6 122.6 126.9 126.0 128.5 131.4 137.7 140.7 141.9 148.0 159.4 175.1 193.0 210.4 224.6 223.3 217.9 210.8 198.0 189.3 192.9 201.3 180.4 160.1 161.2 167.2 172.5 157.9 152.9 168.0 163.4 153.9 159.0 167.6 168.7 162.4 151.2 133.0 109.9 101.0 101.9 97.8 80.3 60.9 42.3 33.4 30.1 21.8 15.7 8.3 0.3 0.0 3.8 10.6 10.2 9.8 10.1 9.9 10.0 13.8 19.4 19.2 20.1 19.9 21.9 29.0 42.7 59.4 75.4 89.9 100.2 107.4 114.0 120.3 119.0 107.5 92.9 96.2 99.3 102.2 122.5 131.3 137.3 136.2 138.8 160.1 185.4 199.6 201.4 196.1 179.4 162.7 151.7 139.7 130.0 121.7 121.5 118.2 105.4 88.5 77.7 69.7 53.0 31.8 15.8 21.1 2.3 -21.8
170.5 164.2 161.4 157.3 151.6 148.7 149.0 147.7 140.6 139.7 139.7 139.1 138.4 131.5 131.0 130.1 130.3 132.2 132.4 131.8 130.9 130.1 128.1 121.0 120.0 119.3 119.1 119.5 121.3 121.7 126.3 129.9 133.3 136.0 136.0 139.4 146.6 161.2 174.1 187.8 200.7 205.3 204.7 201.3 193.2 189.3 190.1 194.0 181.1 165.5 157.2 149.9 148.8 144.9 139.5 143.3 142.8 135.9 139.9 144.8 152.2 156.5 145.9 129.2 120.4 117.1 111.1 100.8 76.3 57.9 39.7 29.0 20.6 11.6 9.1 3.7 0.0 0.5 10.1 11.5 10.0 9.9 10.3 10.6 9.9 17.0 20.2 19.9 22.0 22.1 27.5 29.3 34.7 44.5 61.7 73.6 83.1 93.1 104.1 113.5 111.0 102.6 98.1 98.2 99.5 104.3 123.4 141.7 150.4 154.6 151.0 149.9 169.2 196.4 207.2 209.0 191.5 174.5 160.2 147.0 134.9 128.6 129.7 129.4 116.7 94.7 81.3 64.2 41.2 27.2 4.9 -0.5 -7.8 -26.9
166.1 160.0 159.8 153.6 149.9 150.0 150.5 150.1 147.4 144.3 141.4 139.4 137.4 130.1 130.0 130.0 129.3 129.6 129.9 130.3 130.2 130.1 128.4 122.7 120.6 119.8 118.9 117.1 118.6 119.8 123.4 127.4 130.8 131.7 130.0 134.3 139.5 148.1 156.7 169.4 185.3 189.4 190.3 189.9 185.3 183.4 189.0 188.9 179.6 171.6 170.7 166.3 156.7 151.4 144.5 134.0 128.6 121.2 122.8 127.5 143.3 155.7 152.5 141.2 131.5 127.8 117.1 98.4 75.4 55.8 32.8 23.9 19.6 11.2 7.3 1.4 0.0 3.8 10.9 15.3 10.2 9.8 11.5 14.2 14.4 18.8 20.3 20.8 25.0 26.5 29.9 31.7 39.7 47.6 54.1 61.7 71.6 86.5 97.3 108.2 106.8 102.1 99.9 104.8 107.1 112.6 128.8 152.4 165.9 173.5 176.3 169.4 170.6 196.8 210.9 218.8 208.7 187.1 167.9 154.0 141.2 136.5 135.5 131.4 121.3 96.9 78.5 58.3 35.0 16.4 -0.6 -20.9 -24.3 -30.0
159.7 159.5 159.6 157.4 153.3 153.8 155.8 151.3 150.4 149.2 144.7 140.8 139.9 133.6 131.3 130.3 128.9 128.3 124.2 126.5 127.4 127.5 122.4 120.8 120.4 119.9 119.2 114.1 117.8 119.6 120.9 123.2 126.7 126.7 124.9 127.8 131.8 138.6 144.3 151.7 165.7 174.3 172.7 175.7 178.5 182.1 191.4 192.7 187.6 181.0 180.1 181.0 176.0 171.4 162.4 154.1 145.5 133.0 120.0 115.8 140.7 160.5 161.5 148.2 135.9 122.9 109.4 93.4 72.7 54.9 37.3 29.8 21.7 13.6 6.3 0.2 0.0 5.5 14.0 20.0 15.6 9.8 11.7 17.6 19.4 19.9 19.2 19.8 25.0 27.4 30.6 34.7 41.0 49.1 55.8 62.5 71.9 83.7 93.0 100.0 102.4 102.9 106.8 110.9 114.5 120.1 134.2 162.3 177.2 188.6 194.8 190.8 183.8 205.0 216.8 221.2 213.7 194.9 173.3 156.4 147.7 143.6 141.2 133.9 120.4 96.0 72.8 57.1 37.9 16.9 -6.1 -19.5 -19.6 -19.7
162.8 161.4 160.5 159.5 158.5 159.8 160.0 157.1 152.9 151.2 149.3 143.8 141.4 138.7 133.7 131.1 127.8 122.9 119.9 121.3 122.7 123.3 120.8 120.0 119.4 117.6 115.7 110.1 113.6 117.3 119.3 121.1 122.7 121.3 119.7 121.6 126.4 129.2 134.2 141.5 146.9 152.6 155.2 163.5 174.2 188.6 203.7 203.8 195.9 189.6 192.5 199.9 195.8 184.7 175.7 165.5 158.1 142.8 122.9 109.5 141.4 160.1 160.6 150.9 133.9 114.8 98.8 82.9 66.9 51.9 37.9 30.6 18.4 10.6 5.4 0.2 0.1 7.8 15.1 20.0 18.4 10.1 15.4 20.4 24.7 25.9 27.1 27.4 29.5 29.6 29.8 30.9 38.2 40.5 48.4 50.1 57.0 70.0 82.6 88.7 94.3 99.7 104.0 111.2 117.5 121.6 131.5 157.9 173.6 188.4 200.5 203.0 198.9 209.8 220.0 220.7 214.1 193.9 175.8 160.4 153.7 150.2 145.4 135.3 115.3 88.2 64.9 41.4 25.8 6.8 -11.1 -4.0 -1.4 2.2
166.7 166.1 165.8 165.0 164.2 161.4 160.3 157.8 154.1 150.9 148.1 142.2 140.6 137.5 131.7 130.0 128.7 125.2 120.9 119.8 120.2 120.6 120.0 117.7 115.7 113.4 111.2 109.5 110.2 111.9 115.1 118.2 118.9 117.4 117.6 119.3 122.1 125.7 128.3 132.7 136.2 139.2 145.7 162.1 177.1 193.3 209.3 210.0 202.1 198.7 200.5 209.0 204.0 185.2 172.4 156.4 148.8 137.1 111.4 113.3 144.5 160.4 161.5 148.6 133.2 111.7 93.6 76.8 61.1 46.8 34.2 26.2 18.2 10.5 5.5 0.2 0.0 11.1 22.3 20.4 20.1 10.1 14.7 24.0 29.9 30.1 30.5 30.9 29.2 30.8 31.5 37.3 40.0 40.0 46.9 48.9 49.2 53.3 62.2 73.4 81.6 87.7 93.5 100.4 103.7 106.2 117.0 135.0 143.6 165.9 199.7 209.9 211.5 217.2 221.4 223.0 217.4 197.0 183.6 168.1 161.3 156.8 150.8 136.2 109.3 80.9 56.2 39.9 18.6 -0.6 2.8 19.4 27.6 31.3
171.0 170.7 170.9 170.5 170.1 165.1 160.8 156.6 152.7 149.3 145.1 140.3 139.0 133.8 130.1 128.7 126.1 124.3 121.4 120.0 119.3 119.6 119.6 112.1 112.4 112.0 111.2 110.1 109.4 110.4 112.4 114.3 115.1 114.3 115.5 117.4 119.0 121.5 124.5 128.1 129.4 136.9 148.5 162.3 175.6 188.5 203.9 210.5 209.1 203.4 209.1 209.4 193.4 173.3 154.6 140.3 128.3 123.2 100.0 122.5 146.6 169.3 169.6 147.8 131.4 111.9 90.7 73.8 57.4 43.2 29.6 19.9 14.5 7.9 5.5 0.2 0.0 14.1 24.1 20.0 20.0 11.7 14.0 20.1 23.5 23.5 25.0 27.4 28.9 32.0 33.3 38.4 41.5 44.1 50.0 51.0 58.2 60.4 60.4 60.2 65.4 71.3 78.7 82.4 88.8 91.2 100.9 109.7 123.3 151.4 192.2 212.8 219.9 221.9 225.5 226.8 221.0 210.5 197.0 185.3 173.9 168.7 158.8 140.7 109.9 85.5 62.6 35.4 9.8 11.8 19.8 36.9 46.9 50.9
177.7 175.1 174.2 172.3 170.5 165.9 160.0 155.6 151.4 147.5 142.6 139.8 138.0 133.0 130.2 128.9 126.3 124.4 122.0 120.5 118.3 117.2 113.6 110.0 109.9 110.2 110.2 109.6 108.9 108.5 110.3 111.5 111.5 110.9 112.8 116.2 118.1 120.2 122.1 123.8 126.1 136.1 146.3 154.4 165.0 177.4 189.4 200.8 200.2 204.5 211.2 207.4 185.5 166.2 140.7 124.8 114.4 109.9 98.1 118.8 144.0 167.3 166.5 144.9 125.7 107.8 89.4 71.0 53.5 42.1 28.9 20.6 17.1 11.3 8.4 3.6 0.1 13.0 21.2 20.0 20.0 19.3 18.9 20.0 20.0 20.0 20.0 23.7 29.0 30.9 30.7 35.6 40.0 45.6 51.2 59.7 66.9 72.2 75.3 74.0 71.8 71.0 73.4 77.3 82.9 92.3 112.6 128.7 127.9 142.9 185.3 210.0 221.4 227.4 229.7 230.0 228.6 221.1 210.5 200.4 192.4 186.0 171.6 151.6 118.5 95.6 67.8 41.1 15.2 19.9 32.8 49.7 54.3 52.3
182.2 179.5 177.7 174.0 171.1 164.9 158.8 155.6 152.6 149.3 145.5 141.2 138.5 133.9 131.6 130.3 127.7 124.6 121.6 121.0 119.5 117.7 116.7 110.9 110.3 109.9 110.0 108.1 107.3 103.0 105.9 107.8 108.0 108.4 110.1 112.0 113.9 116.6 118.5 118.8 119.4 130.2 139.0 139.7 147.1 158.9 170.9 180.9 189.0 196.4 207.3 202.6 180.6 164.5 147.2 127.7 113.4 100.0 90.2 105.5 133.6 153.4 150.4 135.7 111.7 99.3 81.7 65.9 52.7 42.8 32.3 22.7 15.1 10.0 10.0 7.5 4.4 10.0 17.4 19.9 20.0 20.0 23.6 23.3 22.9 23.9 20.6 20.2 26.8 29.8 29.7 31.0 36.8 39.7 47.7 58.0 72.0 83.7 90.1 92.5 93.0 94.9 94.4 90.6 90.6 96.6 124.8 152.7 157.6 151.8 175.2 203.4 221.0 230.6 231.0 230.0 230.0 228.4 220.7 207.7 198.7 192.0 183.2 161.7 131.2 101.7 74.3 45.6 20.3 28.3 41.1 59.3 60.2 55.8
187.1 184.0 180.7 176.2 171.3 163.0 158.4 155.4 152.5 149.5 145.7 141.4 138.6 132.4 131.1 130.3 126.6 122.6 120.4 120.1 118.9 117.6 116.9 111.1 111.0 110.2 108.1 104.7 102.1 99.9 100.8 103.3 104.4 105.2 108.1 110.8 112.3 113.6 114.6 114.9 116.6 120.1 127.3 126.7 133.4 140.7 146.9 157.2 172.6 185.6 186.5 191.1 178.5 160.3 146.7 134.7 117.8 102.2 88.8 100.8 127.1 137.0 133.9 112.4 96.7 83.3 71.9 61.5 52.3 43.4 33.9 20.0 18.3 17.1 13.5 9.6 7.2 10.0 10.7 15.0 19.3 22.2 30.1 31.0 30.8 30.7 30.0 22.3 25.8 28.8 29.0 30.6 35.8 39.4 45.6 56.6 75.0 91.7 105.8 113.5 116.7 117.9 120.9 119.3 106.4 109.3 137.4 172.8 187.3 189.0 190.3 205.9 219.2 230.2 230.9 230.0 230.0 225.3 219.2 209.1 198.6 190.7 178.8 160.1 134.8 105.2 78.0 52.1 27.6 30.8 42.0 60.4 60.9 56.3
192.3 189.3 183.5 177.5 171.6 164.9 158.9 155.0 150.9 147.5 143.8 139.9 136.6 130.3 129.8 129.0 121.2 120.4 119.7 119.5 118.6 118.1 116.8 110.1 110.1 110.0 107.9 104.0 102.9 100.6 99.7 100.1 100.8 100.8 102.6 108.3 110.3 110.5 110.5 110.1 110.7 113.4 118.8 119.7 126.9 129.9 140.3 153.7 173.4 181.0 171.0 182.1 178.5 157.4 141.2 125.5 109.2 95.7 87.1 97.2 120.2 127.7 118.9 98.8 82.8 71.4 64.0 57.7 51.1 42.0 30.1 20.0 20.0 21.6 19.8 9.6 8.9 10.0 10.0 10.3 13.3 19.2 20.4 23.4 28.3 29.8 30.0 30.0 30.0 30.0 30.0 30.0 32.8 39.9 47.7 59.4 78.4 99.1 119.8 131.0 137.6 140.0 140.0 135.0 125.3 122.7 142.4 180.4 204.2 216.4 220.8 225.4 231.8 237.9 233.6 230.0 224.7 215.4 209.6 199.1 188.0 178.0 165.2 142.4 114.7 96.3 76.2 53.3 29.5 28.7 37.8 53.8 60.0 60.0
198.9 194.0 188.2 181.0 176.4 169.1 161.7 156.2 150.5 147.0 142.1 138.2 134.0 130.0 129.1 122.9 119.8 119.5 119.8 119.8 118.5 115.2 111.6 109.8 109.7 109.4 107.2 101.4 101.3 100.4 99.9 99.4 98.9 98.9 99.7 101.9 105.5 106.7 106.3 105.7 106.9 109.1 112.7 117.5 124.9 134.4 148.5 153.0 170.1 177.2 158.3 166.7 173.1 168.2 149.9 127.4 109.7 92.3 81.8 94.9 119.8 121.0 109.7 92.4 74.2 62.7 54.8 50.2 41.7 32.5 20.2 20.0 20.4 27.7 21.1 12.2 9.5 10.0 10.0 10.0 9.9 13.2 18.8 19.1 20.8 25.7 29.6 30.2 30.3 30.1 30.0 30.7 37.4 42.7 52.4 65.3 82.6 103.2 120.2 130.9 140.5 140.0 140.0 139.8 129.5 122.8 135.4 168.6 202.6 223.1 233.2 240.9 243.8 249.2 238.9 229.3 214.1 197.5 189.2 177.2 165.1 154.0 140.5 114.3 91.8 74.9 62.0 50.2 37.7 28.8 32.2 47.9 57.6 60.7
208.5 205.6 199.5 190.3 181.4 172.8 165.1 158.1 153.1 148.6 144.4 140.1 139.2 132.8 130.4 128.8 123.9 122.9 122.7 121.3 119.6 118.9 118.7 110.7 110.1 108.6 103.4 100.0 100.0 100.0 98.8 98.7 97.9 97.8 98.8 99.5 101.5 103.0 101.9 101.2 103.3 107.8 110.6 117.7 128.2 140.1 150.1 148.1 148.1 158.3 148.3 153.4 174.7 177.3 159.0 139.0 118.6 99.3 79.0 92.7 115.0 117.2 99.7 85.0 66.7 54.5 43.6 35.4 29.0 20.1 20.0 20.0 25.0 31.4 30.2 16.6 9.6 10.0 10.0 10.0 10.5 16.0 20.0 20.4 21.9 23.2 28.6 30.4 30.6 30.7 30.8 34.2 39.4 46.6 58.8 70.8 87.9 99.2 109.6 112.3 123.8 137.5 138.6 127.0 109.8 106.0 119.6 141.9 184.5 208.0 224.9 236.7 247.6 250.0 246.9 227.8 207.0 185.1 170.4 159.8 142.3 125.9 109.2 92.4 77.5 71.8 59.3 42.0 38.5 32.1 40.0 49.2 53.5 57.2
223.5 225.7 217.8 206.9 197.2 187.4 171.5 159.9 156.8 150.9 148.1 143.4 140.8 136.1 131.5 129.8 128.4 128.1 128.8 125.7 120.7 120.0 120.0 113.2 111.4 110.3 106.4 100.3 100.0 100.0 99.0 98.6 96.8 96.3 97.5 98.1 99.0 99.9 99.0 98.7 99.7 104.3 110.2 117.9 122.0 128.8 140.8 140.7 131.8 140.1 136.5 145.1 171.9 180.8 162.9 143.4 122.3 103.3 80.4 85.9 105.3 104.0 89.9 72.8 57.4 46.5 37.5 30.2 28.7 22.2 20.1 21.0 32.8 38.4 29.9 16.8 10.4 10.0 10.0 10.0 10.0 11.8 18.5 20.0 19.9 19.6 20.6 25.6 29.0 30.0 31.1 33.5 39.4 47.5 59.8 73.3 85.6 87.7 81.9 92.4 112.4 129.2 126.3 108.7 91.7 92.0 109.7 129.6 158.4 180.4 199.6 215.0 229.0 246.7 242.6 226.0 206.9 191.3 176.9 163.1 150.1 130.8 110.8 97.7 96.0 90.4 72.3 50.1 39.1 40.1 45.4 50.6 49.8 50.9
242.2 248.9 242.6 231.3 217.2 204.8 191.6 170.0 159.6 154.8 150.1 146.1 142.4 139.0 137.3 135.0 135.5 133.5 131.1 129.9 125.3 121.5 120.9 117.7 113.4 111.4 108.6 102.2 100.8 100.0 99.7 99.2 95.8 93.8 95.6 96.0 96.8 97.5 96.7 98.3 99.6 104.9 110.9 112.9 113.6 117.9 130.5 140.2 132.4 127.7 124.0 143.2 167.4 180.5 166.9 146.8 123.6 104.4 80.6 79.1 93.1 93.5 84.5 65.7 48.0 39.2 31.6 29.5 31.7 30.0 28.0 34.4 41.3 40.0 32.6 20.5 13.2 10.1 10.0 10.0 10.0 10.7 15.8 18.8 19.2 19.5 19.5 19.7 20.5 23.2 29.5 29.9 33.8 42.2 54.7 65.3 72.3 68.4 69.8 92.1 111.1 122.8 117.8 92.6 78.8 90.2 108.0 118.0 131.3 154.4 172.2 185.0 200.7 219.1 228.8 222.1 211.8 206.5 198.9 188.4 170.9 151.7 131.4 112.6 100.9 91.2 67.0 49.8 44.7 47.9 52.9 60.2 54.2 50.0
258.6 270.1 268.9 256.6 239.4 223.9 204.5 182.5 166.1 159.0 153.6 149.4 145.6 140.6 140.1 141.1 140.7 139.2 134.6 131.2 127.3 123.1 120.9 117.4 113.7 111.2 109.0 103.9 101.9 100.7 99.5 98.3 93.6 91.3 93.5 94.0 94.9 95.6 93.3 97.1 99.4 105.2 110.2 110.4 107.7 109.7 123.8 137.5 137.3 122.5 116.0 135.0 157.1 173.1 166.9 147.4 122.3 105.0 79.3 77.8 90.1 91.7 81.4 66.6 49.0 41.6 39.5 37.5 39.7 30.1 30.7 40.9 45.9 40.0 35.7 25.1 18.3 11.7 10.3 10.0 10.0 10.6 14.0 17.0 18.2 20.0 19.9 19.6 19.6 20.0 22.6 25.9 28.8 34.9 44.7 52.2 54.8 54.8 71.4 91.3 107.1 113.3 101.9 81.2 70.4 87.9 99.2 101.9 110.3 132.7 144.2 150.9 168.3 194.0 211.6 219.1 219.5 221.2 215.9 203.3 184.8 159.1 133.9 105.9 84.8 68.2 57.8 51.3 49.4 48.6 52.2 60.4 60.5 50.3
270.4 290.1 298.5 279.6 259.3 232.2 213.4 191.1 173.3 163.7 157.1 152.9 149.2 146.7 145.8 144.8 142.2 140.1 136.0 131.9 128.1 123.6 120.0 116.8 113.6 112.3 110.2 107.1 103.4 101.6 98.5 94.8 90.9 89.8 90.5 91.2 91.5 91.0 89.8 92.2 95.9 101.6 110.8 108.6 99.7 103.5 121.6 134.9 139.1 122.8 109.0 124.5 140.8 157.5 155.4 137.9 117.7 100.6 69.4 71.8 84.8 90.9 83.1 71.6 59.4 50.3 43.0 40.4 38.8 30.0 35.3 49.4 50.5 44.5 35.6 26.4 19.0 14.5 12.2 10.3 10.0 11.7 15.2 17.2 19.3 20.5 21.0 20.0 20.0 20.0 20.0 21.4 26.1 29.4 36.6 39.1 43.6 51.5 68.1 84.0 94.5 95.7 84.4 65.9 64.7 80.8 83.9 88.1 100.2 111.8 119.1 133.0 149.3 172.6 192.6 211.1 221.0 227.8 218.7 201.3 183.0 160.5 130.1 109.0 92.4 74.5 60.5 57.0 50.0 41.9 45.8 57.1 60.2 58.1
273.3 302.5 312.0 294.4 264.4 239.8 219.3 202.1 188.2 171.5 159.5 156.7 153.8 151.7 150.8 148.9 144.3 140.3 135.3 130.4 126.1 122.1 119.2 115.0 112.2 111.9 110.9 108.8 104.8 102.1 98.7 95.0 91.3 89.7 89.8 89.4 89.8 89.7 89.0 90.1 92.7 97.1 102.1 100.0 97.9 101.5 118.1 130.0 134.5 124.2 109.7 112.2 125.8 133.8 131.6 120.9 107.0 93.1 69.1 68.0 79.7 87.1 80.3 73.4 62.9 53.2 44.6 39.9 40.0 37.9 40.0 46.9 44.0 39.5 31.4 21.4 17.7 14.7 12.9 10.8 10.0 11.3 15.0 17.2 19.6 20.5 22.8 23.4 23.4 26.9 24.3 20.2 21.7 28.6 33.6 37.1 45.9 58.8 69.5 78.5 82.7 77.6 66.3 59.2 62.1 71.3 74.6 80.1 88.0 102.6 116.8 125.5 136.1 145.5 175.2 204.4 226.3 223.3 206.5 186.5 168.7 151.6 133.2 120.2 99.5 84.8 68.4 63.0 52.1 40.0 40.0 49.2 62.1 72.0
269.2 300.3 319.9 303.0 272.1 251.5 233.4 221.7 203.6 185.4 168.7 159.7 158.5 155.3 152.9 150.1 145.5 139.8 134.8 129.9 124.9 120.9 118.3 111.5 110.5 110.8 110.3 108.0 103.9 101.5 98.2 94.4 90.6 89.7 89.0 87.1 87.5 87.7 88.2 88.8 90.0 92.3 95.2 93.6 90.5 98.2 112.6 124.9 130.1 121.9 108.8 99.1 110.8 118.3 113.0 98.1 86.8 82.4 69.4 61.8 70.1 80.5 77.7 71.1 60.4 51.0 48.1 43.5 42.7 40.3 41.1 40.3 35.0 29.4 22.7 19.4 16.7 15.1 13.6 11.5 10.2 11.8 15.3 16.7 19.1 22.6 27.3 29.3 32.3 36.1 34.5 30.0 28.5 30.0 32.2 38.9 50.8 59.4 67.1 70.6 67.2 58.7 53.4 58.2 59.7 65.4 69.4 76.8 82.3 92.1 100.5 109.4 119.8 139.7 170.5 202.0 218.4 214.4 187.0 154.4 133.8 123.1 112.8 106.0 96.5 84.9 75.2 67.0 56.1 40.0 40.0 40.0 54.0 61.4
269.9 290.2 310.6 310.3 295.0 272.0 257.7 242.0 221.2 197.7 179.0 167.4 163.3 159.4 154.0 149.2 144.0 138.4 133.4 128.6 123.1 119.0 113.9 109.9 109.9 110.0 108.4 102.7 101.7 100.5 97.3 93.8 90.4 89.7 88.9 84.9 85.9 86.0 85.6 86.1 87.5 88.9 90.3 89.4 88.7 90.7 105.9 120.4 123.1 119.4 110.1 98.3 96.6 104.7 97.0 80.9 69.3 68.5 60.5 60.0 63.4 71.1 70.1 66.1 60.1 57.4 52.1 48.9 47.4 44.8 41.8 39.3 29.3 25.3 20.2 20.0 19.2 18.5 17.4 15.5 13.0 19.5 20.0 20.0 20.1 25.4 30.5 34.4 39.5 43.7 44.8 41.1 36.0 30.3 30.0 33.4 43.6 50.5 55.7 56.2 51.6 49.1 50.8 55.4 59.9 64.9 69.6 74.7 79.5 90.7 94.4 101.0 114.4 133.6 162.7 193.6 212.4 209.7 173.8 140.3 114.0 98.4 91.3 88.0 83.5 79.3 75.7 69.8 55.7 42.2 39.7 38.9 38.4 49.1
283.2 291.9 302.5 310.6 313.7 301.1 276.2 259.1 228.6 205.3 188.1 172.8 167.5 163.1 158.5 156.0 150.8 141.6 134.4 128.0 122.0 117.9 112.9 109.4 109.1 109.3 105.7 100.8 100.4 99.0 95.3 92.9 90.2 89.7 89.0 81.2 83.2 83.5 82.5 82.0 83.8 85.4 86.5 86.7 88.0 89.3 97.5 115.5 121.3 120.0 113.2 98.4 89.7 89.7 80.1 83.9 84.2 77.0 64.7 60.0 59.9 60.3 61.8 61.9 60.0 60.0 58.7 51.7 50.6 49.4 43.0 39.1 28.0 22.3 20.0 20.0 19.0 18.1 17.5 17.9 16.8 19.7 20.2 22.3 25.2 27.9 30.7 38.1 44.0 50.3 53.5 51.4 47.6 39.0 30.8 30.0 36.0 39.7 39.9 40.3 46.1 46.3 48.8 54.5 60.8 68.4 73.5 80.8 88.9 98.8 109.7 109.3 110.2 126.0 155.7 187.6 210.1 208.6 178.2 148.2 119.9 90.2 77.2 69.3 64.4 65.7 70.4 69.7 58.9 46.6 40.2 39.9 32.6 29.5
311.9 316.4 314.9 319.2 327.7 311.4 284.2 253.3 227.4 205.5 189.5 177.0 171.4 168.2 164.2 168.9 164.5 149.5 136.0 126.3 119.9 116.4 111.9 109.0 107.9 107.6 103.1 100.0 99.6 96.9 92.8 92.4 90.5 86.3 81.5 79.9 80.1 80.6 80.3 79.8 80.4 81.5 82.3 82.9 83.5 86.5 91.0 106.0 117.9 120.6 115.2 103.7 90.0 89.9 94.8 99.9 93.1 82.9 70.1 60.8 59.5 57.4 51.8 59.3 60.0 60.0 60.3 58.4 52.5 49.8 41.0 34.0 26.9 20.2 20.0 20.0 19.0 18.0 18.4 19.1 19.0 21.5 28.3 32.6 32.5 30.1 29.7 38.4 46.4 54.3 60.2 61.5 58.8 54.2 42.6 31.8 32.4 37.5 38.6 40.4 43.3 45.2 48.7 52.8 58.8 66.8 78.7 89.5 101.0 110.7 119.0 122.2 118.7 123.2 150.3 177.3 203.7 199.4 176.4 143.3 115.4 89.6 73.4 61.8 57.6 58.3 70.6 70.8 65.9 58.9 49.5 47.5 45.7 29.9
351.6 356.1 349.5 333.8 334.7 321.1 291.3 255.1 228.9 208.8 192.8 183.3 178.4 178.1 186.2 185.9 175.2 158.2 140.2 126.9 118.2 114.4 110.2 107.9 106.6 104.2 100.9 99.2 98.8 95.3 91.2 91.7 90.5 88.0 85.1 80.9 79.9 79.9 79.4 79.1 79.1 77.8 78.4 79.6 80.0 80.8 87.8 95.3 111.6 119.6 113.4 101.3 92.7 92.9 100.0 100.0 98.0 82.9 68.6 59.0 56.2 52.1 50.0 53.3 59.8 56.5 57.1 52.2 50.1 42.3 34.0 29.3 23.7 20.0 19.8 19.8 19.1 18.5 18.7 19.4 19.8 29.6 33.9 40.2 40.0 38.1 34.9 39.6 42.4 54.0 61.9 69.2 73.3 71.7 62.5 47.1 40.2 40.0 40.0 40.0 40.2 42.9 49.9 55.7 61.5 70.1 81.0 94.0 103.7 112.1 120.3 127.9 130.5 130.2 141.4 165.0 179.3 182.9 164.3 130.9 100.2 82.1 65.8 56.4 50.5 48.8 65.3 70.0 70.0 63.4 57.0 51.2 50.3 37.6
381.6 382.4 371.6 355.4 345.6 332.2 304.5 269.5 238.9 214.6 199.6 194.9 179.5 186.1 199.6 198.1 181.4 158.3 142.8 131.2 118.3 113.7 109.2 107.4 105.0 101.5 99.4 98.4 97.8 93.3 90.0 90.5 90.2 88.2 86.0 81.5 80.5 80.6 79.9 79.5 78.9 74.9 75.2 76.7 77.1 79.4 82.4 87.7 98.6 111.4 110.1 103.5 98.5 98.2 100.0 100.0 99.5 84.2 68.8 59.2 55.9 52.0 50.0 50.0 49.9 48.0 49.9 50.6 46.1 35.3 29.2 28.0 22.1 20.0 20.0 20.0 19.3 19.0 19.2 19.3 20.0 27.3 29.9 38.9 40.2 39.3 39.4 40.6 46.1 51.3 60.8 73.5 83.1 87.1 79.9 68.2 52.5 41.4 40.0 40.0 40.0 40.0 46.1 50.8 57.4 68.5 79.2 92.1 99.6 107.6 120.4 132.3 139.2 140.5 141.8 149.1 162.8 165.4 155.8 134.7 99.9 78.7 61.5 53.8 49.7 44.9 52.6 70.0 70.0 62.1 49.9 35.7 25.9 29.0
407.4 401.9 387.4 367.8 354.6 341.7 311.1 276.0 242.2 225.8 219.5 206.7 191.1 188.3 201.6 200.4 178.6 154.1 141.8 132.2 119.0 115.8 110.1 108.2 105.0 100.6 98.3 96.8 94.1 90.8 89.3 89.4 89.1 82.8 83.0 81.5 81.0 80.3 79.8 79.4 78.7 70.7 72.5 74.2 74.2 77.6 78.5 80.7 89.5 102.0 109.1 100.0 100.6 100.0 100.0 100.0 99.8 87.1 74.5 62.4 52.6 49.2 49.8 49.2 40.5 44.6 49.5 50.4 40.7 29.8 27.5 24.3 20.0 20.0 20.0 20.0 19.9 20.0 21.4 19.5 19.9 23.2 28.2 29.5 38.6 40.2 44.5 49.7 53.0 59.8 68.6 78.3 88.9 90.7 90.3 80.3 67.0 50.6 40.0 40.0 40.0 40.0 41.4 46.8 50.4 61.5 77.7 87.2 95.3 104.5 113.2 122.8 131.7 140.4 139.1 134.3 137.8 142.3 141.2 128.0 99.8 79.8 59.1 49.0 46.3 40.1 42.5 58.5 59.0 48.7 31.5 27.8 23.6 18.9
431.6 418.2 397.7 377.5 360.5 342.8 313.3 280.3 256.2 247.1 237.4 221.3 203.2 192.2 204.4 198.8 175.2 151.6 139.6 128.8 122.0 119.2 114.0 109.7 107.7 102.6 98.5 95.6 91.1 89.8 88.5 88.3 88.0 81.2 81.7 80.8 80.7 79.8 77.1 74.5 71.6 68.6 69.9 71.0 69.0 73.2 74.7 76.9 80.0 93.7 99.9 98.3 99.6 100.0 100.0 100.0 99.5 87.1 75.9 63.8 53.6 49.2 49.8 43.2 40.0 39.9 40.0 34.1 31.8 28.8 29.6 30.2 26.3 20.0 20.0 20.0 19.9 23.4 30.2 25.2 24.2 29.7 30.0 30.0 33.3 41.2 49.4 55.2 63.3 73.6 78.4 83.3 86.7 87.5 84.3 79.0 67.7 52.4 40.0 40.0 40.0 40.0 40.1 45.5 52.7 63.6 74.8 82.2 88.1 94.8 96.6 105.5 119.2 134.9 130.0 114.4 126.5 116.2 107.1 102.4 89.3 72.5 59.0 48.7 50.0 50.8 40.9 39.9 38.6 39.7 49.5 54.2 52.8 37.3
452.4 432.6 412.0 389.4 368.3 349.8 324.2 304.3 284.7 273.3 261.8 238.8 209.3 200.4 211.9 201.3 178.6 155.9 141.4 132.7 127.0 122.8 119.4 113.5 109.4 105.5 100.8 96.8 91.5 89.5 88.0 87.2 86.5 80.1 80.3 80.1 80.2 79.3 76.7 74.6 72.2 68.9 67.0 67.0 67.0 70.3 70.4 71.8 75.1 80.0 87.8 87.9 89.5 95.5 98.6 93.9 92.1 83.9 71.6 59.2 60.3 63.0 58.1 45.5 38.8 38.3 37.4 30.9 30.0 30.0 35.9 40.5 40.1 21.1 20.0 20.0 19.9 20.0 30.0 30.0 30.3 31.4 30.1 30.1 36.2 45.2 51.5 60.0 74.1 84.9 92.8 92.4 88.2 79.8 73.2 68.9 60.6 49.4 40.0 40.0 40.0 40.0 40.0 40.8 48.2 59.8 69.3 73.8 75.2 74.1 79.2 95.4 113.7 131.4 129.0 102.3 109.1 109.4 94.8 85.3 73.4 63.8 58.7 49.8 50.6 51.1 42.9 39.4 59.5 71.9 77.9 77.4 69.5 54.9
461.2 443.3 422.8 400.4 382.2 365.6 350.8 326.2 307.0 290.2 270.1 245.4 214.3 210.9 220.2 207.3 185.2 169.2 150.7 137.9 131.5 126.9 122.2 116.9 111.8 107.5 102.9 98.8 94.7 90.4 87.7 85.6 83.0 80.1 79.6 79.8 79.7 78.1 74.2 72.9 71.8 70.3 67.0 67.0 67.0 67.2 68.5 68.9 69.3 71.1 74.1 75.1 76.5 80.4 87.5 86.9 84.9 77.4 68.7 70.4 73.2 70.4 57.0 46.8 39.9 39.1 38.8 33.0 30.0 31.3 40.3 40.6 37.8 21.8 20.0 20.0 19.9 20.0 25.4 30.5 32.3 39.9 37.9 35.9 39.8 49.8 57.7 71.1 88.1 99.2 109.4 103.8 94.1 81.5 70.0 63.2 57.0 48.0 40.0 40.1 41.8 41.7 40.5 40.0 42.8 48.6 57.5 63.0 62.1 64.4 74.3 92.1 110.1 129.3 125.2 103.1 96.8 100.3 100.0 92.6 79.0 66.3 59.4 53.5 49.8 50.0 44.3 39.6 66.9 88.7 103.5 100.2 93.4 75.0
463.2 448.7 426.5 404.9 390.2 375.1 361.2 339.0 312.8 290.1 264.1 239.8 220.2 225.4 230.3 222.1 198.1 183.1 162.2 146.0 136.7 130.6 126.3 119.6 114.4 109.0 104.6 100.1 96.3 91.8 88.8 86.1 83.4 80.4 79.9 79.5 78.9 77.2 74.2 73.5 72.4 70.8 69.7 67.0 67.0 68.7 68.6 68.2 67.6 68.3 68.7 68.2 69.3 71.4 78.6 81.4 80.6 80.0 80.4 85.1 81.5 71.9 59.4 52.5 46.6 42.8 40.0 38.5 34.1 38.8 40.2 40.2 35.0 24.5 20.0 20.0 19.9 20.0 22.8 28.7 37.2 42.0 44.1 42.7 44.2 51.1 62.4 78.3 97.0 113.0 120.3 115.9 104.4 89.0 72.6 63.3 56.9 48.8 41.1 40.7 45.5 46.9 45.4 43.6 44.6 49.0 49.8 53.6 56.1 59.8 71.7 85.1 104.6 117.4 107.6 95.8 86.5 90.7 100.8 100.9 87.1 69.0 62.2 58.5 58.4 60.3 58.5 45.0 59.1 87.9 110.0 113.0 106.4 91.8
463.9 447.5 426.1 405.4 390.2 369.9 345.2 324.4 300.6 276.7 249.7 238.9 239.7 244.8 248.9 241.3 222.0 195.2 175.9 153.1 142.5 137.1 133.0 128.0 118.5 111.3 106.4 101.2 96.9 92.3 89.2 87.2 85.4 81.4 80.5 79.9 78.7 77.2 74.9 74.1 72.7 71.5 70.4 68.8 67.0 68.8 68.4 67.7 66.2 66.5 66.8 66.1 68.0 69.4 72.4 77.2 78.4 82.0 90.4 90.1 88.6 73.6 71.5 70.2 59.0 51.0 47.2 40.0 38.8 39.4 40.2 42.5 40.1 32.0 20.4 20.0 19.9 20.0 21.4 26.7 35.5 45.0 49.8 50.6 50.2 56.1 65.0 81.0 97.1 116.8 121.4 121.7 113.9 97.3 80.5 66.4 59.4 51.1 47.9 49.1 50.0 50.0 50.1 48.9 48.6 50.0 50.0 50.0 51.3 57.0 66.6 78.7 96.1 100.4 91.6 80.0 78.9 89.3 100.0 100.6 99.7 85.0 75.9 74.7 79.4 84.5 72.7 52.0 55.1 86.4 110.2 121.1 117.0 99.5
465.6 450.1 429.6 411.2 391.7 377.0 343.1 319.4 293.7 273.7 261.0 256.9 256.5 260.3 260.7 257.8 234.2 210.5 183.7 161.1 149.0 145.5 143.6 139.1 126.5 116.5 109.1 102.5 97.3 92.3 89.2 87.4 85.7 82.0 81.3 80.7 79.5 77.7 74.7 73.7 71.8 71.0 69.9 67.9 67.0 68.4 68.1 66.7 64.5 64.8 65.0 61.8 67.8 70.0 72.7 74.2 77.4 86.6 100.1 98.5 90.0 79.6 80.1 73.6 63.8 54.0 47.5 39.9 38.5 39.3 41.6 48.6 46.8 39.5 23.2 20.0 19.9 20.0 20.0 24.0 32.6 48.9 51.6 56.3 60.1 61.0 69.5 85.6 97.1 113.8 123.6 129.8 122.4 105.4 87.7 69.6 60.9 53.8 49.6 49.3 50.0 50.0 51.0 51.4 51.2 50.0 50.0 50.0 50.0 51.7 58.8 66.5 80.9 79.3 73.0 71.7 79.3 83.5 99.1 107.0 113.0 109.5 102.0 100.9 101.1 94.0 74.8 49.9 57.6 88.7 112.4 124.3 123.0 110.0
474.9 466.0 448.7 424.7 398.6 380.5 349.8 323.6 295.5 281.7 269.5 271.0 270.8 270.6 269.5 262.9 239.9 217.7 189.1 171.2 161.4 163.0 161.0 153.7 141.6 127.7 117.5 107.4 98.3 93.2 89.5 87.7 85.8 82.8 82.0 81.0 79.7 77.9 73.5 72.9 70.4 70.7 69.4 67.0 65.4 65.9 65.3 63.9 61.9 61.6 60.9 59.8 61.8 66.2 70.3 70.0 71.9 82.1 90.5 92.0 97.4 90.8 84.0 73.2 60.2 50.9 49.0 44.9 42.1 45.7 50.2 50.0 50.0 41.1 20.9 20.0 19.9 20.0 20.0 22.3 33.8 50.3 54.6 60.6 62.4 68.6 80.5 95.3 107.6 124.2 133.0 133.1 130.0 113.0 92.3 75.6 62.5 55.4 50.1 48.9 50.0 50.2 51.7 53.5 56.8 57.8 57.8 56.2 52.4 53.4 59.3 59.6 60.9 65.8 69.4 69.0 71.3 79.6 94.6 108.1 120.4 118.7 111.4 110.8 108.8 97.1 69.2 55.1 62.3 88.5 116.9 130.0 130.5 120.0
482.8 473.2 463.0 440.2 408.2 380.8 344.2 317.8 286.0 271.1 245.4 240.2 253.0 262.5 260.9 259.5 240.9 225.7 199.7 185.3 181.3 181.5 179.0 171.7 161.2 145.7 131.6 117.2 101.1 93.9 89.8 87.6 85.3 83.0 81.9 80.1 78.1 75.6 71.2 71.0 69.9 70.0 69.2 66.8 64.8 63.9 62.2 60.4 60.0 60.0 60.0 59.9 59.6 60.1 63.2 66.0 69.7 83.4 92.2 90.1 100.3 98.6 86.8 68.8 58.4 52.6 49.5 49.2 53.2 58.3 57.5 50.0 50.0 38.6 20.7 20.0 19.9 20.0 20.0 23.3 37.9 48.0 51.2 59.0 63.8 72.3 89.4 105.7 122.4 138.3 146.6 139.3 130.6 115.2 96.3 80.0 65.3 58.5 53.4 51.0 49.9 50.0 53.4 57.2 61.1 66.2 69.9 65.9 59.5 58.3 60.0 60.0 60.0 60.4 65.8 67.8 72.6 84.4 98.5 108.7 118.0 115.7 110.8 110.3 106.4 87.1 69.1 66.4 68.7 85.3 112.2 130.0 130.1 118.6
472.0 460.3 450.4 436.7 412.3 382.7 353.1 322.5 290.4 272.1 250.6 227.9 216.9 225.3 239.4 251.4 247.3 235.6 218.6 209.2 202.0 202.0 200.5 191.4 175.0 158.6 143.3 125.8 106.4 92.7 88.5 85.9 83.8 82.2 81.3 79.4 76.1 72.6 69.9 70.0 69.3 69.8 67.0 63.9 63.2 63.5 62.4 60.9 60.0 60.0 60.0 59.8 59.2 59.2 59.3 61.9 67.2 84.0 90.2 79.4 85.4 94.1 86.6 72.3 62.7 61.5 62.8 63.9 66.1 60.5 60.3 56.3 48.4 35.1 23.2 20.0 19.9 20.0 20.0 26.5 39.7 43.5 47.6 52.9 60.2 67.0 88.3 101.9 119.8 140.9 151.1 140.8 125.7 106.5 93.9 76.9 64.8 60.0 56.4 53.5 50.8 50.0 54.3 59.3 67.9 74.9 83.9 82.7 66.6 59.7 60.0 60.0 60.0 60.4 65.4 68.3 69.8 79.1 96.9 109.0 121.1 120.2 115.1 109.0 100.4 79.1 86.4 97.0 82.4 80.1 105.6 127.8 130.9 120.7
428.8 410.9 405.8 404.6 399.3 381.9 359.3 332.7 306.2 284.9 264.8 237.7 211.5 191.1 207.8 224.4 237.8 241.2 237.2 227.9 220.4 222.0 220.9 201.5 182.2 162.7 145.8 127.1 107.5 90.8 87.7 84.5 82.5 81.4 81.0 79.5 76.5 73.8 70.6 69.6 69.0 69.4 66.7 64.0 63.3 63.2 63.1 62.3 60.2 60.2 60.1 59.8 59.6 58.9 58.2 59.3 63.3 74.9 81.9 75.4 77.5 86.6 90.3 80.6 76.4 75.0 72.2 70.2 70.4 64.1 61.1 56.3 47.0 33.8 23.5 20.0 19.9 20.0 20.0 27.5 34.3 38.7 42.5 47.9 56.2 65.6 78.9 91.8 106.9 124.9 130.5 122.6 106.5 93.3 78.0 68.1 61.8 60.3 59.1 57.7 55.0 53.5 59.6 62.6 74.2 90.4 108.4 103.2 80.0 63.3 60.0 60.0 60.0 62.9 68.8 69.9 73.6 77.9 90.0 107.8 120.1 120.4 117.8 110.3 94.7 87.9 105.6 115.0 99.2 85.9 103.7 126.9 133.3 127.4
384.5 363.6 362.9 365.0 364.3 360.7 350.7 338.1 304.2 282.6 258.2 225.6 204.0 182.8 184.6 198.6 212.7 229.2 236.3 229.1 221.0 220.5 212.6 193.7 173.0 153.5 136.3 119.0 102.4 89.6 87.2 82.7 81.1 80.4 80.4 78.9 76.5 74.3 71.5 70.0 69.2 68.8 66.8 64.7 63.6 62.3 62.4 62.1 60.9 60.4 59.8 59.5 59.2 58.5 56.4 58.4 59.7 66.7 71.1 67.2 70.2 83.3 97.7 96.4 91.8 89.6 80.9 74.4 70.6 59.0 57.2 50.5 43.4 33.2 23.3 20.0 19.9 20.0 20.0 23.8 29.9 33.5 37.9 42.2 51.5 60.0 69.6 79.2 94.7 104.1 105.1 97.8 83.8 70.1 60.4 60.3 60.0 59.4 58.8 58.0 57.2 57.5 59.7 64.4 78.4 96.4 111.4 110.3 91.1 75.6 66.6 63.7 65.3 68.6 70.7 74.4 77.9 79.5 85.0 105.8 120.0 120.2 115.6 106.5 99.4 105.8 120.2 126.1 115.1 97.0 114.8 138.2 140.9 133.1
346.7 321.1 315.3 321.1 323.3 324.8 323.4 323.2 295.9 271.5 243.7 219.8 198.6 169.2 163.8 172.4 191.0 208.4 211.9 207.9 207.7 203.8 191.5 174.5 156.1 140.1 119.0 103.4 94.0 87.9 84.2 80.8 79.9 79.3 78.6 75.9 74.3 73.2 71.4 70.5 69.5 69.0 67.0 64.8 63.5 61.2 61.5 61.6 60.8 60.1 59.7 59.3 59.1 58.2 52.3 55.2 58.3 59.5 60.8 59.2 69.5 84.6 99.9 100.7 99.9 92.4 82.0 71.1 61.9 49.7 41.0 41.5 36.8 30.2 21.7 20.0 19.9 20.0 20.0 22.3 27.9 29.2 32.4 37.5 43.4 50.4 59.2 69.0 84.8 91.8 87.0 74.1 61.0 54.6 53.3 60.0 60.0 59.9 61.2 60.3 59.0 58.6 59.8 64.3 72.3 90.7 108.0 110.0 104.8 91.0 80.3 72.0 71.0 73.8 78.2 88.5 94.9 97.0 97.2 107.7 120.1 120.1 112.6 110.0 110.8 123.4 134.8 135.0 124.6 108.4 124.2 144.5 149.9 140.4
327.2 303.1 283.7 279.8 289.1 295.9 291.1 305.0 295.1 275.8 253.0 229.6 204.6 181.6 152.8 151.5 174.0 189.7 184.9 176.5 182.0 182.9 168.8 152.6 140.3 123.7 105.6 96.3 90.3 86.2 82.2 79.5 78.5 77.3 76.1 74.6 73.5 72.6 71.4 70.8 70.0 69.4 67.3 65.1 63.5 60.1 60.3 60.8 60.5 60.2 58.4 56.4 54.3 51.9 49.9 51.0 53.8 56.1 57.1 58.7 69.3 79.9 91.2 98.4 93.0 85.0 73.3 62.3 53.3 44.7 38.0 35.9 29.2 24.9 20.0 20.0 19.9 20.0 20.3 22.7 26.7 27.9 30.0 35.1 40.5 46.9 58.5 68.4 75.5 75.2 64.1 54.1 49.0 49.2 50.0 52.7 57.9 60.7 63.3 62.6 60.2 59.1 60.8 65.5 68.8 79.7 91.1 108.2 112.7 106.8 98.8 93.8 91.5 94.9 96.7 103.3 112.4 113.8 111.3 112.4 120.8 120.7 111.9 110.6 128.8 143.1 149.6 145.0 133.0 121.7 131.6 148.0 150.6 141.3
312.2 285.7 263.8 253.2 264.3 277.4 269.8 280.7 280.9 261.3 235.6 216.0 196.1 176.3 155.0 140.9 159.0 167.4 160.5 149.0 154.0 157.1 147.7 137.8 125.5 114.3 99.8 92.3 88.0 84.3 80.5 79.1 77.7 75.8 73.8 73.2 72.4 71.9 70.8 70.8 70.4 69.9 66.9 63.7 61.4 59.9 59.3 59.8 60.0 59.3 57.0 55.5 53.6 51.8 50.0 49.9 51.3 53.5 54.7 57.3 63.5 73.9 84.9 87.8 80.6 72.7 61.2 52.2 48.2 41.0 36.7 32.1 26.9 20.2 20.0 20.0 19.9 20.0 20.4 22.9 26.1 28.1 30.9 33.9 38.0 44.5 56.2 61.1 63.3 53.4 47.6 45.5 43.3 47.4 50.0 54.5 60.6 68.5 69.4 69.6 66.2 61.6 65.1 68.9 70.2 78.0 88.5 104.3 117.8 119.1 118.1 114.8 114.7 116.2 118.1 120.2 129.6 126.6 121.8 120.0 126.5 122.5 111.5 117.9 139.3 150.4 155.8 151.3 142.6 135.1 141.5 140.8 143.4 136.3
309.7 297.3 269.9 240.6 251.3 261.9 240.9 251.7 255.1 235.2 212.4 195.2 180.4 162.3 148.9 139.1 141.6 145.8 142.0 133.9 134.0 138.0 131.4 119.0 113.3 104.5 95.8 89.9 86.2 82.3 79.7 78.5 77.1 73.7 70.9 71.5 71.2 70.9 70.2 70.2 70.2 70.2 68.3 65.0 62.9 60.7 59.4 58.4 58.5 58.0 55.6 54.7 53.5 52.6 50.5 50.1 49.8 50.8 51.0 52.2 58.3 63.2 67.7 68.8 69.1 62.1 54.6 47.3 42.0 38.4 35.3 31.8 28.0 23.2 20.0 20.0 19.9 20.0 20.0 21.7 24.7 26.9 29.6 31.0 33.2 38.4 44.6 48.8 44.1 40.0 40.1 40.1 39.8 40.8 48.4 59.7 70.2 75.5 86.8 87.0 77.5 68.2 69.8 72.0 76.8 85.3 99.6 111.5 124.1 130.9 137.4 142.7 139.0 138.0 137.6 133.9 140.3 139.0 130.8 132.4 135.1 131.9 120.7 121.3 141.9 157.5 160.9 158.7 153.6 151.3 150.9 146.5 139.8 130.3
287.3 285.4 268.0 234.5 228.1 231.2 219.2 224.4 227.3 219.1 197.3 179.0 168.6 158.3 143.0 131.7 132.1 131.5 127.0 123.2 121.0 122.9 117.2 108.3 100.8 97.3 93.1 89.2 85.5 81.7 78.8 76.0 73.1 70.3 70.0 70.0 70.0 70.0 70.0 69.5 69.2 68.5 63.1 61.7 61.5 60.9 59.7 58.2 57.5 56.9 55.5 54.7 53.8 52.8 50.9 50.2 49.9 49.3 49.2 49.4 50.3 54.1 58.4 59.7 59.9 57.0 50.4 45.6 40.3 37.7 35.2 32.6 29.6 24.2 20.0 20.0 19.9 20.0 20.0 20.6 22.5 24.1 28.7 29.5 29.7 30.5 33.8 35.3 32.9 37.0 39.3 39.1 40.2 45.0 52.1 63.5 71.5 78.0 96.5 101.7 95.0 73.8 68.3 72.2 76.5 80.7 92.5 106.6 121.3 132.7 144.1 150.3 150.7 147.6 143.1 139.3 139.9 144.7 146.2 146.2 149.3 147.6 138.9 126.5 139.6 154.2 160.5 164.4 164.0 162.9 155.8 144.2 134.6 126.5
251.9 254.1 256.4 240.0 219.6 206.0 199.2 199.0 203.6 200.2 189.5 168.6 157.9 148.6 141.3 130.5 122.5 124.4 119.5 116.7 115.2 113.0 110.6 101.2 97.7 92.4 90.4 86.8 83.1 79.7 77.5 74.9 72.2 69.9 69.4 69.6 69.8 68.7 66.1 65.3 65.3 64.6 61.0 60.3 60.4 60.2 59.4 57.8 56.7 55.9 54.6 53.8 52.9 51.7 50.4 49.7 49.3 48.6 48.3 48.5 48.6 49.9 52.0 56.4 53.2 49.8 47.2 43.6 41.2 38.3 35.6 32.9 30.1 26.4 21.0 20.0 19.9 20.0 20.0 20.1 21.2 22.4 27.3 29.1 29.6 30.5 30.0 30.0 30.0 30.3 35.0 37.3 40.2 46.3 52.5 59.9 65.4 69.0 79.1 97.1 101.0 85.2 70.7 78.7 80.4 79.5 86.1 92.1 109.1 124.5 136.5 150.2 151.5 150.3 148.6 144.2 148.0 151.4 157.7 164.5 169.0 168.6 156.6 142.1 139.1 149.9 161.8 170.0 171.2 170.0 157.0 147.7 137.7 125.5
233.6 223.3 234.2 238.1 227.4 212.1 197.8 188.6 181.5 186.5 181.7 164.5 150.9 139.8 133.7 124.3 118.9 116.3 113.8 110.9 110.0 107.8 100.9 97.3 92.2 88.5 87.9 83.5 81.0 78.8 77.1 74.6 72.0 70.5 69.3 69.1 69.2 67.1 61.8 60.9 61.3 60.9 60.1 60.0 60.0 59.5 57.5 55.5 55.4 54.8 53.7 53.1 52.2 51.0 50.0 49.5 49.1 48.2 47.7 48.0 47.7 49.3 50.1 56.6 50.2 48.1 43.2 41.0 41.5 39.4 36.6 33.9 30.9 28.5 22.9 20.9 20.1 20.0 20.0 20.0 21.0 22.4 27.3 28.7 28.8 30.2 30.0 30.1 32.2 38.0 39.5 38.8 39.1 42.0 49.2 52.5 58.8 60.6 71.3 86.8 100.6 92.3 77.7 80.6 88.7 88.7 90.4 96.4 105.3 114.0 131.4 148.6 152.3 150.7 149.5 148.9 151.3 155.7 161.9 172.0 177.8 179.6 173.3 156.5 145.3 150.2 160.6 170.0 171.6 170.0 158.1 151.9 142.6 125.9
230.3 210.3 201.7 218.0 231.2 225.5 203.8 190.6 176.6 168.5 167.0 157.2 148.0 140.6 133.1 125.1 118.0 109.4 109.9 105.0 102.3 102.5 99.6 96.2 92.8 88.7 85.1 80.4 79.8 77.0 75.7 72.6 70.3 69.9 67.4 66.6 64.1 60.9 59.8 59.7 59.8 59.8 59.8 59.9 59.9 58.3 52.6 52.2 53.1 53.0 52.1 51.6 50.8 50.0 49.4 48.9 48.6 47.7 47.6 47.8 44.3 49.1 53.4 60.0 52.2 43.5 39.4 39.1 39.3 35.7 34.1 32.7 30.9 29.4 25.8 22.1 21.2 20.7 20.0 20.0 20.5 21.8 28.3 29.5 29.5 30.8 30.0 31.0 38.7 40.1 39.9 40.0 40.0 41.1 47.2 49.2 54.5 59.1 69.7 84.8 102.2 99.7 88.6 85.9 101.0 110.3 112.8 112.9 116.4 127.3 141.5 153.0 158.6 156.8 152.8 154.8 156.4 158.6 163.6 172.0 179.5 180.0 179.3 169.7 154.5 158.5 169.8 170.0 175.8 170.0 170.0 162.5 149.3 126.7
225.0 207.2 192.8 189.7 216.8 231.7 218.8 199.6 180.7 164.1 157.7 151.5 145.5 139.6 131.6 125.9 121.3 113.2 102.8 99.4 98.1 98.1 96.0 93.8 91.9 90.0 85.9 81.3 79.0 75.8 73.3 70.5 69.3 69.0 66.9 65.2 62.4 60.0 59.9 59.8 59.8 59.7 59.3 59.1 58.2 54.9 51.1 50.1 50.2 50.9 50.9 50.6 50.2 49.7 48.0 46.5 45.0 43.7 42.3 40.5 40.3 45.1 50.4 54.9 48.2 39.8 38.6 38.0 37.0 34.4 33.4 32.2 30.7 29.7 27.1 23.8 22.1 21.4 20.1 20.0 20.0 21.2 29.6 30.0 30.0 31.6 30.0 30.0 36.5 39.9 39.3 40.2 47.0 48.1 48.8 50.6 60.2 70.6 79.8 91.4 108.0 114.1 101.6 95.9 112.1 127.5 132.9 135.8 140.8 148.3 157.8 167.0 168.3 161.8 160.2 162.4 162.4 162.3 167.5 171.4 179.3 180.0 179.9 174.6 159.4 164.4 170.0 170.0 179.7 170.0 170.0 168.8 152.8 132.7
222.3 204.2 183.7 176.6 191.2 218.6 221.4 205.4 183.9 165.1 153.0 147.8 138.9 132.4 129.1 120.9 118.2 111.7 110.0 99.3 97.1 93.7 94.1 93.2 91.8 89.8 86.4 82.7 80.2 77.4 74.9 70.9 69.7 68.9 68.6 68.8 68.9 65.9 61.8 60.6 60.6 60.0 58.0 56.9 54.4 51.0 50.0 50.0 50.1 50.6 50.5 50.5 50.2 49.5 47.9 46.4 44.7 43.7 42.7 41.6 40.1 40.0 44.5 46.3 41.2 39.2 37.9 37.0 35.1 33.4 32.7 31.3 30.2 29.7 28.4 26.3 24.0 23.1 21.4 20.1 26.9 28.5 30.0 30.0 30.0 31.7 30.0 30.1 34.3 38.7 38.9 44.2 50.4 50.0 50.0 50.0 55.6 71.6 81.7 94.6 110.9 121.9 117.6 110.9 125.8 139.4 149.6 155.9 162.3 169.4 174.7 172.7 172.0 170.7 170.3 170.5 170.7 168.9 168.9 170.5 177.9 180.0 179.8 174.6 170.2 169.9 170.6 171.6 179.4 170.8 166.5 155.1 147.0 141.3
223.9 205.3 187.8 170.4 161.9 194.7 211.9 201.4 176.9 161.0 149.2 149.8 145.3 141.7 134.6 119.8 111.5 107.5 108.1 99.8 91.5 89.1 90.9 91.1 90.5 89.0 85.0 82.2 80.7 78.1 75.5 71.6 69.8 69.0 69.2 69.5 69.6 67.7 64.4 61.8 61.7 60.2 58.7 57.9 55.2 51.7 49.9 49.6 49.8 49.9 49.9 49.4 49.4 46.4 45.1 43.9 42.7 42.1 41.3 40.4 39.8 39.5 39.9 40.2 39.3 37.5 36.2 35.2 32.8 31.9 31.2 30.1 30.0 29.8 27.9 26.1 24.3 23.4 22.1 21.2 27.6 29.2 29.7 30.5 30.9 31.9 31.7 33.4 39.1 39.8 39.1 39.7 48.4 50.0 52.7 50.0 51.9 62.2 73.2 85.0 102.7 115.7 116.2 121.2 132.4 147.8 161.6 172.5 179.0 182.0 180.0 179.2 176.9 174.5 174.2 174.0 172.8 170.2 167.6 166.0 173.6 180.0 178.3 175.4 171.0 170.4 170.0 170.0 172.9 166.5 152.1 141.2 134.2 140.0
218.9 204.8 192.3 173.2 150.7 162.9 193.7 192.0 167.8 159.2 160.9 166.8 159.2 150.0 138.2 123.5 109.3 100.2 96.3 93.4 90.6 79.5 86.3 89.4 88.5 84.1 81.1 80.3 79.0 75.8 73.8 70.8 69.5 69.6 69.9 69.9 69.9 69.4 67.5 63.7 62.1 60.5 59.7 59.2 58.1 54.6 51.2 49.8 49.3 49.5 49.6 47.2 47.3 44.7 43.7 42.7 41.7 41.0 40.1 39.6 39.4 39.0 39.5 39.7 37.9 36.2 34.8 33.8 30.8 30.8 30.5 30.0 30.0 29.8 27.2 25.9 24.5 23.7 22.8 22.2 26.4 28.2 29.0 30.0 31.1 32.6 34.8 37.6 40.3 41.5 39.8 39.9 45.6 52.0 60.2 59.3 58.7 60.0 66.2 74.4 92.4 107.2 113.2 121.3 128.6 146.9 169.1 184.8 190.3 189.5 184.0 180.3 178.0 177.1 177.7 177.8 176.4 170.6 160.3 157.2 167.5 172.8 172.3 170.0 170.0 170.0 161.1 153.1 152.7 148.0 140.7 132.3 121.3 129.6
199.5 194.3 187.6 173.5 150.8 144.4 173.2 176.6 169.8 168.5 176.0 178.7 166.6 153.4 135.5 117.6 103.1 97.4 89.7 89.5 83.1 79.4 80.2 82.4 82.8 80.8 78.8 77.5 75.9 73.1 76.7 73.2 70.2 70.5 71.2 72.9 78.1 75.1 70.8 68.0 66.5 64.7 62.3 60.3 58.9 57.0 53.0 51.0 49.4 48.8 48.8 45.3 45.3 43.6 42.7 41.7 40.7 39.9 39.5 39.1 38.8 38.4 38.9 38.6 35.3 32.8 31.1 30.0 30.0 30.0 30.0 30.0 30.0 29.8 23.8 22.8 22.4 22.4 22.7 22.9 24.8 27.2 28.4 29.3 30.3 32.3 37.4 41.2 45.5 50.9 53.1 47.9 49.7 52.0 60.0 66.4 59.9 60.0 67.5 77.4 88.7 98.6 99.9 102.5 115.5 143.4 169.9 188.9 190.2 189.4 184.4 181.9 180.1 182.3 188.5 191.2 186.7 176.0 159.9 149.4 157.1 170.7 171.2 170.0 170.0 169.3 148.9 130.7 122.6 122.2 122.7 117.4 109.1 117.4
184.2 177.6 166.2 160.3 139.5 139.5 170.6 179.3 174.0 175.1 179.9 180.5 169.5 152.8 130.2 110.0 98.7 98.9 93.2 87.2 78.6 72.8 71.4 76.2 78.5 77.8 73.4 73.2 71.9 71.1 79.0 76.3 72.8 74.1 76.8 79.5 81.4 81.6 76.5 71.1 68.4 67.2 65.3 62.9 60.1 58.4 54.7 52.4 49.9 48.6 48.0 43.2 43.6 42.5 41.6 40.6 39.8 39.5 39.1 38.8 38.5 38.1 38.3 37.7 34.1 32.5 31.3 30.2 30.0 30.0 30.0 30.0 30.0 29.8 22.2 21.5 21.1 21.1 21.1 21.1 22.2 24.3 25.8 27.7 29.2 30.7 36.8 43.4 52.2 69.6 74.9 66.1 50.9 49.9 62.2 70.6 69.6 63.8 70.0 73.1 80.1 81.7 82.8 93.5 116.2 141.3 164.1 180.1 186.0 185.2 180.2 180.8 185.0 190.5 195.2 200.0 198.2 180.0 158.3 144.2 147.3 158.2 162.3 164.1 170.4 170.6 144.3 119.4 106.7 98.6 97.6 94.7 92.0 107.7
171.7 158.1 143.5 142.6 125.4 142.1 181.6 188.9 183.1 177.8 172.0 171.8 162.5 145.4 123.6 101.1 101.7 107.9 100.5 93.2 80.7 69.5 69.1 70.7 72.7 71.0 69.3 69.6 70.0 70.0 72.4 74.4 74.7 76.0 77.8 80.7 87.0 90.1 81.3 76.2 71.7 70.3 69.0 67.2 62.6 60.2 56.7 53.5 50.1 48.5 47.6 40.5 41.6 41.1 40.2 39.7 39.5 39.2 38.9 38.6 38.4 38.1 37.9 37.2 33.7 32.7 31.8 30.8 30.0 30.0 30.0 30.0 30.0 29.8 21.5 20.9 20.6 20.4 20.3 20.3 20.7 21.7 22.5 25.3 29.0 30.0 40.1 56.4 69.7 85.2 89.5 76.1 60.0 50.8 58.9 62.1 68.7 70.5 70.3 69.4 65.6 66.6 72.3 86.8 107.3 131.9 155.1 174.8 180.9 180.5 180.0 180.0 180.5 190.3 199.0 200.0 196.1 177.9 150.5 135.5 135.7 137.7 135.5 143.5 158.0 168.7 146.6 121.5 99.4 85.7 70.3 65.8 66.2 94.0
138.5 134.8 128.8 130.8 118.4 148.2 187.7 200.0 192.0 180.2 160.6 150.2 146.2 134.1 115.3 106.8 114.5 110.0 106.9 94.8 80.3 62.7 58.2 67.1 71.1 70.4 67.5 68.3 70.0 70.0 72.6 75.4 76.4 77.7 79.3 83.6 89.9 95.0 87.8 80.1 77.2 76.1 75.5 70.7 66.0 61.2 57.3 54.1 50.1 47.6 44.2 40.0 39.9 39.9 39.8 39.6 39.4 39.2 38.9 38.7 38.3 37.6 37.0 36.2 32.9 32.3 31.6 30.8 30.0 29.4 29.0 28.6 28.3 28.0 20.4 20.3 20.2 20.1 20.0 20.0 20.0 20.0 19.8 21.6 27.9 35.1 45.0 63.5 72.9 87.9 90.6 79.7 65.6 60.1 60.0 60.0 60.8 70.1 68.3 58.9 57.7 60.1 66.0 74.9 92.0 114.0 142.1 169.2 179.8 180.1 180.0 180.0 180.0 178.1 186.5 191.1 182.9 170.0 142.8 123.8 115.9 108.4 104.8 117.3 135.1 159.3 153.5 128.5 107.0 89.2 70.8 60.0 57.6 80.0
112.7 111.5 120.7 108.0 122.6 159.2 191.5 201.2 194.4 179.9 155.0 137.3 127.7 119.6 112.4 118.7 120.7 115.1 102.3 88.6 73.2 59.7 53.3 61.1 66.6 64.4 60.0 63.9 67.8 71.1 77.5 78.4 79.0 80.1 81.2 87.2 96.3 100.4 95.5 88.6 84.9 86.5 82.5 73.6 66.7 61.3 58.5 56.4 51.7 49.2 47.9 41.6 39.7 39.5 39.4 39.2 39.0 38.8 38.5 38.3 38.4 38.0 37.4 35.9 31.9 31.7 31.2 30.3 29.9 28.6 27.9 27.2 26.7 25.5 20.1 20.0 20.0 20.0 20.0 20.0 20.0 20.0 18.5 19.6 24.9 35.6 42.9 53.2 62.1 71.2 73.9 71.6 70.0 70.1 63.5 62.5 63.2 60.4 53.8 49.4 51.5 55.2 63.5 81.5 96.4 117.3 143.7 171.2 180.6 183.7 180.0 179.6 176.0 169.2 167.1 169.5 168.7 158.7 138.9 117.3 108.3 108.5 97.2 91.5 112.7 133.4 151.4 146.7 118.7 93.9 76.3 56.8 48.8 62.6
96.3 119.1 102.2 98.3 129.6 157.5 177.2 194.2 189.6 175.0 152.9 137.8 130.2 128.6 129.6 122.9 116.4 105.9 95.1 78.7 66.2 53.3 50.6 60.6 61.8 59.8 59.4 62.5 67.9 75.6 81.0 81.9 81.3 80.9 83.0 87.0 94.3 100.0 100.2 97.6 95.7 96.1 89.4 78.9 71.6 70.1 64.0 59.5 58.6 53.3 49.7 44.6 40.9 39.5 39.3 38.9 38.8 38.5 38.3 38.2 38.3 37.8 37.1 35.2 30.6 30.7 30.3 29.5 29.2 27.3 26.3 24.9 22.6 20.5 20.0 20.0 20.0 20.0 20.0 20.0 20.0 20.0 18.3 19.5 21.7 27.3 31.4 37.3 44.7 50.8 51.9 61.8 70.0 70.1 63.0 69.8 69.8 57.5 48.7 47.0 47.8 50.4 60.9 82.0 107.4 133.8 158.9 178.5 187.3 191.0 192.2 192.4 184.8 175.0 161.1 150.5 149.9 142.9 129.1 123.2 130.4 132.7 117.7 90.4 86.2 105.3 141.0 147.8 128.3 96.3 81.9 60.4 49.3 49.6
101.6 112.4 78.8 99.5 123.2 149.2 172.3 185.5 182.7 175.0 159.3 147.4 141.2 138.6 131.9 119.0 101.3 89.4 80.4 67.9 56.5 49.5 49.8 56.4 58.4 54.5 57.4 61.1 70.2 85.3 89.6 88.9 85.5 81.7 80.5 81.2 88.9 95.3 99.9 100.0 100.0 101.2 96.1 86.8 86.0 83.6 76.0 69.3 63.8 60.1 52.3 46.6 40.9 39.4 39.6 39.2 38.9 38.6 38.0 36.6 36.1 34.5 32.0 30.0 29.8 29.9 29.9 29.4 29.2 28.5 26.6 26.0 23.8 21.7 20.0 20.0 20.0 20.0 20.0 20.0 20.0 20.0 15.4 18.3 19.4 21.6 22.9 27.2 30.5 32.7 38.7 51.4 61.7 60.4 53.9 60.2 61.8 52.1 46.9 42.7 44.5 50.0 56.2 74.8 103.7 138.1 164.4 186.6 200.9 202.5 202.1 201.0 195.4 185.5 173.0 156.5 143.8 138.8 139.5 141.3 147.2 150.5 133.0 104.9 78.8 83.5 104.3 134.9 122.5 101.1 85.2 65.2 47.9 41.0
90.6 96.5 69.9 99.1 130.4 151.0 165.0 166.5 171.1 170.4 161.2 151.0 141.7 137.1 124.2 107.1 92.2 69.7 62.1 54.7 46.7 41.1 46.7 51.0 52.0 50.0 52.2 60.9 72.7 85.9 91.0 90.8 88.2 80.7 80.0 80.0 82.5 88.7 91.3 97.7 100.0 105.0 103.2 99.5 99.8 92.7 87.9 79.0 68.6 59.1 50.7 43.9 39.8 39.9 40.5 39.7 39.3 38.9 38.4 37.7 37.5 36.2 33.3 30.0 29.5 29.5 29.5 29.2 29.4 29.4 28.4 28.6 27.6 26.6 21.1 21.8 20.6 20.2 20.0 20.0 20.0 20.0 11.3 13.0 16.4 17.8 19.1 21.8 25.2 27.0 31.8 44.7 52.9 50.7 40.3 48.2 49.0 42.5 39.9 39.3 40.1 46.7 56.8 74.9 101.1 136.8 167.4 199.1 217.3 213.3 207.8 203.6 197.1 188.7 175.4 160.7 153.2 154.2 158.6 159.3 152.1 143.9 131.2 113.0 86.2 58.3 82.7 106.4 111.8 101.8 83.2 64.0 44.8 32.5
73.2 73.9 49.9 94.9 129.9 144.2 150.3 143.4 146.8 151.3 145.5 133.5 124.4 118.1 109.3 95.2 80.6 60.1 48.3 43.4 40.4 39.6 41.5 49.5 48.6 49.1 50.5 56.9 65.1 72.3 76.5 78.9 77.6 74.1 79.4 79.4 80.1 85.7 88.9 96.1 103.6 110.4 109.8 103.3 101.3 93.8 86.3 76.0 64.7 54.3 49.1 45.6 40.4 42.4 42.7 40.7 39.7 39.3 38.9 38.6 39.1 38.7 37.0 30.0 29.7 29.8 29.7 29.7 29.8 29.9 29.6 29.9 29.8 29.7 26.2 27.0 22.1 21.3 20.8 19.6 15.5 10.7 10.0 10.3 12.3 14.1 16.5 19.3 21.5 21.9 28.2 37.4 44.4 40.5 35.1 36.4 37.2 34.3 35.7 38.9 40.0 46.9 57.2 77.5 103.1 136.1 167.5 203.9 227.1 226.9 219.8 210.6 199.6 188.5 177.9 171.1 169.3 169.5 171.6 162.9 146.9 132.0 119.6 106.8 82.8 57.7 49.6 67.4 86.9 87.4 67.8 53.1 33.0 18.9
60.8 45.1 43.6 94.2 122.2 132.5 129.8 120.3 121.4 127.0 125.5 117.3 106.1 96.8 88.7 80.9 68.8 54.5 42.0 38.0 37.2 39.8 41.3 43.8 41.3 49.7 49.5 49.8 57.2 58.5 58.8 66.7 69.5 69.0 71.2 77.1 80.3 86.9 91.5 99.7 103.3 109.4 103.6 100.0 96.7 83.7 69.5 63.6 58.6 50.4 49.0 48.1 47.3 46.8 47.1 45.0 42.4 40.1 40.0 40.0 40.0 41.5 41.7 39.2 31.1 31.2 30.0 30.0 30.0 30.1 30.0 30.0 30.0 30.1 30.3 30.4 28.7 25.3 23.2 20.9 17.3 13.0 10.0 10.0 10.0 10.5 12.4 14.9 16.9 18.3 22.5 29.1 32.3 28.3 27.9 29.2 29.6 29.4 30.4 34.7 39.0 49.1 59.6 77.4 106.0 134.5 168.1 199.7 226.9 236.1 232.5 224.4 213.8 201.0 189.4 181.9 177.8 176.3 173.7 166.8 153.4 142.2 127.4 108.1 92.9 78.0 64.4 47.0 50.5 61.0 41.5 22.6 11.3 9.1
40.6 27.8 48.2 94.8 114.5 121.1 119.1 104.3 100.1 109.1 105.3 98.2 91.6 77.6 74.9 67.3 55.6 46.6 38.9 31.6 30.1 38.7 40.5 39.6 40.8 50.6 52.2 55.3 59.9 61.0 62.1 68.9 69.5 70.8 77.5 79.3 85.1 89.6 99.2 100.0 100.0 99.2 93.3 86.8 79.5 66.4 57.5 53.6 50.3 50.0 50.0 50.0 51.4 51.5 51.5 50.6 48.3 43.8 40.5 40.0 45.6 52.2 52.2 47.0 38.2 36.4 34.3 32.1 32.0 30.9 30.0 30.8 31.7 32.0 31.2 30.4 29.1 26.2 23.9 21.3 18.4 16.5 11.0 10.0 10.0 10.0 10.0 11.2 12.3 13.9 17.3 19.0 19.5 20.1 22.5 25.1 26.5 27.5 29.3 34.8 41.4 50.7 62.1 74.7 102.1 128.3 164.7 196.2 225.2 240.0 244.9 240.0 229.5 218.7 206.5 194.0 187.5 182.7 181.5 179.3 172.5 157.1 143.6 129.5 122.7 111.5 91.1 63.1 30.4 32.7 17.9 18.7 14.5 11.6
14.2 23.2 59.5 88.2 103.0 110.2 108.6 98.1 79.3 84.9 91.3 87.9 74.9 60.4 54.4 52.4 46.3 39.4 33.6 29.5 30.4 39.3 37.7 39.4 42.6 52.1 58.7 63.5 66.6 68.9 70.7 73.3 75.9 78.3 81.8 83.7 90.5 94.7 100.1 99.5 93.2 85.9 73.8 66.4 61.3 58.1 50.6 50.0 50.0 50.1 50.4 52.8 54.8 57.2 59.3 58.9 55.1 49.7 46.3 44.8 50.8 60.1 65.2 62.4 47.7 41.5 39.7 37.2 35.7 35.0 32.3 34.2 34.9 34.0 32.6 31.2 29.7 26.7 24.1 21.1 19.5 19.4 13.3 10.2 10.0 10.0 10.0 10.0 10.0 10.3 12.6 15.3 17.0 17.7 19.5 22.1 23.9 26.0 28.3 33.2 41.6 49.2 64.5 79.6 99.5 122.4 157.6 195.0 225.3 242.8 250.1 249.6 244.3 233.7 219.0 204.8 196.1 191.9 192.7 190.4 183.6 167.5 150.7 138.7 140.5 139.9 118.0 89.5 58.2 41.8 43.2 48.1 41.0 28.7
8.4 19.7 47.5 75.6 92.0 93.9 93.6 89.6 71.9 64.0 66.4 68.4 62.9 47.0 35.9 42.6 40.5 31.6 27.7 28.6 29.6 30.2 29.8 32.6 39.7 49.4 61.7 71.0 78.2 83.1 85.5 89.1 90.8 91.4 90.2 89.6 89.6 90.0 91.9 86.1 75.3 67.6 61.3 59.2 58.3 52.6 50.0 50.0 50.4 52.9 54.4 57.8 59.4 66.7 71.9 70.0 63.8 51.3 49.0 48.2 50.0 59.0 74.0 81.5 70.0 49.0 43.6 39.4 37.8 36.8 35.2 36.3 37.9 36.1 33.0 31.3 29.7 27.8 26.3 24.2 21.0 20.0 17.4 13.2 10.0 10.0 10.0 10.0 10.0 8.8 9.5 11.3 13.8 15.4 17.4 19.5 21.4 24.9 28.3 32.5 39.7 46.8 66.7 92.9 112.9 132.0 158.2 193.3 220.9 236.9 251.3 256.9 254.3 245.0 232.7 216.3 207.6 201.8 199.8 192.2 183.7 169.6 148.1 128.1 115.9 114.4 113.0 101.0 82.4 70.8 71.4 71.3 54.6 31.2
0.6 8.7 31.9 61.7 84.5 88.4 84.5 78.7 71.2 51.9 43.2 47.2 47.4 44.0 29.9 28.5 28.3 22.2 19.3 19.8 30.4 31.1 29.6 30.6 36.9 43.3 58.2 77.9 93.3 101.1 104.2 108.6 107.1 101.3 94.0 88.2 84.4 81.6 77.9 70.8 66.3 62.5 60.0 60.0 60.0 60.0 52.5 54.0 55.8 57.9 59.5 63.0 73.2 86.6 95.2 92.1 79.1 57.1 49.0 48.3 49.6 55.8 66.8 80.7 80.5 57.2 47.1 41.5 39.1 38.8 38.1 39.2 40.7 39.5 36.4 33.5 29.8 28.1 27.4 25.0 22.5 20.1 20.0 17.1 11.5 10.0 10.0 10.0 10.0 8.2 9.0 10.0 12.1 13.5 15.6 17.4 18.9 21.6 25.2 29.6 37.7 47.0 67.9 100.7 120.9 148.5 173.1 192.1 211.8 227.3 246.8 256.5 261.1 253.9 244.2 229.6 216.6 207.9 199.6 188.0 178.2 165.0 148.1 129.8 105.4 87.7 79.1 74.5 64.3 53.9 53.5 53.4 35.1 6.8
-3.8 -13.9 4.7 27.5 62.6 75.3 71.2 65.1 56.5 51.8 36.2 29.0 30.0 36.4 25.1 15.5 11.9 17.4 21.7 36.6 40.7 40.4 37.4 36.9 40.0 41.5 51.7 72.3 97.3 110.9 119.9 120.9 119.6 106.5 92.5 85.5 79.6 72.6 69.5 67.9 62.0 60.0 60.0 60.0 60.0 60.0 57.6 59.4 60.7 61.6 63.8 68.3 85.8 102.3 109.9 107.0 91.3 64.7 50.0 50.2 52.2 58.2 60.2 71.5 76.0 64.4 50.7 47.4 41.7 42.0 41.2 42.5 43.2 40.1 37.7 36.5 31.6 29.2 29.0 26.3 23.8 19.8 20.8 20.2 14.4 10.0 10.0 10.0 10.0 7.5 8.7 9.6 10.9 11.7 14.5 16.0 17.8 20.3 23.8 29.1 40.8 54.1 74.2 100.0 125.9 160.4 180.6 186.4 200.8 221.3 237.5 251.9 263.7 268.5 252.5 240.3 224.3 208.6 195.8 181.8 168.1 148.1 134.9 120.9 102.6 76.8 53.0 35.6 20.5 8.5 8.3 11.0 6.9 -12.8
0.0 -18.0 -17.9 0.2 28.4 52.7 54.8 46.9 34.9 29.5 33.3 17.0 9.8 17.3 12.6 9.8 9.8 27.0 38.9 40.8 41.5 40.2 39.4 38.9 40.0 41.2 48.8 63.9 87.4 112.0 127.6 129.4 119.0 102.9 90.8 86.2 76.9 68.9 67.9 63.1 60.0 60.0 60.0 60.0 60.0 60.0 60.2 63.9 67.6 69.4 71.0 70.9 86.8 107.9 120.6 118.2 99.5 77.9 59.1 56.5 58.0 60.3 65.4 76.5 81.6 76.8 63.2 52.2 47.6 47.1 46.5 47.5 48.8 47.6 41.4 40.0 37.6 33.2 30.7 29.3 27.0 19.9 20.7 20.5 18.5 11.1 10.8 10.0 10.0 5.4 5.6 7.7 9.0 9.7 11.6 13.6 15.2 18.3 21.0 33.4 55.9 73.2 90.0 107.7 132.7 165.7 179.8 179.6 198.7 221.7 237.9 246.5 252.8 264.8 258.8 246.2 230.0 212.1 193.8 169.4 138.0 111.4 102.7 96.9 89.8 74.3 57.6 32.4 8.8 18.0 7.7 -6.8 -18.7 -20.0
-6.8 -10.4 -30.3 -18.5 4.0 37.4 39.0 25.9 4.3 -1.4 5.6 7.9 1.5 6.1 13.9 20.7 22.2 25.1 35.7 40.4 41.7 40.5 39.7 39.5 40.0 41.0 48.9 58.2 76.8 101.1 117.2 117.2 114.1 113.8 101.9 93.4 79.8 70.3 68.0 66.2 61.2 60.4 60.7 60.5 60.0 60.0 60.6 69.0 80.0 81.4 85.5 89.5 93.8 111.5 130.4 132.3 111.5 95.5 68.3 58.7 59.9 65.5 72.4 81.5 89.6 86.2 77.8 68.7 60.5 56.7 55.7 59.0 63.7 61.2 56.4 55.3 47.5 38.8 31.5 27.9 25.0 19.6 19.9 19.8 15.5 10.9 11.0 10.1 10.0 2.5 2.9 6.6 8.5 9.7 11.1 12.3 13.2 17.5 20.5 38.4 66.8 86.2 103.7 122.1 144.2 160.5 170.3 175.6 196.1 222.4 240.0 241.3 239.9 238.5 238.1 234.3 224.5 206.2 183.7 145.2 110.7 82.8 64.7 61.6 60.3 53.5 28.2 16.7 16.8 43.5 39.7 27.3 14.9 -6.5
-10.8 -15.1 -31.2 -34.7 -10.9 15.1 19.7 -1.5 -21.2 -11.8 -2.9 -1.6 -1.4 11.9 25.0 32.7 35.8 33.0 33.8 40.1 43.5 42.7 41.0 40.0 40.0 41.1 48.9 55.8 69.4 89.9 110.6 127.3 118.1 123.7 113.8 97.6 84.3 72.0 69.3 69.0 65.6 64.8 65.2 63.6 62.2 60.1 60.0 65.3 78.1 93.5 102.1 107.5 106.6 118.2 137.3 140.9 125.2 107.1 86.0 65.0 66.3 70.1 75.1 81.2 89.4 90.7 88.2 83.0 75.9 70.5 71.8 75.4 81.0 80.2 78.6 74.4 63.9 47.7 31.0 26.5 22.8 19.3 19.2 18.8 13.4 9.9 10.0 7.7 1.0 0.0 0.3 1.9 4.3 6.0 9.0 10.0 10.4 15.9 20.3 38.8 66.9 90.0 115.6 135.6 151.3 155.5 158.7 172.9 192.9 218.3 238.1 239.0 219.1 200.3 191.6 188.7 183.1 171.6 154.4 121.8 88.7 62.4 43.6 37.5 35.2 29.0 34.7 39.3 42.5 61.8 69.3 63.8 53.5 29.5
-19.1 -18.2 -26.5 -43.4 -30.2 -5.3 -4.4 -20.9 -21.9 6.3 16.7 19.3 23.2 24.6 31.8 40.4 42.7 43.7 41.7 46.2 49.1 45.7 41.6 40.5 40.0 41.6 47.6 53.5 62.3 78.6 101.7 125.2 127.9 123.6 107.7 93.3 79.3 72.8 70.1 70.0 70.2 70.1 70.0 68.1 67.6 64.9 63.0 69.5 72.1 93.0 109.8 118.9 124.6 131.3 141.9 145.8 139.7 118.6 99.5 85.2 73.9 71.0 76.5 79.5 82.8 84.9 89.0 90.3 87.4 82.4 81.6 87.3 90.7 88.3 82.2 80.9 69.7 53.8 35.7 28.0 26.8 22.0 20.6 20.0 14.0 9.9 9.1 8.3 3.5 0.0 0.0 0.3 2.2 3.6 6.1 8.2 9.1 12.5 19.5 34.7 59.2 82.4 114.3 142.7 151.9 152.1 157.2 172.2 188.1 208.8 223.1 223.1 199.1 171.0 149.1 147.9 136.9 123.7 116.7 102.2 72.0 49.1 51.9 48.3 58.1 62.7 68.8 73.9 71.6 78.9 92.2 92.3 74.5 47.9
-28.2 -24.2 -34.9 -50.7 -48.8 -43.0 -41.1 -35.1 3.6 30.3 38.6 45.8 43.6 34.6 38.7 44.1 49.2 50.3 48.3 49.1 50.7 50.0 49.1 47.2 42.2 48.5 49.8 51.3 56.4 65.7 87.0 110.7 123.2 111.3 94.8 80.6 73.9 71.9 75.0 76.1 82.4 83.5 78.4 77.3 79.4 76.5 70.7 69.4 70.1 81.3 103.1 124.2 135.9 146.2 154.3 156.2 149.9 135.1 112.3 98.7 85.0 78.1 79.7 81.3 79.9 79.9 73.4 78.1 78.0 76.4 75.0 78.5 86.5 83.2 80.5 76.9 60.8 49.2 32.2 29.7 29.7 29.5 26.5 21.9 18.5 13.0 10.1 9.8 8.9 0.4 0.0 0.0 0.6 1.9 3.6 7.0 8.7 12.3 18.9 32.0 50.3 71.5 103.9 133.7 147.1 137.1 150.8 168.9 180.5 191.3 199.7 195.2 178.5 151.7 119.7 112.5 99.9 86.4 82.4 75.1 59.9 63.5 60.1 60.4 81.2 94.8 101.4 99.5 94.8 91.7 100.6 100.1 75.9 53.5
-31.9 -36.5 -43.8 -56.3 -61.7 -60.8 -46.3 -15.6 20.0 39.2 50.0 57.4 56.8 44.2 44.1 52.9 58.0 55.5 53.5 51.9 52.0 50.2 48.9 47.8 46.2 48.9 49.6 50.0 49.8 54.0 66.3 91.0 105.1 98.2 81.9 69.2 68.7 71.8 82.9 90.8 99.6 101.4 95.2 96.7 99.1 96.4 89.3 74.3 69.7 74.1 94.1 114.2 135.6 155.0 163.5 167.7 161.5 146.0 126.7 108.8 95.5 85.7 85.5 87.2 81.3 73.9 68.7 62.1 61.3 61.3 62.2 64.6 69.1 75.2 70.3 59.3 51.6 35.4 30.0 32.5 37.2 38.4 34.7 28.1 19.9 16.4 11.2 10.8 10.4 3.7 0.0 0.0 0.0 -0.0 0.6 4.9 7.8 11.5 17.7 28.6 42.9 57.8 89.0 118.6 125.0 123.0 141.3 164.1 170.6 175.3 177.0 170.8 156.6 128.0 108.4 104.3 98.7 91.9 82.0 69.2 75.4 81.0 72.4 61.7 84.8 109.3 122.6 126.8 119.8 109.8 111.3 106.6 78.9 58.7
-42.8 -49.1 -52.3 -58.9 -66.9 -50.1 -26.2 -3.0 21.6 35.8 49.5 59.5 60.2 55.9 55.5 60.6 62.1 60.5 58.3 56.8 57.0 54.0 50.7 49.3 49.6 50.1 49.6 50.0 47.5 45.8 51.3 64.5 83.0 82.0 65.0 61.8 74.8 87.7 96.0 105.4 115.4 117.8 115.7 116.2 116.1 114.1 103.9 90.3 74.0 70.6 80.8 104.3 127.0 152.1 167.0 170.0 169.8 157.5 140.1 121.4 105.8 91.7 96.0 97.1 88.8 79.2 69.4 63.0 59.8 59.1 57.5 51.9 53.4 56.1 51.7 45.4 38.1 30.0 35.8 46.1 50.0 50.6 41.0 28.8 21.5 17.5 13.0 10.1 8.8 2.7 0.0 0.0 0.0 -0.1 -0.1 2.0 5.8 10.0 15.8 24.0 36.2 51.4 70.5 94.8 99.0 96.6 125.9 153.7 159.4 154.8 149.3 137.8 126.3 110.1 124.0 127.8 115.4 108.3 106.8 101.3 100.5 97.6 86.6 68.2 80.8 111.3 132.1 146.0 140.5 126.9 120.3 113.3 85.8 65.9
-56.2 -59.3 -60.3 -64.5 -70.6 -61.4 -39.1 -11.1 20.8 31.5 40.0 48.7 58.7 60.9 61.6 67.5 67.1 64.8 63.4 61.9 60.7 58.9 56.5 55.6 55.6 54.1 50.0 46.2 40.8 39.0 38.3 45.3 55.6 57.1 58.7 71.3 90.0 101.0 111.3 123.2 135.8 139.9 134.4 132.8 130.7 127.6 119.8 107.4 92.7 78.0 78.9 94.0 118.2 139.4 159.5 169.5 170.4 162.5 145.1 129.3 112.8 104.7 108.5 110.4 102.5 93.3 84.5 77.2 69.2 62.5 57.2 49.0 49.1 48.0 40.4 40.0 40.0 37.3 47.4 50.0 50.0 44.2 35.0 27.6 22.4 17.5 11.8 9.1 6.8 1.8 0.0 0.0 0.0 -0.1 0.2 3.1 6.1 9.3 14.6 20.7 29.6 42.7 56.4 70.6 73.9 82.1 111.8 144.9 151.4 141.1 134.8 119.9 126.3 135.2 143.3 144.9 133.9 118.2 126.0 125.3 120.1 111.4 95.2 81.1 73.1 104.2 126.0 141.2 149.2 140.2 129.6 117.9 88.9 73.2
-62.6 -60.2 -69.5 -69.6 -70.6 -64.0 -42.1 -14.4 16.1 38.2 47.8 48.7 57.3 62.4 67.6 71.4 71.2 69.8 69.4 67.4 66.4 64.7 62.6 65.3 66.3 62.1 54.6 47.2 39.5 34.8 29.8 27.8 31.1 39.8 59.7 81.3 99.3 115.1 132.9 147.5 156.9 157.0 151.4 145.0 138.6 132.1 128.4 122.2 110.5 94.0 78.9 83.9 101.7 120.2 141.9 160.8 167.9 161.1 145.3 128.8 119.6 112.8 119.6 121.2 113.8 104.5 96.3 89.6 84.0 76.5 65.8 52.2 50.4 48.0 41.5 40.0 40.0 42.8 50.5 49.6 42.3 34.1 29.8 25.7 22.8 20.0 15.5 10.7 7.4 3.3 0.1 0.0 0.0 -0.3 -0.1 2.2 5.3 9.1 14.2 19.9 27.2 35.4 43.2 50.6 58.5 80.9 111.9 137.7 145.8 134.2 125.3 121.0 136.6 149.7 161.9 165.3 151.8 141.0 150.4 157.4 152.1 134.4 106.0 87.9 73.9 94.9 111.8 124.9 137.1 139.6 131.7 118.9 93.9 79.9
-70.0 -68.6 -78.7 -80.1 -72.9 -57.4 -35.4 -3.4 28.2 52.8 62.8 65.5 65.0 69.0 73.5 77.9 80.0 84.5 87.6 82.9 74.5 71.2 70.1 74.6 80.3 77.4 65.8 51.7 41.0 30.3 22.3 20.7 25.5 37.8 60.8 83.2 104.1 124.8 149.2 160.0 160.0 160.0 157.3 149.5 139.7 133.1 131.0 130.3 123.3 107.7 86.7 80.6 91.5 113.4 137.7 163.0 170.2 171.1 155.6 138.3 119.6 109.1 111.1 119.6 120.2 111.7 106.3 100.2 92.3 85.3 73.8 61.3 56.5 51.4 48.6 45.5 43.6 41.2 45.0 39.3 34.3 29.3 27.2 22.9 21.8 20.2 15.9 12.0 8.5 4.1 0.8 0.0 0.0 -1.2 -0.6 0.9 4.2 8.9 13.6 18.9 24.2 31.5 37.3 47.8 66.1 85.9 112.0 136.7 150.2 146.7 132.3 119.9 133.0 151.0 168.3 175.6 169.5 157.1 166.0 181.0 171.1 151.3 120.1 93.2 82.2 101.6 114.3 123.2 131.0 136.3 131.7 123.6 108.1 89.2
-87.6 -84.5 -83.4 -79.7 -67.5 -52.7 -35.8 0.4 29.4 70.7 84.1 85.8 85.3 85.6 90.4 95.9 100.2 106.4 109.3 100.9 86.6 78.0 78.7 84.5 90.1 89.5 78.2 62.2 46.1 30.3 20.0 20.0 20.5 33.5 57.1 82.7 99.0 119.6 147.9 160.0 160.0 160.0 159.3 149.1 135.9 129.9 129.2 130.2 129.7 118.7 100.5 86.8 90.4 110.3 135.3 162.4 177.9 180.6 175.9 151.2 129.3 99.8 95.0 109.8 119.2 120.0 112.8 111.4 101.5 91.2 85.8 74.3 65.9 57.9 55.3 50.9 48.6 41.7 37.6 33.8 29.9 27.9 25.2 21.3 20.9 19.9 15.0 12.2 9.5 4.3 1.3 0.0 0.0 -3.5 -3.7 -0.7 2.3 8.1 11.9 15.0 19.6 29.0 33.6 43.8 63.1 81.6 104.7 133.2 148.7 150.0 147.3 131.6 129.1 139.5 160.6 171.7 170.6 171.3 174.3 187.1 185.2 161.7 132.5 100.6 100.4 122.8 131.4 140.6 142.5 140.9 140.3 131.1 123.6 99.6
-90.0 -91.8 -87.5 -78.5 -69.1 -60.9 -41.0 -15.4 21.3 72.0 100.1 105.5 106.1 107.7 109.2 111.5 114.5 122.8 131.1 123.8 108.3 92.0 89.0 90.4 90.2 90.4 85.5 69.4 51.6 36.5 20.6 16.9 12.9 26.1 45.2 69.4 89.0 107.7 136.9 158.4 160.0 160.0 160.0 147.6 132.2 124.2 125.7 126.6 124.3 120.7 112.6 97.3 89.2 101.4 124.0 148.6 168.0 178.6 180.1 162.1 130.4 96.8 78.9 87.4 102.3 106.6 104.2 100.9 97.6 91.3 95.9 91.6 83.6 71.6 60.9 58.2 51.7 40.3 34.5 30.2 28.1 26.0 22.4 20.0 19.0 15.6 10.8 10.6 8.3 2.4 0.3 0.0 0.0 -5.6 -8.9 -4.7 -0.0 3.8 9.5 11.3 15.6 20.8 26.1 34.0 48.8 68.0 93.5 120.9 142.7 150.0 156.4 149.3 131.8 130.1 146.2 165.4 176.9 181.2 182.8 188.5 189.2 168.8 141.9 108.4 112.2 134.4 150.6 160.2 157.5 151.0 142.7 135.0 131.2 107.3
-89.4 -98.2 -91.8 -82.5 -72.8 -61.2 -41.4 -15.1 18.4 62.3 104.0 117.7 123.7 122.7 124.1 128.4 132.3 137.2 143.1 142.1 129.9 107.6 95.1 87.8 80.8 82.7 80.3 71.4 56.0 42.4 24.3 12.7 9.2 11.5 25.7 48.0 66.6 92.7 121.9 149.7 160.0 160.0 159.9 147.8 129.3 116.6 120.7 121.9 120.7 120.0 120.5 110.3 94.0 93.8 111.4 131.8 149.5 161.8 164.2 155.8 121.5 91.5 71.9 70.0 74.5 80.5 81.0 80.5 79.2 87.1 100.6 100.8 91.2 79.3 66.0 57.0 47.9 36.3 30.1 28.7 25.9 22.5 19.6 16.0 10.3 9.9 9.9 9.6 1.9 0.1 -0.9 -2.8 -6.5 -9.8 -10.0 -10.0 -6.1 0.1 3.6 5.6 9.6 13.8 17.9 23.5 36.9 54.4 78.2 105.0 128.9 145.6 159.9 160.1 150.2 129.6 134.6 154.8 173.5 185.8 190.0 190.0 189.9 179.9 154.0 123.3 120.3 139.8 166.6 179.5 171.0 156.8 146.8 132.8 125.7 99.0
-79.6 -99.9 -100.0 -84.7 -76.4 -63.7 -42.2 -13.0 15.9 57.5 93.2 126.6 136.8 137.4 134.4 141.1 146.2 151.0 157.1 155.7 147.7 121.0 97.9 76.9 64.7 61.0 67.2 62.8 56.1 42.7 24.0 18.4 12.9 9.0 10.8 25.7 48.3 77.8 110.6 139.4 155.1 159.1 155.9 149.1 129.4 108.8 112.8 116.1 110.8 120.0 123.5 120.2 106.7 98.4 100.8 118.8 134.0 141.7 142.5 129.8 105.9 84.2 69.3 66.7 60.6 59.6 60.0 59.0 64.1 71.3 88.1 91.0 83.8 71.3 57.3 48.5 39.3 30.0 29.1 28.3 25.0 22.9 20.6 17.4 10.3 8.4 7.3 1.4 -0.3 -0.5 -0.7 -1.6 -5.8 -9.7 -10.0 -10.0 -10.0 -6.3 -2.1 -0.6 4.5 9.6 15.5 27.0 34.5 44.0 63.2 83.3 106.4 128.5 145.2 159.5 157.5 139.4 140.0 142.4 166.9 187.5 190.0 190.0 190.0 186.8 167.7 143.2 131.9 146.4 179.3 197.3 179.1 162.5 148.6 126.8 111.6 90.3
-70.8 -92.5 -100.0 -87.6 -77.0 -64.0 -41.1 -19.3 16.1 50.7 85.6 121.1 140.9 140.0 133.4 139.9 145.1 153.0 165.4 163.6 155.2 131.6 99.9 73.0 56.1 49.0 47.6 50.1 44.8 31.4 23.4 23.1 20.2 8.5 0.4 15.3 34.6 63.0 100.9 129.9 146.4 149.9 150.1 144.8 129.8 108.5 99.7 104.3 106.9 123.1 129.9 130.1 118.7 100.8 98.6 111.3 124.2 129.5 123.1 106.9 87.4 76.2 68.6 66.2 59.8 59.5 58.6 50.7 52.9 58.6 67.6 73.4 67.0 57.4 49.1 41.2 35.4 29.9 28.7 28.6 24.7 23.0 20.8 16.5 9.5 9.3 9.6 5.2 0.6 0.2 0.1 -0.0 -1.2 -8.1 -10.0 -10.0 -10.0 -10.2 -7.2 -2.3 1.9 4.1 9.0 20.3 28.5 36.1 47.7 65.0 80.8 99.3 122.6 146.1 150.9 141.9 140.0 140.9 154.4 180.5 189.7 190.0 190.0 190.0 177.4 159.2 141.9 152.1 187.7 200.6 183.1 167.0 148.1 115.3 93.1 70.4
-68.9 -86.1 -100.0 -94.0 -80.3 -65.1 -44.1 -22.2 18.3 51.7 79.5 110.8 141.3 130.0 122.5 127.8 133.1 136.1 139.6 141.7 142.5 130.5 102.2 75.6 55.4 44.5 39.4 37.3 30.8 29.4 29.6 30.3 26.2 11.2 -1.1 3.2 23.9 49.4 82.1 115.4 136.0 140.1 141.7 140.3 129.0 111.5 95.4 89.9 100.2 120.9 130.9 139.9 128.9 113.9 99.7 103.2 120.1 121.9 115.3 102.6 93.7 84.6 77.8 72.9 67.9 63.8 58.5 50.6 50.0 50.0 52.1 57.0 54.1 48.8 43.0 36.9 32.7 29.3 29.5 29.7 23.6 21.7 19.6 10.0 9.9 11.6 10.9 9.3 6.0 5.6 2.0 0.6 0.2 -4.2 -9.3 -10.0 -10.0 -10.6 -10.0 -7.5 -2.2 -0.7 4.7 12.5 21.3 30.6 36.0 43.9 60.7 83.1 108.9 133.0 148.6 142.7 139.5 140.0 149.2 162.7 180.2 186.8 190.0 190.0 186.1 170.0 156.9 159.0 183.7 196.2 186.4 169.9 151.2 120.3 105.8 98.0
-67.6 -85.2 -100.0 -100.0 -81.6 -61.3 -42.8 -18.0 15.1 45.9 66.6 94.4 125.5 111.0 106.0 113.5 121.4 121.5 118.2 114.3 120.4 120.8 103.4 77.9 56.0 42.2 38.3 33.9 31.6 37.9 30.6 30.7 25.8 10.7 -0.0 -3.5 8.9 33.1 59.8 85.4 111.0 127.0 132.0 131.6 122.2 105.1 97.9 87.6 87.0 111.1 125.3 133.8 130.0 122.8 110.7 100.6 112.0 119.6 114.7 109.3 103.6 97.7 90.3 87.9 80.3 71.4 61.7 51.9 48.9 49.0 49.7 46.2 46.0 42.4 37.7 30.8 29.9 30.0 30.0 30.0 25.6 21.5 14.2 9.9 12.5 17.5 12.6 10.0 9.9 10.0 9.3 4.3 1.7 -1.3 -7.2 -9.8 -10.0 -11.0 -12.4 -10.6 -7.9 -3.3 0.7 7.6 16.1 24.7 30.3 36.1 52.0 73.8 103.9 127.6 140.8 140.0 139.8 139.7 145.0 150.4 160.2 172.4 179.2 185.8 180.0 177.5 164.9 159.7 170.2 189.9 184.6 172.1 156.6 143.1 131.0 109.3
-67.5 -87.3 -100.0 -100.0 -87.8 -63.9 -46.4 -20.1 4.0 32.5 51.7 68.2 100.7 96.2 95.6 106.2 115.2 118.4 112.7 107.5 101.6 104.5 99.2 81.5 60.0 42.9 32.7 28.0 29.5 37.5 30.0 30.0 25.3 8.7 -1.1 -10.6 -1.2 15.7 37.1 58.7 80.6 114.8 125.6 123.4 117.2 109.7 101.5 86.6 82.3 105.4 121.2 126.1 129.4 123.1 114.4 107.6 110.0 111.7 111.6 110.0 109.8 102.9 96.0 91.5 87.2 78.9 63.7 54.4 48.2 45.3 40.1 39.4 39.9 39.1 30.5 29.9 30.2 30.0 30.0 28.2 23.1 20.2 20.0 16.4 19.8 20.0 19.5 13.0 11.4 10.8 8.1 4.0 0.3 -1.4 -6.1 -8.8 -10.0 -10.6 -16.5 -11.8 -10.1 -6.5 -1.7 3.8 10.4 18.0 23.7 30.5 42.6 64.5 92.2 118.3 137.6 140.1 140.0 140.7 145.4 148.3 151.2 164.7 176.1 180.8 180.0 180.0 171.4 161.5 157.5 167.9 178.0 170.0 162.4 151.3 137.8 112.4
-71.5 -79.6 -99.8 -100.0 -94.6 -72.7 -52.3 -32.2 -7.7 10.2 30.6 48.3 75.2 76.6 86.8 99.9 107.3 110.2 110.9 106.0 96.7 92.6 93.2 83.7 61.2 41.9 28.0 17.6 22.0 28.3 30.0 29.5 19.7 7.2 -1.5 -13.5 -12.6 1.5 22.0 45.4 79.0 114.3 125.9 122.6 120.0 119.3 106.9 81.8 82.4 103.0 112.3 118.7 121.7 120.0 113.5 109.5 110.0 110.1 110.4 110.0 110.0 103.2 92.1 89.6 81.0 72.6 65.0 59.1 49.2 47.9 40.8 39.3 39.3 39.4 33.5 33.6 32.2 30.9 30.2 25.2 20.6 20.0 20.0 20.0 20.0 20.0 20.0 17.3 13.0 9.7 5.3 1.5 -1.0 -4.6 -7.7 -9.8 -12.2 -17.4 -20.0 -16.9 -12.2 -6.3 -0.1 3.6 7.1 13.2 21.4 27.8 36.4 53.6 74.4 105.5 121.3 137.7 145.7 149.8 150.0 150.0 150.0 156.2 170.1 180.3 180.0 180.0 178.5 158.7 144.5 145.9 165.5 170.2 162.5 156.2 142.0 110.8
-64.3 -65.2 -83.8 -100.0 -100.0 -83.0 -64.1 -44.9 -24.5 -10.4 3.8 21.0 43.1 66.3 80.5 88.3 94.4 96.1 97.4 94.5 87.0 84.5 92.0 82.4 55.7 30.7 10.7 5.2 12.6 18.1 20.2 18.7 12.2 5.1 -2.3 -15.2 -19.7 -6.8 12.9 38.2 69.7 99.9 131.6 127.6 122.5 120.8 105.8 79.2 72.0 91.2 91.5 99.0 110.8 113.8 110.0 109.5 110.0 110.0 110.3 110.0 110.0 104.3 89.0 85.6 78.7 70.3 65.6 61.0 52.8 50.2 49.2 42.0 39.8 39.4 38.8 39.5 35.1 31.9 28.3 20.2 20.0 20.1 20.0 20.0 20.0 20.0 20.0 17.7 12.8 10.4 5.8 2.3 -0.4 -4.7 -7.5 -10.0 -10.4 -17.3 -20.0 -19.0 -13.9 -9.0 -3.1 0.9 1.8 7.0 17.8 26.2 33.8 46.1 57.9 76.5 101.4 120.8 138.9 149.3 149.1 148.9 148.9 150.2 160.4 165.9 176.6 179.9 173.2 155.8 134.2 124.4 146.1 159.4 155.8 150.5 142.2 117.3
-56.1 -56.9 -64.1 -92.0 -100.0 -100.0 -76.3 -61.1 -41.3 -29.5 -19.2 -6.3 21.2 56.0 62.4 69.9 79.9 83.6 81.2 77.2 70.6 75.9 87.8 73.1 47.6 22.1 1.7 -0.5 2.0 6.0 4.9 4.8 4.0 0.6 -4.6 -17.7 -23.2 -13.3 1.9 24.2 51.7 84.3 114.5 120.5 120.0 117.3 101.3 82.7 66.5 72.4 73.1 87.6 102.1 108.6 110.0 110.0 110.0 110.3 111.6 110.0 110.0 109.2 92.3 88.2 81.7 69.6 66.7 61.7 57.2 53.2 51.9 44.9 40.1 40.1 41.7 40.6 39.5 34.3 29.9 22.5 22.5 21.9 21.1 21.5 20.7 19.7 17.8 10.9 10.5 10.2 5.3 1.3 0.8 -1.9 -6.5 -8.7 -9.4 -15.6 -20.0 -20.0 -16.2 -9.6 -7.2 -2.3 -1.6 -0.4 12.8 33.8 40.0 40.8 44.3 52.9 73.2 98.7 125.3 141.8 158.7 150.3 150.0 150.0 153.6 160.3 168.9 173.1 169.0 151.2 125.5 104.9 116.7 141.8 136.0 137.9 136.3 120.0
-50.1 -51.6 -58.4 -67.4 -99.7 -100.0 -98.7 -73.0 -50.8 -48.0 -32.6 -13.7 2.8 24.2 30.4 46.9 52.1 54.8 52.7 52.4 56.1 67.7 76.3 67.7 42.7 17.0 0.8 -1.5 -3.5 0.6 -2.4 -6.2 -7.6 -6.2 -9.5 -16.0 -29.3 -21.6 -7.3 9.3 37.7 68.6 90.9 105.7 107.1 98.0 91.5 80.0 59.7 59.4 65.9 79.2 96.1 104.1 109.9 110.0 110.0 110.3 111.5 110.0 110.0 110.0 103.7 92.6 85.5 76.2 69.4 63.9 59.0 53.9 48.1 47.2 44.4 45.7 47.1 41.1 38.5 33.9 30.8 27.5 25.3 23.8 22.0 21.3 20.0 17.9 12.2 9.8 9.5 2.4 0.2 0.0 0.0 -8.6 -9.5 -9.1 -9.8 -17.5 -20.0 -20.0 -18.0 -13.1 -10.3 -6.8 -4.2 -2.2 3.4 21.7 37.1 31.3 32.0 39.6 53.3 74.5 104.8 131.9 145.2 150.3 150.2 149.6 152.3 161.4 163.6 167.5 160.2 143.7 119.1 99.2 92.8 107.9 106.0 125.3 129.9 116.3
-41.8 -48.9 -56.8 -66.3 -88.4 -99.4 -100.0 -94.6 -79.5 -75.0 -43.3 -28.9 -24.8 -14.8 5.0 24.1 24.6 26.3 29.0 47.7 59.6 64.6 69.3 69.3 44.6 18.2 0.8 -8.1 -10.0 -8.4 -8.6 -11.6 -17.0 -12.5 -13.5 -19.5 -29.5 -28.9 -14.3 0.8 27.9 51.5 70.5 85.3 88.4 83.3 77.3 70.9 55.9 50.0 65.1 82.9 97.5 103.9 109.0 110.0 110.0 110.2 110.6 110.0 110.0 110.0 110.0 103.1 90.7 81.5 71.8 65.1 58.0 54.1 49.1 49.1 50.0 50.8 50.0 43.6 37.0 32.3 29.6 27.3 25.7 24.0 21.2 20.2 19.4 13.4 9.9 9.3 2.7 -0.3 -0.4 -1.6 -6.4 -10.2 -10.1 -10.0 -12.1 -19.4 -20.0 -20.0 -18.4 -14.9 -11.7 -8.1 -5.6 -2.9 0.6 7.6 20.6 30.5 32.6 39.5 44.4 62.7 91.1 116.4 134.4 146.2 150.3 149.9 150.4 160.2 160.8 159.3 147.1 124.6 111.1 93.6 69.2 78.4 81.5 108.8 117.5 110.0
-39.1 -50.9 -64.1 -71.3 -70.1 -75.4 -96.8 -101.8 -100.6 -89.8 -76.7 -62.5 -59.8 -42.8 -12.1 -4.7 -9.0 14.7 39.1 61.1 60.0 61.0 60.6 61.7 53.4 23.5 4.6 -8.3 -11.3 -11.0 -15.6 -17.9 -20.0 -19.1 -18.2 -21.0 -32.4 -31.6 -23.9 -6.4 24.9 38.8 48.4 62.0 72.9 69.0 64.6 62.1 51.0 51.0 72.5 89.3 98.9 102.0 105.8 109.8 109.5 109.7 106.2 107.0 109.8 110.0 110.0 105.8 86.7 73.8 68.8 65.0 59.2 59.2 56.4 50.3 50.7 52.6 50.4 42.1 36.4 31.1 30.0 29.7 29.5 26.2 20.6 19.8 19.4 18.7 14.5 11.1 10.2 6.0 0.5 -0.1 -3.7 -9.3 -11.5 -12.1 -18.1 -20.0 -20.0 -20.0 -19.6 -17.0 -17.3 -10.1 -7.9 -5.8 -2.1 2.1 12.4 28.4 40.3 42.9 52.5 65.9 85.6 107.4 120.7 133.1 142.3 144.7 148.0 160.2 161.3 153.7 126.7 103.2 89.7 80.4 65.0 49.9 58.2 91.3 110.4 109.9
-40.9 -58.0 -69.9 -60.7 -57.6 -57.9 -60.8 -74.8 -97.1 -102.1 -100.7 -86.0 -80.8 -56.7 -41.2 -33.2 -14.4 19.4 50.7 70.2 64.8 54.2 49.7 60.7 61.0 31.5 8.8 -6.9 -13.1 -17.6 -20.1 -20.1 -20.2 -19.8 -20.2 -23.1 -37.1 -37.1 -27.6 -13.4 7.4 17.7 28.9 45.1 55.5 54.1 54.9 53.8 44.7 48.2 71.2 89.9 94.5 98.5 100.6 103.5 104.0 101.8 98.3 94.0 101.4 108.4 110.0 110.2 100.5 91.5 82.7 76.0 69.7 67.5 61.4 58.3 54.4 54.5 51.0 44.4 35.5 29.9 30.2 30.9 27.8 22.9 19.5 19.5 19.8 19.8 19.3 12.8 10.6 7.7 1.0 0.6 -4.0 -10.3 -10.2 -10.0 -10.3 -19.4 -20.0 -20.0 -20.1 -19.9 -20.2 -15.4 -11.0 -8.2 -3.4 1.0 4.6 9.9 28.4 42.6 54.8 66.8 79.0 91.4 102.7 113.1 121.1 130.5 139.7 153.6 159.4 151.1 126.7 91.5 71.4 56.5 40.7 31.9 50.4 81.2 97.4 100.8
-46.1 -60.9 -52.2 -47.8 -50.7 -51.0 -47.1 -40.8 -50.3 -76.8 -100.5 -110.1 -99.2 -72.1 -61.9 -57.7 -15.5 19.1 47.5 62.0 59.7 43.5 37.0 49.3 61.3 35.6 13.2 -4.0 -12.1 -16.7 -20.6 -21.6 -23.2 -25.2 -31.3 -34.8 -42.7 -36.9 -28.3 -18.3 -9.3 5.6 22.7 31.0 35.8 39.0 46.2 47.5 38.3 44.7 66.2 81.9 91.2 95.1 97.2 100.2 101.6 100.5 92.2 89.4 102.1 110.2 110.9 118.1 110.2 101.9 94.0 86.7 80.6 72.9 67.4 59.0 54.6 57.3 51.0 43.2 40.4 38.4 35.4 31.2 28.5 27.5 21.7 20.1 22.0 21.0 20.4 16.2 9.9 3.7 -0.1 -0.2 -1.7 -9.2 -9.3 -9.4 -9.4 -13.4 -19.7 -20.0 -20.5 -21.5 -20.6 -18.8 -14.5 -11.8 -8.7 -4.0 -2.1 -0.5 12.1 32.9 50.5 59.5 56.4 64.0 78.6 90.8 98.2 106.1 121.0 143.4 151.9 150.1 135.4 111.4 85.5 59.5 43.1 28.6 44.6 64.0 78.7 88.5
-50.0 -55.9 -39.9 -40.5 -43.6 -42.7 -34.7 -20.4 -19.8 -43.2 -65.5 -98.7 -111.3 -93.1 -84.7 -65.7 -20.9 8.0 30.3 44.3 45.6 34.1 17.7 39.9 50.9 38.5 18.4 1.0 -10.8 -14.4 -19.2 -20.6 -20.9 -23.1 -29.1 -37.6 -51.0 -35.5 -28.9 -28.0 -19.7 0.9 13.7 25.3 33.4 39.5 41.9 40.4 29.0 44.1 62.8 75.7 90.0 91.4 92.6 96.3 97.7 92.5 86.3 89.4 102.5 111.3 113.6 120.3 115.0 103.1 96.5 91.4 84.2 78.9 65.7 59.4 56.6 60.5 51.1 50.4 58.8 53.4 44.9 38.7 32.7 30.3 27.5 25.2 27.6 22.8 20.4 13.6 8.0 3.0 0.1 0.3 -1.3 -5.6 -8.0 -9.9 -10.5 -17.9 -19.6 -20.0 -20.5 -22.9 -21.7 -20.3 -17.3 -15.7 -11.9 -8.9 -9.8 -8.1 -0.5 17.4 33.1 35.6 42.5 61.1 65.3 65.2 77.3 93.3 113.0 134.1 150.5 150.2 143.4 120.5 96.4 69.3 46.0 28.5 21.4 34.7 43.8 58.3
-50.0 -47.7 -37.9 -35.6 -36.6 -32.7 -24.2 -18.4 -20.1 -30.8 -45.5 -74.1 -108.5 -110.3 -93.5 -66.7 -33.0 -8.3 11.5 24.7 28.6 18.9 5.4 21.8 34.1 31.8 21.9 6.8 -8.7 -12.2 -19.5 -18.7 -19.9 -20.6 -27.4 -33.4 -51.8 -44.7 -38.5 -39.3 -18.4 1.8 14.4 29.8 40.1 40.3 41.0 35.0 26.9 44.8 61.4 73.4 90.2 90.3 88.9 90.4 89.7 83.7 78.0 83.2 97.5 103.5 107.1 113.0 109.9 96.0 88.3 85.9 79.6 70.3 60.2 52.8 50.0 53.4 49.6 59.5 66.4 60.7 56.3 49.1 42.6 37.8 35.6 31.4 32.1 27.4 20.2 12.2 9.5 8.1 4.4 2.1 -0.8 -4.6 -9.4 -11.3 -13.7 -19.9 -20.2 -20.5 -21.4 -25.7 -26.2 -21.3 -19.6 -20.1 -17.0 -11.8 -11.8 -8.4 -2.6 6.0 13.8 24.8 45.3 59.1 48.0 39.3 56.5 84.4 112.9 131.1 149.0 150.2 149.0 125.5 98.8 68.9 43.7 27.7 11.3 3.4 4.8 21.9
-41.0 -39.3 -33.2 -30.9 -31.1 -29.1 -28.4 -22.7 -27.7 -32.0 -39.5 -58.3 -87.6 -111.9 -103.4 -72.3 -53.4 -31.9 -15.8 0.4 8.7 5.3 -7.3 9.5 19.5 27.3 20.0 13.1 -1.3 -16.4 -22.1 -19.7 -20.0 -19.7 -24.2 -33.7 -59.1 -54.4 -39.7 -37.1 -22.7 -3.4 9.9 23.5 32.3 37.5 41.1 19.8 11.2 38.3 57.4 68.9 84.2 83.2 84.6 90.3 85.3 76.1 69.4 81.4 92.2 93.6 99.4 109.1 109.3 93.6 78.0 72.5 68.0 60.0 56.5 50.0 50.0 49.7 50.0 63.2 70.3 70.3 68.7 62.1 62.4 61.3 52.0 39.0 36.0 27.9 21.0 18.0 13.6 11.7 9.5 7.0 0.8 -0.9 -7.2 -11.3 -16.8 -20.3 -21.9 -25.2 -27.4 -29.7 -29.9 -27.6 -22.7 -22.2 -19.6 -15.2 -12.7 -8.6 -2.8 2.9 6.9 15.0 29.9 33.5 28.4 33.6 49.0 74.0 106.0 128.9 143.7 150.1 150.1 131.0 102.6 71.5 48.1 29.6 19.7 3.5 -10.8 -2.7
-40.4 -36.3 -29.4 -27.4 -26.5 -26.0 -27.8 -28.1 -30.5 -38.4 -41.6 -49.0 -68.1 -104.2 -111.8 -95.9 -70.9 -46.2 -33.9 -22.5 -12.9 -15.7 -19.5 -1.9 8.7 18.4 20.5 15.6 2.4 -11.2 -29.5 -32.5 -21.9 -21.4 -28.4 -47.1 -57.0 -39.2 -38.3 -38.3 -28.5 -11.3 -0.5 7.7 20.7 28.3 32.3 15.0 -1.2 25.5 43.9 61.6 70.8 71.8 77.9 82.3 79.5 70.5 68.7 80.1 92.7 88.8 89.8 102.3 98.1 85.6 74.2 67.2 61.6 60.0 60.0 50.2 50.9 51.6 52.9 59.9 69.2 79.0 84.9 82.3 82.5 76.3 62.7 49.5 43.6 39.2 30.9 20.6 20.0 19.2 12.5 10.5 6.0 1.2 -0.8 -8.6 -12.0 -18.4 -20.7 -23.4 -26.1 -29.0 -30.0 -29.8 -26.8 -24.7 -21.7 -18.7 -15.4 -11.5 -7.7 -1.1 0.7 6.7 8.9 17.8 31.0 40.9 51.9 69.0 95.8 123.6 140.9 150.2 150.8 141.6 114.1 85.2 60.8 29.6 11.4 1.7 -13.7 -21.3
-32.8 -29.9 -26.8 -22.2 -21.5 -22.6 -28.8 -31.4 -38.8 -41.1 -49.5 -51.5 -58.6 -88.4 -113.3 -114.8 -82.5 -61.4 -51.7 -50.5 -48.3 -33.8 -22.8 -14.2 -7.0 -1.2 11.1 9.0 -1.0 -11.3 -29.3 -51.7 -36.5 -29.2 -33.3 -58.8 -49.7 -40.0 -40.0 -41.5 -36.8 -22.6 -8.4 -0.1 8.0 18.6 22.7 11.8 -4.6 9.1 29.9 44.7 53.4 58.1 68.8 74.8 70.9 67.6 70.2 86.6 99.6 84.0 81.3 94.7 89.1 77.2 68.3 62.9 60.0 60.0 60.0 57.2 56.1 56.5 58.5 60.0 70.3 82.6 94.6 102.2 101.7 91.4 75.0 59.7 61.6 53.4 41.7 28.6 24.2 18.9 10.6 9.8 0.8 -0.2 -5.0 -8.1 -10.2 -15.9 -19.6 -22.5 -25.3 -28.1 -30.0 -30.0 -28.4 -26.9 -22.3 -19.0 -16.7 -13.1 -9.6 -6.4 -2.2 1.7 6.5 15.3 34.4 44.6 52.9 64.9 88.6 111.7 132.9 144.2 149.4 142.3 123.3 98.0 69.4 35.1 9.4 -6.3 -3.9 -1.6
-25.6 -23.8 -20.2 -14.7 -11.3 -15.0 -21.9 -31.3 -39.0 -44.8 -51.1 -54.5 -60.2 -84.5 -107.7 -121.3 -105.2 -86.3 -76.8 -67.3 -46.4 -30.1 -29.7 -26.0 -19.3 -14.7 -8.9 -4.3 -11.7 -19.0 -31.0 -56.7 -50.5 -38.1 -38.5 -64.6 -50.9 -40.0 -40.0 -43.9 -42.3 -29.9 -20.4 -9.0 1.5 8.4 12.5 6.6 -11.7 1.6 16.4 30.5 35.6 46.3 60.6 70.2 69.4 59.8 63.4 83.1 90.9 79.1 73.4 90.0 83.4 74.2 68.3 64.6 60.4 60.0 60.9 69.0 61.4 60.6 67.1 67.6 80.4 92.2 105.8 113.8 116.5 109.4 86.7 76.6 74.3 61.7 40.3 32.8 29.2 21.0 10.3 4.2 -0.5 -1.6 -8.7 -9.8 -13.4 -18.6 -19.1 -21.7 -25.3 -28.0 -30.0 -30.0 -30.0 -29.8 -25.2 -20.1 -19.3 -15.8 -12.7 -9.5 -5.0 -0.5 2.8 8.7 20.8 32.0 40.3 55.3 77.5 95.8 114.9 128.9 140.7 140.0 130.5 108.1 79.4 48.4 21.0 4.7 4.2 6.3
-19.0 -15.6 -7.4 -2.5 2.3 -4.6 -14.6 -24.8 -37.5 -43.4 -50.2 -55.3 -62.6 -83.9 -107.6 -121.5 -117.9 -90.8 -73.0 -46.8 -39.2 -34.5 -37.4 -41.9 -35.2 -27.3 -23.7 -22.2 -25.7 -36.2 -42.1 -62.5 -51.7 -42.0 -38.8 -69.5 -63.4 -41.7 -39.0 -52.3 -53.2 -40.0 -29.3 -16.7 -9.3 0.3 2.9 -0.9 -20.6 -4.3 2.7 11.2 29.7 41.0 53.7 60.1 62.9 59.9 51.0 65.8 76.0 69.8 69.9 80.8 74.9 69.1 68.3 65.3 64.1 63.5 69.4 71.3 73.6 72.9 78.5 71.6 82.4 102.7 118.1 127.1 131.8 124.4 111.4 97.1 89.2 62.7 50.3 45.2 41.2 27.8 14.8 4.0 -1.3 -8.9 -10.8 -16.1 -19.4 -20.0 -20.1 -23.5 -26.7 -29.2 -29.5 -30.0 -30.0 -30.0 -27.5 -24.3 -20.9 -18.5 -16.6 -10.9 -7.7 -5.0 -2.5 1.7 9.9 25.6 39.6 50.3 60.6 81.2 99.3 122.2 140.7 140.3 132.6 114.6 91.0 66.7 41.8 22.6 11.5 18.3
-12.0 -8.1 1.4 8.3 10.1 3.3 -4.2 -14.1 -30.9 -40.8 -47.5 -53.6 -59.7 -84.7 -104.7 -120.4 -121.6 -89.9 -60.5 -49.6 -43.5 -47.3 -42.0 -50.3 -40.5 -43.2 -44.7 -42.2 -38.0 -53.4 -67.1 -70.0 -56.8 -50.8 -46.5 -60.5 -81.0 -64.0 -59.0 -61.5 -55.2 -42.0 -32.0 -24.5 -19.8 -9.0 -6.0 -8.6 -21.2 -16.9 -7.7 7.6 23.5 36.3 48.8 58.1 60.8 59.5 49.4 52.7 59.9 59.1 69.3 71.6 69.6 67.3 63.8 61.6 67.4 68.2 69.8 76.5 80.6 82.5 90.6 92.4 100.3 113.6 132.1 145.6 153.0 147.2 132.5 121.1 102.4 81.5 70.3 65.6 60.8 42.2 25.8 12.3 2.3 -2.5 -10.6 -16.4 -20.1 -21.1 -21.8 -27.5 -29.8 -30.0 -30.0 -30.0 -30.0 -30.0 -28.6 -26.8 -21.9 -20.5 -18.4 -11.6 -9.3 -9.7 -9.5 -2.8 4.9 16.8 27.7 37.9 60.2 84.2 100.7 128.0 140.4 137.9 126.6 111.3 100.7 81.8 63.7 46.3 25.8 20.0
-6.2 -0.9 14.2 20.0 19.9 11.7 3.7 -2.0 -17.3 -29.5 -44.1 -52.3 -57.9 -80.8 -104.3 -123.3 -130.4 -93.8 -64.7 -64.9 -72.5 -69.8 -64.0 -55.1 -47.8 -60.6 -56.5 -55.4 -58.4 -64.2 -70.0 -69.4 -62.3 -60.2 -62.6 -65.6 -83.7 -87.4 -65.8 -41.9 -37.7 -37.3 -30.2 -31.4 -33.9 -19.8 -14.3 -10.0 -29.4 -27.2 -13.5 1.4 16.2 27.4 37.0 51.5 60.6 59.9 46.8 40.0 48.5 62.3 70.0 71.8 69.9 63.7 60.7 60.0 64.2 69.4 71.6 76.9 80.9 88.3 97.3 107.3 116.2 127.4 145.8 159.7 167.8 162.2 152.5 132.2 117.6 104.0 94.9 87.9 74.2 55.9 38.0 22.9 6.4 -1.7 -10.7 -14.4 -17.9 -20.0 -21.9 -23.7 -26.8 -29.3 -30.0 -30.0 -30.0 -30.0 -29.7 -27.5 -23.1 -20.8 -17.6 -10.1 -10.1 -10.1 -8.1 -3.8 0.2 8.1 22.3 39.9 62.5 90.5 97.8 118.5 130.4 129.7 120.8 103.7 94.9 89.0 74.6 57.5 39.9 19.7
