ncols         134
nrows         134
xllcorner     60000.188
yllcorner     1070025.188
cellsize          74.62406015037593900
NODATA_value  -9999
-22.9 -22.9 -22.9 -22.9 -22.9 -22.9 -22.9 -22.9 -22.9 -22.9 -22.9 -22.9 -22.9 -22.9 -22.9 -22.8 -22.7 -22.6 -22.6 -22.5 -22.4 -22.4 -22.3 -22.2 -22.1 -22.1 -22.0 -21.9 -21.9 -21.8 -21.7 -21.7 -21.6 -21.5 -21.5 -21.4 -21.4 -21.3 -21.2 -21.2 -21.1 -21.0 -21.0 -20.9 -20.8 -20.8 -20.7 -20.6 -20.6 -20.5 -20.5 -20.4 -20.3 -20.3 -20.2 -20.1 -20.1 -20.0 -19.9 -19.9 -17.9 -19.7 -19.7 -19.6 -19.5 -19.5 -19.4 -19.3 -19.3 -19.2 -19.1 -19.1 -19.0 -18.9 -18.9 -18.8 -18.7 -18.6 -18.6 -18.5 -18.4 -18.4 -18.3 -18.2 -18.1 -18.1 -18.0 -17.9 -17.8 -17.7 -17.7 -17.6 -17.5 -17.4 -17.3 -17.3 -17.2 -17.1 -17.0 -16.9 -16.8 -16.7 -16.6 -16.5 -16.4 -16.3 -16.1 -16.0 -15.9 -15.8 -15.7 -15.6 -15.4 -15.3 -15.2 -15.1 -15.0 -15.4 -16.1 -16.8 -17.4 -18.1 -18.7 -19.4 -19.4 -19.4 -19.4 -19.4 -18.9 -14.5 -16.8 -19.2 -19.4 -13.4
-22.9 -22.9 -22.9 -22.9 -22.9 -22.9 -22.9 -22.9 -22.9 -22.9 -22.9 -22.9 -22.9 -22.8 -22.7 -22.6 -22.6 -22.5 -22.4 -22.4 -22.3 -22.2 -22.1 -22.1 -22.0 -21.9 -21.8 -21.8 -21.7 -21.7 -21.6 -21.5 -21.5 -21.4 -21.4 -21.3 -21.2 -21.2 -21.1 -21.1 -21.0 -20.9 -20.9 -20.8 -20.7 -20.7 -20.6 -20.5 -20.5 -20.4 -20.3 -20.3 -20.2 -20.1 -20.1 -20.0 -20.0 -19.9 -19.8 -19.8 -18.1 -19.6 -19.6 -19.5 -19.4 -19.4 -19.3 -19.2 -19.2 -19.1 -19.0 -19.0 -18.9 -18.8 -18.8 -18.7 -18.6 -18.5 -18.5 -18.4 -18.3 -18.2 -18.2 -18.1 -18.0 -18.0 -17.9 -17.8 -17.7 -17.6 -17.5 -17.5 -17.4 -17.3 -17.2 -17.1 -17.1 -17.0 -16.9 -16.8 -16.7 -16.6 -16.4 -16.3 -16.2 -16.1 -16.0 -15.9 -15.7 -15.6 -15.5 -15.4 -15.3 -15.2 -15.0 -15.1 -15.5 -16.5 -17.1 -17.8 -18.5 -19.1 -19.4 -19.4 -19.4 -19.4 -19.4 -19.4 -19.2 -18.6 -19.4 -19.4 -19.4 -19.4
-22.9 -22.9 -22.9 -22.9 -22.9 -22.9 -22.9 -22.9 -22.9 -22.9 -22.9 -22.8 -22.7 -22.7 -22.6 -22.5 -22.4 -22.4 -22.3 -22.2 -22.1 -22.1 -22.0 -21.9 -21.9 -21.8 -21.7 -21.7 -21.6 -21.6 -21.5 -21.4 -21.4 -21.3 -21.3 -21.2 -21.1 -21.1 -21.0 -20.9 -20.9 -20.8 -20.7 -20.7 -20.6 -20.6 -20.5 -20.4 -20.4 -20.3 -20.2 -20.2 -20.1 -20.0 -20.0 -19.9 -19.8 -19.8 -19.7 -19.6 -18.3 -19.5 -19.4 -19.4 -19.3 -19.2 -19.2 -19.1 -19.0 -19.0 -18.9 -18.8 -18.8 -18.7 -18.6 -18.6 -18.5 -18.4 -18.3 -18.3 -18.2 -18.1 -18.1 -18.0 -17.9 -17.8 -17.7 -17.6 -17.6 -17.5 -17.4 -17.3 -17.3 -17.2 -17.1 -17.0 -16.9 -16.8 -16.7 -16.7 -16.6 -16.5 -16.4 -16.3 -16.2 -16.1 -16.0 -15.8 -15.7 -15.5 -15.4 -15.3 -15.1 -15.0 -15.3 -15.7 -16.2 -17.3 -17.9 -18.6 -19.2 -19.4 -19.4 -19.4 -19.4 -19.4 -19.4 -19.4 -19.4 -19.4 -19.4 -19.4 -19.4 -18.6
-22.9 -22.9 -22.9 -22.9 -22.9 -22.9 -22.9 -22.9 -22.9 -22.8 -22.7 -22.6 -22.6 -22.5 -22.4 -22.4 -22.3 -22.2 -22.2 -22.1 -22.0 -21.9 -21.9 -21.8 -21.7 -21.7 -21.6 -21.5 -21.5 -21.4 -21.4 -21.3 -21.2 -21.2 -21.1 -21.1 -21.0 -20.9 -20.9 -20.8 -20.7 -20.7 -20.6 -20.5 -20.5 -20.4 -20.4 -20.3 -20.2 -20.2 -20.1 -20.0 -20.0 -19.9 -19.8 -19.8 -19.7 -19.7 -19.6 -19.5 -18.5 -19.4 -19.3 -19.3 -19.2 -19.1 -19.1 -19.0 -18.9 -18.9 -18.8 -18.7 -18.7 -18.6 -18.5 -18.5 -18.4 -18.3 -18.2 -18.2 -18.1 -18.0 -18.0 -17.9 -17.8 -17.7 -17.6 -17.5 -17.5 -17.4 -17.3 -17.2 -17.1 -17.0 -17.0 -16.9 -16.8 -16.7 -16.6 -16.5 -16.4 -16.3 -16.2 -16.1 -16.0 -15.9 -15.8 -15.6 -15.5 -15.4 -15.2 -15.1 -15.0 -15.4 -15.9 -16.3 -16.8 -17.9 -18.5 -19.1 -19.4 -19.4 -19.4 -19.4 -19.4 -19.4 -19.4 -19.4 -19.4 -19.4 -19.4 -19.4 -18.8 -16.4
-22.9 -22.9 -22.9 -22.9 -22.9 -22.9 -22.9 -22.8 -22.7 -22.7 -22.6 -22.5 -22.4 -22.4 -22.3 -22.2 -22.2 -22.1 -22.0 -21.9 -21.9 -21.8 -21.7 -21.7 -21.6 -21.5 -21.5 -21.4 -21.4 -21.3 -21.2 -21.2 -21.1 -21.1 -21.0 -20.7 -20.9 -20.8 -20.8 -20.7 -20.6 -20.6 -20.5 -20.4 -20.4 -20.3 -20.2 -20.2 -20.1 -20.1 -20.0 -19.9 -19.9 -19.8 -19.7 -19.7 -19.6 -19.6 -19.5 -19.4 -18.7 -19.3 -19.2 -19.2 -19.1 -19.0 -19.0 -18.9 -18.8 -18.8 -18.7 -18.6 -18.6 -18.5 -18.4 -18.4 -18.3 -18.2 -18.1 -18.1 -18.0 -17.9 -17.8 -17.7 -17.7 -17.6 -17.5 -17.4 -17.3 -17.3 -17.2 -17.1 -17.0 -16.9 -16.8 -16.7 -16.6 -16.5 -16.5 -16.4 -16.3 -16.2 -16.1 -16.0 -15.9 -15.7 -15.6 -15.5 -15.3 -15.2 -15.1 -15.0 -15.5 -15.9 -16.4 -16.8 -17.5 -18.4 -19.0 -19.4 -19.4 -19.4 -19.4 -19.4 -19.4 -19.4 -19.4 -19.4 -19.4 -19.4 -19.4 -19.4 -17.8 -15.2
-22.9 -22.9 -22.9 -22.9 -22.9 -22.8 -22.7 -22.7 -22.6 -22.5 -22.4 -22.4 -22.3 -22.2 -22.2 -22.1 -22.0 -21.9 -21.9 -21.8 -21.7 -21.7 -21.6 -21.5 -21.5 -21.4 -21.3 -21.3 -21.2 -21.2 -21.1 -21.1 -21.0 -20.5 -19.6 -18.6 -20.7 -20.7 -20.6 -20.6 -20.5 -20.4 -20.4 -20.3 -20.2 -20.2 -20.1 -20.1 -20.0 -19.9 -19.9 -19.8 -19.8 -19.7 -19.6 -19.6 -19.5 -19.4 -19.4 -19.3 -18.8 -19.2 -19.1 -19.1 -19.0 -18.9 -18.9 -18.8 -18.7 -18.6 -18.6 -18.5 -18.5 -18.4 -18.3 -18.2 -18.2 -18.1 -18.0 -18.0 -17.9 -17.8 -17.7 -17.6 -17.5 -17.4 -17.4 -17.3 -17.2 -17.1 -17.0 -17.0 -16.9 -16.8 -16.7 -16.6 -16.5 -16.4 -16.3 -16.2 -16.1 -16.0 -15.9 -15.8 -15.7 -15.5 -15.4 -15.3 -15.2 -15.0 -15.1 -15.5 -16.0 -16.5 -16.9 -17.5 -18.1 -18.9 -19.4 -19.4 -19.4 -19.4 -19.4 -19.4 -19.4 -19.4 -19.4 -19.4 -19.4 -19.4 -19.4 -19.4 -16.9 -14.7
-22.9 -22.9 -22.9 -22.8 -22.7 -22.7 -22.6 -22.5 -22.5 -22.4 -22.3 -22.2 -22.2 -22.1 -22.0 -21.9 -21.9 -21.8 -21.8 -21.7 -21.6 -21.6 -21.5 -21.4 -21.4 -21.3 -21.2 -21.2 -21.1 -21.0 -21.0 -20.4 -19.5 -18.6 -17.5 -16.6 -20.6 -20.6 -20.5 -20.4 -20.4 -20.3 -20.3 -20.2 -20.1 -20.1 -20.0 -19.9 -19.9 -19.8 -19.8 -19.7 -19.6 -19.6 -19.5 -19.5 -19.4 -19.3 -19.3 -19.2 -18.9 -19.1 -19.0 -19.0 -18.9 -18.8 -18.8 -18.7 -18.6 -18.5 -18.5 -18.4 -18.3 -18.3 -18.2 -18.1 -18.1 -18.0 -17.9 -17.8 -17.7 -17.7 -17.6 -17.5 -17.4 -17.3 -17.2 -17.1 -17.1 -17.0 -16.9 -16.8 -16.7 -16.6 -16.5 -16.4 -16.3 -16.3 -16.2 -16.1 -16.0 -15.9 -15.7 -15.6 -15.5 -15.4 -15.2 -15.1 -15.0 -15.0 -15.4 -16.1 -16.5 -17.0 -17.5 -18.0 -18.6 -19.3 -19.4 -19.4 -19.4 -19.4 -19.4 -19.4 -19.4 -19.4 -19.4 -19.4 -19.4 -19.4 -19.4 -19.4 -16.1 -14.3
-22.9 -22.8 -22.7 -22.7 -22.6 -22.5 -22.5 -22.4 -22.3 -22.3 -22.2 -22.1 -22.0 -22.0 -21.9 -21.8 -21.8 -21.7 -21.6 -21.6 -21.5 -21.4 -21.4 -21.3 -21.2 -21.2 -21.1 -21.0 -21.0 -20.4 -19.4 -18.5 -17.6 -16.6 -15.6 -14.6 -20.5 -20.4 -20.4 -20.3 -20.3 -20.2 -20.1 -20.1 -20.0 -20.0 -19.9 -19.8 -19.8 -19.7 -19.7 -19.6 -19.5 -19.5 -19.4 -19.4 -19.3 -19.2 -19.2 -19.1 -18.9 -19.0 -18.9 -18.9 -18.8 -18.7 -18.6 -18.6 -18.5 -18.4 -18.3 -18.3 -18.2 -18.2 -18.1 -18.1 -18.0 -17.9 -17.8 -17.7 -17.6 -17.5 -17.4 -17.3 -17.3 -17.2 -17.1 -17.0 -16.9 -16.8 -16.8 -16.7 -16.6 -16.5 -16.4 -16.3 -16.2 -16.1 -16.0 -15.9 -15.8 -15.7 -15.5 -15.4 -15.3 -15.1 -15.0 -14.9 -15.1 -15.2 -15.6 -16.5 -16.9 -17.5 -18.0 -18.5 -19.0 -19.4 -19.4 -19.4 -19.4 -19.4 -19.4 -19.4 -19.4 -19.4 -19.4 -19.4 -19.4 -19.4 -19.4 -19.4 -19.4 -15.0
-22.8 -22.7 -22.6 -22.6 -22.5 -22.4 -22.4 -22.3 -22.2 -22.1 -22.1 -22.0 -21.9 -21.8 -21.8 -21.7 -21.6 -21.6 -21.5 -21.4 -21.4 -21.3 -21.2 -21.2 -21.1 -21.0 -21.0 -20.4 -19.6 -18.6 -17.6 -16.6 -15.7 -14.6 -13.7 -12.7 -20.4 -20.3 -20.3 -20.2 -20.2 -20.1 -20.0 -20.0 -19.9 -19.9 -19.8 -19.7 -19.7 -19.6 -19.6 -19.5 -19.4 -19.4 -19.3 -19.3 -19.2 -19.1 -19.1 -19.0 -19.0 -18.9 -18.8 -18.7 -18.7 -18.6 -18.5 -18.4 -18.4 -18.3 -18.2 -18.2 -18.1 -18.1 -18.0 -17.9 -17.8 -17.7 -17.6 -17.6 -17.5 -17.4 -17.3 -17.2 -17.1 -17.1 -17.0 -16.9 -16.8 -16.7 -16.6 -16.5 -16.4 -16.3 -16.2 -16.1 -16.1 -16.0 -15.9 -15.8 -15.6 -15.5 -15.4 -15.3 -15.1 -15.0 -15.0 -15.1 -15.2 -15.3 -15.8 -17.0 -17.5 -18.0 -18.5 -19.0 -19.4 -19.4 -19.4 -19.4 -19.4 -19.4 -19.4 -19.4 -19.4 -19.4 -19.4 -19.4 -19.4 -19.4 -19.4 -19.4 -17.1 -13.8
-22.6 -22.6 -22.5 -22.4 -22.4 -22.3 -22.2 -22.1 -22.1 -22.0 -21.9 -21.8 -21.8 -21.7 -21.7 -21.6 -21.5 -21.5 -21.4 -21.3 -21.2 -21.2 -21.1 -21.0 -21.0 -20.6 -19.6 -18.6 -17.6 -16.7 -15.7 -14.7 -13.8 -12.7 -11.3 -9.5 -20.3 -20.2 -20.2 -20.1 -20.0 -20.0 -19.9 -19.9 -19.8 -19.8 -19.7 -19.6 -19.6 -19.5 -19.5 -19.4 -19.3 -19.3 -19.2 -19.2 -19.1 -19.0 -19.0 -18.9 -18.8 -18.8 -18.7 -18.6 -18.5 -18.5 -18.4 -18.3 -18.3 -18.2 -18.1 -18.1 -18.0 -17.9 -17.9 -17.8 -17.7 -17.6 -17.5 -17.4 -17.3 -17.2 -17.2 -17.1 -17.0 -16.9 -16.8 -16.7 -16.6 -16.6 -16.5 -16.4 -16.3 -16.2 -16.1 -16.0 -15.9 -15.8 -15.7 -15.6 -15.5 -15.4 -15.2 -15.1 -15.0 -15.0 -15.1 -15.2 -15.4 -15.5 -16.1 -17.5 -18.0 -18.4 -18.9 -19.3 -19.4 -19.4 -19.4 -19.4 -19.4 -19.3 -19.0 -19.3 -19.4 -19.4 -19.4 -19.4 -19.4 -19.4 -19.4 -18.2 -13.8 -13.4
-22.5 -22.4 -22.4 -22.3 -22.2 -22.2 -22.1 -22.0 -21.9 -21.9 -21.8 -21.7 -21.7 -21.6 -21.5 -21.5 -21.4 -21.3 -21.3 -21.2 -21.1 -21.1 -21.0 -20.7 -19.7 -18.7 -17.7 -16.7 -15.8 -14.8 -13.8 -12.9 -11.4 -9.6 -8.1 -6.4 -20.2 -20.1 -20.1 -20.0 -19.9 -19.9 -19.8 -19.8 -19.7 -19.6 -19.6 -19.5 -19.5 -19.4 -19.3 -19.3 -19.2 -19.2 -19.1 -19.0 -19.0 -18.9 -18.9 -18.8 -18.7 -18.6 -18.6 -18.5 -18.4 -18.4 -18.3 -18.2 -18.1 -18.1 -18.0 -18.0 -17.9 -17.8 -17.7 -17.6 -17.5 -17.5 -17.4 -17.3 -17.2 -17.1 -17.0 -17.0 -16.9 -16.8 -16.7 -16.6 -16.5 -16.4 -16.3 -16.2 -16.1 -16.1 -16.0 -15.9 -15.8 -15.7 -15.6 -15.4 -15.3 -15.2 -15.1 -15.0 -15.0 -15.1 -15.3 -15.3 -15.5 -15.6 -16.7 -18.0 -18.4 -18.9 -19.3 -19.4 -19.4 -19.4 -19.4 -19.4 -19.4 -19.1 -19.4 -19.4 -19.4 -19.4 -19.4 -19.4 -19.4 -19.4 -17.8 -13.9 -13.3 -13.0
-22.4 -22.3 -22.2 -22.2 -22.1 -22.0 -22.0 -21.9 -21.8 -21.8 -21.7 -21.6 -21.5 -21.5 -21.4 -21.4 -21.3 -21.2 -21.1 -21.1 -21.0 -20.9 -20.9 -18.8 -17.8 -16.8 -15.9 -14.9 -14.0 -13.0 -11.5 -9.8 -8.2 -6.6 -5.1 -3.6 -20.1 -20.0 -20.0 -19.9 -19.8 -19.8 -19.7 -19.7 -19.6 -19.5 -19.5 -19.4 -19.4 -19.3 -19.2 -19.2 -19.1 -19.1 -19.0 -18.9 -18.9 -18.8 -18.7 -18.7 -18.6 -18.5 -18.5 -18.4 -18.3 -18.2 -18.2 -18.1 -18.0 -18.0 -17.9 -17.8 -17.7 -17.6 -17.6 -17.5 -17.4 -17.3 -17.2 -17.1 -17.1 -17.0 -16.9 -16.8 -16.7 -16.6 -16.5 -16.5 -16.4 -16.3 -16.2 -16.1 -16.0 -15.9 -15.8 -15.7 -15.6 -15.5 -15.4 -15.3 -15.2 -15.1 -15.0 -15.0 -15.1 -15.3 -15.5 -15.6 -15.7 -16.3 -17.3 -18.4 -18.8 -19.3 -19.4 -19.4 -19.4 -19.4 -19.4 -19.3 -19.1 -19.2 -19.4 -19.4 -19.4 -19.4 -19.4 -19.4 -19.4 -16.7 -13.5 -13.2 -12.9 -12.8
-22.3 -22.2 -22.1 -22.1 -22.0 -21.9 -21.8 -21.8 -21.7 -21.6 -21.6 -21.5 -21.4 -21.4 -21.3 -21.2 -21.2 -21.1 -21.0 -21.0 -20.9 -20.8 -20.8 -17.0 -16.0 -15.1 -14.1 -13.1 -11.7 -10.0 -8.3 -6.8 -5.2 -3.7 -2.4 -1.1 -20.0 -19.9 -19.8 -19.8 -19.7 -19.7 -19.6 -19.5 -19.5 -19.4 -19.4 -19.3 -19.2 -19.2 -19.1 -19.1 -19.0 -18.9 -18.9 -18.8 -18.7 -18.7 -18.6 -18.5 -18.5 -18.4 -18.3 -18.3 -18.2 -18.1 -18.1 -18.0 -17.9 -17.8 -17.7 -17.7 -17.6 -17.5 -17.4 -17.3 -17.2 -17.2 -17.1 -17.0 -16.9 -16.8 -16.7 -16.7 -16.6 -16.5 -16.4 -16.3 -16.2 -16.1 -16.1 -16.0 -15.9 -15.8 -15.7 -15.6 -15.5 -15.4 -15.3 -15.1 -15.0 -14.9 -15.0 -15.1 -15.3 -15.4 -15.6 -15.7 -16.2 -17.0 -18.0 -18.8 -19.3 -19.4 -19.4 -19.4 -19.4 -19.4 -19.4 -19.1 -18.8 -19.1 -19.4 -19.4 -19.4 -19.4 -19.4 -19.2 -15.6 -13.4 -12.9 -12.9 -12.8 -12.6
-22.1 -22.1 -22.0 -21.9 -21.9 -21.8 -21.7 -21.6 -21.6 -21.5 -21.4 -21.4 -21.3 -21.2 -21.2 -21.1 -21.0 -21.0 -20.7 -20.4 -20.0 -19.6 -19.3 -13.6 -12.3 -11.1 -9.9 -8.6 -7.4 -6.3 -4.9 -3.8 -2.5 -1.2 -0.2 -0.9 -2.7 -4.6 -6.9 -9.4 -11.7 -13.8 -15.8 -16.8 -10.9 -12.1 -13.2 -14.3 -15.4 -16.5 -17.6 -18.7 -18.9 -18.8 -18.8 -18.7 -18.6 -18.6 -18.5 -18.4 -18.4 -18.3 -18.2 -18.1 -18.1 -18.0 -17.9 -17.8 -17.8 -17.7 -17.6 -17.5 -17.4 -17.3 -17.3 -17.2 -17.1 -17.0 -16.9 -16.8 -16.8 -16.7 -16.6 -16.5 -16.4 -16.3 -16.3 -16.2 -16.1 -16.0 -15.9 -15.8 -15.7 -15.6 -15.5 -15.4 -15.3 -15.2 -15.1 -15.0 -14.9 -15.0 -15.2 -15.3 -15.4 -15.5 -15.8 -16.3 -17.1 -17.8 -18.6 -19.3 -19.4 -19.4 -19.4 -19.4 -19.4 -19.4 -19.1 -18.7 -18.1 -18.4 -19.2 -19.4 -19.4 -19.4 -17.5 -14.1 -13.2 -12.9 -12.8 -12.7 -12.6 -12.5
-22.0 -21.9 -21.9 -21.8 -21.7 -21.7 -21.6 -21.5 -21.5 -21.4 -21.3 -21.2 -21.2 -21.1 -21.1 -21.0 -20.8 -20.5 -20.1 -19.7 -19.3 -18.9 -18.6 -11.2 -10.0 -8.7 -7.5 -6.3 -5.1 -3.9 -2.6 -1.4 -0.3 -0.8 -1.7 -2.7 -6.6 -9.0 -11.4 -13.5 -15.2 -16.5 -17.0 -17.3 -13.0 -14.1 -15.2 -16.3 -17.4 -18.5 -18.9 -18.8 -18.8 -18.7 -18.6 -18.6 -18.5 -18.4 -18.4 -18.3 -18.2 -18.2 -18.1 -18.0 -18.0 -17.9 -17.8 -17.7 -17.6 -17.5 -17.4 -17.4 -17.3 -17.2 -17.1 -17.0 -16.9 -16.9 -16.8 -16.7 -16.6 -16.5 -16.5 -16.4 -16.3 -16.2 -16.1 -16.0 -16.0 -15.9 -15.8 -15.7 -15.6 -15.5 -15.4 -15.3 -15.2 -15.1 -15.0 -15.0 -15.1 -15.2 -15.3 -15.3 -15.5 -15.7 -16.4 -17.0 -17.7 -18.3 -19.1 -19.4 -19.4 -19.4 -19.4 -19.4 -19.2 -18.5 -17.7 -16.6 -15.7 -15.2 -14.9 -15.3 -17.1 -14.8 -13.3 -12.9 -12.9 -12.7 -12.6 -12.5 -12.4 -12.3
-21.9 -21.8 -21.8 -21.7 -21.6 -21.5 -21.5 -21.4 -21.3 -21.3 -21.2 -21.1 -21.1 -21.0 -20.9 -20.6 -20.2 -19.8 -19.5 -19.1 -18.7 -18.3 -18.0 -8.9 -7.7 -6.4 -5.2 -3.9 -2.7 -1.5 -0.4 -0.6 -1.6 -2.6 -3.5 -4.5 -10.8 -13.0 -14.8 -16.3 -16.7 -17.0 -17.4 -17.7 -14.8 -15.9 -17.0 -18.0 -18.9 -18.9 -18.8 -18.7 -18.7 -18.6 -18.5 -18.5 -18.4 -18.3 -18.3 -18.2 -18.1 -18.1 -18.0 -17.9 -17.8 -17.7 -17.6 -17.5 -17.4 -17.3 -17.3 -17.2 -17.1 -17.0 -17.0 -16.9 -16.8 -16.7 -16.6 -16.5 -16.5 -16.4 -16.3 -16.2 -16.2 -16.1 -16.0 -15.9 -15.8 -15.7 -15.6 -15.5 -15.4 -15.3 -15.2 -15.1 -15.0 -14.9 -15.0 -15.1 -15.1 -15.3 -15.4 -15.5 -15.8 -16.4 -16.9 -17.5 -18.3 -19.0 -19.4 -19.4 -19.4 -19.4 -19.4 -19.3 -18.5 -17.6 -16.4 -15.6 -14.9 -14.5 -14.2 -14.1 -13.5 -13.0 -12.9 -12.8 -12.7 -12.6 -12.5 -12.3 -12.2 -12.1
-21.8 -21.7 -21.6 -21.6 -21.5 -21.4 -21.4 -21.3 -21.2 -21.1 -21.1 -21.0 -20.9 -20.7 -20.3 -19.9 -19.5 -19.2 -18.8 -18.4 -18.1 -17.0 -15.1 -6.5 -5.3 -3.9 -2.7 -1.5 -0.4 -0.6 -1.5 -2.4 -3.4 -4.4 -5.3 -6.2 -14.4 -16.0 -16.6 -16.9 -17.1 -17.4 -17.8 -18.1 -16.6 -17.7 -18.7 -18.9 -18.8 -18.8 -18.7 -18.6 -18.6 -18.5 -18.4 -18.4 -18.3 -18.2 -18.2 -18.1 -18.0 -18.0 -17.9 -17.8 -17.7 -17.6 -17.5 -17.4 -17.3 -17.2 -17.1 -17.1 -17.0 -16.9 -16.8 -16.7 -16.7 -16.6 -16.5 -16.4 -16.3 -16.2 -16.2 -16.1 -16.0 -15.9 -15.8 -15.7 -15.6 -15.5 -15.5 -15.4 -15.3 -15.2 -15.1 -15.0 -15.0 -15.0 -15.1 -15.2 -15.2 -15.3 -15.4 -15.7 -16.1 -16.6 -17.1 -17.8 -18.6 -19.3 -19.4 -19.4 -19.4 -19.4 -19.3 -18.3 -17.3 -16.2 -15.3 -14.7 -14.1 -13.8 -13.5 -13.2 -12.9 -12.8 -12.7 -12.6 -12.5 -12.4 -12.3 -12.2 -12.1 -12.0
-21.6 -21.6 -21.5 -21.4 -21.4 -21.3 -21.2 -21.1 -21.1 -21.0 -21.0 -20.7 -20.3 -20.0 -19.7 -19.4 -18.9 -18.5 -18.2 -17.2 -15.3 -13.0 -10.3 -4.1 -2.8 -1.5 -0.4 -0.5 -1.5 -2.3 -3.3 -4.2 -5.2 -6.1 -7.0 -8.0 -16.5 -16.8 -17.1 -17.4 -17.6 -17.9 -18.3 -18.5 -18.3 -18.9 -18.8 -18.8 -18.7 -18.7 -18.6 -18.5 -18.5 -18.4 -18.3 -18.3 -18.2 -18.1 -18.1 -18.0 -17.9 -17.8 -17.7 -17.6 -17.5 -17.4 -17.3 -17.2 -17.1 -17.0 -16.9 -16.9 -16.8 -16.7 -16.6 -16.6 -16.5 -16.4 -16.3 -16.2 -16.2 -16.1 -16.0 -15.9 -15.9 -15.8 -15.7 -15.6 -15.5 -15.4 -15.3 -15.2 -15.1 -15.0 -14.9 -15.0 -15.0 -15.1 -15.2 -15.2 -15.3 -15.4 -15.4 -15.6 -15.8 -16.2 -16.7 -17.4 -18.3 -19.3 -19.4 -19.4 -19.4 -19.4 -18.3 -17.0 -15.8 -15.1 -14.4 -13.9 -13.6 -13.3 -13.0 -12.9 -12.8 -12.7 -12.6 -12.5 -12.3 -12.2 -12.1 -12.0 -11.9 -11.7
-21.5 -21.5 -21.4 -21.3 -21.3 -21.2 -21.1 -21.0 -21.0 -20.7 -20.4 -20.0 -19.7 -19.4 -19.1 -18.8 -18.3 -17.3 -15.5 -13.2 -10.4 -7.5 -4.8 -1.7 -0.5 -0.5 -1.4 -2.4 -3.2 -4.1 -5.2 -6.0 -6.9 -7.9 -8.9 -9.8 -17.0 -17.3 -17.5 -17.8 -18.0 -18.3 -18.7 -18.9 -18.9 -18.8 -18.7 -18.7 -18.6 -18.5 -18.5 -18.4 -18.3 -18.3 -18.2 -18.1 -18.1 -18.0 -17.9 -17.8 -17.8 -17.7 -17.6 -17.5 -17.4 -17.3 -17.2 -17.1 -17.0 -16.9 -16.8 -16.7 -16.7 -16.6 -16.5 -16.4 -16.3 -16.3 -16.2 -16.1 -16.0 -15.9 -15.8 -15.8 -15.7 -15.6 -15.5 -15.4 -15.4 -15.3 -15.2 -15.1 -15.0 -14.9 -14.8 -14.8 -14.7 -14.6 -14.6 -14.5 -14.5 -14.4 -14.3 -14.3 -14.3 -14.2 -14.2 -14.2 -14.1 -14.1 -15.7 -18.9 -18.6 -17.3 -15.8 -14.9 -14.4 -14.0 -13.7 -13.4 -13.1 -12.9 -12.8 -12.7 -12.6 -12.5 -12.4 -12.3 -12.1 -12.0 -11.9 -11.8 -11.6 -11.5
-21.4 -21.3 -21.3 -21.2 -21.1 -21.1 -21.0 -20.7 -20.4 -20.0 -19.8 -19.4 -19.1 -18.8 -18.5 -17.6 -15.8 -13.6 -10.9 -7.9 -5.1 -2.7 -0.8 -0.5 -1.4 -2.4 -3.2 -4.2 -5.0 -5.9 -6.9 -7.8 -8.7 -9.6 -10.5 -11.4 -18.4 -18.5 -18.6 -18.7 -18.7 -18.8 -18.9 -18.8 -18.8 -18.7 -18.6 -18.6 -18.5 -18.4 -18.4 -18.3 -18.2 -18.2 -18.1 -18.1 -18.0 -17.9 -17.8 -17.7 -17.6 -17.5 -17.4 -17.3 -17.2 -17.2 -17.1 -16.9 -16.8 -16.8 -16.7 -16.6 -16.6 -16.5 -16.4 -16.3 -16.2 -16.2 -16.1 -15.9 -15.9 -15.8 -15.7 -15.7 -15.6 -15.5 -15.4 -15.4 -15.3 -15.2 -15.1 -15.0 -14.9 -14.8 -14.8 -14.7 -14.6 -14.5 -14.5 -14.4 -14.4 -14.3 -14.3 -14.2 -14.2 -14.1 -14.1 -14.1 -14.1 -14.1 -15.0 -16.7 -16.1 -15.5 -14.6 -13.9 -13.7 -13.5 -13.2 -12.9 -12.8 -12.7 -12.6 -12.5 -12.4 -12.3 -12.2 -12.1 -12.0 -11.8 -11.7 -11.5 -11.4 -11.2
-21.3 -21.2 -21.1 -21.1 -21.0 -20.9 -20.9 -20.8 -20.7 -20.7 -20.6 -20.6 -20.5 -20.5 -20.4 -20.4 -20.3 -20.2 -20.2 -20.1 -20.1 -20.0 -20.0 -2.3 -3.3 -4.5 -5.5 -6.7 -7.9 -9.1 -10.6 -11.8 -12.6 -13.4 -14.1 -14.8 -18.9 -18.9 -18.9 -18.9 -18.9 -18.9 -18.8 -18.7 -18.7 -18.6 -18.5 -18.5 -18.4 -18.3 -18.3 -18.2 -18.1 -18.1 -18.0 -17.9 -17.9 -17.7 -17.7 -17.6 -17.5 -17.4 -17.3 -17.2 -17.1 -17.0 -16.9 -16.8 -16.7 -16.6 -16.5 -16.5 -16.4 -16.3 -16.3 -16.2 -16.1 -16.0 -15.9 -15.9 -15.8 -15.7 -15.6 -15.5 -15.5 -15.4 -15.3 -15.2 -15.2 -15.1 -15.0 -14.9 -14.8 -14.7 -14.7 -14.6 -14.5 -14.5 -14.4 -14.3 -14.3 -14.2 -14.2 -14.1 -14.1 -14.1 -14.0 -14.0 -14.0 -14.0 -14.2 -14.4 -14.0 -13.8 -13.7 -13.5 -13.3 -13.1 -12.9 -12.8 -12.7 -12.6 -12.5 -12.4 -12.3 -12.2 -12.1 -12.0 -11.8 -11.6 -11.5 -11.3 -11.2 -11.0
-21.1 -21.1 -21.0 -21.0 -20.9 -20.8 -20.8 -20.7 -20.6 -20.6 -20.5 -20.5 -20.4 -20.4 -20.3 -20.2 -20.2 -20.1 -20.1 -20.0 -20.0 -19.9 -19.9 -4.3 -5.4 -6.7 -7.8 -9.1 -10.4 -11.7 -12.4 -13.2 -13.9 -14.6 -15.3 -16.1 -18.9 -18.9 -18.9 -18.9 -18.9 -18.8 -18.7 -18.6 -18.6 -18.5 -18.4 -18.4 -18.3 -18.2 -18.2 -18.1 -18.0 -18.0 -17.9 -17.8 -17.7 -17.6 -17.5 -17.4 -17.3 -17.2 -17.1 -17.1 -17.0 -16.9 -16.8 -16.7 -16.6 -16.5 -16.4 -16.4 -16.3 -16.2 -16.1 -16.0 -16.0 -15.9 -15.8 -15.7 -15.6 -15.6 -15.5 -15.4 -15.3 -15.3 -15.2 -15.1 -15.0 -14.9 -14.9 -14.8 -14.7 -14.6 -14.6 -14.5 -14.4 -14.4 -14.3 -14.2 -14.2 -14.1 -14.1 -14.0 -14.0 -14.0 -14.0 -13.9 -13.9 -13.8 -13.7 -13.7 -13.5 -13.5 -13.3 -13.1 -13.0 -12.9 -12.8 -12.6 -12.5 -12.4 -12.3 -12.2 -12.1 -12.0 -11.9 -11.7 -11.6 -11.4 -11.2 -11.1 -10.9 -10.7
-21.0 -21.0 -20.9 -20.8 -20.8 -20.7 -20.7 -20.6 -20.5 -20.5 -20.4 -20.4 -20.3 -20.3 -20.2 -20.1 -20.1 -20.0 -20.0 -19.9 -19.9 -19.8 -19.7 -6.6 -7.7 -9.0 -10.3 -11.5 -12.2 -13.0 -13.7 -14.4 -15.2 -15.8 -16.5 -17.2 -18.9 -18.9 -18.9 -18.8 -18.7 -18.7 -18.6 -18.5 -18.5 -18.4 -18.3 -18.3 -18.2 -18.1 -18.1 -18.0 -17.9 -17.8 -17.7 -17.6 -17.6 -17.5 -17.4 -17.3 -17.2 -17.1 -17.0 -16.9 -16.8 -16.7 -16.6 -16.6 -16.5 -16.4 -16.3 -16.2 -16.2 -16.1 -16.0 -15.9 -15.8 -15.8 -15.7 -15.6 -15.5 -15.4 -15.4 -15.3 -15.2 -15.1 -15.1 -15.0 -14.9 -14.8 -14.8 -14.7 -14.6 -14.5 -14.5 -14.4 -14.3 -14.3 -14.2 -14.1 -14.1 -14.0 -14.0 -14.0 -13.9 -13.8 -13.7 -13.7 -13.6 -13.6 -13.5 -13.4 -13.3 -13.2 -13.0 -12.9 -12.8 -12.7 -12.6 -12.5 -12.4 -12.3 -12.1 -12.0 -11.9 -11.8 -11.6 -11.5 -11.3 -11.1 -11.0 -10.8 -10.6 -10.3
-20.9 -20.8 -20.8 -20.7 -20.7 -20.6 -20.6 -20.5 -20.4 -20.4 -20.3 -20.3 -20.2 -20.1 -20.1 -20.0 -20.0 -19.9 -19.9 -19.8 -19.8 -19.7 -19.6 -8.1 -9.0 -10.2 -11.1 -11.9 -12.7 -13.5 -14.3 -15.1 -15.9 -16.7 -17.5 -18.4 -18.9 -18.8 -18.8 -18.7 -18.6 -18.6 -18.5 -18.4 -18.3 -18.3 -18.2 -18.2 -18.1 -18.0 -18.0 -17.9 -17.8 -17.7 -17.6 -17.5 -17.4 -17.3 -17.2 -17.1 -17.1 -17.0 -16.9 -16.8 -16.7 -16.6 -16.5 -16.4 -16.3 -16.2 -16.1 -16.1 -16.0 -15.9 -15.9 -15.8 -15.7 -15.6 -15.5 -15.5 -15.4 -15.3 -15.2 -15.2 -15.1 -15.0 -14.9 -14.9 -14.8 -14.7 -14.7 -14.6 -14.5 -14.4 -14.4 -14.3 -14.2 -14.2 -14.1 -14.0 -14.0 -13.9 -13.9 -13.8 -13.7 -13.6 -13.6 -13.5 -13.4 -13.4 -13.3 -13.2 -13.0 -13.0 -12.8 -12.7 -12.6 -12.5 -12.4 -12.3 -12.2 -12.1 -12.0 -11.8 -11.7 -11.5 -11.4 -11.2 -11.1 -10.9 -10.7 -10.5 -10.2 -10.0
-20.8 -20.7 -20.7 -20.6 -20.6 -20.5 -20.4 -20.4 -20.3 -20.3 -20.2 -20.1 -20.1 -20.0 -20.0 -19.9 -19.9 -19.8 -19.8 -19.7 -19.6 -19.6 -19.5 -9.5 -10.4 -11.3 -12.3 -13.1 -14.0 -14.8 -15.7 -16.6 -17.4 -18.3 -18.9 -18.9 -18.8 -18.7 -18.7 -18.6 -18.5 -18.5 -18.4 -18.3 -18.2 -18.2 -18.1 -18.1 -18.0 -17.9 -17.8 -17.7 -17.6 -17.5 -17.5 -17.4 -17.3 -17.2 -17.1 -17.0 -16.9 -16.8 -16.7 -16.6 -16.6 -16.5 -16.4 -16.3 -16.2 -16.1 -16.0 -16.0 -15.9 -15.8 -15.7 -15.7 -15.6 -15.5 -15.4 -15.3 -15.3 -15.2 -15.1 -15.0 -15.0 -14.9 -14.8 -14.8 -14.7 -14.6 -14.6 -14.5 -14.4 -14.3 -14.3 -14.2 -14.1 -14.1 -14.0 -14.0 -13.9 -13.8 -13.7 -13.6 -13.6 -13.5 -13.4 -13.4 -13.3 -13.2 -13.1 -13.0 -12.9 -12.8 -12.7 -12.6 -12.5 -12.4 -12.3 -12.1 -12.0 -11.9 -11.8 -11.6 -11.5 -11.3 -11.1 -11.0 -10.7 -10.5 -10.3 -10.1 -9.9 -10.0
-20.7 -20.6 -20.6 -20.5 -20.5 -20.4 -20.3 -20.3 -20.2 -20.2 -20.1 -20.0 -20.0 -19.9 -19.9 -19.8 -19.8 -19.7 -19.7 -19.6 -19.5 -19.5 -19.4 -11.4 -12.2 -13.1 -14.1 -14.9 -15.8 -16.6 -17.5 -18.4 -18.9 -18.9 -18.8 -18.7 -18.7 -18.6 -18.5 -18.5 -18.4 -18.3 -18.3 -18.2 -18.1 -18.1 -18.0 -17.9 -17.8 -17.8 -17.7 -17.6 -17.5 -17.4 -17.3 -17.2 -17.1 -17.0 -17.0 -16.9 -16.8 -16.7 -16.6 -16.5 -16.4 -16.3 -16.2 -16.2 -16.1 -16.0 -15.9 -15.8 -15.7 -15.7 -15.6 -15.5 -15.4 -15.4 -15.3 -15.2 -15.2 -15.1 -15.0 -14.9 -14.9 -14.8 -14.7 -14.7 -14.6 -14.5 -14.5 -14.4 -14.3 -14.2 -14.2 -14.1 -14.0 -14.0 -13.9 -13.8 -13.8 -13.7 -13.6 -13.5 -13.4 -13.4 -13.3 -13.2 -13.1 -13.0 -13.0 -12.8 -12.7 -12.6 -12.5 -12.4 -12.3 -12.2 -12.1 -12.0 -11.8 -11.7 -11.5 -11.4 -11.2 -11.1 -10.9 -10.5 -10.0 -10.2 -10.0 -10.0 -10.0 -10.0
-20.6 -20.5 -20.5 -20.4 -20.4 -20.3 -20.2 -20.2 -20.1 -20.0 -20.0 -19.9 -19.9 -19.8 -19.8 -19.7 -19.7 -19.6 -19.6 -19.5 -19.4 -19.4 -19.3 -13.2 -14.0 -14.9 -15.8 -16.7 -17.5 -18.4 -18.9 -18.9 -18.8 -18.7 -18.7 -18.6 -18.5 -18.5 -18.4 -18.4 -18.3 -18.2 -18.2 -18.1 -18.0 -18.0 -17.9 -17.8 -17.7 -17.6 -17.5 -17.4 -17.3 -17.3 -17.2 -17.1 -17.0 -16.9 -16.8 -16.7 -16.6 -16.6 -16.5 -16.4 -16.3 -16.2 -16.1 -16.0 -15.9 -15.9 -15.8 -15.7 -15.6 -15.6 -15.5 -15.4 -15.3 -15.3 -15.2 -15.1 -15.0 -15.0 -14.9 -14.8 -14.8 -14.7 -14.6 -14.6 -14.5 -14.4 -14.4 -14.3 -14.2 -14.1 -14.1 -14.0 -13.9 -13.9 -13.8 -13.7 -13.6 -13.5 -13.5 -13.4 -13.3 -13.2 -13.2 -13.1 -13.0 -12.9 -12.8 -12.7 -12.6 -12.5 -12.4 -12.2 -12.1 -12.0 -11.9 -11.7 -11.6 -11.4 -11.3 -11.1 -11.0 -10.7 -10.2 -9.8 -9.3 -9.9 -10.0 -10.0 -10.0 -9.8
-20.5 -20.4 -20.3 -20.3 -20.2 -20.2 -20.1 -20.1 -20.0 -19.9 -19.9 -19.8 -19.8 -19.7 -19.7 -19.6 -19.6 -19.5 -19.5 -19.4 -19.3 -19.3 -19.2 -15.0 -15.8 -16.7 -17.6 -18.5 -18.9 -18.9 -18.8 -18.7 -18.7 -18.6 -18.6 -18.5 -18.4 -18.4 -18.3 -18.2 -18.2 -18.1 -18.1 -18.0 -17.9 -17.8 -17.7 -17.7 -17.6 -17.5 -17.4 -17.3 -17.2 -17.1 -17.0 -16.9 -16.9 -16.8 -16.7 -16.6 -16.5 -16.4 -16.3 -16.2 -16.2 -16.1 -16.0 -15.9 -15.8 -15.8 -15.7 -15.6 -15.5 -15.5 -15.4 -15.3 -15.2 -15.1 -15.1 -15.0 -14.9 -14.9 -14.8 -14.7 -14.7 -14.6 -14.5 -14.5 -14.4 -14.3 -14.2 -14.2 -14.1 -14.0 -14.0 -13.9 -13.8 -13.7 -13.6 -13.6 -13.5 -13.4 -13.3 -13.3 -13.2 -13.1 -13.0 -13.0 -12.8 -12.7 -12.6 -12.5 -12.4 -12.3 -12.2 -12.1 -12.0 -11.8 -11.6 -11.5 -11.3 -11.2 -11.0 -10.9 -10.5 -10.0 -9.5 -9.1 -8.6 -10.0 -10.0 -9.9 -9.7 -8.8
-20.3 -20.3 -20.2 -20.2 -20.1 -20.1 -20.0 -20.0 -19.9 -19.8 -19.8 -19.7 -19.7 -19.6 -19.6 -19.5 -19.5 -19.4 -19.3 -19.3 -19.2 -19.2 -19.1 -16.8 -17.6 -18.5 -18.9 -18.9 -18.8 -18.7 -18.7 -18.6 -18.6 -18.5 -18.4 -18.4 -18.3 -18.3 -18.2 -18.1 -18.1 -18.0 -17.9 -17.9 -17.8 -17.7 -17.6 -17.5 -17.4 -17.3 -17.2 -17.2 -17.1 -17.0 -16.9 -16.8 -16.7 -16.6 -16.6 -16.5 -16.4 -16.3 -16.2 -16.1 -16.0 -15.9 -15.9 -15.8 -15.7 -15.6 -15.6 -15.5 -15.4 -15.4 -15.3 -15.2 -15.2 -15.1 -15.0 -14.9 -14.8 -14.8 -14.7 -14.6 -14.6 -14.5 -14.4 -14.3 -14.3 -14.2 -14.1 -14.1 -14.0 -13.9 -13.9 -13.8 -13.7 -13.6 -13.5 -13.4 -13.4 -13.3 -13.2 -13.1 -13.1 -13.0 -12.9 -12.8 -12.7 -12.6 -12.5 -12.4 -12.2 -12.1 -12.0 -11.9 -11.7 -11.6 -11.4 -11.2 -11.1 -10.9 -10.6 -10.1 -9.7 -9.2 -8.7 -8.3 -8.0 -10.0 -9.9 -9.3 -8.6 -7.8
-20.2 -20.2 -20.1 -20.1 -20.0 -20.0 -19.9 -19.8 -19.8 -19.7 -19.7 -19.6 -19.6 -19.5 -19.5 -19.4 -19.3 -19.3 -19.2 -19.2 -19.1 -19.1 -19.0 -18.6 -18.9 -18.9 -18.8 -18.7 -18.7 -18.6 -18.6 -18.5 -18.4 -18.4 -18.3 -18.3 -18.2 -18.1 -18.1 -18.0 -18.0 -17.9 -17.8 -17.7 -17.6 -17.5 -17.5 -17.4 -17.3 -17.2 -17.1 -17.0 -16.9 -16.8 -16.8 -16.7 -16.6 -16.5 -16.4 -16.3 -16.2 -16.2 -16.1 -16.0 -15.9 -15.8 -15.8 -15.7 -15.6 -15.5 -15.5 -15.4 -15.3 -15.3 -15.2 -15.1 -15.1 -15.0 -14.9 -14.8 -14.7 -14.6 -14.6 -14.5 -14.5 -14.4 -14.3 -14.2 -14.2 -14.1 -14.0 -14.0 -13.9 -13.8 -13.7 -13.6 -13.5 -13.5 -13.4 -13.3 -13.2 -13.1 -13.1 -13.0 -12.9 -12.8 -12.7 -12.6 -12.5 -12.4 -12.3 -12.2 -12.1 -12.0 -11.8 -11.6 -11.5 -11.3 -11.1 -11.0 -10.7 -10.3 -9.9 -9.5 -9.0 -8.5 -8.0 -7.5 -7.3 -9.8 -9.0 -8.2 -7.5 -6.6
-20.1 -20.1 -20.0 -20.0 -19.9 -19.9 -19.8 -19.8 -19.7 -19.6 -19.6 -19.5 -19.5 -19.4 -19.4 -19.3 -19.2 -19.2 -19.1 -19.1 -19.0 -19.0 -18.9 -18.9 -18.8 -18.7 -18.7 -18.6 -18.6 -18.5 -18.5 -18.4 -18.3 -18.3 -18.2 -18.2 -18.1 -18.0 -18.0 -17.9 -17.8 -17.7 -17.7 -17.6 -17.5 -17.4 -17.3 -17.2 -17.1 -17.1 -17.0 -16.9 -16.8 -16.7 -16.6 -16.5 -16.5 -16.4 -16.3 -16.2 -16.1 -16.0 -15.9 -15.9 -15.8 -15.7 -15.6 -15.6 -15.5 -15.4 -15.4 -15.3 -15.2 -15.2 -15.1 -15.0 -15.0 -14.9 -14.8 -14.7 -14.6 -14.5 -14.5 -14.4 -14.3 -14.3 -14.2 -14.1 -14.1 -14.0 -13.9 -13.8 -13.7 -13.7 -13.6 -13.5 -13.4 -13.3 -13.3 -13.2 -13.1 -13.0 -12.9 -12.8 -12.7 -12.6 -12.5 -12.4 -12.3 -12.2 -12.1 -12.0 -11.9 -11.7 -11.6 -11.4 -11.2 -11.0 -10.8 -10.5 -10.2 -9.9 -9.6 -9.3 -9.3 -9.5 -9.8 -9.9 -9.6 -8.9 -8.0 -7.2 -6.5 -5.8
-20.0 -20.0 -19.9 -19.9 -19.8 -19.8 -19.7 -19.7 -19.6 -19.5 -19.5 -19.4 -19.4 -19.3 -19.3 -19.2 -19.1 -19.1 -19.0 -19.0 -18.9 -18.9 -18.8 -18.7 -18.7 -18.6 -18.6 -18.5 -18.5 -18.4 -18.3 -18.3 -18.2 -18.2 -18.1 -18.1 -18.0 -17.9 -17.9 -17.8 -17.7 -17.6 -17.5 -17.4 -17.3 -17.3 -17.2 -17.1 -17.0 -16.9 -16.8 -16.8 -16.7 -16.6 -16.5 -16.4 -16.3 -16.3 -16.2 -16.1 -16.0 -15.9 -15.8 -15.8 -15.7 -15.6 -15.5 -15.5 -15.4 -15.3 -15.3 -15.2 -15.2 -15.1 -15.0 -14.9 -14.9 -14.8 -14.7 -14.6 -14.5 -14.4 -14.4 -14.3 -14.2 -14.2 -14.1 -14.0 -14.0 -13.9 -13.8 -13.7 -13.6 -13.5 -13.5 -13.4 -13.3 -13.2 -13.1 -13.0 -13.0 -12.9 -12.8 -12.7 -12.6 -12.5 -12.4 -12.3 -12.2 -12.1 -12.0 -11.8 -11.6 -11.5 -11.3 -11.1 -10.9 -10.6 -10.3 -10.0 -9.7 -9.3 -9.2 -9.4 -9.6 -9.9 -9.9 -9.5 -8.7 -7.9 -7.0 -6.3 -5.6 -4.9
-19.9 -19.9 -19.8 -19.8 -19.7 -19.7 -19.6 -19.5 -19.5 -19.4 -19.4 -19.3 -19.3 -19.2 -19.1 -19.1 -19.0 -19.0 -18.9 -18.9 -18.8 -18.7 -18.7 -18.6 -18.6 -18.5 -18.5 -18.4 -18.3 -18.3 -18.2 -18.2 -18.1 -18.1 -18.0 -17.9 -17.9 -17.8 -17.7 -17.6 -17.6 -17.5 -17.4 -17.3 -17.2 -17.1 -17.1 -17.0 -16.9 -16.8 -16.7 -16.6 -16.6 -16.5 -16.4 -16.3 -16.2 -16.1 -16.0 -16.0 -15.9 -15.8 -15.7 -15.6 -15.6 -15.5 -15.4 -15.4 -15.3 -15.3 -15.2 -15.1 -15.1 -15.0 -14.9 -14.8 -14.7 -14.7 -14.6 -14.5 -14.4 -14.3 -14.3 -14.2 -14.1 -14.1 -14.0 -13.9 -13.8 -13.7 -13.7 -13.6 -13.5 -13.4 -13.3 -13.2 -13.1 -13.1 -13.0 -12.9 -12.8 -12.7 -12.6 -12.5 -12.4 -12.3 -12.2 -12.1 -12.0 -11.9 -11.8 -11.6 -11.4 -11.2 -11.0 -10.8 -10.5 -10.2 -9.9 -9.5 -9.2 -9.2 -9.4 -9.7 -9.9 -9.9 -9.3 -8.5 -7.5 -6.8 -6.0 -5.2 -4.5 -3.8
-19.8 -19.8 -19.7 -19.7 -19.6 -19.6 -19.5 -19.4 -19.4 -19.3 -19.3 -19.2 -19.1 -19.1 -19.0 -19.0 -18.9 -18.9 -18.8 -18.7 -18.7 -18.6 -18.6 -18.5 -18.5 -18.4 -18.3 -18.3 -18.2 -18.2 -18.1 -18.1 -18.0 -18.0 -17.9 -17.8 -17.7 -17.6 -17.6 -17.5 -17.4 -17.3 -17.3 -17.2 -17.1 -17.0 -16.9 -16.8 -16.8 -16.7 -16.6 -16.5 -16.4 -16.4 -16.3 -16.2 -16.1 -16.0 -15.9 -15.9 -15.8 -15.7 -15.6 -15.5 -15.5 -15.4 -15.3 -15.3 -15.2 -15.1 -15.1 -15.0 -15.0 -14.9 -14.8 -14.7 -14.6 -14.5 -14.5 -14.4 -14.3 -14.2 -14.2 -14.1 -14.0 -14.0 -13.9 -13.8 -13.7 -13.6 -13.5 -13.4 -13.3 -13.3 -13.2 -13.1 -13.0 -12.9 -12.8 -12.8 -12.7 -12.6 -12.5 -12.4 -12.3 -12.2 -12.1 -12.0 -11.9 -11.7 -11.5 -11.3 -11.1 -11.0 -10.7 -10.3 -10.0 -9.6 -9.3 -9.1 -9.2 -9.4 -9.7 -9.9 -9.9 -9.3 -8.4 -7.5 -6.3 -5.9 -5.0 -4.1 -3.4 -2.7
-19.7 -19.7 -19.6 -19.6 -19.5 -19.5 -19.4 -19.4 -19.3 -19.2 -19.2 -19.1 -19.1 -19.0 -18.9 -18.9 -18.8 -18.8 -18.7 -18.6 -18.6 -18.5 -18.5 -18.4 -18.4 -18.3 -18.2 -18.2 -18.1 -18.1 -18.0 -18.0 -17.9 -17.8 -17.8 -17.7 -17.6 -17.5 -17.5 -17.4 -17.3 -17.2 -17.1 -17.1 -17.0 -16.9 -16.8 -16.7 -16.7 -16.6 -16.5 -16.4 -16.3 -16.2 -16.2 -16.1 -16.0 -15.9 -15.8 -15.7 -15.7 -15.6 -15.5 -15.4 -15.4 -15.3 -15.3 -15.2 -15.1 -15.1 -15.0 -14.9 -14.9 -14.8 -14.7 -14.6 -14.5 -14.4 -14.4 -14.3 -14.2 -14.1 -14.1 -14.0 -13.9 -13.9 -13.8 -13.7 -13.6 -13.5 -13.4 -13.3 -13.2 -13.1 -13.1 -13.0 -12.9 -12.8 -12.7 -12.6 -12.5 -12.4 -12.3 -12.2 -12.1 -12.0 -11.9 -11.8 -11.6 -11.4 -11.3 -11.1 -10.9 -10.8 -10.2 -9.9 -9.5 -9.2 -9.1 -9.2 -9.5 -9.7 -9.9 -9.9 -9.2 -8.3 -7.2 -6.1 -4.9 -4.7 -3.7 -3.0 -2.3 -1.7
-19.6 -19.6 -19.5 -19.5 -19.4 -19.4 -19.3 -19.2 -19.2 -19.1 -19.1 -19.0 -19.0 -18.9 -18.8 -18.8 -18.7 -18.6 -18.6 -18.5 -18.5 -18.4 -18.4 -18.3 -18.2 -18.2 -18.1 -18.1 -18.0 -18.0 -17.9 -17.8 -17.8 -17.7 -17.6 -17.5 -17.5 -17.4 -17.3 -17.2 -17.2 -17.1 -17.0 -16.9 -16.9 -16.8 -16.7 -16.6 -16.5 -16.5 -16.4 -16.3 -16.2 -16.1 -16.0 -16.0 -15.9 -15.8 -15.7 -15.6 -15.6 -15.5 -15.4 -15.3 -15.3 -15.2 -15.2 -15.1 -15.0 -14.9 -14.8 -14.8 -14.7 -14.6 -14.6 -14.5 -14.4 -14.3 -14.2 -14.2 -14.1 -14.0 -14.0 -13.9 -13.8 -13.7 -13.6 -13.5 -13.5 -13.4 -13.3 -13.2 -13.1 -13.0 -12.9 -12.8 -12.7 -12.6 -12.6 -12.5 -12.4 -12.3 -12.2 -12.1 -12.0 -11.8 -11.7 -11.5 -11.4 -11.2 -11.0 -10.9 -10.8 -10.7 -9.8 -9.4 -9.1 -9.1 -9.4 -9.6 -9.8 -9.9 -9.6 -8.8 -7.8 -6.7 -5.5 -4.5 -3.5 -3.5 -2.6 -1.8 -1.1 -0.6
-19.5 -19.5 -19.4 -19.4 -19.3 -19.3 -19.2 -19.1 -19.1 -19.0 -19.0 -18.9 -18.8 -18.8 -18.7 -18.7 -18.6 -18.5 -18.5 -18.4 -18.4 -18.3 -18.3 -18.2 -18.1 -18.1 -18.0 -18.0 -17.9 -17.8 -17.8 -17.7 -17.6 -17.5 -17.5 -17.4 -17.3 -17.3 -17.2 -17.1 -17.1 -17.0 -16.9 -16.8 -16.7 -16.7 -16.6 -16.5 -16.4 -16.3 -16.3 -16.2 -16.1 -16.0 -15.9 -15.8 -15.8 -15.7 -15.6 -15.5 -15.5 -15.4 -15.3 -15.2 -15.2 -15.1 -15.1 -15.0 -14.9 -14.8 -14.7 -14.7 -14.6 -14.5 -14.4 -14.4 -14.3 -14.2 -14.1 -14.1 -14.0 -13.9 -13.8 -13.7 -13.7 -13.6 -13.5 -13.4 -13.3 -13.2 -13.1 -13.0 -13.0 -12.9 -12.8 -12.7 -12.6 -12.5 -12.4 -12.3 -12.2 -12.1 -12.0 -11.9 -11.8 -11.6 -11.5 -11.3 -11.2 -11.0 -10.9 -10.8 -10.6 -10.5 -9.3 -9.2 -9.3 -9.6 -9.8 -9.9 -9.6 -8.8 -7.9 -6.8 -5.8 -4.7 -3.8 -3.1 -2.5 -2.3 -1.3 -0.6 -0.0 0.4
-19.4 -19.3 -19.3 -19.2 -19.2 -19.1 -19.1 -19.0 -19.0 -18.9 -18.8 -18.8 -18.7 -18.7 -18.6 -18.5 -18.5 -18.4 -18.4 -18.3 -18.2 -18.2 -18.1 -18.1 -18.0 -18.0 -17.9 -17.8 -17.8 -17.7 -17.6 -17.6 -17.5 -17.4 -17.4 -17.3 -17.2 -17.1 -17.1 -17.0 -16.9 -16.9 -16.8 -16.7 -16.6 -16.5 -16.5 -16.4 -16.3 -16.2 -16.1 -16.1 -16.0 -15.9 -15.8 -15.7 -15.7 -15.6 -15.5 -15.4 -15.4 -15.3 -15.2 -15.1 -15.1 -15.0 -14.9 -14.9 -14.8 -14.7 -14.6 -14.6 -14.5 -14.4 -14.3 -14.2 -14.2 -14.1 -14.0 -14.0 -13.9 -13.8 -13.7 -13.6 -13.5 -13.4 -13.3 -13.3 -13.2 -13.1 -13.0 -12.9 -12.8 -12.7 -12.6 -12.5 -12.5 -12.4 -12.3 -12.2 -12.1 -12.0 -11.9 -11.7 -11.6 -11.4 -11.3 -11.1 -11.0 -10.9 -10.8 -10.6 -10.5 -10.4 -9.6 -9.8 -9.9 -9.7 -8.9 -8.1 -7.3 -6.4 -5.5 -4.6 -3.9 -3.3 -2.7 -2.1 -1.5 -1.0 -0.2 0.4 1.1 1.6
-19.3 -19.2 -19.2 -19.1 -19.1 -19.0 -19.0 -18.9 -18.8 -18.8 -18.7 -18.7 -18.6 -18.5 -18.5 -18.4 -18.4 -18.3 -18.2 -18.2 -18.1 -18.1 -18.0 -18.0 -17.9 -17.8 -17.8 -17.7 -17.6 -17.6 -17.5 -17.4 -17.4 -17.3 -17.2 -17.2 -17.1 -17.0 -17.0 -16.9 -16.8 -16.7 -16.7 -16.6 -16.5 -16.4 -16.3 -16.3 -16.2 -16.1 -16.0 -16.0 -15.9 -15.8 -15.7 -15.6 -15.5 -15.5 -15.4 -15.3 -15.3 -15.2 -15.1 -15.0 -15.0 -14.9 -14.8 -14.7 -14.7 -14.6 -14.5 -14.4 -14.4 -14.3 -14.2 -14.1 -14.0 -14.0 -13.9 -13.8 -13.7 -13.6 -13.6 -13.5 -13.4 -13.3 -13.2 -13.1 -13.0 -13.0 -12.9 -12.8 -12.7 -12.6 -12.5 -12.4 -12.3 -12.2 -12.1 -12.1 -12.0 -11.8 -11.7 -11.5 -11.4 -11.3 -11.1 -11.0 -10.8 -10.7 -10.6 -10.5 -10.3 -10.2 -9.9 -9.8 -9.2 -8.4 -7.6 -6.7 -5.9 -5.0 -4.3 -3.6 -3.1 -2.5 -1.9 -1.3 -0.6 0.0 0.8 1.5 2.1 2.6
-19.2 -19.1 -19.1 -19.0 -19.0 -18.9 -18.9 -18.8 -18.7 -18.7 -18.6 -18.5 -18.5 -18.4 -18.4 -18.3 -18.3 -18.2 -18.1 -18.1 -18.0 -18.0 -17.9 -17.8 -17.8 -17.7 -17.7 -17.6 -17.5 -17.5 -17.4 -17.3 -17.3 -17.2 -17.1 -17.0 -17.0 -16.9 -16.8 -16.8 -16.7 -16.6 -16.5 -16.5 -16.4 -16.3 -16.2 -16.2 -16.1 -16.0 -16.0 -16.0 -15.8 -15.7 -15.6 -15.5 -15.4 -15.4 -15.3 -15.2 -15.2 -15.1 -15.0 -14.9 -14.8 -14.8 -14.7 -14.6 -14.5 -14.4 -14.4 -14.3 -14.2 -14.1 -14.1 -14.0 -13.9 -13.8 -13.8 -13.7 -13.6 -13.5 -13.4 -13.3 -13.3 -13.2 -13.1 -13.0 -12.9 -12.8 -12.7 -12.6 -12.6 -12.5 -12.4 -12.3 -12.2 -12.1 -12.1 -12.0 -11.8 -11.7 -11.5 -11.4 -11.2 -11.1 -10.9 -10.8 -10.7 -10.6 -10.4 -10.3 -10.2 -10.1 -9.8 -9.1 -8.3 -7.5 -6.6 -5.7 -4.8 -4.1 -3.5 -3.0 -2.4 -1.8 -1.2 -0.6 -0.0 0.9 1.7 2.5 3.1 3.6
-19.1 -19.0 -19.0 -18.9 -18.9 -18.8 -18.7 -18.7 -18.6 -18.5 -18.5 -18.4 -18.4 -18.3 -18.2 -18.2 -18.1 -18.1 -18.0 -18.0 -17.9 -17.8 -17.8 -17.7 -17.6 -17.6 -17.5 -17.4 -17.4 -17.3 -17.2 -17.2 -17.1 -17.0 -17.0 -16.9 -16.8 -16.8 -16.7 -16.6 -16.6 -16.5 -16.4 -16.3 -16.3 -16.2 -16.1 -16.0 -16.0 -15.9 -15.9 -15.8 -15.6 -15.6 -15.5 -15.4 -15.3 -15.3 -15.2 -15.1 -15.0 -15.0 -14.9 -14.8 -14.7 -14.6 -14.6 -14.5 -14.4 -14.3 -14.2 -14.2 -14.1 -14.0 -13.9 -13.9 -13.8 -13.7 -13.6 -13.5 -13.5 -13.4 -13.3 -13.2 -13.1 -13.0 -13.0 -12.9 -12.8 -12.7 -12.6 -12.5 -12.4 -12.3 -12.3 -12.2 -12.1 -12.0 -11.9 -11.8 -11.6 -11.5 -11.3 -11.2 -11.0 -10.9 -10.8 -10.7 -10.5 -10.4 -10.3 -10.2 -10.0 -9.8 -9.0 -8.2 -7.4 -6.5 -5.6 -4.7 -3.9 -3.4 -2.8 -2.2 -1.6 -1.1 -0.4 0.1 1.0 1.9 2.8 3.5 4.0 4.5
-19.0 -18.9 -18.8 -18.8 -18.7 -18.7 -18.6 -18.6 -18.5 -18.4 -18.4 -18.3 -18.2 -18.2 -18.1 -18.1 -18.0 -18.0 -17.9 -17.8 -17.8 -17.7 -17.6 -17.6 -17.5 -17.5 -17.4 -17.3 -17.3 -17.2 -17.1 -17.1 -17.0 -16.9 -16.9 -16.8 -16.7 -16.6 -16.6 -16.5 -16.4 -16.3 -16.3 -16.2 -16.1 -16.1 -16.0 -15.9 -15.8 -15.8 -15.7 -15.6 -15.5 -15.4 -15.4 -15.3 -15.2 -15.1 -15.1 -15.0 -14.9 -14.8 -14.8 -14.7 -14.6 -14.5 -14.5 -14.4 -14.3 -14.2 -14.1 -14.1 -14.0 -13.9 -13.8 -13.7 -13.7 -13.6 -13.5 -13.4 -13.3 -13.2 -13.2 -13.1 -13.0 -12.9 -12.8 -12.7 -12.6 -12.5 -12.5 -12.4 -12.3 -12.2 -12.1 -12.0 -11.9 -11.8 -11.7 -11.5 -11.4 -11.3 -11.1 -11.0 -10.9 -10.8 -10.6 -10.5 -10.4 -10.3 -10.2 -10.1 -9.9 -9.1 -8.3 -7.4 -6.5 -5.5 -4.6 -3.8 -3.2 -2.6 -2.1 -1.5 -0.9 -0.3 0.3 1.2 2.2 3.0 3.7 4.4 4.9 5.3
-18.8 -18.8 -18.7 -18.7 -18.6 -18.6 -18.5 -18.4 -18.4 -18.3 -18.2 -18.2 -18.1 -18.1 -18.0 -18.0 -17.9 -17.8 -17.8 -17.7 -17.6 -17.6 -17.5 -17.5 -17.4 -17.3 -17.3 -17.2 -17.1 -17.1 -17.0 -16.9 -16.9 -16.8 -16.7 -16.7 -16.6 -16.5 -16.4 -16.4 -16.3 -16.2 -16.2 -16.1 -16.0 -15.9 -15.9 -15.8 -15.7 -15.6 -15.6 -15.5 -15.4 -15.3 -15.3 -15.2 -15.1 -15.0 -15.0 -14.9 -14.8 -14.7 -14.6 -14.6 -14.5 -14.4 -14.3 -14.2 -14.1 -14.1 -14.0 -13.9 -13.8 -13.7 -13.7 -13.6 -13.5 -13.4 -13.3 -13.3 -13.2 -13.1 -13.0 -12.9 -12.8 -12.8 -12.7 -12.6 -12.5 -12.4 -12.3 -12.2 -12.2 -12.1 -12.0 -11.9 -11.8 -11.6 -11.5 -11.4 -11.2 -11.1 -11.0 -10.6 -10.7 -10.6 -10.5 -10.4 -10.3 -10.2 -10.1 -10.0 -9.2 -8.3 -7.5 -6.5 -5.5 -4.5 -3.7 -3.1 -2.5 -1.9 -1.3 -0.7 -0.1 0.5 1.4 2.3 3.2 4.0 4.8 5.5 5.9 6.2
-18.7 -18.7 -18.6 -18.6 -18.5 -18.4 -18.4 -18.3 -18.2 -18.2 -18.1 -18.1 -18.0 -18.0 -17.9 -17.8 -17.8 -17.7 -17.6 -17.6 -17.5 -17.5 -17.4 -17.3 -17.3 -17.2 -17.1 -17.1 -17.0 -17.0 -16.9 -16.8 -16.7 -16.7 -16.6 -16.5 -16.5 -16.4 -16.3 -16.3 -16.2 -16.1 -16.0 -16.0 -15.9 -15.8 -15.7 -15.7 -15.6 -15.5 -15.4 -15.4 -15.3 -15.2 -15.1 -15.1 -15.0 -14.9 -14.8 -14.7 -14.7 -14.6 -14.5 -14.4 -14.3 -14.3 -14.2 -14.1 -14.0 -13.9 -13.9 -13.8 -13.7 -13.6 -13.5 -13.5 -13.4 -13.3 -13.2 -13.1 -13.0 -13.0 -12.9 -12.8 -12.7 -12.6 -12.5 -12.5 -12.4 -12.3 -12.2 -12.1 -12.0 -11.9 -11.8 -11.7 -11.6 -11.4 -11.3 -11.2 -11.1 -10.9 -10.6 -10.2 -10.6 -10.5 -10.4 -10.3 -10.2 -10.1 -10.0 -9.4 -8.5 -7.6 -6.6 -5.5 -4.4 -3.6 -3.0 -2.4 -1.8 -1.1 -0.6 0.1 0.6 1.5 2.5 3.4 4.4 5.4 6.2 6.7 7.1 7.3
-18.6 -18.5 -18.5 -18.4 -18.4 -18.3 -18.3 -18.2 -18.1 -18.1 -18.0 -18.0 -17.9 -17.8 -17.8 -17.7 -17.7 -17.6 -17.5 -17.5 -17.4 -17.3 -17.3 -17.2 -17.2 -17.1 -17.0 -17.0 -16.9 -16.8 -16.8 -16.7 -16.6 -16.6 -16.5 -16.4 -16.4 -16.3 -16.2 -16.1 -16.1 -16.0 -15.9 -15.9 -15.8 -15.7 -15.6 -15.6 -15.5 -15.4 -15.3 -15.3 -15.2 -15.1 -15.0 -15.0 -14.9 -14.8 -14.7 -14.6 -14.6 -14.5 -14.4 -14.3 -14.2 -14.2 -14.1 -14.0 -13.9 -13.8 -13.8 -13.7 -13.6 -13.5 -13.4 -13.3 -13.3 -13.2 -13.1 -13.0 -12.9 -12.8 -12.7 -12.6 -12.6 -12.5 -12.4 -12.3 -12.2 -12.1 -12.0 -12.0 -11.9 -11.7 -11.6 -11.5 -11.4 -11.3 -11.2 -11.0 -10.8 -10.5 -10.2 -9.8 -10.5 -10.4 -10.3 -10.2 -10.1 -10.0 -9.5 -8.5 -7.6 -6.7 -5.4 -4.3 -3.4 -2.9 -2.2 -1.6 -1.0 -0.3 0.2 0.9 1.7 2.5 3.5 4.7 6.1 7.0 7.6 8.0 8.2 8.3
-18.5 -18.4 -18.4 -18.3 -18.3 -18.2 -18.1 -18.1 -18.0 -18.0 -17.9 -17.8 -17.8 -17.7 -17.7 -17.6 -17.5 -17.5 -17.4 -17.3 -17.3 -17.2 -17.2 -17.1 -17.0 -17.0 -16.9 -16.8 -16.8 -16.7 -16.6 -16.6 -16.5 -16.4 -16.4 -16.3 -16.2 -16.2 -16.1 -16.0 -16.0 -15.9 -15.8 -15.7 -15.7 -15.6 -15.5 -15.4 -15.4 -15.3 -15.2 -15.2 -15.1 -15.0 -14.9 -14.8 -14.7 -14.7 -14.6 -14.5 -14.4 -14.4 -14.3 -14.2 -14.1 -14.0 -14.0 -13.9 -13.8 -13.7 -13.6 -13.5 -13.5 -13.4 -13.3 -13.2 -13.1 -13.0 -13.0 -12.9 -12.8 -12.7 -12.6 -12.5 -12.4 -12.3 -12.3 -12.2 -12.1 -12.0 -11.9 -11.8 -11.7 -11.6 -11.5 -11.4 -11.2 -11.1 -11.0 -10.8 -10.5 -10.1 -9.7 -9.4 -10.4 -10.3 -10.2 -10.1 -10.0 -9.5 -8.5 -7.5 -6.6 -5.8 -4.2 -3.3 -2.7 -2.1 -1.5 -0.8 -0.2 0.4 1.2 2.0 2.6 3.5 5.0 6.5 7.7 8.4 8.8 9.1 9.3 9.4
-18.4 -18.3 -18.2 -18.2 -18.1 -18.1 -18.0 -18.0 -17.9 -17.8 -17.8 -17.7 -17.7 -17.6 -17.5 -17.5 -17.4 -17.4 -17.3 -17.2 -17.2 -17.1 -17.1 -17.0 -16.9 -16.9 -16.8 -16.7 -16.7 -16.6 -16.5 -16.5 -16.4 -16.3 -16.3 -16.2 -16.1 -16.1 -16.0 -15.9 -15.8 -15.8 -15.7 -15.6 -15.5 -15.5 -15.4 -15.3 -15.3 -15.2 -15.1 -15.1 -15.0 -14.9 -14.8 -14.7 -14.6 -14.5 -14.5 -14.4 -14.3 -14.2 -14.2 -14.1 -14.0 -13.9 -13.8 -13.8 -13.7 -13.6 -13.5 -13.4 -13.3 -13.3 -13.2 -13.1 -13.0 -12.9 -12.8 -12.7 -12.6 -12.5 -12.5 -12.4 -12.3 -12.2 -12.1 -12.0 -11.9 -11.8 -11.7 -11.6 -11.5 -11.4 -11.3 -11.2 -11.1 -11.0 -10.7 -10.3 -10.0 -9.6 -9.3 -9.2 -10.3 -10.2 -10.1 -10.0 -9.6 -8.6 -7.7 -6.7 -5.7 -4.8 -3.3 -2.5 -1.9 -1.3 -0.6 0.0 0.8 1.8 2.7 3.6 4.5 5.5 6.9 8.1 9.1 9.7 10.1 10.6 10.8 10.9
-18.2 -18.2 -18.1 -18.1 -18.0 -17.9 -17.9 -17.8 -17.8 -17.7 -17.7 -17.6 -17.5 -17.5 -17.4 -17.4 -17.3 -17.2 -17.2 -17.1 -17.1 -17.0 -16.9 -16.9 -16.8 -16.7 -16.7 -16.6 -16.5 -16.5 -16.4 -16.3 -16.3 -16.2 -16.1 -16.1 -16.0 -15.9 -15.9 -15.8 -15.7 -15.7 -15.6 -15.5 -15.4 -15.4 -15.3 -15.2 -15.2 -15.1 -15.0 -15.0 -14.9 -14.8 -14.7 -14.6 -14.5 -14.4 -14.3 -14.3 -14.2 -14.1 -14.0 -14.0 -13.9 -13.8 -13.7 -13.6 -13.6 -13.5 -13.4 -13.3 -13.2 -13.1 -13.1 -13.0 -12.9 -12.8 -12.7 -12.6 -12.5 -12.4 -12.3 -12.2 -12.1 -12.1 -12.0 -11.9 -11.8 -11.7 -11.6 -11.5 -11.4 -11.3 -11.2 -11.0 -10.9 -10.4 -9.9 -9.4 -8.9 -8.4 -7.9 -7.4 -9.9 -10.0 -9.9 -9.5 -8.3 -7.1 -6.0 -4.7 -3.8 -3.0 -1.9 -1.4 -0.9 -0.4 0.1 1.2 2.2 3.2 4.1 5.1 6.0 7.1 8.5 9.7 10.4 11.0 11.6 12.3 12.4 12.5
-18.1 -18.1 -18.0 -17.9 -17.9 -17.8 -17.8 -17.7 -17.7 -17.6 -17.5 -17.5 -17.4 -17.4 -17.3 -17.3 -17.2 -17.1 -17.1 -17.0 -17.0 -16.9 -16.8 -16.8 -16.7 -16.6 -16.6 -16.5 -16.4 -16.4 -16.3 -16.2 -16.1 -16.1 -16.0 -15.9 -15.9 -15.8 -15.7 -15.7 -15.6 -15.5 -15.5 -15.4 -15.3 -15.2 -15.2 -15.1 -15.1 -15.0 -14.9 -14.8 -14.7 -14.6 -14.5 -14.4 -14.4 -14.3 -14.2 -14.1 -14.1 -14.0 -13.9 -13.8 -13.8 -13.7 -13.6 -13.5 -13.4 -13.3 -13.3 -13.2 -13.1 -13.0 -12.9 -12.8 -12.7 -12.6 -12.5 -12.4 -12.4 -12.3 -12.2 -12.1 -12.0 -11.9 -11.8 -11.7 -11.6 -11.5 -11.4 -11.3 -11.2 -11.1 -11.0 -10.7 -10.2 -9.7 -9.3 -8.7 -8.2 -7.7 -7.2 -6.7 -10.0 -9.9 -9.3 -8.3 -7.1 -5.9 -4.7 -3.7 -2.9 -2.2 -1.3 -0.8 -0.3 0.3 1.4 2.5 3.5 4.4 5.4 6.4 7.4 8.5 9.8 10.6 11.4 12.0 12.8 13.6 13.8 14.0
-18.0 -17.9 -17.9 -17.8 -17.8 -17.7 -17.7 -17.6 -17.5 -17.5 -17.4 -17.4 -17.3 -17.3 -17.2 -17.2 -17.1 -17.0 -17.0 -16.9 -16.9 -16.8 -16.7 -16.6 -16.6 -16.5 -16.5 -16.4 -16.3 -16.2 -16.2 -16.1 -16.0 -16.0 -15.9 -15.8 -15.8 -15.7 -15.6 -15.6 -15.5 -15.4 -15.3 -15.3 -15.2 -15.1 -15.1 -15.0 -15.0 -14.9 -14.8 -14.7 -14.6 -14.5 -14.4 -14.3 -14.2 -14.2 -14.1 -14.0 -13.9 -13.9 -13.8 -13.7 -13.6 -13.6 -13.5 -13.4 -13.3 -13.2 -13.2 -13.1 -13.0 -12.9 -12.8 -12.7 -12.6 -12.5 -12.4 -12.3 -12.2 -12.1 -12.0 -12.0 -11.9 -11.8 -11.7 -11.6 -11.5 -11.4 -11.3 -11.1 -11.0 -10.9 -10.4 -10.0 -9.5 -9.1 -8.7 -8.1 -7.5 -7.1 -6.6 -6.0 -9.9 -9.0 -8.1 -7.0 -5.8 -4.6 -3.6 -2.8 -2.1 -1.4 -0.6 -0.1 0.6 1.6 2.7 3.8 4.8 5.7 6.5 7.4 8.4 9.6 10.6 11.4 12.1 12.8 13.9 15.3 15.5 15.7
-17.9 -17.8 -17.8 -17.7 -17.7 -17.6 -17.6 -17.5 -17.5 -17.4 -17.4 -17.3 -17.2 -17.2 -17.1 -17.1 -17.0 -16.9 -16.9 -16.8 -16.7 -16.7 -16.6 -16.5 -16.5 -16.4 -16.3 -16.3 -16.2 -16.1 -16.1 -16.0 -15.9 -15.9 -15.8 -15.7 -15.7 -15.6 -15.5 -15.4 -15.4 -15.3 -15.2 -15.2 -15.1 -15.0 -15.0 -14.9 -14.8 -14.7 -14.6 -14.5 -14.4 -14.3 -14.3 -14.2 -14.1 -14.0 -14.0 -13.9 -13.8 -13.7 -13.7 -13.6 -13.5 -13.4 -13.3 -13.3 -13.2 -13.1 -13.0 -13.0 -12.8 -12.7 -12.6 -12.5 -12.4 -12.3 -12.2 -12.2 -12.1 -12.0 -11.9 -11.8 -11.7 -11.6 -11.5 -11.4 -11.3 -11.2 -11.1 -11.0 -10.7 -10.2 -9.8 -9.3 -8.9 -8.4 -8.0 -7.4 -6.9 -6.4 -5.9 -5.4 -8.8 -7.9 -6.9 -5.6 -4.4 -3.5 -2.8 -2.0 -1.3 -0.7 -0.0 0.8 1.8 2.8 4.0 5.0 6.0 6.8 7.6 8.4 9.3 10.3 11.2 12.0 12.8 13.6 15.6 17.3 17.4 17.5
-17.8 -17.7 -17.7 -17.6 -17.6 -17.5 -17.5 -17.4 -17.4 -17.3 -17.3 -17.2 -17.1 -17.1 -17.0 -17.0 -16.9 -16.8 -16.8 -16.7 -16.6 -16.6 -16.5 -16.4 -16.4 -16.3 -16.2 -16.2 -16.1 -16.0 -16.0 -15.9 -15.8 -15.7 -15.7 -15.6 -15.5 -15.5 -15.4 -15.3 -15.3 -15.2 -15.1 -15.0 -15.0 -14.9 -14.8 -14.7 -14.7 -14.6 -14.5 -14.4 -14.3 -14.2 -14.1 -14.0 -14.0 -13.9 -13.8 -13.7 -13.7 -13.6 -13.6 -13.5 -13.4 -13.3 -13.3 -13.2 -13.1 -13.0 -13.0 -12.9 -12.7 -12.6 -12.5 -12.4 -12.3 -12.2 -12.1 -12.0 -11.9 -11.8 -11.7 -11.6 -11.5 -11.4 -11.3 -11.2 -11.1 -11.0 -10.8 -10.4 -10.0 -9.6 -9.1 -8.7 -8.2 -7.7 -7.3 -6.8 -6.3 -5.7 -5.3 -4.8 -7.6 -6.5 -5.5 -4.2 -3.4 -2.6 -2.0 -1.2 -0.5 0.1 0.9 2.0 3.0 4.1 5.4 6.4 7.4 8.0 8.8 9.6 10.5 11.9 13.1 14.1 15.2 16.1 17.6 19.2 19.2 19.2
-17.7 -17.6 -17.6 -17.5 -17.5 -17.4 -17.4 -17.3 -17.3 -17.2 -17.1 -17.1 -17.0 -17.0 -16.9 -16.8 -16.8 -16.7 -16.6 -16.6 -16.5 -16.4 -16.4 -16.3 -16.2 -16.2 -16.1 -16.0 -16.0 -15.9 -15.9 -15.8 -15.7 -15.6 -15.5 -15.5 -15.4 -15.3 -15.3 -15.2 -15.1 -15.1 -15.0 -14.9 -14.8 -14.8 -14.7 -14.6 -14.5 -14.4 -14.3 -14.2 -14.1 -14.1 -14.0 -13.9 -13.8 -13.8 -13.7 -13.6 -13.6 -13.5 -13.4 -13.4 -13.3 -13.2 -13.1 -13.1 -13.0 -12.9 -12.8 -12.7 -12.5 -12.4 -12.3 -12.2 -12.1 -12.0 -11.9 -11.9 -11.8 -11.7 -11.6 -11.5 -11.4 -11.3 -11.2 -11.1 -11.0 -10.6 -10.1 -9.8 -9.3 -8.9 -8.5 -8.0 -7.5 -7.1 -6.6 -6.1 -5.6 -5.1 -4.6 -4.2 -6.2 -5.1 -4.1 -3.3 -2.5 -1.8 -1.1 -0.4 0.2 1.0 2.1 3.3 4.3 5.6 6.8 7.8 8.7 9.5 10.3 11.2 12.4 13.8 15.2 16.2 17.1 18.2 19.5 20.0 20.0 20.0
-17.6 -17.5 -17.5 -17.4 -17.4 -17.3 -17.3 -17.2 -17.2 -17.1 -17.0 -17.0 -16.9 -16.8 -16.8 -16.7 -16.7 -16.6 -16.5 -16.5 -16.4 -16.3 -16.3 -16.2 -16.1 -16.1 -16.0 -15.9 -15.9 -15.8 -15.7 -15.7 -15.6 -15.5 -15.4 -15.4 -15.3 -15.2 -15.2 -15.1 -15.0 -14.9 -14.9 -14.8 -14.7 -14.6 -14.5 -14.5 -14.4 -14.3 -14.2 -14.1 -14.0 -13.9 -13.9 -13.8 -13.7 -13.7 -13.6 -13.4 -13.5 -13.4 -13.3 -13.2 -13.2 -13.1 -13.0 -13.0 -12.9 -12.8 -12.6 -12.5 -12.3 -12.2 -12.1 -12.1 -12.0 -11.9 -11.8 -11.7 -11.6 -11.5 -11.4 -11.3 -11.2 -11.1 -11.0 -10.8 -10.4 -9.9 -9.5 -9.1 -8.7 -8.2 -7.8 -7.3 -6.9 -6.4 -6.0 -5.5 -5.0 -4.5 -4.0 -3.5 -4.8 -3.8 -3.1 -2.4 -1.6 -0.9 -0.2 0.4 1.3 2.2 3.4 4.7 5.8 7.1 8.3 9.3 10.3 11.3 12.4 12.9 14.0 15.4 16.6 17.5 18.3 19.3 20.1 20.4 20.7 21.0
-17.4 -17.4 -17.4 -17.3 -17.3 -17.2 -17.2 -17.1 -17.1 -17.0 -16.9 -16.9 -16.8 -16.7 -16.7 -16.6 -16.5 -16.5 -16.4 -16.3 -16.3 -16.2 -16.1 -16.1 -16.0 -15.9 -15.9 -15.8 -15.7 -15.7 -15.6 -15.5 -15.5 -15.4 -15.3 -15.2 -15.2 -15.1 -15.0 -15.0 -14.9 -14.8 -14.7 -14.6 -14.6 -14.5 -14.4 -14.3 -14.2 -14.1 -14.0 -14.0 -13.9 -13.8 -13.7 -13.7 -13.6 -13.5 -13.5 -13.3 -13.3 -13.3 -13.2 -13.1 -13.1 -13.0 -12.9 -12.8 -12.7 -12.6 -12.5 -12.3 -12.2 -12.1 -12.0 -11.9 -11.8 -11.7 -11.6 -11.5 -11.4 -11.3 -11.2 -11.2 -11.1 -11.0 -10.7 -10.5 -9.7 -9.3 -8.9 -8.5 -8.0 -7.6 -7.1 -6.7 -6.3 -5.8 -5.4 -4.8 -4.3 -3.8 -3.3 -2.9 -3.4 -2.9 -2.2 -1.4 -0.7 -0.1 0.6 1.5 2.4 3.4 4.6 6.1 7.3 8.5 9.7 10.7 11.7 12.6 13.6 14.4 15.6 16.9 18.0 18.8 19.4 20.0 20.2 20.5 20.8 21.0
-17.3 -17.3 -17.2 -17.2 -17.1 -17.1 -17.1 -17.0 -16.9 -16.9 -16.8 -16.7 -16.7 -16.6 -16.5 -16.5 -16.4 -16.4 -16.3 -16.2 -16.2 -16.1 -16.0 -16.0 -15.9 -15.8 -15.8 -15.7 -15.6 -15.6 -15.5 -15.4 -15.3 -15.3 -15.2 -15.1 -15.1 -15.0 -14.9 -14.8 -14.7 -14.7 -14.6 -14.5 -14.4 -14.3 -14.3 -14.2 -14.1 -14.0 -13.9 -13.8 -13.8 -13.7 -13.6 -13.6 -13.5 -13.4 -13.4 -13.2 -13.2 -13.2 -13.1 -13.0 -13.0 -12.8 -12.7 -12.6 -12.5 -12.4 -12.3 -12.2 -12.0 -11.9 -11.8 -11.7 -11.7 -11.6 -11.5 -11.4 -11.3 -11.2 -11.1 -11.0 -10.8 -10.6 -10.4 -10.2 -9.1 -8.7 -8.2 -7.8 -7.4 -6.9 -6.5 -6.1 -5.7 -5.2 -4.7 -4.2 -3.7 -3.2 -2.7 -2.2 -2.4 -2.0 -1.3 -0.5 0.1 0.9 1.7 2.5 3.5 4.7 6.2 7.4 8.6 9.8 10.9 11.9 13.0 14.1 15.2 16.0 17.3 18.5 19.5 20.0 20.1 20.3 20.4 20.6 20.7 20.9
-17.2 -17.2 -17.1 -17.1 -17.0 -17.0 -16.9 -16.9 -16.8 -16.8 -16.7 -16.6 -16.5 -16.5 -16.4 -16.3 -16.3 -16.2 -16.2 -16.1 -16.0 -16.0 -15.9 -15.8 -15.8 -15.7 -15.6 -15.6 -15.5 -15.4 -15.4 -15.3 -15.2 -15.1 -15.1 -15.0 -15.0 -14.9 -14.8 -14.7 -14.6 -14.5 -14.4 -14.3 -14.3 -14.2 -14.1 -14.0 -13.9 -13.9 -13.8 -13.7 -13.6 -13.6 -13.5 -13.4 -13.4 -13.3 -13.2 -13.1 -13.1 -13.1 -13.0 -12.9 -12.8 -12.6 -12.5 -12.4 -12.3 -12.2 -12.1 -12.0 -11.9 -11.8 -11.7 -11.6 -11.5 -11.4 -11.3 -11.2 -11.1 -11.0 -10.9 -10.8 -10.7 -10.6 -10.5 -10.4 -9.4 -9.6 -9.8 -9.9 -9.8 -9.0 -8.1 -7.3 -6.4 -5.5 -4.7 -3.9 -3.3 -2.7 -2.1 -1.6 -1.8 -1.2 -0.3 0.3 1.1 1.9 2.8 3.7 5.1 6.5 7.7 8.6 9.7 10.9 12.1 13.2 14.4 15.6 16.7 17.6 19.1 20.0 20.4 20.8 21.2 21.6 22.0 22.3 22.7 23.0
-17.1 -17.1 -17.0 -17.0 -16.9 -16.9 -16.8 -16.7 -16.7 -16.6 -16.6 -16.5 -16.4 -16.4 -16.3 -16.2 -16.2 -16.1 -16.0 -16.0 -15.9 -15.8 -15.8 -15.7 -15.6 -15.6 -15.5 -15.4 -15.4 -15.3 -15.2 -15.2 -15.1 -15.0 -15.0 -14.9 -14.8 -14.7 -14.6 -14.6 -14.5 -14.4 -14.3 -14.2 -14.1 -14.1 -14.0 -13.9 -13.8 -13.7 -13.6 -13.6 -13.5 -13.5 -13.4 -13.3 -13.3 -13.2 -13.1 -13.0 -13.0 -13.0 -12.8 -12.7 -12.6 -12.5 -12.3 -12.2 -12.2 -12.1 -12.0 -11.9 -11.8 -11.7 -11.6 -11.5 -11.4 -11.3 -11.2 -11.0 -11.0 -10.9 -10.8 -10.7 -10.6 -10.5 -10.4 -10.3 -9.8 -9.9 -9.9 -9.3 -8.5 -7.8 -7.1 -6.2 -5.4 -4.7 -4.0 -3.4 -2.9 -2.3 -1.7 -1.2 -0.8 -0.2 0.6 1.5 2.3 3.1 3.8 4.9 6.2 7.3 8.7 9.9 11.0 12.2 13.4 14.6 15.7 16.9 18.1 19.1 19.7 20.0 20.2 20.5 20.7 21.0 21.2 21.5 21.7 21.9
-17.0 -17.0 -16.9 -16.9 -16.8 -16.7 -16.7 -16.6 -16.6 -16.5 -16.4 -16.4 -16.3 -16.2 -16.2 -16.1 -16.0 -16.0 -15.9 -15.9 -15.8 -15.7 -15.7 -15.6 -15.5 -15.5 -15.4 -15.3 -15.2 -15.2 -15.1 -15.0 -15.0 -14.9 -14.8 -14.7 -14.6 -14.6 -14.5 -14.4 -14.3 -14.2 -14.1 -14.1 -14.0 -13.9 -13.8 -13.7 -13.7 -13.6 -13.5 -13.5 -13.4 -13.3 -13.3 -13.2 -13.1 -13.1 -13.0 -12.9 -12.9 -12.8 -12.6 -12.5 -12.4 -12.3 -12.1 -12.0 -12.0 -11.9 -11.8 -11.6 -11.5 -11.4 -11.3 -11.3 -11.2 -11.1 -11.0 -10.9 -10.8 -10.7 -10.6 -10.5 -10.4 -10.3 -10.2 -10.1 -9.9 -9.6 -8.9 -8.1 -7.4 -6.7 -5.9 -5.1 -4.4 -3.8 -3.3 -2.7 -2.2 -1.6 -1.0 -0.4 0.1 0.9 1.7 2.6 3.4 4.1 5.1 6.3 7.5 8.6 9.8 11.0 12.1 13.2 14.3 15.5 16.7 17.9 19.1 19.9 20.2 20.5 20.8 21.0 21.3 21.6 21.9 22.2 22.4 22.7
-16.9 -16.8 -16.8 -16.8 -16.7 -16.6 -16.6 -16.5 -16.5 -16.4 -16.3 -16.2 -16.2 -16.1 -16.0 -16.0 -15.9 -15.8 -15.8 -15.7 -15.6 -15.6 -15.5 -15.4 -15.4 -15.3 -15.2 -15.2 -15.1 -15.0 -15.0 -14.9 -14.8 -14.7 -14.7 -14.6 -14.5 -14.4 -14.3 -14.3 -14.2 -14.1 -14.0 -13.9 -13.8 -13.8 -13.7 -13.6 -13.5 -13.5 -13.4 -13.3 -13.3 -13.2 -13.2 -13.1 -13.0 -12.9 -12.8 -12.6 -12.6 -12.5 -12.4 -12.3 -12.1 -12.0 -11.9 -11.8 -11.7 -11.6 -11.5 -10.8 -10.4 -10.2 -9.9 -11.1 -11.0 -10.9 -10.8 -10.7 -10.6 -10.5 -10.4 -10.3 -10.2 -10.1 -10.0 -9.9 -9.2 -8.4 -7.7 -6.9 -6.2 -5.5 -4.7 -4.2 -3.6 -3.0 -2.5 -1.9 -1.4 -0.8 -0.3 0.2 1.2 2.0 2.9 3.6 4.4 5.2 6.2 7.2 8.2 9.3 10.5 11.7 12.5 13.5 14.6 16.1 17.6 19.0 19.4 20.5 21.0 21.6 21.8 22.0 22.4 22.7 23.3 23.7 23.8 24.0
-16.8 -16.7 -16.7 -16.6 -16.6 -16.5 -16.5 -16.4 -16.3 -16.3 -16.2 -16.1 -16.1 -16.0 -15.9 -15.9 -15.8 -15.7 -15.7 -15.6 -15.5 -15.5 -15.4 -15.3 -15.3 -15.2 -15.1 -15.1 -15.0 -14.9 -14.8 -14.7 -14.7 -14.6 -14.5 -14.4 -14.3 -14.3 -14.2 -14.1 -14.0 -13.9 -13.8 -13.8 -13.7 -13.6 -13.6 -13.5 -13.4 -13.3 -13.3 -13.2 -13.1 -13.1 -13.0 -13.0 -12.9 -12.8 -12.6 -12.4 -12.4 -12.3 -12.2 -12.1 -12.0 -11.9 -11.8 -11.7 -11.6 -11.5 -11.4 -10.6 -10.0 -9.8 -9.6 -10.9 -10.8 -10.8 -10.7 -10.6 -10.5 -10.4 -10.3 -10.2 -10.1 -10.0 -9.5 -8.9 -8.1 -7.4 -6.6 -5.9 -5.2 -4.5 -3.9 -3.4 -2.9 -2.3 -1.8 -1.2 -0.7 -0.2 0.5 1.3 2.2 3.1 3.9 4.6 5.3 6.0 6.8 7.7 8.7 9.7 10.9 12.2 13.2 14.2 15.5 16.9 18.3 19.7 20.2 20.8 21.2 21.8 22.2 22.5 23.0 23.3 23.8 24.2 24.9 25.3
-16.7 -16.6 -16.6 -16.5 -16.5 -16.4 -16.3 -16.3 -16.2 -16.1 -16.1 -16.0 -15.9 -15.9 -15.8 -15.7 -15.7 -15.6 -15.5 -15.5 -15.4 -15.3 -15.3 -15.2 -15.2 -15.1 -15.0 -14.9 -14.9 -14.8 -14.7 -14.6 -14.5 -14.4 -14.4 -14.3 -14.2 -14.1 -14.0 -14.0 -13.9 -13.8 -13.7 -13.6 -13.6 -13.5 -13.4 -13.3 -13.3 -13.2 -13.1 -13.1 -13.0 -13.0 -12.9 -12.8 -12.7 -12.6 -12.5 -12.3 -12.3 -12.2 -12.1 -12.0 -11.9 -11.7 -11.6 -11.5 -11.5 -11.4 -11.3 -10.2 -9.7 -9.4 -9.3 -10.8 -10.7 -10.6 -10.5 -10.4 -10.3 -10.2 -10.1 -10.0 -9.8 -9.2 -8.6 -8.0 -6.9 -6.2 -5.5 -4.8 -4.3 -3.7 -3.2 -2.7 -2.1 -1.6 -1.1 -0.5 -0.0 0.7 1.6 2.4 3.2 4.1 4.8 5.5 6.1 6.7 7.4 8.0 8.9 10.0 11.3 12.6 13.8 14.9 16.2 17.5 18.9 20.0 20.4 21.0 21.5 22.1 22.6 22.9 23.3 23.7 24.3 24.7 25.2 25.7
-16.6 -16.5 -16.5 -16.4 -16.4 -16.3 -16.2 -16.2 -16.1 -16.0 -15.9 -15.9 -15.8 -15.8 -15.7 -15.6 -15.6 -15.5 -15.4 -15.4 -15.3 -15.2 -15.2 -15.1 -15.0 -15.0 -14.9 -14.8 -14.7 -14.6 -14.5 -14.5 -14.4 -14.3 -14.2 -14.1 -14.1 -14.0 -13.9 -13.8 -13.7 -13.6 -13.6 -13.5 -13.4 -13.3 -13.3 -13.2 -13.1 -13.1 -13.0 -13.0 -12.9 -12.8 -12.7 -12.6 -12.5 -12.4 -12.3 -12.1 -12.1 -12.0 -11.9 -11.8 -11.7 -11.6 -11.5 -11.4 -11.3 -11.2 -11.1 -9.8 -9.3 -9.2 -9.3 -10.7 -10.6 -10.5 -10.4 -10.3 -10.2 -10.1 -10.0 -9.5 -8.9 -8.3 -7.7 -7.2 -5.9 -5.2 -4.6 -4.1 -3.5 -3.0 -2.5 -2.0 -1.5 -0.9 -0.4 0.1 1.0 1.9 2.7 3.4 4.3 5.3 5.9 6.5 7.0 7.6 8.1 8.6 9.4 10.7 11.9 13.1 14.3 15.4 16.6 18.0 19.2 20.0 20.5 21.2 21.6 22.3 22.8 23.2 23.5 24.1 24.5 25.0 25.4 25.8
-16.5 -16.4 -16.4 -16.3 -16.2 -16.2 -16.1 -16.0 -16.0 -15.9 -15.8 -15.8 -15.7 -15.6 -15.6 -15.5 -15.5 -15.4 -15.3 -15.3 -15.2 -15.1 -15.1 -15.0 -14.9 -14.8 -14.7 -14.7 -14.6 -14.5 -14.4 -14.3 -14.2 -14.1 -14.1 -14.0 -13.9 -13.8 -13.7 -13.7 -13.6 -13.5 -13.4 -13.3 -13.3 -13.2 -13.1 -13.1 -13.0 -12.9 -12.9 -12.8 -12.7 -12.6 -12.5 -12.4 -12.3 -12.2 -12.1 -12.0 -11.9 -11.8 -11.7 -11.6 -11.5 -11.4 -11.3 -11.3 -11.2 -11.1 -11.0 -9.7 -9.3 -9.4 -9.4 -10.5 -10.4 -10.3 -10.2 -10.1 -10.0 -9.9 -9.3 -8.6 -8.0 -7.5 -6.9 -6.3 -4.9 -4.3 -3.8 -3.3 -2.8 -2.3 -1.8 -1.3 -0.8 -0.2 0.3 1.4 2.2 3.0 3.8 4.5 5.6 6.4 7.1 7.7 8.1 8.5 8.9 9.3 10.3 11.6 12.5 13.6 14.8 15.7 16.9 18.0 19.1 20.0 20.5 21.2 21.6 22.5 22.9 23.4 23.5 24.3 24.8 25.3 25.5 26.0
-16.4 -16.3 -16.2 -16.2 -16.1 -16.0 -16.0 -15.9 -15.9 -15.8 -15.7 -15.7 -15.6 -15.5 -15.5 -15.4 -15.3 -15.3 -15.2 -15.1 -15.1 -15.0 -14.9 -14.9 -14.8 -14.7 -14.6 -14.5 -14.4 -14.3 -14.3 -14.2 -14.1 -14.0 -13.9 -13.9 -13.8 -13.7 -13.6 -13.5 -13.4 -13.3 -13.3 -13.2 -13.1 -13.1 -13.0 -12.9 -12.8 -12.7 -12.7 -12.6 -12.5 -12.4 -12.3 -12.2 -12.1 -12.0 -11.9 -11.8 -11.8 -11.7 -11.6 -11.5 -11.4 -11.3 -11.2 -11.1 -11.1 -11.0 -10.6 -10.7 -10.4 -10.1 -9.8 -10.4 -10.3 -10.2 -10.1 -10.0 -9.6 -9.0 -8.4 -7.8 -7.2 -6.6 -6.0 -5.6 -4.1 -3.6 -3.2 -2.6 -2.2 -1.6 -1.2 -0.6 -0.1 0.7 1.6 2.6 3.4 4.2 5.1 5.9 6.7 7.6 8.3 8.8 9.2 9.5 9.9 10.5 11.8 12.9 13.7 14.5 15.5 16.4 17.2 18.2 19.1 19.9 20.4 21.1 21.6 22.5 23.0 23.5 23.6 24.5 25.1 25.5 25.6 26.1
-16.2 -16.2 -16.1 -16.1 -16.0 -15.9 -15.9 -15.8 -15.7 -15.7 -15.6 -15.5 -15.5 -15.4 -15.3 -15.3 -15.2 -15.2 -15.1 -15.0 -15.0 -14.9 -14.8 -14.7 -14.6 -14.5 -14.5 -14.4 -14.3 -14.2 -14.1 -14.0 -13.9 -13.9 -13.8 -13.7 -13.6 -13.5 -13.5 -13.3 -13.3 -13.2 -13.1 -13.0 -13.0 -12.9 -12.8 -12.7 -12.6 -12.6 -12.5 -12.4 -12.3 -12.2 -12.1 -12.0 -11.9 -11.8 -11.8 -11.7 -11.6 -11.5 -11.4 -11.3 -11.2 -11.1 -11.0 -11.0 -10.7 -10.4 -10.1 -10.3 -9.8 -9.6 -9.8 -10.2 -10.1 -10.1 -10.0 -9.4 -8.8 -8.1 -7.5 -6.9 -6.3 -5.8 -5.3 -4.8 -3.3 -2.9 -2.4 -2.0 -1.4 -1.0 -0.4 -0.0 0.9 2.1 3.1 4.0 4.8 5.8 6.6 7.3 8.1 8.9 9.5 10.0 10.4 11.0 11.5 12.2 13.4 14.7 15.1 15.6 16.3 17.1 17.8 18.6 19.3 20.0 20.5 21.2 21.7 22.5 23.1 23.6 23.6 24.6 25.3 25.6 25.7 26.2
-16.1 -16.1 -16.0 -16.0 -15.9 -15.8 -15.8 -15.7 -15.6 -15.6 -15.5 -15.4 -15.4 -15.3 -15.2 -15.2 -15.1 -15.0 -15.0 -14.9 -14.8 -14.7 -14.6 -14.6 -14.5 -14.4 -14.3 -14.2 -14.1 -14.0 -14.0 -13.9 -13.8 -13.7 -13.7 -13.6 -13.5 -13.4 -13.3 -13.2 -13.1 -13.0 -13.0 -12.9 -12.8 -12.7 -12.6 -12.6 -12.5 -12.4 -12.3 -12.2 -12.1 -12.0 -12.0 -11.9 -11.8 -11.7 -11.6 -11.5 -11.4 -11.3 -11.3 -11.2 -11.1 -11.0 -10.7 -10.4 -10.2 -9.9 -9.5 -9.8 -9.7 -9.9 -9.9 -10.1 -10.0 -9.8 -9.1 -8.5 -7.9 -7.2 -6.6 -6.0 -5.5 -5.0 -4.4 -3.9 -2.6 -2.2 -1.7 -1.3 -0.8 -0.3 0.2 1.3 2.5 3.6 4.7 5.8 6.5 7.2 7.9 8.5 9.3 10.2 10.9 11.7 12.1 12.7 13.2 13.9 15.0 15.9 16.3 16.6 17.1 17.7 18.3 18.9 19.5 20.1 20.6 21.3 21.8 22.6 23.2 23.8 23.6 24.8 25.3 25.7 25.7 26.1
-16.0 -16.0 -15.9 -15.8 -15.8 -15.7 -15.6 -15.6 -15.5 -15.5 -15.4 -15.3 -15.2 -15.2 -15.1 -15.0 -15.0 -14.9 -14.8 -14.8 -14.7 -14.6 -14.5 -14.4 -14.3 -14.2 -14.2 -14.1 -14.0 -13.9 -13.8 -13.7 -13.6 -13.6 -13.5 -13.4 -13.3 -13.2 -13.1 -13.0 -13.0 -12.9 -12.8 -12.7 -12.6 -12.6 -12.5 -12.4 -12.3 -12.2 -12.1 -12.1 -12.0 -11.9 -11.8 -11.7 -11.6 -11.5 -11.4 -11.3 -11.3 -11.2 -11.1 -11.0 -10.8 -10.4 -10.2 -9.9 -9.6 -9.4 -9.2 -9.8 -9.9 -9.9 -10.0 -10.0 -9.5 -8.9 -8.3 -7.6 -7.0 -6.3 -5.8 -5.3 -4.6 -4.1 -3.5 -3.0 -2.0 -1.4 -1.0 -0.5 -0.1 0.6 1.6 2.8 4.0 5.4 6.4 7.3 7.9 8.6 9.1 9.7 10.6 11.5 12.3 13.1 13.6 14.1 14.7 15.4 16.4 17.1 17.1 16.9 17.5 18.0 18.6 19.1 19.7 20.2 20.7 21.4 21.9 22.7 23.3 23.8 23.7 25.0 25.4 25.8 25.7 26.1
-15.9 -15.9 -15.8 -15.7 -15.7 -15.6 -15.5 -15.5 -15.4 -15.3 -15.3 -15.2 -15.1 -15.1 -15.0 -14.9 -14.9 -14.8 -14.7 -14.6 -14.5 -14.4 -14.4 -14.3 -14.2 -14.1 -14.0 -13.9 -13.8 -13.8 -13.7 -13.6 -13.5 -13.4 -13.3 -13.3 -13.2 -13.1 -13.0 -12.9 -12.8 -12.7 -12.7 -12.6 -12.5 -12.4 -12.3 -12.2 -12.2 -12.1 -12.0 -11.9 -11.8 -11.7 -11.6 -11.5 -11.5 -11.4 -11.3 -11.2 -11.1 -11.0 -10.8 -10.5 -10.2 -10.0 -9.6 -9.4 -9.1 -9.1 -9.3 -9.9 -9.9 -9.9 -9.9 -9.1 -8.6 -8.0 -7.4 -6.8 -6.2 -5.6 -5.0 -4.4 -3.8 -3.2 -2.7 -2.2 -1.2 -0.8 -0.4 0.1 1.0 2.1 3.1 4.4 5.8 7.2 8.1 8.9 9.3 10.0 10.5 11.2 12.1 13.0 13.9 14.8 15.4 15.7 16.4 17.3 18.0 18.4 18.1 17.4 17.9 18.3 18.8 19.3 19.8 20.2 20.7 21.4 21.8 22.7 23.2 23.8 23.6 24.9 25.4 25.9 25.7 25.9
-15.8 -15.8 -15.7 -15.6 -15.6 -15.5 -15.4 -15.4 -15.3 -15.2 -15.2 -15.1 -15.0 -15.0 -14.9 -14.8 -14.7 -14.6 -14.5 -14.5 -14.4 -14.3 -14.2 -14.1 -14.0 -14.0 -13.9 -13.8 -13.7 -13.6 -13.5 -13.5 -13.4 -13.3 -13.2 -13.1 -13.0 -13.0 -12.9 -12.7 -12.7 -12.6 -12.5 -12.4 -12.3 -12.3 -12.2 -12.1 -12.0 -11.9 -11.8 -11.7 -11.6 -11.6 -11.5 -11.4 -11.3 -11.2 -11.1 -11.0 -10.9 -10.6 -10.3 -10.0 -9.7 -9.4 -9.1 -9.0 -9.1 -9.3 -9.6 -9.9 -9.9 -9.7 -9.1 -8.0 -7.7 -7.1 -6.5 -5.8 -5.3 -4.7 -4.2 -3.6 -3.0 -2.4 -1.8 -1.3 -0.6 -0.1 0.5 1.6 2.7 3.8 4.9 6.2 7.6 8.8 9.8 10.5 11.0 11.7 12.2 12.9 13.7 14.6 15.7 16.9 17.3 17.5 18.0 18.9 19.5 19.6 19.7 20.0 19.9 20.0 20.0 20.0 20.0 20.4 20.7 21.4 21.8 22.6 23.3 23.7 23.5 24.9 25.3 25.8 25.7 25.7
-15.7 -15.7 -15.6 -15.5 -15.5 -15.4 -15.3 -15.3 -15.2 -15.1 -15.0 -15.0 -14.9 -14.8 -14.7 -14.7 -14.6 -14.5 -14.4 -14.3 -14.2 -14.2 -14.1 -14.0 -13.9 -13.8 -13.7 -13.6 -13.6 -13.5 -13.4 -13.3 -13.3 -13.2 -13.1 -13.0 -12.9 -12.8 -12.7 -12.6 -12.5 -12.4 -12.3 -12.2 -12.2 -12.1 -12.0 -11.9 -11.8 -11.7 -11.7 -11.6 -11.5 -11.4 -11.3 -11.2 -11.1 -11.0 -10.9 -10.8 -10.6 -9.8 -9.5 -9.1 -8.8 -8.4 -8.1 -7.9 -7.5 -7.2 -6.9 -5.3 -5.3 -4.8 -4.5 -6.4 -6.6 -5.8 -5.1 -4.4 -3.9 -3.4 -2.9 -2.3 -1.9 -1.3 -0.8 -0.3 0.1 1.2 2.2 3.3 4.3 5.4 6.6 7.9 9.3 10.3 11.2 12.0 12.5 13.2 13.8 14.4 15.4 16.1 17.3 18.5 19.0 19.1 19.8 20.0 20.0 20.0 20.0 20.0 20.0 20.0 20.0 20.0 20.1 20.5 21.0 21.6 21.9 22.8 23.3 23.8 23.4 24.9 25.5 25.9 25.7 25.7
-15.6 -15.6 -15.5 -15.4 -15.4 -15.3 -15.2 -15.2 -15.1 -15.0 -14.9 -14.9 -14.8 -14.7 -14.6 -14.5 -14.4 -14.4 -14.3 -14.2 -14.1 -14.0 -13.9 -13.9 -13.8 -13.7 -13.6 -13.5 -13.5 -13.4 -13.3 -13.2 -13.2 -13.1 -13.0 -12.9 -12.7 -12.6 -12.5 -12.4 -12.3 -12.3 -12.2 -12.1 -12.0 -11.9 -11.8 -11.7 -11.7 -11.6 -11.5 -11.4 -11.3 -11.2 -11.1 -11.0 -11.0 -10.8 -10.6 -10.5 -10.3 -9.1 -8.8 -8.5 -8.1 -7.8 -7.4 -7.1 -6.8 -6.4 -6.0 -4.4 -4.4 -4.1 -3.8 -5.1 -5.4 -4.7 -4.1 -3.6 -3.1 -2.5 -2.0 -1.5 -1.0 -0.5 -0.0 0.7 1.8 2.9 3.9 4.9 5.9 6.9 8.1 9.4 10.6 11.6 12.4 13.4 14.2 14.9 15.5 16.2 17.1 18.1 19.2 20.0 20.3 20.5 20.7 21.0 21.3 21.5 21.7 21.9 21.8 22.0 22.2 22.3 22.4 22.6 22.7 24.6 24.6 26.4 26.6 26.6 25.5 27.1 27.2 27.3 26.6 26.9
-15.5 -15.5 -15.4 -15.3 -15.3 -15.2 -15.1 -15.0 -15.0 -14.9 -14.8 -14.7 -14.6 -14.6 -14.5 -14.4 -14.3 -14.2 -14.1 -14.1 -14.0 -13.9 -13.8 -13.7 -13.7 -13.6 -13.5 -13.4 -13.3 -13.2 -13.2 -13.1 -13.0 -12.9 -12.8 -12.7 -12.6 -12.5 -12.4 -12.3 -12.2 -12.1 -12.0 -11.9 -11.8 -11.8 -11.7 -11.6 -11.5 -11.4 -11.3 -11.2 -11.2 -11.1 -11.0 -10.8 -10.6 -10.6 -10.4 -10.3 -10.0 -8.5 -8.2 -7.8 -7.5 -7.1 -6.8 -6.5 -6.1 -5.8 -5.4 -3.9 -3.9 -3.5 -3.2 -3.9 -4.4 -3.8 -3.3 -2.7 -2.3 -1.7 -1.2 -0.7 -0.2 0.4 1.4 2.4 3.4 4.5 5.5 6.5 7.3 8.3 9.4 10.6 11.6 12.6 13.6 14.7 15.7 16.3 16.9 17.6 18.5 19.2 20.4 20.3 20.5 20.8 21.1 21.3 21.6 21.9 22.1 22.3 22.3 22.4 22.7 22.7 22.9 23.0 23.1 25.0 25.0 26.9 26.9 26.9 25.8 27.4 27.4 27.6 26.9 27.1
-15.4 -15.3 -15.3 -15.2 -15.1 -15.1 -15.0 -14.9 -14.8 -14.7 -14.7 -14.6 -14.5 -14.4 -14.3 -14.3 -14.2 -14.1 -14.0 -13.9 -13.8 -13.8 -13.7 -13.6 -13.5 -13.4 -13.4 -13.3 -13.2 -13.1 -13.1 -13.0 -12.9 -12.8 -12.7 -12.6 -12.4 -12.3 -12.2 -12.1 -12.0 -11.9 -11.9 -11.8 -11.7 -11.6 -11.5 -11.4 -11.3 -11.3 -11.2 -11.1 -11.0 -10.8 -10.7 -10.6 -10.4 -10.3 -10.1 -10.1 -9.7 -7.9 -7.6 -7.2 -6.9 -6.5 -6.1 -5.8 -5.5 -5.1 -4.8 -3.4 -3.3 -3.0 -2.7 -2.8 -3.5 -3.0 -2.5 -1.9 -1.5 -0.9 -0.5 0.0 0.8 1.9 2.9 4.0 5.0 6.0 7.1 8.0 8.7 9.6 10.7 11.8 12.9 13.9 15.0 16.3 17.2 17.8 18.4 19.1 20.0 20.7 21.4 21.0 21.4 21.8 22.1 22.4 22.8 23.1 23.5 23.7 23.3 23.4 23.6 23.7 23.8 23.9 24.0 26.1 27.1 28.2 28.5 28.6 28.5 29.4 29.8 30.0 29.9 30.3
-15.3 -15.2 -15.2 -15.1 -15.0 -15.0 -14.9 -14.8 -14.7 -14.6 -14.5 -14.5 -14.4 -14.3 -14.2 -14.1 -14.0 -14.0 -13.9 -13.8 -13.7 -13.6 -13.6 -13.5 -13.4 -13.3 -13.2 -13.1 -13.1 -13.0 -12.9 -12.8 -12.7 -12.6 -12.5 -12.4 -12.2 -12.1 -12.0 -12.0 -11.9 -11.8 -11.7 -11.6 -11.5 -11.4 -11.3 -11.3 -11.2 -11.1 -11.0 -10.9 -10.8 -10.6 -10.4 -10.3 -10.2 -10.1 -9.9 -9.8 -9.7 -7.3 -6.9 -6.6 -6.2 -5.9 -5.5 -5.2 -4.9 -4.5 -4.1 -2.9 -2.8 -2.5 -2.2 -1.9 -2.7 -2.1 -1.7 -1.1 -0.6 -0.1 0.5 1.5 2.5 3.5 4.6 5.7 6.9 7.8 8.7 9.8 10.4 11.2 12.2 13.4 14.4 15.5 16.7 17.9 19.0 19.5 20.1 20.7 21.2 21.8 22.4 21.7 22.0 22.3 22.6 22.9 23.3 23.6 23.9 24.0 23.7 23.9 23.9 24.1 24.2 24.2 24.3 26.4 27.2 28.6 28.8 29.0 28.6 29.9 30.4 30.6 30.3 30.3
-15.2 -15.1 -15.1 -15.0 -14.9 -14.8 -14.7 -14.7 -14.6 -14.5 -14.4 -14.3 -14.2 -14.2 -14.1 -14.0 -13.9 -13.8 -13.8 -13.7 -13.6 -13.5 -13.4 -13.3 -13.3 -13.2 -13.1 -13.0 -12.9 -12.9 -12.8 -12.6 -12.5 -12.4 -12.3 -12.2 -12.1 -12.0 -11.9 -11.8 -11.7 -11.6 -11.6 -11.5 -11.4 -11.3 -11.2 -11.1 -11.0 -10.9 -10.8 -10.6 -10.5 -10.4 -10.2 -10.1 -10.0 -9.9 -9.9 -9.9 -9.7 -6.6 -6.3 -5.9 -5.6 -5.2 -4.9 -4.5 -4.2 -3.9 -3.5 -2.5 -2.3 -2.0 -1.7 -1.2 -1.8 -1.3 -0.8 -0.3 0.2 1.2 2.4 3.2 4.1 5.2 6.3 7.5 8.6 9.5 10.4 11.4 12.0 12.7 13.8 15.0 16.1 17.2 18.3 19.6 20.2 20.7 21.3 21.8 22.3 22.8 23.4 22.3 22.6 22.9 23.2 23.5 23.8 24.2 24.5 24.6 24.3 24.4 24.5 24.6 24.6 24.7 24.8 26.7 27.7 29.1 29.3 29.4 28.8 30.6 31.0 31.1 30.3 30.4
-15.1 -15.0 -15.0 -14.9 -14.8 -14.7 -14.6 -14.5 -14.4 -14.3 -14.3 -14.2 -14.1 -14.0 -13.9 -13.9 -13.8 -13.7 -13.6 -13.5 -13.5 -13.4 -13.3 -13.2 -13.1 -13.1 -13.0 -12.9 -12.8 -12.7 -12.6 -12.5 -12.3 -12.2 -12.1 -12.0 -11.9 -11.8 -11.7 -11.6 -11.6 -11.5 -11.4 -11.3 -11.2 -11.1 -11.0 -10.9 -10.8 -10.6 -10.5 -10.4 -10.2 -10.2 -10.0 -9.9 -9.9 -9.9 -10.0 -10.0 -9.6 -5.9 -5.6 -5.3 -4.9 -4.6 -4.2 -3.9 -3.6 -3.2 -2.9 -1.9 -1.7 -1.4 -1.1 -0.7 -0.9 -0.4 0.0 0.9 1.8 3.0 4.2 5.0 5.8 7.1 8.1 9.3 10.3 10.9 12.0 13.0 13.6 14.2 15.3 16.4 17.4 18.5 19.7 20.3 20.9 21.5 22.1 22.6 23.2 23.8 24.4 23.3 23.7 24.0 24.4 24.8 25.2 25.5 25.9 26.0 25.2 25.2 25.2 25.3 25.4 25.4 25.4 27.5 29.6 30.2 30.5 30.7 31.3 31.6 32.0 32.2 32.8 33.2
-15.0 -14.9 -14.8 -14.8 -14.7 -14.6 -14.5 -14.4 -14.3 -14.2 -14.1 -14.1 -14.0 -13.9 -13.8 -13.7 -13.7 -13.6 -13.5 -13.4 -13.3 -13.3 -13.2 -13.1 -13.0 -12.9 -12.8 -12.7 -12.6 -12.5 -12.4 -12.3 -12.2 -12.1 -12.0 -11.9 -11.7 -11.7 -11.6 -11.5 -11.4 -11.3 -11.2 -11.1 -11.0 -10.9 -10.8 -10.6 -10.5 -10.4 -10.3 -10.1 -10.0 -9.9 -10.0 -10.0 -10.0 -10.0 -10.0 -10.0 -9.6 -5.3 -5.0 -4.6 -4.3 -4.0 -3.6 -3.3 -2.9 -2.6 -2.2 -1.5 -1.2 -0.9 -0.6 -0.2 -0.1 0.6 1.5 2.4 3.4 4.7 6.1 6.7 7.4 8.6 9.8 10.6 11.5 12.3 13.4 14.4 15.1 15.7 16.5 17.5 18.6 19.7 20.4 21.0 21.6 22.2 22.9 23.5 24.1 24.7 25.4 23.8 24.1 24.5 24.9 25.3 25.7 26.1 26.5 26.6 25.9 25.8 25.8 25.9 25.9 25.9 25.9 27.9 30.2 30.9 31.1 31.3 32.0 32.2 32.6 32.8 33.5 33.9
-14.9 -14.8 -14.7 -14.6 -14.5 -14.4 -14.3 -14.3 -14.2 -14.1 -14.0 -13.9 -13.8 -13.8 -13.7 -13.6 -13.5 -13.4 -13.4 -13.3 -13.2 -13.1 -13.0 -13.0 -12.9 -12.8 -12.7 -12.6 -12.5 -12.4 -12.3 -12.2 -12.1 -12.0 -11.9 -11.5 -11.6 -11.5 -11.4 -11.3 -11.2 -11.2 -11.1 -11.0 -10.9 -10.6 -10.5 -10.4 -10.3 -10.2 -10.1 -10.0 -10.0 -10.0 -10.1 -10.0 -10.0 -10.0 -10.0 -9.9 -9.4 -4.8 -4.4 -4.1 -3.7 -3.4 -3.0 -2.7 -2.3 -1.9 -1.6 -1.2 -0.9 -0.5 -0.2 0.8 1.2 2.3 3.1 4.0 5.0 6.5 8.1 8.3 8.9 10.1 11.0 11.9 12.7 13.6 14.7 15.9 16.5 17.0 17.7 18.7 19.7 20.2 20.7 21.0 22.7 22.9 23.2 23.3 23.4 23.5 24.8 24.0 24.1 24.1 24.2 24.3 24.3 24.4 25.2 27.2 27.4 27.7 28.1 28.4 28.7 29.0 29.4 30.0 30.7 31.1 31.5 31.8 32.3 32.7 33.1 33.4 33.9 34.3
-14.8 -14.7 -14.6 -14.5 -14.4 -14.3 -14.2 -14.1 -14.0 -13.9 -13.9 -13.8 -13.7 -13.6 -13.6 -13.5 -13.4 -13.3 -13.2 -13.2 -13.1 -13.0 -12.9 -12.8 -12.7 -12.6 -12.6 -12.5 -12.4 -12.3 -12.2 -12.1 -12.0 -11.8 -11.7 -11.2 -11.4 -11.4 -11.3 -11.2 -11.1 -11.0 -10.9 -10.7 -10.6 -10.3 -10.2 -10.1 -10.0 -10.1 -10.0 -10.1 -10.0 -10.1 -10.0 -10.0 -10.0 -9.9 -9.9 -9.5 -8.4 -4.1 -3.8 -3.5 -3.1 -2.7 -2.4 -2.0 -1.7 -1.3 -1.0 -0.6 -0.3 0.1 1.0 2.4 3.0 4.0 4.9 6.0 7.2 8.6 10.0 10.1 10.4 11.8 12.5 13.2 14.0 14.9 16.3 17.6 18.1 18.4 19.1 19.9 20.9 20.6 21.0 21.3 23.6 23.8 23.8 23.1 23.1 23.1 24.9 24.0 24.0 24.0 24.0 24.0 24.0 24.0 24.9 27.5 27.9 28.3 28.7 29.0 29.4 29.8 30.2 30.6 30.8 31.3 31.7 32.1 32.5 32.9 33.2 33.6 34.0 34.4
-14.6 -14.5 -14.4 -14.4 -14.3 -14.2 -14.1 -14.0 -13.9 -13.8 -13.8 -13.7 -13.6 -13.5 -13.4 -13.4 -13.3 -13.2 -13.1 -13.1 -13.0 -12.9 -12.8 -12.7 -12.6 -12.5 -12.4 -12.3 -12.2 -12.1 -12.0 -11.9 -11.8 -11.6 -11.5 -11.0 -11.3 -11.2 -11.1 -11.0 -10.9 -10.8 -10.7 -10.6 -10.6 -10.4 -10.3 -10.3 -10.2 -10.2 -10.2 -10.1 -10.1 -10.1 -10.0 -10.0 -10.0 -9.5 -8.9 -8.2 -7.3 -4.8 -3.9 -3.2 -2.7 -2.2 -1.8 -1.4 -1.0 -0.7 -0.3 1.5 0.7 1.7 2.8 5.4 5.0 5.9 6.7 7.7 8.8 10.1 11.2 11.8 12.2 13.3 14.0 14.5 15.4 16.4 17.9 19.2 19.8 19.9 20.5 21.3 22.2 21.0 21.3 21.7 24.4 24.5 24.6 23.1 23.1 23.1 25.3 24.0 24.0 24.0 24.0 24.0 24.0 24.0 24.5 26.0 26.3 26.6 26.9 27.1 27.4 27.7 27.9 28.2 28.6 30.0 30.0 30.0 30.0 30.0 30.1 30.3 30.6 30.9
-14.5 -14.4 -14.3 -14.2 -14.1 -14.0 -14.0 -13.9 -13.8 -13.7 -13.6 -13.6 -13.5 -13.4 -13.3 -13.3 -13.2 -13.1 -13.0 -13.0 -12.9 -12.8 -12.6 -12.6 -12.5 -12.4 -12.3 -12.2 -12.1 -12.0 -11.9 -11.8 -11.6 -11.5 -11.4 -11.0 -11.1 -11.0 -10.9 -10.7 -10.7 -10.7 -10.6 -10.5 -10.4 -10.3 -10.3 -10.2 -10.2 -10.1 -10.1 -10.0 -10.0 -9.8 -9.5 -9.2 -8.8 -8.2 -7.7 -7.0 -6.0 -3.4 -3.0 -2.6 -2.1 -1.8 -1.4 -0.9 -0.6 -0.1 0.4 1.3 2.4 3.3 4.4 6.5 6.5 7.2 7.9 8.7 9.8 11.1 12.3 13.3 14.0 14.8 15.4 16.2 17.2 18.3 19.6 20.7 21.1 21.3 21.9 22.6 23.5 21.4 21.7 22.0 25.2 25.3 25.3 23.1 23.1 23.1 25.7 24.0 24.0 24.0 24.0 24.1 24.2 24.2 24.9 26.7 26.9 27.2 27.5 27.7 28.0 28.3 28.6 28.8 29.2 30.0 30.0 30.0 30.2 30.5 30.7 31.0 31.3 31.6
-14.4 -14.3 -14.2 -14.1 -14.0 -13.9 -13.8 -13.8 -13.7 -13.6 -13.5 -13.5 -13.4 -13.3 -13.2 -13.2 -13.1 -13.0 -12.9 -12.8 -12.7 -12.6 -12.5 -12.4 -12.3 -12.3 -12.2 -12.1 -12.0 -11.8 -11.7 -11.6 -11.5 -11.3 -11.2 -11.0 -11.0 -10.7 -10.4 -10.3 -10.6 -10.5 -10.4 -10.3 -10.2 -10.2 -10.1 -10.1 -10.0 -10.0 -9.6 -9.2 -8.9 -8.6 -8.3 -8.0 -7.6 -6.9 -6.4 -5.7 -4.7 -2.6 -2.1 -1.8 -1.3 -1.0 -0.6 -0.2 0.1 1.1 2.2 3.1 4.0 5.1 6.2 8.0 8.3 8.9 9.4 10.3 11.5 12.9 13.9 14.9 15.8 16.4 16.7 17.2 18.1 19.2 20.4 21.3 22.0 22.5 23.1 23.8 24.6 22.6 23.5 24.6 26.5 27.2 27.9 28.4 29.3 29.8 29.9 29.7 29.5 29.4 29.4 29.6 29.8 29.8 29.9 30.0 30.0 30.0 30.0 30.0 30.0 30.0 30.0 30.0 30.0 30.1 30.4 30.6 30.9 31.2 31.4 31.7 31.9 32.2
-14.2 -14.1 -14.0 -14.0 -13.9 -13.8 -13.7 -13.6 -13.6 -13.5 -13.4 -13.4 -13.3 -13.2 -13.1 -13.1 -13.0 -12.9 -12.8 -12.7 -12.6 -12.5 -12.4 -12.3 -12.2 -12.1 -12.0 -11.9 -11.8 -11.7 -11.5 -11.4 -11.3 -11.1 -11.0 -10.8 -10.5 -10.1 -9.9 -10.0 -10.4 -10.3 -10.2 -10.2 -10.1 -10.0 -9.9 -9.6 -9.3 -8.9 -8.6 -8.2 -7.8 -7.5 -7.1 -6.7 -6.3 -5.7 -5.0 -4.3 -3.5 -1.8 -1.4 -1.0 -0.6 -0.2 0.1 1.0 2.0 3.1 4.1 5.1 5.9 6.9 8.2 9.4 10.2 10.7 11.4 12.4 13.6 14.8 15.9 16.8 17.8 18.1 18.0 18.2 19.0 20.0 21.1 22.2 23.0 23.7 24.4 25.1 26.0 25.2 26.6 27.9 29.0 29.6 29.8 29.6 29.4 29.2 29.4 29.4 29.4 29.4 29.4 29.4 29.4 29.4 29.7 30.0 30.3 30.1 30.0 30.0 30.0 30.0 30.0 30.0 30.0 30.2 30.4 30.7 31.0 31.3 31.5 31.8 32.1 32.4
-14.1 -14.0 -13.9 -13.8 -13.7 -13.7 -13.6 -13.5 -13.4 -13.4 -13.3 -13.3 -13.2 -13.1 -13.0 -13.0 -12.9 -12.8 -12.7 -12.6 -12.5 -12.4 -12.3 -12.2 -12.1 -12.0 -11.9 -11.7 -11.6 -11.5 -11.4 -11.2 -11.1 -11.0 -10.6 -10.4 -10.0 -9.7 -9.4 -9.7 -10.2 -10.1 -10.0 -10.0 -9.7 -9.3 -9.0 -8.6 -8.3 -7.9 -7.5 -7.1 -6.7 -6.3 -5.9 -5.5 -5.0 -4.4 -3.8 -3.1 -2.4 -1.1 -0.6 -0.3 -0.0 0.7 1.8 2.9 4.0 5.0 6.0 6.9 7.6 8.7 9.9 11.1 12.0 12.5 13.3 14.3 15.4 16.6 17.5 18.6 19.7 19.8 19.4 19.3 20.0 21.2 22.4 23.4 24.3 25.1 25.9 26.6 27.4 28.2 29.4 28.7 28.7 28.7 28.7 28.7 28.7 28.7 29.2 29.4 29.4 29.4 29.4 29.4 29.4 29.4 30.3 31.9 31.4 31.1 30.8 30.6 30.5 30.4 30.2 30.8 33.7 34.3 34.5 34.7 34.8 35.0 35.2 35.3 35.5 35.7
-14.0 -13.9 -13.8 -13.7 -13.6 -13.5 -13.5 -13.4 -13.3 -13.3 -13.2 -13.1 -13.0 -13.0 -12.9 -12.8 -12.7 -12.6 -12.5 -12.4 -12.3 -12.2 -12.1 -12.0 -11.9 -11.8 -11.7 -11.6 -11.5 -11.3 -11.2 -11.1 -10.9 -10.5 -10.2 -10.0 -9.5 -9.3 -9.5 -9.9 -10.0 -9.9 -9.5 -9.2 -8.7 -8.4 -8.0 -7.6 -7.3 -6.9 -6.5 -6.0 -5.5 -5.1 -4.6 -4.2 -3.7 -3.2 -2.6 -1.9 -1.3 -0.3 -0.0 0.6 1.6 2.5 3.6 4.9 6.1 7.0 7.9 8.7 9.4 10.6 12.0 13.2 14.0 14.4 15.4 16.5 17.5 18.3 19.2 20.3 21.2 21.4 21.1 20.9 21.7 23.2 24.6 25.5 26.0 26.7 27.4 28.0 28.8 29.6 28.7 28.7 28.7 28.7 28.7 28.7 28.7 28.7 29.2 29.4 29.4 29.4 29.4 29.4 29.4 29.4 30.4 32.3 32.4 32.1 31.9 31.7 31.6 31.5 31.4 31.8 34.3 34.9 35.1 35.3 35.5 35.6 35.8 36.0 36.1 36.3
-13.8 -13.7 -13.7 -13.6 -13.5 -13.4 -13.3 -13.3 -13.2 -13.1 -13.1 -13.0 -12.9 -12.8 -12.7 -12.6 -12.6 -12.5 -12.4 -12.3 -12.2 -12.1 -12.0 -11.9 -11.8 -11.7 -11.5 -11.4 -11.3 -11.2 -11.1 -10.9 -10.5 -10.1 -9.7 -9.6 -9.4 -9.7 -9.9 -9.9 -9.6 -9.1 -8.7 -8.3 -7.9 -7.5 -7.1 -6.7 -6.3 -5.8 -5.4 -4.8 -4.4 -4.0 -3.6 -3.1 -2.6 -2.0 -1.5 -0.7 -0.2 0.4 1.3 2.2 3.2 4.3 5.5 6.9 8.1 9.0 9.8 10.6 11.0 13.2 14.6 15.5 16.1 16.4 17.3 18.6 19.4 20.0 20.9 21.9 22.8 23.0 23.0 22.7 23.5 24.7 25.8 26.7 27.2 28.0 28.7 29.2 29.9 28.7 28.7 28.7 29.3 29.3 29.2 28.7 28.7 28.7 29.2 29.4 29.4 29.4 29.4 29.4 29.4 29.4 30.5 32.5 33.3 33.1 32.9 32.8 32.8 32.7 32.6 32.8 34.7 35.3 35.5 35.6 35.8 36.0 36.2 36.4 36.6 36.7
-13.7 -13.6 -13.5 -13.5 -13.4 -13.3 -13.2 -13.1 -13.1 -13.0 -13.0 -12.9 -12.8 -12.7 -12.6 -12.5 -12.4 -12.3 -12.2 -12.2 -12.1 -12.0 -11.9 -11.8 -11.6 -11.5 -11.4 -11.3 -11.2 -11.0 -10.8 -10.4 -10.0 -9.6 -9.4 -9.8 -9.9 -9.9 -9.7 -9.1 -8.7 -8.3 -7.9 -7.4 -7.0 -6.5 -6.1 -5.7 -5.2 -4.8 -4.3 -3.9 -3.4 -2.9 -2.5 -2.0 -1.5 -0.9 -0.3 0.2 0.9 1.9 2.9 4.0 5.2 6.3 7.5 9.0 10.0 10.8 11.0 12.4 12.8 15.9 17.3 17.9 18.1 18.4 19.5 20.4 21.1 22.0 22.8 23.7 24.4 24.7 24.7 24.6 25.3 26.2 27.2 27.9 28.5 29.3 29.9 30.0 30.0 28.7 28.7 28.7 30.1 30.1 29.9 28.7 28.7 28.7 29.2 29.4 29.4 29.4 29.4 29.4 29.4 29.4 30.6 32.8 34.2 34.1 34.0 33.9 34.0 33.9 33.7 33.7 35.2 35.6 35.7 35.9 36.1 36.3 36.5 36.6 36.8 37.0
-13.6 -13.5 -13.4 -13.3 -13.2 -13.2 -13.1 -13.0 -13.0 -12.9 -12.8 -12.7 -12.6 -12.5 -12.5 -12.4 -12.3 -12.2 -12.1 -12.1 -12.0 -11.8 -11.7 -11.6 -11.5 -11.4 -11.3 -11.1 -11.0 -10.7 -10.3 -9.9 -9.6 -9.5 -9.7 -9.9 -9.9 -9.5 -8.8 -8.1 -7.8 -7.4 -7.0 -6.6 -6.1 -5.6 -5.2 -4.7 -4.3 -3.8 -3.3 -2.8 -2.2 -1.8 -1.3 -0.8 -0.3 0.2 0.8 1.5 2.2 3.4 4.5 5.8 6.9 8.0 9.3 10.6 11.4 12.5 12.3 14.6 15.8 18.7 19.8 20.0 20.1 20.1 20.9 21.7 22.9 24.0 24.8 25.6 26.2 26.4 26.5 26.5 26.9 27.6 28.4 29.1 29.7 30.0 30.0 30.0 30.0 28.7 28.7 28.7 30.9 30.9 30.7 28.7 28.7 28.7 29.2 29.4 29.4 29.4 29.4 29.4 29.4 29.4 30.8 33.2 35.2 35.1 35.0 35.0 35.1 35.1 34.9 34.7 35.8 36.3 36.5 36.7 36.9 37.1 37.3 37.4 37.6 37.8
-13.5 -13.4 -13.3 -13.2 -13.1 -13.0 -13.0 -12.9 -12.8 -12.7 -12.7 -12.6 -12.5 -12.4 -12.3 -12.2 -12.2 -12.1 -12.0 -11.9 -11.8 -11.7 -11.6 -11.5 -11.4 -11.2 -11.1 -11.0 -10.6 -10.1 -9.6 -9.0 -8.6 -8.1 -7.6 -7.1 -6.8 -6.4 -6.1 -6.0 -6.8 -6.4 -5.9 -5.5 -5.0 -4.5 -4.0 -3.6 -3.1 -2.6 -2.2 -1.6 -1.1 -0.6 -0.2 0.3 0.9 1.5 2.1 2.7 3.6 5.1 6.3 7.4 8.4 9.6 10.9 12.1 12.9 14.4 14.8 17.3 19.0 20.3 21.0 21.3 21.5 21.6 22.3 23.1 24.6 26.3 26.8 27.4 27.9 28.1 28.2 28.2 28.6 29.0 29.6 30.0 30.0 30.0 30.0 30.0 30.0 28.7 28.7 28.7 31.7 31.7 31.5 28.7 28.7 28.7 29.2 29.4 29.4 29.4 29.4 29.4 29.4 29.4 30.8 33.4 36.2 36.1 36.0 36.0 36.2 36.1 35.9 35.7 36.1 36.4 36.6 36.8 37.0 37.2 37.4 37.6 37.8 38.0
-13.3 -13.2 -13.2 -13.1 -13.0 -12.9 -12.8 -12.8 -12.7 -12.6 -12.5 -12.4 -12.4 -12.3 -12.2 -12.1 -12.1 -12.0 -11.9 -11.8 -11.7 -11.6 -11.4 -11.3 -11.2 -11.1 -11.0 -10.5 -9.9 -9.4 -8.9 -8.4 -7.9 -7.4 -7.0 -6.3 -6.1 -5.8 -5.3 -5.1 -5.9 -5.4 -4.9 -4.5 -4.1 -3.6 -3.2 -2.7 -2.2 -1.7 -1.1 -0.6 -0.1 0.3 0.9 1.6 2.3 2.8 3.3 4.0 5.4 6.6 7.7 8.8 9.9 11.1 12.3 13.4 14.1 15.7 15.9 17.7 19.1 20.4 21.5 22.3 22.7 23.0 23.7 24.5 26.3 28.4 28.8 29.2 29.5 29.8 29.9 29.9 30.0 30.0 30.0 30.0 30.0 30.0 30.0 30.0 30.0 28.7 28.7 28.7 32.6 32.5 32.2 28.7 28.7 28.7 29.2 29.4 29.4 29.4 29.4 29.4 29.4 29.4 31.0 33.7 37.1 37.1 37.0 37.1 37.3 37.3 37.0 36.6 36.4 36.7 36.9 37.1 37.2 37.4 37.6 37.8 37.9 38.1
-13.2 -13.1 -13.0 -13.0 -12.9 -12.8 -12.7 -12.6 -12.6 -12.5 -12.4 -12.3 -12.2 -12.2 -12.1 -12.0 -11.9 -11.8 -11.7 -11.6 -11.5 -11.4 -11.3 -11.2 -11.1 -10.9 -10.7 -9.8 -9.3 -8.7 -8.2 -7.8 -7.3 -6.8 -6.3 -5.6 -5.5 -5.0 -4.7 -4.2 -5.0 -4.6 -4.1 -3.7 -3.2 -2.7 -2.2 -1.7 -1.2 -0.7 -0.1 0.4 0.9 1.6 2.2 2.9 3.6 4.1 4.8 5.8 6.9 8.0 9.0 10.2 11.4 12.6 13.7 14.6 15.1 16.5 16.6 18.9 19.3 20.5 22.1 23.3 24.1 24.7 26.0 27.5 28.9 30.0 30.0 30.0 30.0 30.0 30.0 30.0 30.0 30.0 30.0 30.0 30.0 30.0 30.0 30.0 30.0 28.7 28.7 28.7 33.4 33.3 33.0 28.7 28.7 28.7 29.2 29.4 29.4 29.4 29.4 29.4 29.4 29.4 31.1 34.0 38.1 38.1 38.1 38.2 38.5 38.5 38.2 37.5 36.8 36.9 37.1 37.3 37.4 37.6 37.7 37.9 38.1 38.2
-13.1 -13.0 -12.9 -12.8 -12.7 -12.7 -12.6 -12.5 -12.4 -12.4 -12.3 -12.2 -12.1 -12.1 -12.0 -11.9 -11.8 -11.7 -11.6 -11.5 -11.4 -11.3 -11.2 -11.1 -10.9 -10.6 -10.4 -9.1 -8.6 -8.1 -7.6 -7.1 -6.6 -6.2 -5.6 -4.8 -4.7 -4.4 -4.0 -3.5 -4.1 -3.7 -3.3 -2.8 -2.3 -1.9 -1.4 -0.9 -0.3 0.3 1.0 1.6 2.1 2.7 3.5 4.1 4.9 5.6 6.3 7.2 8.2 9.2 10.2 11.5 12.9 14.1 15.3 16.1 16.8 18.4 19.4 20.6 20.7 22.6 23.4 24.3 24.9 25.3 26.0 26.8 29.5 29.9 29.9 29.9 29.9 29.9 29.9 29.9 29.9 29.9 29.9 29.9 29.9 29.9 29.9 29.9 29.9 28.7 28.7 28.7 34.0 33.9 33.6 28.7 28.7 28.7 29.3 29.4 29.4 29.4 29.4 29.4 29.4 29.4 29.4 29.6 39.2 39.2 39.3 39.4 39.7 39.7 39.4 38.8 37.9 38.5 38.8 39.2 39.6 39.9 40.0 40.0 40.0 40.0
-12.9 -12.9 -12.8 -12.7 -12.6 -12.5 -12.5 -12.4 -12.3 -12.2 -12.2 -12.1 -12.0 -11.9 -11.8 -11.7 -11.6 -11.5 -11.4 -11.3 -11.2 -11.1 -11.0 -10.9 -10.6 -10.3 -10.1 -8.4 -7.9 -7.4 -7.0 -6.4 -5.9 -5.4 -4.9 -4.1 -4.1 -3.7 -3.3 -2.8 -3.3 -2.9 -2.4 -2.0 -1.5 -1.0 -0.5 0.1 0.8 1.6 2.3 2.8 3.3 3.8 4.7 5.3 6.1 6.6 7.1 8.1 9.0 10.1 11.0 12.5 14.1 15.6 16.8 17.2 17.4 18.7 19.7 22.0 21.6 22.2 23.8 25.3 26.2 26.7 27.3 28.2 29.9 29.7 29.7 29.8 29.8 29.8 29.8 29.9 29.9 29.9 29.9 29.9 29.9 30.0 30.0 30.0 30.1 28.7 28.7 28.7 34.7 34.6 34.4 29.4 29.8 30.2 31.3 29.4 29.4 29.4 29.4 29.4 29.4 29.4 29.6 34.5 40.0 40.0 40.0 40.0 40.0 40.0 40.0 39.9 39.9 40.0 40.0 40.0 40.0 39.8 40.0 40.0 40.0 40.0
-12.8 -12.7 -12.6 -12.6 -12.5 -12.4 -12.3 -12.3 -12.2 -12.1 -12.1 -12.0 -11.9 -11.8 -11.7 -11.6 -11.5 -11.4 -11.3 -11.2 -11.1 -11.0 -10.8 -10.5 -10.2 -10.0 -9.8 -7.8 -7.2 -6.7 -6.2 -5.7 -5.1 -4.6 -4.1 -3.5 -3.4 -3.0 -2.7 -2.2 -2.5 -2.0 -1.6 -1.2 -0.6 -0.1 0.4 1.3 2.2 3.0 3.6 3.9 4.3 4.9 5.8 6.5 7.2 7.6 7.8 8.6 9.6 10.6 11.6 13.2 15.6 17.3 18.5 18.8 18.3 18.9 19.6 23.5 21.7 22.9 25.3 27.0 27.8 28.2 28.8 29.5 29.8 29.7 29.7 29.7 29.7 29.7 29.7 29.8 29.8 29.8 29.9 29.9 29.9 30.0 30.0 30.1 30.1 28.7 28.7 28.7 35.5 35.4 35.0 29.5 29.7 30.0 31.0 29.4 29.4 29.4 29.4 29.4 29.4 29.4 29.4 29.6 40.0 40.0 40.0 40.0 40.0 39.9 39.9 39.7 39.9 40.0 40.0 40.0 40.0 38.1 39.1 40.0 40.0 40.0
-12.7 -12.6 -12.5 -12.4 -12.3 -12.3 -12.2 -12.1 -12.1 -12.0 -11.9 -11.8 -11.7 -11.6 -11.6 -11.5 -11.4 -11.3 -11.2 -11.1 -11.0 -10.7 -10.5 -10.2 -9.9 -9.8 -9.8 -7.0 -6.5 -6.0 -5.4 -4.9 -4.3 -3.9 -3.4 -2.8 -2.7 -2.3 -2.0 -1.6 -1.6 -1.2 -0.8 -0.3 0.2 1.1 1.8 2.7 3.6 4.3 4.8 5.2 5.5 6.0 6.8 7.7 8.5 8.7 8.6 9.2 10.3 11.8 12.9 14.9 17.6 19.2 20.1 20.3 19.7 19.7 19.7 24.9 21.4 23.8 27.1 28.7 29.4 29.4 29.8 29.9 29.7 29.7 29.7 29.7 29.7 29.7 29.7 29.7 29.7 29.7 29.7 29.7 29.8 29.8 29.8 29.9 29.9 28.7 28.7 28.7 36.4 36.3 35.7 29.5 29.5 29.5 29.8 29.4 29.4 29.4 29.4 29.4 29.4 29.4 29.4 29.7 38.7 39.2 39.2 39.1 38.8 38.5 38.5 38.1 39.6 40.0 40.0 40.0 40.0 38.5 38.1 40.0 40.0 40.0
-12.5 -12.4 -12.4 -12.3 -12.2 -12.2 -12.1 -12.0 -11.9 -11.9 -11.8 -11.7 -11.6 -11.5 -11.4 -11.3 -11.2 -11.1 -11.0 -10.9 -10.6 -10.4 -10.1 -9.9 -9.8 -9.8 -10.0 -6.3 -5.7 -5.1 -4.5 -4.1 -3.6 -3.2 -2.8 -2.3 -2.0 -1.6 -1.3 -1.0 -0.8 -0.3 0.1 0.9 1.8 2.7 3.4 4.2 5.2 6.1 6.3 6.4 6.7 7.2 8.0 9.0 9.8 10.0 9.7 9.6 11.3 13.2 14.8 17.2 19.5 20.3 21.3 21.5 20.6 20.1 19.8 26.4 22.4 25.8 29.2 29.4 29.3 29.3 29.7 29.7 29.7 29.7 29.7 29.7 29.7 29.7 29.7 29.7 29.7 29.7 29.7 29.7 29.8 29.8 29.8 29.9 29.9 28.7 28.7 28.7 37.3 37.0 36.6 29.5 29.5 29.5 29.8 29.4 29.4 29.4 29.4 29.4 29.4 29.4 29.4 29.7 37.0 37.5 37.6 37.5 37.3 37.0 36.9 36.6 38.7 40.0 40.0 40.0 40.0 38.4 37.7 40.0 40.0 40.0
-12.4 -12.3 -12.2 -12.2 -12.1 -12.0 -12.0 -11.9 -11.8 -11.7 -11.6 -11.5 -11.5 -11.4 -11.3 -11.2 -11.1 -11.0 -10.9 -10.6 -10.3 -10.1 -9.8 -9.7 -9.9 -10.0 -10.0 -5.4 -4.8 -4.2 -3.8 -3.3 -2.9 -2.5 -2.0 -1.5 -1.3 -1.0 -0.5 -0.3 0.1 0.9 1.7 2.7 3.5 4.3 5.0 5.9 6.9 7.7 7.7 7.7 7.9 8.5 9.3 10.3 11.3 11.6 11.3 11.4 14.8 16.4 17.9 19.3 20.2 20.8 22.1 22.2 21.2 20.0 19.7 27.5 28.3 29.3 30.0 30.0 30.0 30.0 30.0 30.0 30.0 30.0 30.0 30.0 30.0 30.0 30.0 30.0 30.0 30.0 30.0 30.0 30.0 30.0 30.0 30.0 30.0 28.7 28.7 28.7 38.3 38.0 37.6 29.5 29.5 29.5 29.7 29.4 29.4 29.4 29.4 29.4 29.4 29.4 29.4 29.8 35.3 35.9 36.1 36.1 35.8 35.6 35.4 34.9 36.2 37.3 37.6 37.0 35.1 33.2 34.3 35.0 35.7 36.5
-12.3 -12.2 -12.1 -12.0 -12.0 -11.9 -11.8 -11.8 -11.7 -11.6 -11.5 -11.4 -11.4 -11.3 -11.2 -11.1 -11.0 -10.9 -10.7 -10.5 -10.3 -10.1 -10.0 -10.1 -10.1 -10.0 -9.8 -6.8 -5.8 -4.7 -3.8 -3.0 -2.4 -1.9 -1.5 -1.4 -0.6 -0.3 0.1 0.7 1.7 2.7 3.4 4.4 5.3 6.0 6.6 7.5 8.6 9.3 9.1 9.0 9.0 9.6 10.6 11.8 12.6 12.9 12.9 14.3 16.4 17.1 18.5 19.6 21.9 22.7 25.3 27.1 28.1 28.5 22.7 29.2 29.7 29.9 29.9 29.5 29.4 29.4 29.8 29.8 29.8 29.8 29.8 29.8 29.8 29.8 29.8 29.8 29.9 29.9 29.9 29.9 29.9 29.9 29.9 29.9 29.9 29.9 30.0 30.1 30.2 30.4 30.6 30.7 30.9 31.0 30.7 31.1 31.0 30.8 30.7 30.6 30.4 30.3 30.1 30.0 33.6 34.3 34.5 34.6 34.4 34.1 33.9 33.3 33.7 34.0 34.2 33.7 32.6 31.6 33.1 41.8 41.6 41.2
-12.1 -12.0 -12.0 -11.9 -11.9 -11.8 -11.7 -11.6 -11.5 -11.5 -11.4 -11.3 -11.2 -11.2 -11.1 -11.0 -10.9 -10.7 -10.4 -10.2 -10.1 -10.0 -10.0 -10.0 -10.0 -9.6 -8.4 -5.3 -4.2 -3.3 -2.6 -1.9 -1.4 -1.0 -0.6 -0.4 0.0 0.7 1.5 3.0 3.6 4.6 5.5 6.4 7.3 7.9 8.4 9.1 10.2 11.0 10.9 10.5 10.4 11.4 13.1 13.8 14.5 14.6 15.0 17.1 18.3 18.7 19.7 21.0 23.1 24.7 27.0 29.2 30.0 30.0 30.0 30.0 30.0 30.0 30.0 29.5 29.4 29.4 29.9 30.0 30.0 30.0 30.0 30.0 30.0 30.0 30.0 30.0 30.0 30.0 30.0 30.0 30.0 30.0 30.0 30.0 30.0 30.0 30.0 30.0 35.1 30.0 30.0 30.0 30.0 30.0 30.0 30.0 30.0 30.0 30.0 30.0 30.0 30.0 30.0 30.0 31.9 32.6 32.9 33.1 32.9 32.6 32.4 31.7 31.3 30.6 30.7 30.4 30.2 30.1 31.3 37.5 37.4 37.4
-12.0 -11.9 -11.9 -11.8 -11.7 -11.7 -11.6 -11.5 -11.4 -11.4 -11.3 -11.2 -11.1 -11.1 -11.0 -10.9 -10.8 -10.7 -10.5 -10.4 -10.3 -10.2 -10.1 -10.0 -9.3 -8.1 -7.0 -4.7 -3.3 -2.3 -1.8 -1.4 -0.8 -0.3 0.1 0.8 1.6 2.4 3.2 4.7 5.5 6.5 7.4 8.3 9.1 9.5 10.0 10.9 12.1 12.8 12.6 12.3 12.4 13.7 15.1 15.6 16.2 16.7 17.6 19.8 20.1 19.3 19.8 21.9 24.2 26.7 29.2 30.0 30.1 30.1 30.0 30.1 30.1 30.2 30.3 29.5 29.4 29.4 30.3 30.6 31.0 31.0 30.8 30.7 30.7 30.7 30.7 30.7 30.7 30.7 30.8 30.9 31.0 31.2 31.6 32.1 33.1 39.2 39.5 39.8 40.0 40.0 39.9 39.2 38.6 37.9 34.5 36.5 35.9 35.2 34.5 33.8 33.2 32.5 31.9 31.4 30.3 30.9 31.2 31.5 31.3 31.0 30.6 30.1 30.0 30.0 30.0 30.0 30.0 30.0 30.0 31.4 32.7 34.1
-11.9 -11.8 -11.8 -11.7 -11.6 -11.6 -11.5 -11.4 -11.4 -11.3 -11.2 -11.1 -11.1 -11.0 -10.9 -10.7 -10.6 -10.5 -10.4 -10.3 -10.2 -10.1 -9.9 -8.9 -7.6 -6.5 -5.4 -2.6 -2.0 -1.4 -0.9 -0.4 0.1 0.9 1.8 2.6 3.3 4.1 5.0 6.4 7.4 8.5 9.3 10.2 10.8 11.3 12.0 13.0 14.2 14.8 14.5 14.2 14.5 15.9 17.0 17.2 17.8 18.7 19.8 20.5 20.5 19.8 19.8 21.6 24.4 27.0 29.9 30.1 30.2 30.2 30.2 30.2 30.3 30.3 30.5 29.6 29.4 29.4 30.4 30.7 30.9 30.7 30.6 30.5 30.4 30.4 30.4 30.4 30.3 30.3 30.3 30.3 30.3 30.4 30.4 30.6 30.8 38.9 39.2 39.5 38.4 39.9 40.0 39.0 36.4 33.8 30.8 29.7 28.7 27.9 27.6 27.1 26.4 26.4 26.2 30.0 30.0 30.0 30.0 30.1 30.1 30.0 30.0 30.0 30.0 30.0 30.0 30.0 30.0 30.0 30.0 31.7 33.1 34.5
-11.8 -11.7 -11.6 -11.6 -11.5 -11.5 -11.4 -11.3 -11.3 -11.2 -11.1 -11.0 -10.9 -10.8 -10.7 -10.6 -10.5 -10.4 -10.2 -10.1 -10.0 -9.8 -8.5 -7.1 -5.9 -4.7 -3.6 -1.6 -1.0 -0.4 0.1 0.8 1.9 2.8 3.6 4.3 5.1 5.9 6.8 8.1 9.2 10.2 10.8 11.8 12.6 12.9 13.8 15.1 16.3 16.8 16.2 15.8 16.4 17.9 18.9 18.6 18.7 18.8 19.8 20.4 20.4 19.9 19.8 21.1 24.3 27.2 30.0 30.0 30.0 30.0 30.0 30.0 30.0 30.0 30.0 29.5 29.4 29.4 29.9 30.0 30.0 30.0 30.0 30.0 30.0 30.0 30.0 30.0 30.0 30.0 30.0 30.0 30.0 30.0 30.0 30.0 30.0 30.0 30.0 30.0 33.1 34.9 37.1 30.0 29.9 28.9 27.3 26.4 25.5 24.3 23.4 22.7 22.4 22.4 22.7 30.0 30.0 30.0 30.0 30.0 30.0 30.0 30.0 30.0 30.0 30.0 30.0 30.0 30.0 30.0 30.8 32.4 33.6 35.1
-11.6 -11.6 -11.5 -11.5 -11.4 -11.3 -11.3 -11.2 -11.1 -11.1 -11.0 -10.9 -10.8 -10.7 -10.6 -10.4 -10.3 -10.2 -10.1 -10.0 -9.2 -7.9 -6.5 -5.2 -4.0 -2.9 -1.8 -0.6 0.0 1.0 2.0 3.0 3.9 4.6 5.5 6.0 6.6 7.4 8.3 9.5 10.6 11.4 12.1 13.3 14.2 14.5 15.8 17.4 18.4 18.8 18.1 18.0 18.8 20.1 20.6 20.4 20.1 19.5 19.9 20.4 20.3 20.0 19.8 20.5 24.3 27.2 30.0 30.0 30.0 30.0 30.0 30.0 29.7 29.7 29.7 29.4 29.4 29.4 29.7 29.7 29.8 29.8 29.9 29.9 29.9 30.0 30.0 30.0 30.0 30.0 30.0 29.9 29.8 29.5 29.2 29.0 28.8 28.7 28.9 28.8 29.0 28.8 28.7 27.9 26.4 25.0 23.5 22.8 22.4 22.4 22.4 22.4 22.4 22.4 22.4 22.4 23.1 26.0 27.8 28.8 29.3 29.4 29.4 29.1 29.1 29.3 29.5 29.7 29.9 30.6 32.4 34.0 34.7 36.0
-11.5 -11.5 -11.4 -11.3 -11.3 -11.2 -11.1 -11.1 -11.0 -10.9 -10.8 -10.7 -10.6 -10.5 -10.4 -10.3 -10.2 -10.1 -9.7 -8.3 -7.1 -5.8 -4.6 -3.3 -2.2 -1.1 -0.1 0.8 2.1 3.1 4.0 5.0 5.9 6.6 7.3 7.7 8.2 8.8 9.7 10.8 12.0 12.8 13.8 15.2 16.2 16.8 18.1 19.6 20.2 20.4 20.0 19.5 20.3 21.3 21.8 22.0 22.1 21.1 21.9 21.5 20.6 20.0 19.8 21.0 26.0 28.4 30.0 30.0 30.0 30.0 30.0 30.0 30.0 30.0 30.0 29.5 29.4 29.4 29.9 30.0 30.0 30.0 30.0 30.0 30.0 30.0 30.0 30.0 29.9 29.6 29.3 28.8 28.3 27.7 27.3 27.1 26.7 26.4 26.3 25.9 25.5 24.7 24.2 23.5 22.8 22.4 22.4 22.4 22.4 22.4 22.4 22.4 22.4 22.4 22.4 22.4 22.4 24.0 26.1 27.7 28.5 28.9 28.9 29.0 29.3 29.5 29.8 30.3 31.0 32.4 34.4 36.2 36.0 37.1
-11.4 -11.3 -11.3 -11.2 -11.1 -11.1 -11.0 -11.0 -10.9 -10.8 -10.7 -10.5 -10.4 -10.3 -10.2 -10.1 -10.0 -9.3 -7.7 -6.4 -5.1 -3.8 -2.5 -1.3 -0.3 0.8 2.1 3.2 4.4 5.5 6.4 7.3 8.0 8.5 9.1 9.5 9.9 10.5 11.4 12.4 13.5 14.3 15.3 16.8 17.9 18.5 19.8 20.7 21.4 21.8 21.6 21.3 22.1 23.2 23.8 24.1 24.3 23.6 24.8 26.7 27.0 26.0 22.0 28.6 29.4 30.0 30.0 30.0 30.0 30.0 30.0 30.0 30.0 30.0 30.0 29.5 29.4 29.4 29.9 30.0 30.0 30.0 30.0 30.0 30.0 30.0 29.8 28.9 28.5 28.4 28.0 27.4 26.6 25.8 25.3 25.0 24.5 23.9 23.5 22.9 22.5 22.4 22.4 22.4 22.4 22.4 22.4 22.4 22.4 22.4 22.4 22.4 22.4 22.4 22.4 22.4 22.4 24.2 26.6 28.3 29.0 29.1 29.1 29.3 29.6 30.0 30.8 31.6 32.3 33.9 36.2 37.0 37.4 38.5
-11.3 -11.2 -11.1 -11.1 -11.0 -11.0 -10.9 -10.8 -10.7 -10.6 -10.5 -10.4 -10.3 -10.2 -10.1 -9.9 -8.7 -7.1 -5.6 -4.1 -2.9 -1.6 -0.5 0.5 1.8 3.2 4.6 5.9 7.1 8.1 8.7 9.5 10.0 10.6 11.3 11.6 12.0 12.5 13.2 14.1 15.2 16.0 17.0 18.5 19.6 19.8 20.9 21.8 22.4 23.0 23.1 23.0 23.8 24.6 25.2 25.8 26.3 26.1 26.8 28.0 28.2 27.8 27.1 29.7 30.3 30.0 30.0 30.0 30.0 30.0 30.0 30.0 30.0 30.0 30.0 29.5 29.4 29.4 29.9 30.0 30.0 30.0 30.0 30.0 29.9 29.2 28.1 26.9 27.0 27.1 26.8 26.1 25.0 23.9 23.4 23.0 22.5 22.4 22.4 22.4 22.4 22.4 22.4 22.4 22.4 22.4 22.4 22.4 22.4 22.4 22.4 22.4 22.4 22.4 22.4 22.4 23.4 26.4 28.5 29.4 29.5 29.5 29.6 29.7 30.2 31.2 32.1 33.0 33.8 35.7 37.9 38.4 39.4 40.2
-11.1 -11.1 -11.0 -10.9 -10.9 -10.8 -10.7 -10.6 -10.5 -10.4 -10.3 -10.2 -10.1 -10.0 -9.6 -7.9 -6.3 -4.7 -3.3 -2.0 -0.7 0.3 1.3 2.7 4.2 5.8 7.3 8.5 9.6 10.4 10.9 11.3 11.8 12.7 13.5 13.7 14.1 14.5 15.2 16.0 17.0 17.9 19.0 20.0 20.9 21.3 22.4 23.2 23.8 24.3 24.6 24.7 25.4 26.0 26.8 27.6 28.3 28.4 28.9 29.4 29.5 29.7 30.2 30.9 31.2 30.0 30.0 30.0 30.0 30.0 30.0 30.0 30.0 30.0 30.0 29.5 29.4 29.4 29.9 30.0 30.0 30.0 30.0 29.6 28.8 28.1 26.6 25.2 25.5 25.8 25.5 24.6 23.4 22.4 22.4 22.4 22.4 22.4 22.4 22.4 22.4 22.4 22.4 22.4 22.4 22.4 22.4 22.4 22.4 22.4 22.4 22.4 22.4 22.4 22.4 24.9 27.7 29.1 29.6 29.8 29.8 30.0 30.2 30.7 31.8 32.7 33.8 35.2 36.9 38.3 39.8 40.7 40.8 41.4
-11.0 -10.9 -10.3 -9.7 -10.7 -10.6 -10.5 -10.4 -10.3 -10.2 -10.1 -10.1 -9.7 -8.4 -7.0 -5.3 -3.7 -2.2 -1.0 0.1 1.1 2.1 3.4 5.0 6.7 8.4 9.8 10.8 11.8 12.5 12.7 12.9 13.4 14.7 15.6 15.8 16.1 16.3 16.7 17.1 17.8 18.6 19.5 20.6 21.7 22.6 23.6 24.4 25.2 25.9 26.2 26.5 27.1 27.7 28.5 29.5 30.0 30.0 30.0 30.0 30.0 30.0 32.0 32.6 32.6 30.0 30.0 30.0 30.0 30.0 30.0 30.0 30.0 30.0 30.0 29.5 29.4 29.4 29.9 30.0 30.0 29.8 29.1 28.3 27.5 26.8 24.7 22.8 23.9 24.2 23.5 22.8 22.4 22.4 22.4 22.4 22.4 22.4 22.4 22.4 22.4 22.4 22.4 22.4 22.4 22.4 22.4 22.4 22.4 22.4 22.4 22.4 22.4 22.7 24.1 28.7 29.2 29.6 30.0 30.5 30.8 31.3 31.7 32.2 33.2 34.4 35.8 37.1 38.3 39.5 40.5 41.3 41.6 42.4
-10.4 -9.8 -8.6 -7.9 -10.6 -10.5 -10.4 -10.3 -10.2 -10.1 -9.8 -8.7 -7.3 -5.8 -4.3 -2.8 -1.3 0.1 0.9 1.9 2.9 4.1 5.7 7.3 9.0 10.3 11.3 12.4 13.6 14.4 14.5 14.4 15.0 16.9 17.8 18.0 18.1 18.2 18.3 18.3 18.7 19.3 20.3 21.4 22.6 23.7 24.9 25.9 26.6 27.3 27.7 28.2 28.7 29.1 29.8 29.9 30.0 30.0 30.0 30.0 30.0 30.0 33.5 33.9 33.7 30.0 30.0 30.0 30.0 30.0 30.0 30.0 30.0 30.0 30.0 29.5 29.4 29.6 30.0 30.0 29.3 28.4 27.8 27.0 26.3 25.6 23.0 22.4 22.6 22.9 22.4 22.4 22.4 22.4 22.4 22.4 22.4 22.4 22.4 22.4 22.4 22.4 22.4 22.4 22.4 22.4 22.4 22.4 22.4 22.4 22.4 22.8 24.5 25.9 27.1 29.6 29.9 30.5 31.1 31.8 32.2 32.6 33.1 33.7 34.7 35.9 36.8 37.9 39.0 40.1 41.0 41.7 42.2 43.3
-9.2 -8.6 -7.1 -6.4 -10.4 -10.3 -10.2 -10.1 -10.0 -9.2 -7.7 -6.2 -4.8 -3.2 -1.7 -0.2 0.8 1.8 2.7 3.6 4.7 6.1 7.5 9.0 10.4 11.5 12.7 14.1 16.0 16.8 16.6 16.2 17.0 19.0 20.0 20.2 20.2 20.2 20.2 19.9 20.1 20.8 22.4 24.0 25.1 25.9 27.0 27.5 28.1 28.8 29.5 29.9 30.0 30.0 30.0 29.9 30.0 30.0 30.0 30.0 30.0 30.0 35.2 35.7 35.0 30.0 30.0 30.0 30.0 30.0 30.0 30.0 30.0 30.0 30.0 29.5 29.6 29.9 29.8 28.7 27.6 26.6 25.9 24.6 23.1 22.4 22.4 22.4 22.4 22.4 22.4 22.4 22.4 22.4 22.4 22.4 22.4 22.4 22.4 22.4 22.4 22.4 22.4 22.4 22.4 22.4 22.4 23.1 23.5 23.8 24.6 26.2 27.5 28.6 29.4 30.2 30.9 31.6 32.3 32.9 33.4 33.9 34.5 35.2 35.9 36.6 37.5 38.4 39.4 40.4 41.3 42.2 42.8 44.0
-8.1 -7.4 -5.6 -4.8 -10.2 -10.1 -10.0 -9.6 -8.3 -6.6 -5.1 -3.6 -2.1 -0.6 0.6 1.7 2.7 3.6 4.3 5.4 6.4 7.6 9.0 10.5 11.7 12.8 14.3 16.7 18.5 19.2 18.7 18.1 19.2 20.6 21.6 21.8 21.7 21.8 22.0 21.9 22.2 23.1 24.5 26.2 27.1 27.8 28.5 28.9 29.4 29.9 29.9 29.9 29.9 29.9 29.9 29.8 29.8 29.8 29.8 29.8 29.7 29.7 37.1 37.3 36.1 29.9 29.9 29.9 29.9 29.9 29.9 29.9 30.0 30.0 29.9 29.4 28.3 27.3 28.1 26.9 26.0 25.1 24.2 23.2 22.4 22.4 22.4 22.4 22.4 22.4 22.4 22.4 22.4 22.4 22.4 22.4 22.4 22.4 22.4 22.4 22.4 22.4 22.4 22.4 22.4 22.9 25.0 26.0 26.5 27.3 28.5 29.9 30.3 30.6 30.9 31.4 32.1 32.9 33.5 34.1 34.6 35.3 35.8 36.4 37.0 37.5 38.2 38.9 39.8 40.8 41.8 42.9 43.4 45.0
-6.9 -6.3 -4.0 -3.3 -10.1 -9.8 -8.5 -7.1 -5.8 -4.2 -2.6 -1.0 0.2 1.4 2.5 3.5 4.4 5.3 5.9 6.9 7.8 8.9 10.3 12.3 13.7 15.2 17.1 18.9 20.3 20.9 20.5 19.7 20.3 21.9 23.2 23.4 23.2 23.5 23.8 24.0 24.6 25.4 26.6 27.9 28.7 29.4 29.9 29.9 29.9 29.9 29.9 29.9 29.9 29.8 29.8 29.8 29.7 29.7 29.7 29.7 29.7 29.7 38.9 39.0 37.6 29.9 29.9 29.9 29.9 29.9 29.9 29.9 29.5 28.9 28.3 25.9 24.9 24.4 26.6 25.2 24.3 23.7 23.1 22.5 22.4 22.4 22.4 22.4 22.4 22.4 22.4 22.4 22.4 22.4 22.4 22.4 22.4 22.4 22.4 22.4 22.4 22.4 22.4 22.5 23.1 25.4 27.0 28.2 29.2 30.2 30.6 31.1 31.4 31.8 32.1 32.6 33.3 34.0 34.6 35.3 35.9 36.5 37.2 37.7 38.2 38.7 39.1 39.9 40.8 42.0 43.0 44.6 44.5 46.4
-5.7 -5.1 -2.5 -4.1 -8.7 -7.4 -6.1 -4.6 -3.2 -1.7 -0.2 1.1 2.3 3.4 4.4 5.4 6.3 7.0 7.5 8.4 9.3 10.5 12.1 14.2 15.4 17.0 18.8 20.4 21.3 22.3 22.3 21.5 22.0 23.3 24.6 24.9 25.3 25.5 26.0 26.3 26.9 27.7 28.7 29.5 30.0 30.1 30.2 30.2 30.2 30.3 30.4 30.5 30.6 30.7 31.1 31.2 31.9 32.5 33.4 34.9 37.1 39.0 40.0 40.0 39.2 35.6 32.4 31.8 30.7 29.6 28.5 28.0 27.2 26.7 26.5 23.9 23.1 22.9 25.5 23.8 23.2 22.6 22.4 22.4 22.4 22.4 22.4 22.4 22.4 22.4 22.4 22.4 22.4 22.4 22.4 22.4 22.4 22.4 22.4 22.4 22.5 22.9 23.2 23.9 25.2 27.2 29.0 29.8 30.7 31.2 31.7 32.2 32.5 32.9 33.2 33.7 34.4 34.9 35.6 36.3 37.0 37.7 38.5 39.0 39.4 39.9 40.9 42.0 43.0 44.1 45.2 46.7 47.1 48.2
-4.6 -4.0 -8.8 -7.5 -6.4 -5.0 -3.7 -2.3 -0.9 0.4 1.8 3.2 4.4 5.6 6.6 7.4 8.2 8.9 9.3 10.3 11.3 12.5 14.0 16.1 16.9 18.4 20.0 21.3 22.2 23.4 23.8 23.4 23.9 24.5 26.1 26.5 26.9 27.3 27.8 28.3 29.1 29.9 30.0 30.1 30.1 30.2 30.3 30.3 30.3 30.4 30.5 30.6 30.5 30.6 30.7 30.7 31.0 31.3 31.7 32.6 34.5 37.1 39.1 40.0 40.0 35.9 31.5 31.2 29.8 27.9 26.7 26.0 25.3 24.9 24.8 23.1 22.4 22.4 24.4 22.4 22.4 22.4 22.4 22.4 22.4 22.4 22.4 22.4 22.4 22.4 22.4 22.4 22.4 22.4 22.4 22.4 22.4 22.4 22.4 22.4 23.4 24.2 25.1 26.5 27.7 29.5 30.4 31.0 31.8 32.3 32.8 33.3 33.7 34.0 34.6 35.1 35.7 36.4 37.1 37.8 38.4 39.2 40.0 40.8 41.7 42.6 43.4 44.3 45.1 45.5 46.6 48.0 48.7 49.5
-3.4 -2.8 0.5 1.2 -3.9 -2.6 -1.4 0.0 1.3 2.7 4.1 5.8 7.0 7.9 8.7 9.4 10.3 11.2 11.6 12.7 13.4 14.5 15.9 17.6 18.2 19.4 20.8 22.2 23.4 25.3 25.5 25.2 25.7 25.9 27.5 28.1 28.6 29.0 29.6 30.0 30.0 30.0 30.0 30.0 30.0 30.0 30.0 30.0 30.0 30.0 30.0 30.0 30.0 30.0 30.0 29.9 30.0 30.0 30.0 30.0 30.0 30.0 34.6 36.8 36.2 30.0 29.9 29.4 26.6 24.5 23.5 23.1 22.6 22.6 23.0 23.0 22.4 22.4 22.8 22.4 22.4 22.4 22.4 22.4 22.4 22.4 22.4 22.4 22.4 22.4 22.4 22.4 22.4 22.4 22.4 22.4 22.4 22.4 22.4 22.9 24.2 25.3 26.3 27.8 29.3 30.3 31.0 31.8 32.7 33.3 33.8 34.3 34.8 35.2 35.7 36.3 36.9 37.5 38.1 38.9 39.6 40.4 41.2 42.0 42.8 43.6 44.4 45.3 46.0 46.4 47.3 48.4 49.1 50.1
-2.2 -1.7 2.0 2.7 -1.5 -0.3 1.0 2.5 3.9 5.2 6.6 8.2 9.4 10.2 11.0 11.9 12.7 13.5 14.2 15.1 15.5 16.3 17.4 18.6 19.4 20.7 21.8 24.2 25.2 27.5 27.6 27.2 27.5 27.5 29.2 29.7 29.9 29.9 29.9 29.9 29.9 29.9 29.9 29.9 29.9 29.9 29.9 29.9 29.9 29.9 29.9 29.9 29.9 29.9 29.9 29.8 29.9 29.9 29.9 29.9 29.9 29.9 31.5 31.1 29.1 28.0 24.1 22.5 22.4 22.4 22.4 22.4 22.4 22.4 22.4 22.5 22.4 22.4 22.4 22.4 22.4 22.4 22.4 22.4 22.4 22.4 22.4 22.4 22.4 22.4 22.4 22.4 22.4 22.4 22.4 22.4 22.4 22.4 22.8 24.2 25.3 26.2 27.3 28.8 30.1 30.8 31.4 32.4 33.5 34.1 34.7 35.4 35.8 36.2 36.7 37.3 38.0 38.6 39.2 39.9 40.7 41.4 42.1 42.9 43.6 44.4 45.2 45.9 46.6 47.0 47.9 48.9 49.5 50.7
-1.1 -0.5 2.8 1.3 0.9 2.4 3.7 5.2 6.6 7.8 9.1 10.5 11.6 12.5 13.4 14.3 15.1 16.0 16.8 17.4 17.5 18.1 19.0 20.0 21.4 23.2 25.4 27.8 27.8 29.6 29.6 29.4 29.5 29.8 30.0 30.0 30.0 30.0 30.0 30.0 30.0 30.0 30.0 30.0 30.0 30.0 30.0 30.0 30.0 30.0 30.0 30.0 30.0 30.0 30.0 29.7 28.9 28.2 26.9 26.4 27.6 29.1 29.1 27.7 24.1 22.4 22.4 22.4 22.4 22.4 22.4 22.4 22.4 22.4 22.4 22.4 22.4 22.4 22.4 22.4 22.4 22.4 22.4 22.4 22.4 22.4 22.4 22.4 22.4 22.4 22.4 22.4 22.4 22.4 22.4 22.4 22.4 22.9 24.6 25.7 26.4 27.4 28.4 29.8 30.6 31.3 32.0 33.1 34.4 35.3 35.9 36.4 36.9 37.3 37.9 38.5 39.0 39.7 40.4 41.1 41.8 42.5 43.2 42.9 43.1 43.3 44.0 45.0 46.2 47.8 48.6 49.4 49.7 51.2
0.1 1.2 3.3 4.8 3.7 5.2 6.4 7.8 9.2 10.1 11.3 12.6 13.6 14.8 15.9 17.0 17.6 18.5 19.4 19.8 19.6 20.1 21.4 23.9 24.7 26.5 28.3 29.8 29.9 30.0 30.0 30.0 30.0 29.7 30.0 30.0 30.0 30.0 30.0 30.0 30.0 30.0 30.0 30.0 30.0 30.0 30.0 30.0 30.0 30.0 29.9 29.8 28.9 28.3 27.2 26.3 26.0 24.6 22.7 22.4 22.5 26.5 25.9 23.7 22.4 22.4 22.4 22.4 22.4 22.4 22.4 22.4 22.4 22.4 22.4 22.4 22.4 22.4 22.4 22.4 22.4 22.4 22.4 22.4 22.4 22.4 22.4 22.4 22.4 22.4 22.4 22.4 22.4 22.4 22.4 22.4 23.0 24.1 25.9 26.7 27.4 28.3 29.2 30.4 31.1 31.9 32.7 34.0 35.7 36.6 37.0 37.5 38.1 38.5 39.0 39.7 40.3 40.8 41.7 42.3 42.9 43.6 44.2 43.5 44.0 44.5 45.4 46.4 47.5 48.7 49.4 50.0 50.5 51.3
2.7 4.0 6.7 7.4 6.5 7.9 9.0 10.3 11.4 12.5 13.7 15.1 16.2 17.4 18.5 19.5 20.2 21.0 22.1 23.0 23.1 23.8 25.0 27.0 27.6 29.0 30.0 30.0 29.9 30.0 30.0 30.0 30.0 29.7 30.0 30.0 30.0 29.9 29.7 28.9 28.5 28.4 28.8 28.8 28.6 28.5 28.3 27.2 26.2 26.3 26.5 26.2 25.5 24.6 23.5 23.1 22.4 22.4 22.4 22.4 22.4 22.4 22.4 22.4 22.4 22.4 22.4 22.4 22.4 22.4 22.4 22.4 22.4 22.4 22.4 22.6 22.4 22.4 22.4 22.4 22.4 22.4 22.4 22.4 22.4 22.4 22.4 22.4 22.4 22.4 22.4 22.4 22.4 22.4 22.4 23.6 24.3 25.5 27.0 27.8 28.4 29.3 30.3 31.5 31.9 32.8 33.6 35.2 37.1 37.7 38.2 38.7 39.3 39.7 40.3 40.9 41.3 41.9 42.8 43.4 44.0 44.7 45.3 44.6 45.3 46.0 46.9 48.0 48.8 49.6 50.3 50.7 51.3 52.1
5.4 6.6 8.3 8.9 9.2 10.4 11.4 12.6 13.8 14.8 16.2 17.4 18.5 20.0 21.0 21.9 22.5 23.3 24.7 26.0 26.7 27.5 28.3 29.4 30.0 30.0 30.0 30.0 29.9 30.0 30.0 30.0 30.0 29.8 28.7 27.4 26.3 25.1 24.6 24.5 24.8 25.1 25.6 24.7 23.9 23.0 22.4 22.4 22.4 22.4 22.4 22.6 22.5 22.4 22.4 22.4 22.4 22.4 22.4 22.4 22.4 22.4 22.4 22.4 22.4 22.4 22.4 22.4 22.4 22.4 22.4 22.4 22.4 22.4 22.4 22.5 22.4 22.4 22.4 22.4 22.4 22.4 22.4 22.4 22.4 22.4 22.4 22.4 22.4 22.4 22.4 22.4 22.4 22.5 23.7 25.8 26.1 27.0 28.2 28.9 29.6 30.8 32.1 33.4 33.4 34.3 35.3 36.7 38.4 38.9 39.5 40.0 40.5 40.9 41.4 42.0 42.4 42.9 44.0 44.6 45.2 45.8 46.3 45.9 46.6 47.4 48.3 49.0 49.7 50.4 50.9 51.4 51.9 52.9
8.1 9.3 9.9 10.7 11.6 12.6 13.7 14.9 16.0 17.1 18.5 19.6 20.9 22.3 23.4 24.1 24.9 26.0 27.5 29.2 30.0 30.0 30.0 30.0 30.0 30.0 30.0 30.0 29.9 30.0 30.0 30.0 28.9 27.6 25.4 22.8 22.7 25.1 24.4 22.4 22.4 22.5 22.8 22.4 22.4 22.4 22.4 22.4 22.4 22.4 22.4 22.4 22.4 22.4 22.4 22.4 22.4 22.4 22.4 22.4 22.4 22.4 22.4 22.4 22.4 22.4 22.4 22.4 22.4 22.4 22.4 22.4 22.4 22.4 22.4 22.5 22.4 22.4 22.4 22.4 22.4 22.4 22.4 22.4 22.4 22.4 22.4 22.4 22.4 22.4 22.4 22.4 22.4 23.7 25.6 27.4 27.7 28.5 29.4 30.2 31.6 33.0 34.1 35.7 35.3 36.4 37.5 38.6 39.7 40.2 40.6 41.1 41.7 42.1 42.6 43.1 43.5 43.9 45.1 45.6 46.1 46.6 47.2 47.0 47.7 48.5 49.2 49.7 50.7 51.6 52.5 53.1 55.6 56.9
10.9 11.9 12.4 13.2 13.8 14.9 16.0 17.1 18.2 19.4 21.1 22.4 23.8 24.9 25.7 26.3 27.2 28.3 29.9 30.0 30.0 30.0 30.0 30.0 30.0 30.0 30.0 30.0 29.9 29.9 29.3 27.4 25.7 23.7 22.4 22.4 22.4 22.4 22.4 22.4 22.4 22.4 22.4 22.4 22.4 22.4 22.4 22.4 22.4 22.4 22.4 22.4 22.4 22.4 22.4 22.4 22.4 22.4 22.4 22.4 22.4 22.4 22.4 22.4 22.4 22.4 22.4 22.4 22.4 22.4 22.4 22.4 22.4 22.4 22.7 22.5 22.4 22.4 22.4 22.4 22.5 22.5 22.5 22.6 22.4 22.4 22.4 22.4 22.4 22.4 22.4 22.4 23.4 25.4 27.4 28.8 29.4 30.3 31.5 32.8 34.1 35.5 36.6 37.6 37.4 38.4 39.4 40.2 40.7 41.2 41.7 42.2 42.7 43.2 43.7 44.2 44.6 45.0 45.7 46.2 46.8 47.3 47.8 47.9 48.6 49.2 49.7 50.7 52.0 52.7 53.5 54.9 57.1 58.6
14.2 14.7 15.0 15.6 16.1 17.1 18.3 19.4 20.6 22.5 24.2 25.7 26.9 27.6 28.1 28.5 29.3 30.0 30.0 30.0 30.0 30.0 30.0 30.0 30.0 29.9 29.2 28.7 28.1 27.2 26.4 24.1 22.7 22.4 22.4 22.4 22.4 22.4 22.4 22.4 22.4 22.4 22.4 22.4 22.4 22.4 22.4 22.4 22.4 22.4 22.4 22.4 22.4 22.4 22.4 22.4 22.4 22.4 22.4 22.4 22.4 22.4 22.4 22.4 22.4 22.4 22.5 22.6 22.6 22.5 22.4 22.4 22.4 22.5 23.6 22.6 22.4 22.4 22.4 22.4 23.2 23.3 23.5 23.7 22.4 22.4 22.4 22.4 22.4 22.4 22.5 24.0 25.5 27.4 29.4 30.3 31.0 33.0 34.2 35.5 36.8 38.0 38.7 39.4 39.7 40.3 40.8 41.2 41.7 42.2 42.7 43.2 43.8 44.3 44.8 45.2 45.6 46.0 46.5 47.0 47.4 47.9 48.3 48.6 49.1 49.6 50.6 51.9 52.9 53.6 54.9 56.6 58.3 59.6
17.5 17.4 17.6 18.0 18.4 19.3 20.9 22.8 24.5 26.4 28.1 29.2 30.0 30.0 30.0 30.0 30.0 30.0 30.0 30.0 30.0 30.0 30.0 30.0 29.7 28.3 27.3 26.5 25.1 24.3 23.9 22.4 22.4 22.4 22.4 22.4 22.4 22.4 22.4 22.4 22.4 22.4 22.4 22.4 22.4 22.4 22.4 22.4 22.4 22.4 22.4 22.4 22.4 22.4 22.4 22.4 22.4 22.4 22.4 22.4 22.4 22.4 22.4 22.4 22.4 22.4 22.8 22.8 22.9 22.8 22.4 22.4 22.4 22.4 23.2 22.6 22.4 22.4 22.4 22.4 23.7 23.8 23.9 24.2 22.4 22.4 22.4 22.4 22.4 22.5 24.2 25.9 27.5 29.2 30.8 31.7 32.6 35.6 37.0 38.3 39.4 40.1 40.2 40.9 41.3 41.7 42.1 42.3 42.8 43.3 43.7 44.3 44.9 45.5 45.9 46.3 46.6 47.0 46.9 47.3 47.7 48.1 48.5 48.8 49.2 49.6 50.6 51.9 53.1 54.1 55.4 56.9 58.5 60.0
20.6 20.2 20.2 20.7 21.4 23.1 25.4 27.1 28.7 29.9 31.6 30.3 30.0 30.0 30.0 30.0 30.0 30.0 30.0 30.0 30.0 30.0 30.0 29.5 27.9 26.5 25.4 24.4 22.4 22.4 22.4 22.4 22.4 22.4 22.4 22.4 22.4 22.4 22.4 22.4 22.4 22.4 22.4 22.4 22.4 22.4 22.4 22.4 22.4 22.4 22.4 22.4 22.4 22.4 22.4 22.4 22.4 22.4 22.4 22.4 22.4 22.4 22.4 22.4 22.4 22.4 23.1 23.0 23.0 22.9 22.4 22.4 22.4 22.4 22.8 22.5 22.4 22.4 22.4 22.4 24.1 24.2 24.3 24.6 22.4 22.4 22.4 22.4 22.7 24.1 25.9 27.2 28.7 30.4 32.1 33.4 35.1 38.4 39.8 40.3 40.7 40.6 40.7 41.8 42.2 42.6 42.9 43.2 43.7 44.3 44.8 45.4 46.0 46.6 47.0 47.4 47.7 48.0 47.3 47.7 48.1 48.4 48.8 49.1 49.4 49.8 50.7 51.5 52.4 53.6 54.4 55.0 55.7 56.8
23.0 23.0 23.3 24.6 25.8 27.7 29.7 30.0 30.0 30.0 35.8 30.8 30.0 30.0 30.0 30.0 30.0 29.2 28.4 28.7 29.3 29.4 28.8 27.0 25.0 23.3 22.4 22.4 22.4 22.4 22.4 22.4 22.4 22.4 22.4 22.4 22.4 22.4 22.4 22.4 22.4 22.4 22.4 22.4 22.4 22.4 22.4 22.4 22.4 22.4 22.4 22.4 22.4 22.4 22.4 22.4 22.4 22.4 22.4 22.4 22.4 22.4 22.4 22.4 22.4 22.4 23.1 23.1 23.0 22.9 22.4 22.4 22.4 22.4 22.5 22.4 22.4 22.4 22.4 22.4 24.5 24.6 24.8 24.9 22.4 22.4 22.4 22.9 24.1 25.6 26.9 28.1 29.2 31.0 33.4 35.6 38.3 40.1 40.5 40.9 41.2 41.1 41.3 42.3 42.6 43.0 43.4 43.8 44.7 45.3 45.8 46.5 47.2 47.8 48.2 48.5 48.8 49.1 47.7 48.1 48.4 48.8 49.2 49.4 49.8 50.5 51.3 52.0 52.7 54.0 54.7 55.3 55.6 56.6
25.5 25.7 26.4 28.5 30.0 30.3 30.6 31.3 34.5 38.8 40.9 37.0 33.7 32.0 31.6 30.3 29.1 23.9 22.9 24.3 25.5 26.3 26.0 24.6 23.3 22.4 22.4 22.4 22.4 22.4 22.4 22.4 22.4 22.4 22.4 22.4 22.4 22.4 22.4 22.4 22.4 22.4 22.4 22.4 22.4 22.4 22.4 22.4 22.4 22.4 22.4 22.4 22.4 22.4 22.4 22.4 22.4 22.4 22.4 22.4 22.4 22.4 22.4 22.4 22.4 22.4 23.2 23.0 22.9 22.7 22.4 22.4 22.4 22.4 22.4 22.4 22.4 22.4 22.4 22.4 24.9 25.0 23.0 22.4 22.4 22.5 23.3 24.3 25.7 27.1 28.2 29.2 30.5 32.6 34.7 36.8 39.0 40.3 40.8 41.3 41.8 41.8 42.0 43.3 43.8 44.3 44.8 45.2 45.8 46.4 46.9 47.6 48.3 48.9 49.3 49.6 49.9 50.0 50.8 51.3 51.8 52.2 52.7 52.3 52.6 52.8 53.0 53.1 53.8 55.7 56.1 56.4 56.7 57.5
27.9 28.5 29.4 30.4 30.6 30.8 31.2 33.0 34.3 36.8 48.2 40.5 34.0 31.5 31.0 28.4 23.6 22.4 22.4 22.4 22.4 22.5 22.9 22.4 22.4 22.4 22.4 22.4 22.4 22.4 22.4 22.4 22.4 22.4 22.4 22.4 22.4 22.4 22.4 22.4 22.4 22.4 22.4 22.4 22.4 22.4 22.4 22.4 22.4 22.4 22.4 22.4 22.4 22.4 22.4 22.4 22.4 22.4 22.4 22.4 22.4 22.4 22.4 22.4 22.4 22.4 22.6 22.5 22.4 22.4 22.4 22.4 22.4 22.4 22.4 22.4 22.4 22.4 22.4 22.4 22.4 22.4 22.4 22.6 22.8 23.7 24.7 25.9 27.2 28.6 29.7 31.2 32.8 34.3 35.9 37.4 39.1 40.3 40.9 41.5 42.1 42.4 42.6 44.0 44.6 45.2 45.8 46.3 46.9 47.6 48.1 48.8 49.5 50.0 50.2 50.4 50.4 50.6 52.1 52.5 52.9 53.3 53.7 52.7 52.8 52.9 53.3 53.8 54.4 56.5 56.8 57.1 57.2 58.1
30.0 30.0 30.0 30.0 30.0 30.0 30.0 30.0 30.0 29.4 23.3 29.0 29.9 30.0 29.5 26.0 22.7 22.4 22.4 22.4 22.4 22.4 22.4 22.4 22.4 22.4 22.4 22.4 22.4 22.4 22.4 22.4 22.4 22.4 22.4 22.4 22.4 22.4 22.4 22.4 22.4 22.4 22.4 22.4 22.4 22.4 22.4 22.4 22.4 22.4 22.4 22.4 22.4 22.4 22.4 22.4 22.4 22.4 22.4 22.4 22.4 22.4 22.4 22.4 22.4 22.4 22.9 22.7 22.4 22.4 22.4 22.4 22.4 22.4 22.4 22.4 22.4 22.4 22.4 22.4 22.4 22.4 22.7 23.9 23.9 25.1 26.3 27.5 28.8 30.3 31.6 32.9 34.3 35.5 36.9 38.0 39.4 40.4 41.1 41.8 42.5 42.8 43.2 44.5 45.2 45.8 46.5 47.1 47.9 48.6 49.2 49.9 50.3 50.7 50.7 51.0 51.1 51.2 52.7 53.0 53.4 53.8 54.2 52.8 53.0 53.4 53.8 54.3 55.0 57.2 57.4 57.7 57.9 58.7
30.0 30.0 30.0 30.0 30.0 30.0 30.0 30.0 28.5 22.6 22.4 22.4 22.4 24.6 25.2 22.5 22.4 22.4 22.4 22.4 22.4 22.4 22.4 22.4 22.4 22.4 22.4 22.4 22.4 22.4 22.4 22.4 22.4 22.4 22.4 22.4 22.4 22.4 22.4 22.4 22.4 22.4 22.4 22.4 22.4 22.4 22.4 22.4 22.4 22.4 22.4 22.4 22.4 22.4 22.4 22.4 22.4 22.4 22.4 22.4 22.4 22.4 22.4 22.4 22.4 22.4 23.7 23.6 23.3 23.0 22.4 22.4 22.4 22.4 22.4 22.4 22.4 22.4 22.4 22.4 22.4 23.2 24.3 25.5 25.3 26.4 27.4 28.6 30.0 31.2 32.5 33.7 35.0 36.5 37.8 38.8 39.9 40.7 41.4 42.1 42.9 43.4 43.8 45.1 45.8 46.5 47.3 48.0 48.9 49.5 50.1 50.4 50.8 51.2 51.3 51.5 51.6 51.7 53.1 53.5 53.9 54.3 54.7 53.1 53.6 53.9 54.4 54.9 55.7 57.9 58.2 58.4 58.6 59.3
30.0 30.0 30.0 30.0 30.0 30.0 30.0 30.0 26.9 22.6 22.4 22.4 22.4 22.4 22.4 22.4 22.4 22.4 22.4 22.4 22.4 22.4 22.4 22.4 22.4 22.4 22.4 22.4 22.4 22.4 22.4 22.4 22.4 22.4 22.4 22.4 22.4 22.4 22.4 22.4 22.4 22.4 22.4 22.4 22.4 22.4 22.4 22.4 22.4 22.4 22.4 22.4 22.4 22.4 22.4 22.4 22.4 22.4 22.4 22.4 22.4 22.4 22.4 22.4 22.4 22.4 23.7 23.5 23.1 22.7 22.4 22.4 22.4 22.4 22.4 22.4 22.4 22.4 22.4 22.4 24.3 25.2 25.9 26.6 26.5 27.5 28.4 29.6 30.9 32.3 33.6 35.0 36.3 37.8 39.1 40.0 40.9 41.7 42.5 43.2 44.0 44.1 44.7 46.2 46.9 47.7 48.5 49.1 49.9 50.1 50.8 51.2 51.6 51.8 51.8 52.0 52.2 52.3 54.0 54.4 54.8 55.2 55.6 54.3 54.7 55.2 55.7 56.3 57.1 58.7 58.9 59.2 59.5 60.0
30.0 30.0 30.0 30.0 30.0 30.0 30.0 29.6 26.7 24.2 22.4 22.4 22.4 22.4 22.4 22.4 22.4 22.4 22.4 22.4 22.4 22.4 22.4 22.4 22.4 22.4 22.4 22.4 22.4 22.4 22.4 22.4 22.4 22.4 22.4 22.4 22.4 22.4 22.4 22.4 22.4 22.4 22.4 22.4 22.4 22.4 22.4 22.4 22.4 22.4 22.4 22.4 22.4 22.4 22.4 22.4 22.4 22.4 22.4 22.4 22.4 22.4 22.4 22.4 22.4 22.4 22.4 22.4 22.4 22.4 22.4 22.4 22.4 22.4 22.4 22.4 22.4 22.4 22.4 22.9 25.5 26.1 26.5 27.2 27.3 28.3 29.3 30.5 31.9 33.4 34.9 36.4 37.9 39.3 40.1 40.4 41.8 42.6 43.3 44.0 44.7 44.8 45.6 46.9 47.6 48.3 49.1 49.8 50.1 50.5 51.1 51.5 52.0 52.3 52.4 52.6 52.7 52.9 54.5 54.9 55.3 55.7 56.1 55.0 55.6 56.1 56.7 57.3 58.1 59.5 59.6 59.9 60.0 60.0
29.7 29.5 28.5 29.3 30.0 30.0 30.0 28.1 25.5 23.8 22.4 22.4 22.4 22.4 22.4 22.4 22.4 22.4 22.4 22.4 22.4 22.4 22.4 22.4 22.4 22.4 22.4 22.4 22.4 22.4 22.4 22.4 22.4 22.4 22.4 22.4 22.4 22.4 22.4 22.4 22.4 22.4 22.4 22.4 22.4 22.4 22.4 22.4 22.4 22.4 22.4 22.4 22.4 22.4 22.4 22.4 22.4 22.4 22.4 22.4 22.4 22.4 22.4 22.4 22.4 22.4 22.4 22.4 22.4 22.4 22.4 22.4 22.4 22.4 22.4 22.4 22.4 22.8 23.3 23.9 26.3 26.6 27.2 27.9 28.3 29.3 30.6 31.9 33.4 34.8 36.3 37.8 39.2 40.1 40.4 40.7 42.3 43.0 43.7 44.4 45.0 45.3 46.0 47.1 47.7 48.4 49.1 49.8 50.2 50.6 51.3 51.7 52.2 52.6 52.9 53.1 53.4 53.5 55.0 55.5 56.0 56.4 56.9 56.3 57.0 57.6 58.4 59.1 59.7 60.0 60.0 60.0 60.0 60.0
