ncols         134
nrows         134
xllcorner     130000.188
yllcorner     1170025.188
cellsize          74.62406015037593900
NODATA_value  -9999
-27.8 -26.9 -26.0 -25.1 -24.2 -23.3 -22.4 -21.5 -20.6 -19.7 -19.1 -18.5 -17.8 -17.2 -16.5 -15.9 -15.2 -14.7 -14.0 -13.4 -12.7 -12.1 -11.4 -10.8 -10.2 -9.1 -8.0 -6.8 -5.9 -4.8 -3.7 -2.6 -1.5 -0.4 13.1 39.4 37.2 39.9 40.0 40.0 40.0 40.0 40.0 40.0 40.0 40.0 40.1 39.9 40.0 40.0 40.0 40.0 40.0 40.0 40.0 40.0 39.5 30.8 28.0 25.2 21.1 20.7 20.0 20.0 20.0 20.0 20.0 20.0 20.0 20.0 20.0 20.0 20.0 20.0 20.0 20.0 20.1 20.0 20.0 20.0 20.1 24.5 25.9 26.8 29.1 29.8 29.5 30.2 32.1 40.0 39.0 40.0 40.0 40.3 41.9 43.3 44.2 41.6 41.7 45.9 49.9 48.7 49.1 48.1 49.0 46.4 39.8 34.2 30.0 30.0 27.5 24.9 23.4 22.4 24.0 25.8 27.4 28.3 29.5 28.9 29.8 30.2 28.9 28.7 29.1 29.5 29.8 30.0 30.0 30.0 30.0 30.0 30.0 30.0
-27.5 -26.7 -25.8 -25.0 -24.1 -23.2 -22.4 -21.5 -20.7 -19.8 -19.2 -18.5 -17.9 -17.2 -16.5 -15.9 -15.2 -14.6 -14.0 -13.3 -12.6 -12.0 -11.3 -10.6 -9.9 -8.8 -7.7 -6.4 -5.6 -4.4 -3.3 -2.2 -1.1 0.4 30.9 38.9 38.5 39.9 40.0 40.0 40.0 40.0 40.0 40.0 40.0 39.2 39.3 39.4 40.0 40.0 40.0 40.0 40.0 40.0 40.0 37.7 31.6 28.1 24.5 22.2 20.0 20.1 20.6 20.9 21.3 21.7 22.5 22.9 23.2 23.6 22.1 21.9 24.8 20.2 20.6 20.0 20.0 20.0 20.0 20.1 20.0 27.6 28.8 29.3 29.8 30.2 30.1 29.8 29.9 29.8 29.9 32.7 38.0 38.8 39.7 47.1 50.0 49.2 47.8 50.0 50.0 49.9 50.0 50.0 50.0 50.1 42.6 34.6 30.0 30.0 28.3 26.3 24.9 25.0 27.8 29.3 29.5 30.0 30.7 29.6 29.9 30.9 31.1 30.3 30.0 30.0 30.0 30.0 30.0 30.0 30.0 30.0 30.0 30.0
-27.3 -26.4 -25.6 -24.8 -24.0 -23.1 -22.3 -21.5 -20.6 -19.8 -19.2 -18.4 -17.8 -17.1 -16.4 -15.8 -15.1 -14.5 -13.8 -13.1 -12.4 -11.7 -11.0 -10.4 -9.4 -8.3 -7.2 -5.9 -5.1 -4.0 -2.9 -1.8 -0.7 4.7 40.7 40.0 40.0 39.8 40.0 40.0 40.0 40.0 40.0 40.0 40.0 39.2 39.2 39.5 40.0 40.0 40.0 40.0 40.0 40.0 39.8 36.0 32.2 28.3 24.2 21.5 20.0 20.0 20.0 20.0 20.0 20.0 20.0 20.0 20.0 20.0 20.0 20.0 20.0 20.0 20.0 20.0 20.0 20.0 20.0 20.0 20.0 21.9 24.6 27.3 29.8 30.4 33.6 31.8 30.2 29.8 31.0 34.5 38.6 39.3 39.9 41.8 48.1 41.7 40.7 45.0 49.2 49.3 50.0 50.0 49.3 43.9 38.8 31.3 30.0 30.0 28.4 26.9 25.8 26.5 28.5 29.5 29.5 30.0 31.3 32.2 32.8 33.2 32.6 31.1 30.1 30.0 30.0 30.0 30.0 30.0 30.0 30.0 30.0 30.0
-27.0 -26.2 -25.4 -24.6 -23.8 -22.9 -22.1 -21.3 -20.5 -19.7 -19.0 -18.2 -17.7 -17.0 -16.3 -15.6 -14.9 -14.2 -13.5 -12.8 -12.1 -11.4 -10.7 -10.1 -9.0 -7.8 -6.7 -5.4 -4.6 -3.5 -2.4 -1.3 -0.2 16.2 40.0 40.0 40.0 40.0 40.0 40.0 40.0 40.0 40.0 40.0 40.0 39.2 39.2 39.3 39.9 39.9 40.0 40.0 40.0 40.0 39.6 33.8 29.5 26.0 22.1 20.0 20.0 20.0 20.0 20.0 20.0 20.0 20.0 20.0 20.0 20.0 20.0 20.0 20.0 20.0 20.0 20.0 20.0 20.0 20.0 20.0 20.2 22.9 25.7 28.4 30.4 31.9 39.1 36.0 31.8 32.6 35.9 39.1 39.9 40.0 40.0 41.4 42.8 40.2 40.0 40.0 41.3 40.5 48.8 49.1 41.8 38.5 32.8 30.0 30.0 30.0 28.5 27.2 26.6 26.6 26.7 26.7 30.0 35.1 36.5 36.2 37.3 36.5 36.1 33.5 33.0 31.5 33.0 30.6 30.0 30.0 30.0 30.0 30.0 30.0
-26.9 -26.2 -25.4 -24.6 -23.9 -23.1 -22.4 -21.6 -20.9 -20.2 -19.4 -18.1 -17.9 -17.2 -16.4 -15.7 -15.0 -14.2 -13.5 -12.7 -12.0 -11.2 -10.5 -9.6 -8.5 -7.3 -6.2 -4.8 -4.1 -3.0 -1.8 -0.8 1.2 28.5 40.0 40.0 40.0 40.0 40.0 40.0 40.0 40.0 40.0 40.0 40.0 39.2 39.2 39.3 39.9 39.8 40.0 40.0 40.0 40.0 37.1 30.6 27.2 23.6 20.2 20.0 20.0 20.0 20.0 20.0 20.0 20.0 20.0 20.0 20.0 20.0 20.0 20.0 20.0 20.0 20.0 20.0 20.0 20.0 20.0 20.8 21.6 25.3 27.2 29.3 32.9 38.2 40.1 39.8 38.6 36.7 37.9 40.0 40.0 40.0 40.0 40.2 40.0 40.0 40.0 40.0 40.0 40.1 41.3 40.2 40.2 36.3 30.0 30.0 30.0 30.0 28.5 28.0 28.5 29.1 29.7 29.9 31.4 38.1 39.2 39.9 40.0 39.2 39.1 37.4 37.5 37.8 39.4 38.4 31.7 30.0 30.0 30.0 30.0 30.0
-26.4 -25.7 -24.9 -24.1 -23.3 -22.5 -21.8 -21.0 -20.2 -19.5 -18.8 -17.9 -17.3 -16.6 -15.9 -15.2 -14.5 -13.8 -13.1 -12.3 -11.6 -10.9 -10.2 -9.1 -8.1 -6.9 -5.8 -4.4 -3.6 -2.5 -1.4 -0.3 4.9 37.2 40.0 40.0 40.0 40.0 40.0 40.0 40.0 40.0 40.0 40.0 40.0 39.8 39.3 39.2 39.9 39.7 40.0 40.0 39.5 37.2 31.6 28.1 25.2 21.9 20.0 20.0 20.0 20.0 20.0 20.0 20.0 20.0 20.0 20.0 20.0 20.0 20.0 20.0 20.0 20.0 20.0 20.0 20.0 20.0 20.0 21.1 22.6 25.3 27.2 29.2 31.8 35.3 39.6 40.0 39.8 39.9 40.0 40.0 40.0 40.0 40.0 40.0 40.0 40.0 40.0 40.0 40.3 40.0 39.5 39.2 39.2 35.3 30.8 30.0 30.0 30.0 29.2 28.4 28.8 29.3 29.7 29.9 32.5 39.1 40.0 40.0 40.0 40.0 40.0 39.0 38.0 38.0 39.9 33.4 31.1 30.0 30.0 30.0 30.0 30.0
-26.2 -25.4 -24.7 -23.9 -23.1 -22.3 -21.6 -20.8 -20.0 -19.3 -18.6 -17.7 -17.1 -16.4 -15.7 -14.9 -14.2 -13.5 -12.8 -12.1 -11.3 -10.6 -9.7 -8.7 -7.6 -6.3 -5.2 -3.8 -3.1 -2.0 -0.8 0.2 14.7 40.5 40.0 40.0 40.0 40.0 40.0 40.0 40.0 40.0 40.0 40.0 40.0 39.9 39.4 39.1 39.9 39.8 40.0 40.0 40.0 36.3 31.0 27.0 23.8 20.6 20.0 20.0 20.0 20.0 20.0 20.0 20.0 20.0 20.0 20.0 20.0 20.0 20.0 20.0 20.0 20.0 20.0 20.0 20.0 20.1 20.6 23.0 23.9 26.5 28.0 29.6 30.8 33.2 39.0 39.9 38.3 39.3 40.0 40.0 40.7 40.4 40.1 40.5 41.6 41.5 41.1 41.6 41.9 40.1 40.0 40.0 40.0 37.9 33.6 30.2 30.0 30.0 29.5 28.9 29.0 29.4 29.8 29.9 31.9 36.7 40.0 40.0 40.0 40.0 40.0 39.9 40.0 40.0 39.0 36.8 35.1 31.6 30.6 30.3 30.0 30.0
-26.0 -25.2 -24.4 -23.7 -22.9 -22.2 -21.4 -20.7 -19.9 -19.2 -18.4 -17.6 -17.0 -16.2 -15.5 -14.7 -14.0 -13.3 -12.5 -11.8 -11.0 -10.3 -9.3 -8.2 -7.1 -5.9 -4.8 -3.4 -2.7 -1.6 -0.5 1.0 26.9 40.0 40.0 40.0 40.0 40.0 40.0 40.0 40.0 40.0 40.0 39.9 39.0 38.6 37.4 38.4 39.8 39.8 40.0 40.0 40.0 35.6 29.3 25.5 22.3 20.0 20.0 20.0 20.0 20.0 20.0 20.0 20.0 20.0 20.0 20.0 20.0 20.0 20.0 20.0 20.0 20.0 20.0 20.0 20.4 21.2 21.8 23.7 24.6 26.9 27.9 29.0 30.1 32.2 36.3 39.0 38.3 38.9 39.6 39.6 40.1 40.8 41.1 43.0 43.9 44.1 43.9 43.8 45.0 41.2 40.0 40.0 40.0 39.5 36.2 30.9 30.0 30.0 29.5 29.3 29.2 29.5 29.8 29.9 32.1 36.7 40.0 40.0 40.0 40.0 40.0 40.0 40.0 39.9 39.0 38.5 36.6 35.3 31.8 31.1 30.0 30.0
-25.7 -25.0 -24.2 -23.5 -22.7 -22.0 -21.2 -20.5 -19.7 -19.0 -18.2 -17.4 -16.7 -16.0 -15.2 -14.5 -13.8 -13.0 -12.3 -11.5 -10.8 -10.0 -8.9 -7.9 -6.8 -5.6 -4.5 -3.1 -2.4 -1.3 -0.2 4.8 34.6 40.0 40.0 40.0 40.0 40.0 40.0 40.0 40.0 39.9 39.8 38.4 37.5 35.4 34.7 37.2 39.8 39.7 39.8 40.2 39.6 32.6 28.2 23.1 20.1 20.0 20.0 20.0 20.0 20.0 20.0 20.0 20.0 20.0 20.0 20.0 20.0 20.0 20.0 20.0 20.0 20.0 20.0 20.0 20.6 21.8 22.6 24.0 24.9 27.3 27.7 28.5 29.6 31.7 35.3 37.7 38.3 38.7 38.9 39.1 40.0 40.7 41.4 45.5 47.0 47.3 46.9 46.4 45.9 41.4 40.0 40.0 40.0 40.0 39.9 33.0 30.0 30.0 29.5 29.4 29.4 29.6 29.8 29.9 30.8 33.3 39.5 39.5 38.7 39.4 40.0 40.0 40.0 40.0 40.0 40.0 38.5 39.2 33.1 31.5 30.0 30.0
-25.6 -24.9 -24.1 -23.4 -22.6 -21.8 -21.1 -20.3 -19.6 -18.8 -18.0 -17.2 -16.5 -15.8 -15.0 -14.2 -13.5 -12.7 -12.0 -11.2 -10.4 -9.5 -8.5 -7.4 -6.4 -5.2 -4.1 -2.7 -2.1 -1.0 0.0 9.0 35.4 40.0 40.0 40.0 40.0 40.0 40.0 40.0 40.0 40.0 39.0 38.1 36.7 33.4 32.9 36.1 39.8 39.8 39.9 39.4 34.0 28.5 24.1 20.2 20.0 20.0 20.0 20.0 20.0 20.0 20.0 20.0 20.0 20.0 20.0 20.0 20.0 20.0 20.0 20.0 20.0 20.0 20.0 20.0 21.1 22.3 23.3 24.7 25.6 28.0 28.2 29.1 30.3 36.1 38.5 39.4 38.8 39.3 39.6 39.6 41.4 43.6 45.4 49.1 49.9 49.9 49.9 49.0 47.2 42.4 40.8 40.8 40.2 39.1 38.6 30.6 30.0 30.0 29.4 29.4 29.5 29.7 29.9 29.9 30.6 31.5 33.4 38.3 38.7 40.0 40.0 40.0 40.0 40.0 40.5 40.9 40.0 40.0 39.0 32.4 30.0 30.0
-25.6 -24.8 -24.1 -23.3 -22.5 -21.7 -20.9 -20.1 -19.4 -18.6 -17.8 -17.0 -16.3 -15.5 -14.8 -14.0 -13.2 -12.4 -11.7 -10.9 -10.1 -9.1 -8.0 -7.0 -5.9 -4.7 -3.6 -2.3 -1.6 -0.6 2.1 14.4 38.5 40.0 40.0 40.0 40.0 40.0 40.0 40.0 40.0 40.0 39.0 36.7 33.9 31.3 30.9 34.3 39.7 39.7 39.9 37.3 30.1 25.9 21.8 20.0 20.0 20.0 20.0 20.0 20.0 20.0 20.0 20.0 20.0 20.0 20.0 20.0 20.0 20.0 20.0 20.0 20.0 20.2 20.3 20.8 23.2 24.0 24.8 26.2 27.0 29.0 29.2 30.2 34.3 39.9 39.9 40.1 41.3 40.9 41.4 41.2 46.0 47.6 49.6 50.0 50.0 50.0 50.0 50.0 49.8 44.3 40.3 40.2 39.7 37.4 34.1 30.0 30.0 30.0 29.4 29.4 29.4 29.4 29.6 29.7 30.0 30.0 30.0 34.5 40.0 40.0 40.0 40.0 40.0 40.0 41.3 41.2 40.0 40.0 37.7 32.3 30.0 30.0
-25.7 -24.9 -24.1 -23.3 -22.5 -21.7 -20.9 -20.0 -19.3 -18.5 -17.7 -16.8 -16.1 -15.3 -14.6 -13.8 -13.0 -12.2 -11.4 -10.6 -9.8 -8.7 -7.6 -6.6 -5.6 -4.4 -3.4 -2.0 -1.3 -0.3 2.9 29.7 40.5 40.0 40.0 40.0 40.0 40.0 40.0 40.0 40.0 38.5 35.2 32.3 30.9 30.0 29.6 30.0 30.2 30.6 32.0 31.2 28.6 23.9 20.4 20.0 20.0 20.0 20.0 20.0 20.0 20.0 20.0 20.0 20.0 20.0 20.0 20.0 20.0 20.0 20.0 20.2 20.7 21.1 21.2 21.9 24.4 25.7 26.6 27.9 28.9 30.1 31.2 34.0 39.0 40.3 40.8 45.4 46.2 44.9 45.7 46.1 48.2 47.8 47.7 49.9 49.7 49.5 49.9 50.0 45.0 40.1 39.5 39.6 38.8 34.7 31.3 30.0 30.0 30.0 29.4 29.4 29.4 29.4 29.5 29.7 30.0 30.0 30.0 32.1 36.1 39.9 39.7 39.5 40.0 40.0 40.7 40.0 39.5 39.7 34.4 32.1 30.0 30.0
-25.7 -24.9 -24.1 -23.2 -22.4 -21.5 -20.7 -19.9 -19.1 -18.3 -17.5 -16.6 -15.9 -15.1 -14.3 -13.5 -12.7 -11.9 -11.1 -10.3 -9.3 -8.2 -7.2 -6.2 -5.1 -3.9 -2.9 -1.6 -0.9 0.3 6.7 33.4 40.0 40.0 40.0 39.9 40.0 40.0 39.9 37.9 36.8 33.1 31.4 30.0 30.0 29.3 29.4 30.0 30.1 30.1 29.5 28.0 24.1 20.4 20.0 20.0 20.0 20.0 20.0 20.0 20.0 20.0 20.0 20.0 20.0 20.0 20.0 20.0 20.0 20.0 20.5 20.9 21.4 21.9 22.0 22.7 25.0 26.0 26.7 28.0 28.6 29.6 32.3 35.3 38.8 42.5 46.7 50.0 50.0 49.4 49.7 50.0 49.9 49.0 47.8 49.4 49.1 47.6 46.5 41.8 39.8 39.4 39.3 39.3 39.0 38.6 37.7 32.3 30.6 30.0 29.6 29.5 29.4 29.4 29.5 29.6 30.0 30.0 30.0 31.2 35.7 38.9 39.0 39.0 39.5 39.6 40.1 40.2 39.9 39.3 36.1 34.6 31.9 30.1
-25.7 -24.8 -24.0 -23.1 -22.3 -21.4 -20.6 -19.8 -19.0 -18.1 -17.3 -16.4 -15.7 -14.9 -14.0 -13.2 -12.4 -11.6 -10.7 -9.9 -8.9 -7.9 -6.9 -5.9 -4.9 -3.7 -2.7 -1.4 -0.9 0.5 12.2 31.2 37.3 39.6 39.0 38.6 40.0 40.0 39.3 35.4 32.2 30.1 30.0 28.7 30.0 29.3 29.6 30.0 30.2 30.0 27.7 24.5 21.0 20.0 20.0 20.0 20.0 20.0 20.0 20.0 20.0 20.0 20.0 20.0 20.0 20.0 20.0 20.0 20.0 20.3 21.0 21.5 22.0 22.5 22.8 23.6 25.5 26.6 27.2 28.8 29.2 29.8 32.0 36.1 37.9 41.6 49.2 50.0 50.0 50.0 50.0 50.4 50.6 50.2 49.0 49.9 49.7 48.5 44.4 39.7 39.7 39.7 39.9 39.7 39.6 39.7 39.7 34.6 31.5 30.0 29.7 29.6 29.5 29.4 29.4 29.6 30.0 30.0 30.0 31.2 37.7 39.0 38.7 39.2 40.0 41.0 40.6 41.0 40.3 40.0 36.5 36.2 33.3 30.0
-25.5 -24.7 -23.8 -23.0 -22.1 -21.3 -20.5 -19.7 -18.8 -18.0 -17.1 -16.2 -15.4 -14.6 -13.7 -12.9 -12.0 -11.2 -10.3 -9.4 -8.4 -7.4 -6.5 -5.5 -4.5 -3.3 -2.4 -1.1 -0.6 1.9 22.6 33.4 38.2 39.8 36.7 37.7 39.9 38.1 35.6 31.6 30.0 30.0 30.0 27.7 30.0 29.4 29.8 30.0 30.2 30.0 26.3 21.4 20.0 20.0 20.0 20.0 20.0 20.0 20.0 20.0 20.0 20.0 20.0 20.0 20.0 20.0 20.0 20.0 20.0 20.7 21.6 22.3 23.0 23.5 24.0 25.3 26.9 27.8 28.7 29.9 30.4 31.2 37.7 39.4 40.0 41.0 43.5 49.8 49.5 49.3 49.9 50.1 50.9 51.5 51.2 51.1 50.6 50.3 49.9 46.0 41.8 41.0 42.4 40.3 40.0 40.6 41.0 39.2 36.8 31.1 29.8 29.7 29.6 29.5 29.6 29.7 30.0 30.0 30.8 33.5 39.9 39.9 39.5 39.9 40.0 47.0 42.0 42.0 40.4 40.1 38.3 36.3 34.0 30.3
-25.3 -24.5 -23.6 -22.8 -22.0 -21.1 -20.3 -19.5 -18.6 -17.8 -16.9 -15.9 -15.2 -14.3 -13.5 -12.6 -11.8 -10.9 -10.1 -9.1 -8.1 -7.1 -6.1 -5.1 -4.1 -3.0 -2.1 -0.8 -0.2 4.3 34.6 39.9 39.9 39.8 37.3 32.7 35.2 33.6 31.6 30.0 30.0 30.0 30.0 27.5 30.0 29.4 29.8 30.0 30.3 30.0 23.0 20.0 20.0 20.0 20.0 20.0 20.0 20.0 20.0 20.0 20.0 20.0 20.0 20.0 20.0 20.0 20.0 20.0 20.2 21.1 22.1 22.8 23.5 24.2 25.0 26.4 27.6 28.7 29.6 31.7 32.8 36.8 40.1 40.3 40.5 40.5 44.8 49.2 48.8 49.1 49.8 50.0 50.8 51.8 53.5 52.6 52.0 53.4 52.2 50.8 48.8 46.3 47.2 44.2 43.0 44.5 44.2 41.7 40.0 35.0 30.1 29.8 29.7 29.5 29.6 29.7 30.0 30.0 31.9 35.9 39.9 39.8 40.5 41.5 47.4 50.0 48.0 46.2 43.1 41.2 38.4 37.5 35.9 30.1
-25.2 -24.3 -23.5 -22.6 -21.8 -21.0 -20.1 -19.3 -18.4 -17.5 -16.6 -15.7 -14.9 -14.1 -13.2 -12.3 -11.4 -10.5 -9.6 -8.6 -7.7 -6.7 -5.7 -4.7 -3.8 -2.6 -1.7 -0.6 0.2 10.1 32.4 34.2 34.7 34.4 30.7 29.9 30.4 30.1 30.3 30.0 30.0 30.0 30.0 26.3 30.0 29.0 29.6 30.0 30.3 29.6 20.2 20.0 20.0 20.0 20.0 20.0 20.0 20.0 20.0 20.0 20.0 20.0 20.0 20.0 20.0 20.0 20.0 20.0 20.9 21.8 22.7 23.3 24.1 24.9 25.8 26.9 28.1 29.4 30.2 32.0 33.3 34.8 39.2 39.8 40.1 40.0 41.7 45.4 48.1 49.4 50.0 50.2 51.0 52.2 56.5 53.8 53.3 57.6 55.7 53.1 50.0 49.8 50.0 48.4 47.5 48.3 47.5 41.7 38.8 33.9 30.5 29.8 29.7 29.5 29.6 29.6 30.0 30.0 30.6 34.6 38.7 39.2 39.9 39.9 40.0 47.2 44.8 45.9 40.3 40.0 39.2 38.7 38.4 34.6
-24.9 -24.1 -23.2 -22.4 -21.6 -20.8 -20.0 -19.1 -18.3 -17.3 -16.4 -15.4 -14.7 -13.7 -12.9 -11.9 -11.1 -10.2 -9.2 -8.2 -7.2 -6.3 -5.3 -4.3 -3.4 -2.3 -1.3 -0.2 2.2 22.6 31.1 32.2 32.4 31.6 30.1 29.7 30.0 30.0 30.0 30.0 30.0 30.0 30.0 23.7 30.0 26.8 26.9 28.7 30.6 27.1 20.0 20.0 20.0 20.0 20.0 20.0 20.0 20.0 20.0 20.0 20.0 20.0 20.0 20.0 20.3 20.5 20.6 20.9 22.0 23.4 24.0 24.7 25.6 26.7 27.5 28.4 29.4 30.4 31.2 32.9 33.9 34.8 38.5 39.3 39.6 40.4 43.7 46.8 49.4 50.3 50.6 54.6 56.7 58.6 59.5 58.8 59.7 60.0 59.6 57.7 52.3 50.5 50.5 50.1 50.1 50.2 50.2 47.8 39.2 34.8 30.9 29.8 29.7 29.5 29.6 29.8 30.0 30.1 32.4 38.4 39.6 39.6 39.5 39.4 39.7 41.6 46.5 48.5 40.5 40.2 40.0 39.6 39.9 39.3
-24.6 -23.8 -23.0 -22.2 -21.4 -20.7 -19.8 -18.9 -18.0 -17.1 -16.2 -15.2 -14.4 -13.5 -12.6 -11.7 -10.8 -9.8 -8.8 -7.8 -6.8 -5.8 -4.8 -3.8 -2.8 -1.7 -0.7 -0.0 5.6 30.0 30.7 31.0 30.7 30.0 29.5 28.8 28.6 28.2 27.7 27.2 26.8 26.4 28.5 21.4 26.9 22.7 21.8 22.5 26.7 21.5 20.0 20.0 20.0 20.0 20.0 20.0 20.0 20.0 20.0 20.0 20.0 20.0 20.0 20.0 20.8 21.4 21.5 21.8 22.8 23.9 24.5 25.3 26.1 27.0 27.8 28.6 29.6 30.7 31.9 33.4 34.6 35.6 38.0 38.6 39.3 40.7 43.4 46.6 49.0 49.7 49.9 52.7 55.6 58.4 60.0 59.8 59.6 60.0 60.0 59.6 57.0 53.4 51.7 50.7 50.8 50.8 50.2 48.5 41.5 37.5 33.3 29.9 29.8 29.6 29.7 29.8 30.1 31.9 36.7 40.0 40.0 40.0 40.0 39.9 40.8 46.0 49.8 50.0 48.5 46.6 40.7 40.1 40.6 40.5
-24.4 -23.6 -22.8 -22.1 -21.3 -20.5 -19.7 -18.8 -17.9 -16.9 -16.0 -14.9 -14.1 -13.2 -12.2 -11.3 -10.4 -9.4 -8.4 -7.4 -6.4 -5.4 -4.4 -3.3 -2.3 -1.2 -0.3 1.5 15.2 30.0 30.7 30.7 30.3 29.6 28.8 27.8 26.8 25.9 25.0 24.1 23.2 22.2 22.0 20.4 21.0 20.6 20.4 20.4 20.4 20.1 20.0 20.0 20.0 20.0 20.0 20.0 20.0 20.0 20.0 20.0 20.0 20.0 20.2 20.9 22.0 22.4 22.5 22.8 23.5 24.6 25.4 26.1 27.0 27.7 28.5 29.4 30.2 31.5 32.6 34.2 35.6 36.5 37.8 38.5 39.8 40.6 44.4 47.7 48.8 48.8 49.6 51.7 55.1 58.0 59.8 59.9 59.5 60.0 59.9 59.9 55.0 51.8 50.4 50.3 50.4 50.2 48.4 44.2 39.8 36.4 33.3 30.2 30.6 31.3 31.9 32.2 30.8 36.3 39.6 40.1 40.1 40.1 40.0 40.1 40.6 44.8 49.9 49.8 43.1 42.3 40.4 40.2 40.0 40.1
-24.2 -23.4 -22.7 -21.9 -21.1 -20.4 -19.6 -18.6 -17.6 -16.7 -15.7 -14.8 -13.8 -12.8 -11.9 -10.9 -10.0 -9.0 -8.0 -7.0 -6.0 -5.0 -4.0 -3.0 -2.0 -1.0 -0.0 4.3 26.2 30.0 30.3 30.0 29.5 29.2 28.3 27.1 26.2 25.4 26.4 26.5 24.9 23.6 22.1 20.4 20.4 20.4 20.4 20.4 20.4 20.1 20.0 20.0 20.0 20.0 20.0 20.0 20.0 20.0 20.0 20.0 20.0 20.0 20.2 21.3 22.2 22.8 23.2 23.4 24.1 24.9 25.5 26.2 26.9 27.6 28.4 29.2 30.0 31.6 32.9 35.0 36.7 37.5 38.3 39.3 40.8 42.5 48.4 49.5 49.3 49.2 50.8 54.2 57.5 59.8 60.0 60.0 60.0 60.0 60.0 58.5 54.3 50.9 49.9 49.6 49.4 48.6 45.1 41.1 39.1 37.3 34.2 30.6 30.2 30.2 30.2 30.2 31.8 36.1 40.0 40.0 40.0 40.0 40.0 40.2 40.4 43.0 48.7 50.0 46.4 44.3 41.5 40.5 40.0 40.0
-24.0 -23.3 -22.5 -21.7 -21.0 -20.2 -19.4 -18.4 -17.4 -16.4 -15.5 -14.5 -13.5 -12.6 -11.6 -10.6 -9.6 -8.6 -7.6 -6.6 -5.6 -4.6 -3.6 -2.6 -1.6 -0.6 1.1 12.5 29.9 30.0 30.1 29.7 29.4 29.0 28.1 26.8 26.1 25.4 26.3 26.5 25.1 23.9 22.6 21.1 20.5 20.4 20.4 20.4 20.4 20.2 20.0 20.0 20.0 20.0 20.0 20.0 20.0 20.0 20.0 20.0 20.0 20.0 20.3 21.5 22.3 23.1 23.5 23.9 24.4 25.1 25.7 26.2 26.8 27.4 28.1 29.4 29.8 30.9 32.4 35.5 38.0 38.9 38.8 39.3 41.8 45.6 49.9 50.0 50.0 49.9 51.4 56.2 58.6 60.0 60.0 60.0 60.0 60.0 60.0 59.0 53.9 50.0 49.3 47.3 47.0 46.5 44.6 42.2 40.1 39.3 37.8 32.9 30.2 30.2 30.2 30.2 30.6 31.9 39.2 39.4 39.0 39.0 39.2 39.7 39.9 41.6 46.9 50.0 49.0 45.9 41.1 40.4 40.0 40.0
-24.0 -23.2 -22.4 -21.7 -20.9 -20.1 -19.2 -18.2 -17.2 -16.2 -15.2 -14.2 -13.2 -12.2 -11.2 -10.2 -9.2 -8.2 -7.2 -6.2 -5.2 -4.2 -3.2 -2.2 -1.2 -0.2 4.0 27.1 30.0 30.0 29.9 29.4 29.5 29.1 28.1 26.4 26.0 25.3 26.2 26.4 25.1 24.1 23.0 21.7 21.0 20.4 20.4 20.4 20.4 20.2 20.0 20.0 20.0 20.0 20.0 20.0 20.0 20.0 20.0 20.0 20.0 20.0 20.7 22.0 23.3 24.0 24.3 24.7 25.1 25.9 26.5 27.1 27.9 28.8 29.6 30.4 30.8 34.3 35.8 37.9 39.5 40.0 39.9 40.0 41.0 44.5 49.7 50.0 50.2 50.7 54.0 58.1 59.9 60.0 60.0 60.0 60.0 60.0 60.0 59.9 54.3 49.7 49.0 46.0 45.4 45.1 44.5 43.1 40.5 40.3 40.0 37.0 31.7 30.2 30.2 30.2 30.6 31.8 37.5 38.4 39.6 39.2 39.0 39.2 39.3 39.8 40.4 47.5 40.8 40.2 40.0 40.0 40.0 40.0
-23.8 -23.0 -22.3 -21.5 -20.8 -20.0 -19.0 -18.0 -16.9 -15.9 -14.9 -13.8 -12.8 -11.8 -10.7 -9.7 -8.7 -7.8 -6.8 -5.8 -4.8 -3.8 -2.8 -1.8 -0.9 0.3 8.7 30.1 30.0 30.0 29.6 29.3 29.7 29.6 28.3 26.3 26.1 25.4 26.2 26.5 25.4 24.6 23.9 22.3 21.9 20.9 20.4 20.4 20.4 20.2 20.0 20.0 20.0 20.0 20.0 20.0 20.0 20.0 20.0 20.1 20.4 20.6 22.8 24.5 25.9 25.8 25.6 25.6 25.9 26.5 26.9 27.4 27.9 28.6 29.3 30.4 32.2 34.8 37.0 39.3 40.3 40.7 40.5 40.7 44.8 46.2 49.4 49.6 49.7 51.4 54.7 58.7 60.0 60.0 60.0 60.0 60.0 59.4 59.6 59.1 52.4 50.1 49.0 43.8 43.3 43.4 43.4 42.5 40.7 40.0 40.0 39.6 34.0 30.2 30.2 30.2 30.5 31.7 35.9 37.2 39.9 39.7 39.6 39.8 39.9 39.8 40.0 43.5 40.5 40.0 40.0 40.0 40.0 40.0
-23.7 -23.0 -22.2 -21.4 -20.7 -19.9 -18.8 -17.7 -16.7 -15.6 -14.6 -13.5 -12.4 -11.3 -10.2 -9.2 -8.3 -7.3 -6.3 -5.3 -4.3 -3.3 -2.4 -1.4 -0.4 2.7 8.6 29.5 30.0 30.0 29.4 29.5 30.1 29.9 28.4 26.4 26.7 26.2 26.8 27.7 27.2 27.0 27.4 23.9 27.2 23.2 21.6 21.2 21.3 20.5 20.0 20.0 20.0 20.0 20.0 20.0 20.0 20.0 20.0 20.0 21.2 21.5 23.7 26.3 27.5 27.1 26.6 26.3 26.5 26.9 27.4 27.8 28.3 29.0 29.7 31.2 33.1 35.7 37.9 39.9 40.2 40.4 41.8 43.1 45.9 46.9 48.8 49.0 49.7 51.7 55.2 58.6 60.0 60.0 60.0 60.0 60.0 58.7 58.3 53.5 50.2 49.2 46.0 40.3 40.4 41.0 41.5 40.9 40.1 39.1 39.4 37.4 31.7 30.2 30.2 30.9 33.4 35.3 37.5 38.9 40.0 40.0 40.0 40.7 40.0 41.3 44.7 45.5 43.5 42.4 40.2 40.0 40.0 40.0
-23.5 -22.8 -22.0 -21.3 -20.5 -19.7 -18.6 -17.5 -16.4 -15.3 -14.3 -13.2 -12.1 -11.0 -9.9 -8.9 -7.9 -6.9 -5.9 -4.9 -3.9 -2.9 -1.9 -0.9 0.3 8.8 19.2 12.1 27.8 28.5 26.1 29.2 29.6 30.0 29.8 29.1 28.6 28.0 27.6 27.4 27.0 27.1 28.2 24.8 28.3 24.4 23.2 22.4 21.6 20.8 20.1 20.0 20.0 20.0 20.0 20.0 20.0 20.0 20.0 20.0 20.1 21.0 22.3 26.9 28.5 28.0 27.4 27.1 26.9 27.2 27.7 28.2 28.8 29.6 30.7 32.6 34.0 36.2 37.8 39.5 42.3 39.9 41.4 44.0 46.4 47.7 49.3 49.0 49.2 50.6 54.4 57.9 60.0 60.0 60.0 60.0 60.0 59.4 54.4 49.6 49.2 47.5 42.5 40.0 39.9 39.9 40.1 40.3 39.8 38.3 38.1 35.8 31.1 30.2 30.3 31.8 33.9 35.9 37.5 39.1 40.0 40.0 43.6 43.8 40.0 43.8 50.0 50.0 48.8 48.8 42.6 42.3 40.1 40.4
-23.3 -22.6 -21.8 -21.1 -20.4 -19.5 -18.3 -17.2 -16.1 -15.0 -13.9 -12.7 -11.6 -10.5 -9.5 -8.5 -7.5 -6.5 -5.5 -4.5 -3.5 -2.5 -1.5 -0.5 1.3 20.0 28.6 30.7 21.7 25.9 27.3 29.9 30.0 30.0 29.3 28.6 28.4 27.9 27.6 27.4 27.0 27.1 28.9 25.8 29.2 25.9 24.7 23.5 22.3 21.5 20.6 20.1 20.0 20.0 20.0 20.0 20.0 20.0 20.0 20.1 21.8 23.2 25.6 29.0 29.8 29.5 28.9 28.5 28.3 28.4 28.7 29.0 29.5 30.1 31.3 32.7 33.8 36.4 38.4 39.6 39.8 39.7 41.0 46.2 48.2 49.1 49.9 49.8 49.6 49.7 52.5 55.8 59.6 60.0 60.0 60.0 60.0 60.0 57.2 50.6 48.8 49.1 48.7 43.2 40.0 39.9 39.8 39.8 39.5 37.5 35.6 32.6 30.2 30.2 30.9 32.5 34.7 36.7 37.7 39.4 40.0 40.0 47.9 46.7 40.0 46.1 50.0 50.0 49.5 49.7 45.1 45.0 40.8 41.0
-23.1 -22.4 -21.6 -20.9 -20.2 -19.2 -18.1 -16.9 -15.8 -14.6 -13.4 -12.3 -11.2 -10.1 -9.1 -8.1 -7.1 -6.2 -5.2 -4.2 -3.2 -2.2 -1.3 -0.3 2.8 18.9 30.0 31.3 26.3 27.5 28.5 29.8 30.0 30.0 29.2 28.4 28.4 27.9 27.6 27.4 27.0 27.2 29.3 26.9 29.7 27.6 26.6 24.8 22.9 22.3 21.0 20.5 20.0 20.0 20.0 20.0 20.0 20.0 20.3 21.4 24.2 26.1 28.3 30.0 30.0 30.0 29.7 29.3 29.1 29.1 29.4 29.6 29.8 30.7 32.4 34.2 35.6 37.7 39.6 40.1 43.4 43.8 46.9 49.8 49.9 50.1 54.1 50.0 50.4 50.7 56.6 57.9 59.4 60.0 60.0 60.0 60.0 59.8 55.8 51.0 49.7 50.0 49.9 46.8 41.0 40.5 40.4 40.1 39.9 37.0 34.8 31.4 30.2 30.4 31.8 33.2 35.4 37.9 37.8 39.1 40.8 42.6 49.5 49.1 47.4 48.5 49.8 49.8 50.0 50.0 47.6 47.6 41.6 41.7
-23.0 -22.2 -21.5 -20.7 -20.0 -18.9 -17.7 -16.6 -15.4 -14.2 -13.0 -11.9 -10.7 -9.6 -8.6 -7.7 -6.7 -5.7 -4.7 -3.7 -2.8 -1.8 -0.8 0.6 6.0 22.3 30.0 30.0 29.9 29.6 29.7 30.0 30.0 29.4 28.8 28.0 29.3 29.2 29.0 29.0 28.8 29.2 29.8 28.1 30.0 29.2 28.7 26.9 26.1 27.6 26.6 26.4 26.2 26.0 25.8 24.8 20.1 20.4 21.4 23.3 27.4 28.5 29.4 30.0 30.0 30.0 30.0 29.9 29.6 29.5 29.8 30.0 30.6 32.3 34.0 36.0 37.5 39.1 41.1 43.4 49.2 49.0 48.9 50.0 50.0 51.1 59.7 57.3 54.9 54.2 59.4 59.9 60.0 60.0 60.0 60.0 60.0 60.0 58.6 55.5 50.1 50.6 50.4 49.4 45.6 42.1 40.6 40.6 40.1 37.6 35.2 31.9 30.2 30.4 31.9 33.2 35.7 39.3 37.7 38.3 39.8 40.3 44.4 46.0 48.1 50.0 50.0 50.0 50.0 50.0 49.9 49.9 42.3 42.3
-22.8 -22.1 -21.4 -20.6 -19.9 -18.7 -17.5 -16.3 -15.1 -13.9 -12.6 -11.5 -10.3 -9.2 -8.3 -7.3 -6.3 -5.4 -4.4 -3.5 -2.5 -1.6 -0.6 1.6 7.3 24.1 30.0 30.0 29.9 29.5 27.5 25.8 26.8 25.5 23.9 23.5 30.0 30.0 30.0 30.0 30.0 30.0 30.0 29.7 30.1 30.0 30.0 29.7 29.8 30.0 30.0 30.0 30.0 30.0 30.0 28.4 20.8 21.5 23.2 26.0 29.4 29.7 29.9 30.4 30.9 30.8 30.4 30.4 30.2 30.1 30.5 30.9 31.5 34.1 36.7 38.0 39.1 39.9 40.6 40.8 48.3 49.9 46.2 49.6 49.6 49.7 50.5 49.9 51.7 54.2 56.8 59.0 60.0 60.0 60.0 59.9 60.0 59.8 57.8 55.4 51.0 50.1 48.2 46.1 42.6 40.7 40.0 40.0 40.0 40.0 40.0 39.6 30.6 35.0 38.8 39.7 39.9 40.0 40.0 40.0 40.0 40.0 40.1 42.1 43.0 48.5 49.5 49.5 50.0 50.0 50.0 49.9 43.0 42.9
-22.7 -21.9 -21.3 -20.6 -19.7 -18.5 -17.2 -16.0 -14.7 -13.5 -12.2 -11.0 -9.8 -8.9 -7.9 -7.0 -6.0 -5.1 -4.2 -3.2 -2.3 -1.4 -0.4 2.5 8.4 24.0 30.0 30.0 28.6 26.8 23.9 20.9 21.0 22.1 22.1 22.1 26.5 27.1 27.6 28.1 28.6 29.1 29.8 30.0 30.3 30.0 30.0 30.0 29.9 30.0 30.0 30.0 30.0 30.0 30.0 28.6 22.2 23.2 25.3 27.8 29.6 29.9 30.0 30.6 30.8 31.0 30.8 31.1 30.7 30.8 31.3 31.8 32.6 34.9 37.0 38.0 38.9 39.8 40.1 40.1 47.3 49.3 47.1 49.7 49.6 49.6 49.7 50.2 51.3 54.0 55.8 57.1 59.9 59.9 59.5 58.8 59.6 58.2 55.7 53.8 49.9 49.3 46.7 44.9 41.3 40.6 40.0 40.0 40.0 40.0 40.0 39.6 32.0 34.5 36.4 36.9 38.4 40.0 40.0 40.0 40.0 40.0 40.0 40.1 41.9 45.8 49.0 48.9 50.0 50.0 50.0 50.0 43.8 43.5
-22.5 -21.8 -21.1 -20.4 -19.5 -18.2 -16.9 -15.6 -14.3 -13.1 -11.8 -10.5 -9.4 -8.5 -7.6 -6.6 -5.7 -4.8 -3.8 -2.9 -2.0 -1.0 -0.1 4.2 10.1 28.8 30.0 30.0 27.9 24.5 21.5 20.0 20.0 20.0 20.7 21.3 23.3 24.4 25.7 26.8 28.0 29.1 30.1 30.8 30.8 30.0 30.0 29.9 29.9 30.0 30.0 30.0 30.0 30.0 30.0 28.9 23.8 25.2 27.1 29.0 29.7 29.9 30.2 30.5 30.5 30.6 30.8 31.6 31.4 31.4 32.1 32.4 33.2 34.7 36.5 38.0 38.5 39.6 39.8 40.2 43.3 46.4 48.0 50.0 49.9 49.8 49.9 50.6 53.8 56.9 57.3 57.2 59.6 59.9 59.3 57.7 57.9 55.7 56.5 58.6 50.3 49.3 46.7 44.8 40.3 40.0 40.1 40.0 40.0 40.0 40.0 39.7 34.0 36.1 37.0 37.3 38.6 40.0 40.0 40.0 40.0 40.0 40.0 40.0 42.5 46.3 49.9 50.0 50.0 50.0 50.0 50.0 44.5 44.2
-22.3 -21.7 -20.9 -20.2 -19.1 -17.8 -16.5 -15.2 -14.0 -12.7 -11.4 -10.2 -9.2 -8.2 -7.3 -6.3 -5.4 -4.5 -3.5 -2.6 -1.7 -0.7 0.8 5.7 15.8 30.0 30.0 30.0 27.9 23.8 20.5 20.0 20.0 20.0 20.0 20.5 22.4 23.8 25.2 26.6 28.0 29.4 30.3 31.1 30.9 30.0 30.0 29.9 29.9 30.0 30.0 30.0 30.0 30.0 30.0 29.0 24.9 26.0 27.7 29.0 29.5 29.8 30.0 30.2 30.2 30.4 30.5 32.1 32.1 32.2 33.0 33.5 34.4 36.0 37.3 38.9 39.4 39.8 41.0 42.9 46.5 47.7 49.7 50.4 50.5 50.0 51.9 54.7 58.3 59.7 59.3 59.1 59.8 60.0 60.0 59.7 58.7 59.4 60.0 60.1 57.0 50.3 46.8 42.8 40.0 40.0 40.0 40.0 40.0 40.0 40.0 39.4 34.7 36.2 37.5 37.9 38.9 40.0 40.0 40.0 40.0 40.0 40.0 40.0 41.0 43.4 49.8 46.9 48.7 50.0 50.0 50.0 45.3 44.8
-22.1 -21.4 -20.7 -20.0 -18.7 -17.4 -16.2 -14.9 -13.7 -12.4 -11.1 -9.9 -9.0 -8.1 -7.2 -6.3 -5.4 -4.5 -3.6 -2.7 -1.7 -0.8 0.4 5.6 18.4 30.0 30.0 30.0 26.9 22.4 20.0 20.0 20.0 20.0 20.0 20.0 21.1 22.6 24.3 25.9 27.5 29.1 30.1 30.8 30.9 30.0 30.0 30.0 29.9 30.0 30.0 30.0 30.0 30.0 30.0 29.1 25.2 26.1 27.4 28.1 28.8 29.1 30.0 30.0 30.0 30.1 30.4 32.6 32.9 33.1 34.2 35.2 36.4 37.8 38.8 39.8 40.4 40.6 43.3 45.6 48.0 49.0 50.6 52.0 53.1 54.8 58.8 58.6 59.9 60.2 60.1 59.8 60.0 60.0 60.0 59.9 59.1 59.6 60.1 59.9 53.1 48.9 44.9 41.9 40.0 40.0 40.0 40.0 40.0 40.0 40.0 39.8 38.2 37.8 38.5 38.7 39.3 40.0 40.0 40.0 40.0 40.0 40.0 40.0 40.3 42.1 48.5 46.4 48.2 49.7 50.0 50.0 46.0 45.4
-21.9 -21.1 -20.4 -19.4 -18.2 -17.0 -15.8 -14.6 -13.4 -12.1 -11.0 -9.8 -8.9 -8.0 -7.1 -6.2 -5.3 -4.4 -3.5 -2.6 -1.7 -0.8 0.4 5.8 15.9 29.2 30.0 29.4 23.7 20.5 20.0 20.0 20.0 20.0 20.2 20.8 22.3 23.7 25.1 26.4 27.8 29.2 30.1 31.4 31.5 30.0 30.0 30.0 29.9 30.0 30.0 30.0 30.0 30.0 30.0 29.4 26.3 26.8 27.9 28.2 29.0 29.5 30.0 30.0 30.0 30.0 30.2 31.7 32.7 33.6 34.7 35.8 37.1 38.5 39.7 40.5 41.3 41.5 45.0 48.0 48.8 49.4 51.2 53.1 55.4 58.6 60.0 59.6 60.0 60.3 60.4 60.0 60.0 60.0 60.0 59.7 59.3 59.5 60.0 60.0 58.2 48.9 45.3 42.0 40.0 40.0 40.0 40.0 40.0 40.0 40.0 39.8 38.6 38.0 39.3 39.6 39.8 40.0 40.0 40.0 40.1 40.1 40.0 40.0 40.0 40.2 44.1 45.3 47.4 49.4 50.0 50.0 46.7 46.0
-21.5 -20.7 -20.0 -18.9 -17.7 -16.6 -15.4 -14.3 -13.2 -12.0 -10.9 -9.8 -8.9 -7.9 -7.0 -6.1 -5.2 -4.3 -3.4 -2.4 -1.5 -0.6 1.4 7.3 18.5 23.5 29.1 23.9 20.0 20.0 20.0 20.0 20.0 20.0 21.4 22.3 23.4 24.6 25.9 27.2 28.4 29.6 30.6 34.1 33.1 30.0 30.0 30.0 30.0 30.0 30.0 30.0 30.0 30.0 30.0 29.6 28.2 28.8 29.5 29.3 29.7 30.1 30.4 32.8 31.9 30.4 30.0 30.6 31.9 33.2 34.6 35.7 37.1 38.5 40.0 41.8 43.2 46.1 49.3 50.0 49.9 49.9 51.1 52.4 53.9 55.5 59.4 59.8 60.0 60.5 60.6 60.0 60.0 60.0 60.0 59.7 58.2 56.6 59.7 59.9 60.2 52.4 46.5 42.4 40.0 40.0 40.0 40.0 40.0 40.0 40.0 39.8 39.6 39.6 40.1 40.7 41.1 43.0 40.1 40.0 40.0 40.1 40.0 40.0 40.0 40.0 40.9 43.9 46.5 48.9 50.0 50.1 49.8 49.9
-20.9 -20.1 -19.1 -18.1 -17.0 -15.9 -14.9 -13.9 -12.8 -11.8 -10.8 -9.7 -8.8 -7.9 -7.0 -6.0 -5.1 -4.1 -3.2 -2.3 -1.3 -0.4 4.2 12.2 20.0 22.7 24.9 20.7 20.0 20.0 20.0 20.0 20.0 20.0 20.9 22.5 23.4 24.8 26.2 27.6 28.9 30.0 32.5 38.4 35.2 30.0 30.0 30.0 30.0 30.0 30.0 30.0 30.0 30.0 30.0 29.8 29.0 29.4 29.7 29.7 30.1 30.7 31.4 37.7 38.1 36.7 30.5 34.2 34.9 35.7 36.7 37.6 38.4 39.3 40.3 41.9 43.4 45.2 48.4 50.0 50.3 50.2 50.9 52.6 55.3 56.8 59.0 59.8 60.0 60.4 60.4 60.0 60.0 60.0 59.9 58.8 55.6 51.1 57.2 58.4 57.6 50.5 48.4 45.3 40.5 40.1 40.0 40.0 40.0 40.0 40.0 39.8 39.7 39.7 41.0 42.5 44.7 49.5 42.4 40.0 40.0 40.1 40.0 40.0 40.0 40.0 42.2 44.9 46.8 49.1 50.0 50.1 49.9 49.9
-20.2 -19.3 -18.3 -17.3 -16.3 -15.3 -14.4 -13.4 -12.5 -11.5 -10.6 -9.6 -8.7 -7.7 -6.8 -5.8 -4.9 -3.9 -3.0 -2.0 -1.1 -0.2 4.4 11.5 20.0 21.1 22.1 20.6 20.0 20.0 20.0 20.0 20.0 20.1 24.1 23.9 23.9 25.2 26.6 27.9 29.2 33.2 39.1 40.0 39.5 37.4 35.1 33.1 30.5 30.0 30.0 30.0 30.0 30.0 30.0 29.8 29.3 29.7 29.8 29.9 32.0 34.9 39.1 40.0 40.0 40.0 39.6 39.8 39.5 39.2 38.7 39.1 39.5 39.8 40.0 42.4 44.9 47.9 50.0 50.6 50.6 50.1 50.0 51.8 54.9 56.1 58.7 59.1 59.6 60.0 60.0 60.0 60.0 60.0 60.1 59.6 53.0 50.0 56.0 59.7 56.2 51.4 48.5 46.1 42.0 40.9 40.0 40.0 40.0 40.0 40.0 39.9 39.8 40.5 43.4 46.1 49.3 49.8 47.1 41.8 43.5 42.4 40.7 40.0 40.0 40.4 43.2 46.3 47.9 50.0 50.0 50.1 49.9 49.9
-19.4 -18.5 -17.6 -16.7 -15.8 -14.9 -14.0 -13.1 -12.2 -11.3 -10.4 -9.4 -8.5 -7.5 -6.6 -5.6 -4.6 -3.7 -2.7 -1.7 -0.8 1.2 8.1 17.4 20.0 20.8 20.7 20.1 20.0 20.0 20.0 20.0 21.4 24.4 29.8 27.8 27.1 27.8 28.4 29.1 29.8 35.0 39.9 40.0 40.0 37.6 34.4 31.8 30.0 30.0 30.0 30.0 30.0 30.0 30.0 29.8 29.4 29.7 29.9 30.5 32.9 35.7 39.2 40.0 40.0 40.0 39.9 39.9 39.7 39.4 38.7 39.1 39.5 39.8 40.4 42.7 46.3 49.4 50.0 50.0 50.0 50.0 50.0 50.8 52.7 55.7 58.2 58.3 59.2 60.0 60.0 59.6 59.0 58.9 54.1 54.6 50.5 50.0 50.5 54.6 51.2 50.0 48.7 46.2 43.0 41.0 40.0 40.0 40.0 40.0 40.0 39.9 40.0 41.5 44.3 46.7 49.5 49.3 47.1 44.0 43.8 42.8 41.3 40.0 40.0 40.1 42.4 46.5 47.4 49.2 50.0 50.2 49.9 49.9
-19.0 -18.1 -17.2 -16.3 -15.4 -14.6 -13.6 -12.7 -11.9 -11.0 -10.1 -9.2 -8.2 -7.2 -6.3 -5.3 -4.4 -3.4 -2.5 -1.5 -0.6 1.8 7.4 20.2 20.0 20.4 20.0 20.0 20.0 20.0 20.0 21.0 26.5 29.7 30.0 30.0 30.0 30.0 30.0 30.0 30.3 34.8 39.5 40.0 39.8 36.9 33.9 31.3 30.0 30.0 30.0 30.0 29.8 29.3 29.3 29.3 29.4 29.7 29.9 30.9 33.0 35.2 38.1 40.0 40.0 40.0 39.9 39.9 39.7 39.4 38.6 39.0 39.4 39.7 40.0 41.1 43.5 45.3 49.6 50.0 49.7 49.6 50.0 50.6 52.6 57.0 59.0 58.7 59.8 60.1 60.1 60.0 59.2 53.0 50.1 51.4 50.0 50.0 50.4 52.0 51.3 50.0 49.1 45.4 41.9 40.0 40.0 40.0 40.0 40.0 40.0 39.9 40.6 42.8 45.5 47.4 49.4 49.8 47.9 45.8 44.4 43.3 41.8 40.2 40.0 40.1 42.1 47.5 48.3 48.5 49.6 50.1 50.0 49.9
-18.8 -17.9 -17.0 -16.1 -15.2 -14.3 -13.3 -12.4 -11.5 -10.6 -9.6 -8.7 -7.8 -6.8 -5.9 -5.0 -4.1 -3.1 -2.2 -1.3 -0.4 3.1 9.6 27.5 23.1 20.6 20.1 20.0 20.0 20.0 20.0 24.2 29.9 29.8 30.0 29.9 30.0 30.0 30.0 30.0 30.5 34.9 39.3 40.1 38.7 35.8 33.3 31.0 30.0 30.0 30.0 30.0 29.8 29.3 29.3 29.3 29.3 29.7 29.9 30.9 32.9 34.8 37.2 39.6 40.0 40.0 39.9 39.9 39.7 39.4 38.6 38.7 39.0 39.4 40.0 40.2 41.8 43.3 49.0 49.4 48.6 49.3 50.5 51.6 54.6 59.1 59.9 59.6 60.0 60.3 60.1 60.0 59.9 55.0 50.3 50.6 50.0 50.0 50.0 50.0 50.6 49.9 47.3 44.0 40.7 40.0 40.0 40.0 40.0 40.0 40.0 40.1 41.0 42.2 45.7 49.0 50.0 49.5 46.5 45.5 42.1 41.5 40.8 40.1 40.0 40.5 42.8 49.5 49.5 49.2 49.5 50.2 50.0 49.9
-18.7 -17.8 -16.9 -15.9 -15.0 -14.0 -13.1 -12.1 -11.2 -10.3 -9.3 -8.4 -7.5 -6.6 -5.6 -4.7 -3.8 -2.9 -2.0 -1.0 -0.2 1.6 20.7 30.7 25.2 20.5 20.1 20.0 20.0 20.0 20.2 26.7 30.0 29.9 30.0 29.8 30.0 30.0 30.0 30.0 30.4 36.1 40.0 40.0 39.0 35.9 33.0 30.6 30.0 30.0 30.0 30.0 29.8 29.3 29.3 29.4 29.2 29.7 29.8 30.8 32.9 34.9 37.3 39.6 40.0 40.0 39.7 39.8 39.4 39.0 38.7 38.9 39.1 39.5 39.9 39.9 40.9 42.7 47.2 48.2 48.2 49.8 51.1 51.7 56.9 60.0 59.9 59.9 60.0 60.4 60.0 59.1 59.1 55.0 51.2 50.2 50.0 50.0 50.0 50.0 50.3 49.0 46.0 43.3 40.7 40.0 40.0 40.0 40.0 40.0 40.1 41.6 44.2 46.4 49.0 49.9 50.0 49.9 48.6 48.0 46.6 45.6 44.2 42.4 40.0 44.6 48.6 50.0 50.0 50.0 50.0 57.4 51.5 52.0
-18.6 -17.6 -16.7 -15.7 -14.7 -13.8 -12.8 -11.8 -10.9 -9.9 -9.0 -8.1 -7.2 -6.3 -5.4 -4.5 -3.6 -2.7 -1.8 -0.9 -0.2 1.6 19.3 27.1 20.0 20.0 20.1 20.0 20.0 20.0 20.5 27.5 30.0 29.9 30.0 29.8 30.0 30.0 30.0 30.0 30.3 37.4 40.0 40.0 39.4 35.8 32.6 30.2 30.0 30.0 30.0 30.0 29.8 29.3 29.4 29.5 29.2 29.6 29.8 30.2 30.9 31.8 32.7 38.3 39.9 39.9 37.9 37.9 37.9 37.9 39.1 39.3 39.7 40.1 40.1 40.0 42.1 43.4 47.1 48.0 48.1 49.0 49.9 50.1 54.0 59.1 59.0 59.1 60.0 60.5 60.1 59.9 59.9 58.0 53.9 50.4 50.7 49.7 48.9 48.9 49.8 49.2 44.0 42.5 41.4 40.0 40.0 40.0 40.0 40.0 40.7 42.6 44.4 46.2 49.0 50.0 50.0 50.0 49.7 49.8 49.5 49.2 48.3 46.6 42.5 48.8 50.0 50.0 50.0 50.0 50.0 58.5 52.1 55.0
-18.6 -17.6 -16.6 -15.6 -14.6 -13.6 -12.6 -11.7 -10.7 -9.7 -8.8 -7.9 -7.0 -6.1 -5.2 -4.3 -3.4 -2.5 -1.5 -0.7 1.2 6.8 20.0 21.0 20.0 20.0 20.3 20.0 20.0 20.0 20.3 23.9 28.9 29.8 29.7 29.6 29.7 29.7 29.7 29.7 30.1 38.6 40.0 39.9 37.6 34.0 31.7 30.0 30.0 30.0 30.0 30.0 29.8 29.3 29.5 29.6 29.3 29.6 29.9 30.5 31.5 32.3 33.4 37.9 39.6 39.4 37.9 37.9 38.0 38.9 39.9 40.0 40.5 40.8 41.1 41.0 44.7 45.3 48.1 48.6 49.1 49.6 49.6 50.7 54.1 57.5 58.3 59.8 60.0 62.7 60.3 60.0 60.0 59.6 57.0 50.7 51.2 50.4 49.3 48.4 49.1 48.3 44.3 42.8 41.6 40.2 40.0 40.0 40.0 40.0 40.4 43.0 45.5 48.0 50.7 54.5 52.7 51.2 50.2 50.2 49.9 49.8 49.3 47.5 44.5 48.0 50.0 50.0 50.0 50.0 50.4 59.6 53.7 58.0
-18.5 -17.6 -16.6 -15.6 -14.7 -13.8 -12.8 -11.8 -10.9 -9.9 -9.0 -8.0 -7.0 -6.1 -5.1 -4.2 -3.2 -2.3 -1.3 -0.4 3.1 10.3 21.0 20.1 20.0 20.0 20.5 20.0 20.0 20.0 20.7 26.6 29.7 29.1 29.1 29.1 29.1 29.1 29.1 29.1 29.6 38.2 40.0 39.5 36.4 32.8 30.5 30.0 30.0 30.0 30.0 30.0 29.8 29.5 29.7 29.7 29.5 29.8 30.2 31.1 32.0 32.8 33.8 37.7 39.1 38.8 37.9 37.9 38.4 39.4 40.1 40.3 41.2 41.6 42.3 42.2 45.4 46.2 47.9 48.8 49.4 50.0 51.3 53.7 57.7 58.1 59.4 62.1 67.8 69.3 66.7 61.4 60.8 58.4 54.0 50.1 50.0 50.0 49.9 48.6 48.1 47.2 44.1 42.5 41.0 40.0 40.0 40.0 40.0 40.0 40.3 43.0 45.7 47.8 50.0 53.0 50.0 50.0 50.0 50.0 49.8 49.6 49.0 47.5 45.8 47.5 50.0 50.0 50.0 50.0 54.7 60.0 59.9 60.0
-18.3 -17.4 -16.4 -15.4 -14.5 -13.6 -12.5 -11.6 -10.6 -9.6 -8.7 -7.7 -6.8 -5.8 -4.8 -3.9 -2.9 -2.0 -1.0 -0.0 5.0 17.5 20.4 20.0 20.0 20.0 20.3 20.0 20.1 22.2 26.0 29.8 30.0 29.8 30.0 29.8 30.0 30.0 30.0 30.0 30.0 36.0 40.2 39.1 35.3 31.8 30.0 30.0 30.0 30.0 30.0 30.0 29.9 29.7 29.8 29.8 29.9 29.8 30.3 31.1 31.8 32.7 33.5 36.9 38.6 38.6 37.9 37.9 37.9 38.4 39.8 39.9 40.9 41.9 43.1 43.5 45.8 46.8 48.5 49.4 49.8 50.7 54.9 57.0 59.3 59.3 60.0 60.0 60.0 63.1 60.1 60.0 59.5 56.6 52.1 49.8 49.7 49.9 49.3 47.9 47.9 45.8 42.6 41.5 40.5 40.0 40.0 40.0 40.0 40.0 41.6 44.3 47.0 48.5 49.6 51.3 50.0 50.0 50.0 50.0 49.6 49.3 48.9 47.6 46.9 47.8 50.0 50.0 50.0 50.3 51.6 57.9 58.5 60.0
-18.3 -17.3 -16.3 -15.4 -14.4 -13.5 -12.4 -11.5 -10.5 -9.5 -8.6 -7.6 -6.7 -5.7 -4.7 -3.7 -2.8 -1.8 -0.9 0.6 5.7 10.9 16.2 16.7 17.0 17.1 18.3 19.0 20.9 24.3 28.0 30.0 29.8 29.8 30.0 29.7 30.0 30.0 30.0 30.0 30.4 35.4 40.0 39.4 34.0 30.6 30.0 30.0 30.0 30.0 30.0 30.0 30.0 29.8 29.9 29.9 30.1 30.0 31.2 32.4 33.1 33.7 34.4 37.7 38.6 38.4 37.9 37.9 38.1 38.7 39.5 39.7 40.7 42.0 43.4 44.1 45.8 47.0 48.4 49.7 51.2 53.6 59.0 59.9 60.0 60.0 60.0 60.0 60.0 61.0 60.0 59.3 58.9 58.7 57.8 53.8 50.7 49.6 49.1 48.0 47.6 46.8 44.1 42.8 42.1 40.8 40.0 40.0 40.2 40.9 44.9 47.1 48.7 50.1 51.0 51.8 50.0 50.0 50.0 50.0 49.5 49.3 48.7 47.7 47.9 48.1 50.0 50.0 50.0 50.1 50.2 55.2 58.3 60.0
-18.2 -17.2 -16.2 -15.2 -14.2 -13.2 -12.2 -11.2 -10.2 -9.3 -8.3 -7.4 -6.4 -5.4 -4.5 -3.5 -2.5 -1.6 -0.7 1.3 6.1 10.5 13.6 15.3 16.5 17.4 18.7 18.9 20.1 21.4 25.3 29.5 29.3 29.3 29.3 29.3 29.3 29.3 29.3 29.4 30.8 34.3 39.4 35.9 30.4 30.0 30.0 30.0 30.0 30.0 30.0 30.0 30.0 29.8 29.9 29.9 30.0 30.3 31.2 32.1 33.0 33.6 34.4 37.1 38.1 37.9 38.5 37.9 38.5 39.3 39.7 40.0 41.2 42.5 43.9 44.8 46.3 47.4 48.7 50.1 51.5 55.8 59.9 60.0 60.0 59.5 59.8 59.8 59.9 60.4 60.0 60.0 60.0 60.0 59.9 60.0 55.8 50.7 50.0 50.0 50.0 50.0 50.0 49.6 47.9 43.2 41.1 40.7 42.7 44.5 48.5 49.8 50.1 52.2 53.7 52.1 50.0 50.0 50.0 50.0 49.5 49.1 48.6 47.7 49.4 48.8 50.0 50.0 50.0 50.0 50.0 52.3 56.8 60.0
-18.2 -17.2 -16.2 -15.1 -14.1 -13.1 -12.1 -11.1 -10.1 -9.2 -8.2 -7.2 -6.3 -5.3 -4.3 -3.3 -2.4 -1.4 -0.5 1.7 5.7 8.9 11.4 13.7 16.4 17.9 19.3 19.3 20.2 22.7 28.4 29.8 29.3 29.3 29.3 29.3 29.3 29.3 29.3 29.4 30.0 30.5 32.7 30.4 30.0 30.0 30.0 30.0 30.0 30.0 30.0 30.0 30.0 29.8 29.8 29.9 30.0 30.2 31.2 32.2 33.2 34.0 34.9 36.7 37.3 37.5 39.3 38.4 39.2 40.0 40.2 40.8 42.7 43.4 45.0 45.5 46.6 47.2 48.9 49.5 49.9 50.1 57.2 59.3 59.6 58.3 58.6 58.9 59.3 60.1 60.3 60.0 62.0 62.9 60.0 60.0 58.9 52.9 50.8 50.0 50.0 50.0 50.0 49.7 48.4 45.6 43.1 43.0 46.2 48.1 49.6 50.0 50.5 54.6 57.2 55.8 50.0 50.0 50.0 50.0 49.9 49.7 49.8 49.9 50.1 50.0 51.0 51.8 50.0 50.0 50.0 50.0 54.6 59.8
-18.1 -17.1 -16.1 -15.1 -14.1 -13.1 -12.1 -11.1 -10.1 -9.1 -8.1 -7.1 -6.2 -5.2 -4.2 -3.1 -2.2 -1.2 -0.2 2.9 7.3 11.7 13.0 15.7 17.9 18.5 19.8 20.5 24.1 28.0 30.0 30.0 29.8 29.7 30.0 29.8 30.0 30.0 30.0 30.0 30.0 30.0 30.0 30.0 30.0 30.0 30.0 30.0 30.0 30.0 30.0 30.0 30.0 29.8 29.8 29.8 30.0 30.0 31.0 32.3 33.6 34.8 35.7 37.0 37.9 38.9 40.0 39.8 39.9 40.3 41.0 41.4 42.9 43.5 45.8 46.1 46.8 46.9 49.6 49.7 49.7 49.8 50.4 54.1 56.8 57.8 58.6 59.4 59.4 61.0 65.2 69.0 70.1 69.7 63.6 61.3 58.2 53.7 51.8 50.0 50.0 50.0 50.0 49.7 48.7 47.1 45.7 46.2 48.8 49.8 50.6 51.3 54.4 58.9 60.0 58.9 56.4 51.9 51.6 50.3 49.9 49.7 49.7 49.9 51.7 53.7 59.6 58.9 52.9 50.0 50.0 51.7 55.7 59.1
-18.0 -17.0 -16.0 -15.0 -14.0 -13.0 -12.0 -11.0 -10.1 -9.1 -8.1 -7.0 -6.0 -5.0 -4.0 -2.9 -2.0 -1.0 0.4 4.9 9.9 20.2 20.0 20.0 20.0 20.0 21.2 22.6 25.6 27.9 29.2 29.5 28.8 28.8 29.2 29.1 29.3 29.5 29.6 29.8 30.0 30.0 30.0 30.0 30.0 30.0 30.0 30.0 30.0 30.0 30.0 30.0 30.0 29.8 29.8 29.8 30.0 30.0 30.7 32.0 33.3 34.2 35.3 36.8 37.2 37.7 39.8 39.4 39.9 40.1 41.7 42.2 43.4 44.1 46.8 47.0 47.5 47.7 49.9 50.0 49.9 50.0 53.5 56.7 57.7 58.7 59.2 60.2 61.4 66.2 67.1 68.8 70.3 70.0 63.8 60.4 57.5 54.0 51.9 50.0 50.0 50.0 50.0 49.7 49.1 48.7 46.5 46.6 48.0 48.9 50.0 50.4 56.5 60.0 60.0 59.8 57.0 53.3 52.1 50.1 49.9 49.6 49.6 49.7 52.1 58.5 60.0 60.0 56.5 50.3 50.4 53.6 57.0 59.3
-17.8 -16.8 -15.8 -14.8 -13.9 -12.9 -11.9 -10.9 -10.0 -9.0 -7.9 -6.9 -5.9 -4.8 -3.8 -2.8 -1.8 -0.8 1.2 6.3 13.2 20.1 20.0 20.0 20.0 20.6 22.1 22.9 23.1 22.9 26.4 27.8 26.3 26.3 26.8 27.0 27.4 28.1 28.7 29.4 30.0 30.0 30.0 30.0 30.0 30.0 30.0 30.0 30.0 30.0 30.0 30.0 30.0 29.8 29.8 29.9 30.0 30.1 30.9 32.3 33.7 34.6 35.4 37.4 37.6 37.8 39.5 39.4 39.6 39.8 40.4 41.7 43.0 44.3 47.6 47.8 48.1 49.3 50.6 51.3 50.1 50.2 56.2 57.9 58.1 59.6 59.9 60.4 64.8 68.4 66.2 65.3 68.1 63.6 59.6 57.8 54.2 52.6 50.6 50.0 50.0 50.0 50.0 49.9 49.9 50.0 49.8 49.2 48.8 48.4 50.0 50.0 52.5 59.3 60.0 59.8 56.9 53.8 51.9 50.0 49.8 49.6 49.6 49.7 52.5 59.4 60.0 60.0 59.7 55.3 53.8 57.8 59.8 60.0
-17.6 -16.6 -15.7 -14.7 -13.7 -12.7 -11.7 -10.8 -9.8 -8.8 -7.7 -6.7 -5.7 -4.6 -3.6 -2.6 -1.6 -0.5 2.4 7.5 17.3 20.3 20.0 20.0 20.6 22.3 25.0 24.9 24.7 23.7 26.2 26.8 26.3 26.3 27.1 27.3 27.8 28.4 29.0 29.6 30.1 30.0 30.0 30.0 30.0 30.0 30.0 30.0 30.0 30.0 30.0 30.0 30.0 29.8 29.8 29.9 30.0 30.5 31.4 33.5 35.0 35.7 36.3 38.0 38.0 38.2 39.4 39.4 39.7 39.7 40.5 41.9 43.2 44.3 48.9 49.0 48.5 49.3 50.2 50.2 50.1 50.1 53.0 56.2 59.1 60.3 61.8 66.7 69.9 70.0 68.5 65.5 64.3 60.2 58.7 55.8 52.9 51.5 50.0 50.0 50.0 50.0 50.0 49.9 50.0 50.0 49.9 49.9 50.0 49.6 50.0 50.0 50.7 57.1 59.2 59.9 57.0 53.5 51.4 50.0 49.7 49.7 49.9 50.8 54.4 57.5 60.0 60.0 59.2 57.9 56.7 59.0 59.9 60.0
-17.3 -16.3 -15.3 -14.4 -13.4 -12.5 -11.5 -10.6 -9.6 -8.6 -7.5 -6.5 -5.4 -4.4 -3.4 -2.3 -1.3 -0.3 3.8 9.0 20.1 20.1 20.1 20.0 21.8 24.8 28.4 27.4 26.6 24.8 26.1 26.3 26.3 26.3 27.5 27.8 28.3 28.8 29.3 29.7 30.3 30.0 30.0 30.0 30.0 30.0 30.0 30.0 30.0 30.0 30.0 30.0 30.0 29.9 29.9 29.9 30.2 31.0 32.1 35.0 36.6 36.9 37.1 38.1 38.2 38.6 39.6 39.9 40.3 40.9 44.2 45.3 47.1 48.6 50.0 50.0 49.7 49.9 50.1 50.3 50.1 50.1 51.3 55.6 59.6 61.5 63.2 66.7 69.6 70.0 69.0 65.6 63.8 60.6 58.7 54.9 51.6 51.7 50.5 50.0 50.0 50.0 50.0 49.9 50.0 50.0 49.9 49.9 50.0 50.0 50.0 50.3 52.1 59.7 59.3 58.4 50.0 50.0 50.0 50.0 49.7 49.7 49.8 51.1 53.9 56.6 59.5 60.0 60.0 59.0 57.9 58.9 59.9 60.0
-17.0 -16.0 -15.1 -14.1 -13.2 -12.3 -11.3 -10.4 -9.4 -8.4 -7.3 -6.3 -5.2 -4.2 -3.1 -2.1 -1.1 -0.0 4.6 9.6 20.3 19.9 20.2 22.1 24.9 28.2 30.6 29.8 29.4 30.0 29.1 27.6 27.8 28.4 30.0 29.8 30.0 30.0 30.0 30.1 30.5 30.0 30.0 30.0 30.0 30.0 30.0 30.0 30.0 30.0 30.0 30.0 30.0 29.9 29.9 29.9 30.5 31.3 32.6 36.6 37.9 37.8 37.7 38.4 38.6 39.1 40.1 41.4 42.0 42.7 45.1 46.1 47.5 48.8 50.0 50.0 50.1 49.8 50.5 52.4 52.0 50.9 57.0 58.3 59.8 61.6 63.9 66.6 69.2 69.6 69.5 63.2 61.0 59.5 58.0 51.4 50.1 50.5 50.1 50.0 50.0 50.0 50.0 49.9 50.0 50.0 49.9 49.8 50.0 50.2 51.0 53.2 58.3 60.0 59.6 57.9 51.1 51.0 50.0 50.0 49.7 49.7 49.9 51.8 54.3 57.0 59.7 60.0 60.0 59.4 58.8 59.0 59.9 60.0
-16.7 -15.7 -14.8 -13.9 -12.9 -12.0 -11.1 -10.2 -9.1 -8.1 -7.1 -6.0 -5.0 -4.0 -2.9 -1.9 -0.9 0.8 5.7 10.2 17.7 18.3 19.1 22.1 25.6 29.6 31.2 30.0 29.6 30.0 29.2 26.8 27.3 28.5 30.0 29.9 30.0 30.0 30.1 33.4 33.7 30.1 30.0 30.0 30.0 30.0 30.0 30.0 30.0 30.0 30.0 30.0 30.0 29.9 29.9 29.9 30.6 31.6 32.9 38.0 39.0 38.6 38.4 38.8 39.0 39.4 40.2 41.7 42.8 43.7 45.1 45.3 46.4 47.3 49.7 49.8 50.5 52.3 54.6 55.0 53.9 53.5 57.7 58.6 59.3 60.8 63.5 66.5 69.4 70.0 70.0 66.7 61.9 57.5 52.7 50.0 50.0 50.0 50.0 50.0 50.0 50.0 50.0 49.9 50.0 50.0 50.0 49.8 50.0 50.0 50.2 53.4 57.1 60.0 59.8 58.2 50.4 50.1 50.3 50.4 49.9 51.0 51.6 55.1 57.4 59.5 60.0 60.0 60.0 61.7 60.4 60.0 59.9 60.0
-16.4 -15.5 -14.6 -13.7 -12.8 -11.9 -11.0 -10.1 -9.0 -8.0 -6.9 -5.9 -4.8 -3.8 -2.7 -1.7 -0.6 1.5 5.5 9.5 14.3 17.0 19.6 23.5 27.9 30.9 35.4 30.0 29.9 30.0 29.3 25.9 26.9 28.4 30.0 29.9 30.0 30.0 33.2 40.0 40.4 36.9 30.0 30.0 30.0 30.0 30.0 30.0 30.0 30.0 30.0 30.0 30.0 29.9 29.9 29.9 30.8 32.0 33.7 39.2 39.7 39.4 39.2 39.6 39.6 39.7 40.4 41.8 43.4 44.9 45.9 45.7 46.8 47.8 49.2 50.0 51.1 55.3 57.1 56.4 55.7 55.5 58.3 59.0 59.2 59.9 60.2 61.1 63.4 69.9 69.5 60.0 60.4 58.4 54.9 50.5 50.1 50.0 50.0 50.0 50.0 50.0 50.0 49.9 50.0 50.0 49.9 49.8 50.0 50.0 50.0 51.4 54.9 59.7 59.5 59.6 54.7 51.7 52.2 51.2 50.4 52.4 53.7 55.7 57.2 59.0 60.0 60.0 60.0 65.2 61.9 61.3 60.0 60.0
-16.1 -15.2 -14.3 -13.4 -12.5 -11.6 -10.7 -9.8 -8.7 -7.7 -6.6 -5.6 -4.6 -3.5 -2.5 -1.5 -0.5 2.0 5.8 9.7 13.8 16.9 20.1 24.1 28.5 36.8 40.0 35.2 31.3 30.0 29.0 24.0 26.0 28.4 30.0 29.9 30.0 30.0 35.1 39.9 40.4 33.2 30.0 30.0 30.0 30.0 30.0 30.0 30.0 30.0 30.0 30.0 30.0 29.9 29.9 29.9 31.9 34.6 37.7 40.0 40.0 40.7 39.9 40.0 40.1 40.7 42.7 44.5 46.0 47.2 47.3 46.7 47.7 48.6 49.8 50.9 52.5 59.6 59.3 58.3 57.8 57.3 59.2 60.0 59.8 59.8 60.0 60.9 61.8 67.4 63.6 60.0 59.7 58.1 58.6 54.6 54.9 50.8 50.0 50.4 50.0 50.0 50.0 49.9 50.0 50.0 49.9 49.8 50.0 50.0 50.0 54.1 59.2 58.9 59.9 59.2 54.8 52.4 52.5 51.4 50.1 52.5 55.0 56.7 58.4 60.0 60.0 60.0 60.3 68.5 63.2 62.7 60.0 60.0
-15.8 -14.9 -14.0 -13.1 -12.2 -11.3 -10.4 -9.4 -8.4 -7.4 -6.3 -5.3 -4.3 -3.3 -2.3 -1.3 -0.3 3.3 8.1 12.4 15.9 19.0 21.7 25.9 30.2 39.5 40.2 35.8 30.9 30.0 28.0 21.1 24.1 28.4 30.0 30.0 30.0 30.3 35.0 36.1 30.5 30.0 30.0 30.0 30.0 30.0 30.0 30.0 30.0 30.0 30.0 30.0 30.0 29.9 29.9 29.9 32.3 35.7 39.1 40.2 40.5 46.3 40.7 40.7 41.6 42.4 45.6 47.0 48.2 49.0 48.4 48.0 48.8 49.6 51.6 55.1 59.8 60.0 60.0 59.7 59.8 59.9 59.8 60.1 60.9 61.9 64.7 66.2 62.1 65.3 67.7 60.0 60.0 60.0 60.0 59.1 60.0 58.3 52.6 53.1 50.8 50.0 50.0 49.9 50.0 50.0 49.9 49.8 50.0 50.0 50.1 54.2 58.4 56.4 56.6 56.0 51.4 51.5 51.7 51.4 50.4 50.7 56.0 57.6 57.5 59.9 59.9 59.9 60.5 70.0 64.5 64.0 60.0 60.0
-15.5 -14.6 -13.7 -12.8 -11.9 -11.0 -10.1 -9.1 -8.1 -7.1 -6.1 -5.1 -4.1 -3.1 -2.2 -1.2 -0.2 4.5 11.1 20.0 20.0 20.0 22.0 24.9 28.9 37.3 40.1 36.2 31.1 27.1 22.7 20.0 21.0 23.0 24.9 26.8 28.7 32.7 39.5 37.1 30.0 30.0 30.0 30.0 30.0 30.0 30.0 30.0 30.0 30.0 30.0 30.0 30.0 30.0 30.0 30.0 31.9 35.8 39.8 43.1 47.1 50.1 49.5 46.5 45.9 46.2 48.4 49.1 49.8 50.0 49.8 49.6 49.6 49.9 50.9 53.0 54.9 59.5 59.3 60.6 60.8 62.1 61.3 64.0 63.7 65.3 68.1 68.8 68.3 69.1 69.9 63.5 60.0 60.0 60.0 60.0 60.0 59.4 59.5 58.9 52.5 50.0 50.0 50.0 50.0 50.0 49.9 50.2 50.2 50.1 50.9 51.3 50.5 50.8 52.2 52.7 50.1 50.1 50.1 50.1 50.4 56.2 60.0 59.9 59.4 60.0 60.0 60.0 60.0 68.2 65.3 64.8 60.0 60.0
-15.2 -14.3 -13.4 -12.5 -11.6 -10.7 -9.7 -8.7 -7.8 -6.8 -5.8 -4.8 -3.9 -2.9 -2.0 -1.0 0.1 4.6 17.1 20.2 20.0 20.0 22.0 25.0 29.3 31.3 37.6 30.0 28.3 24.2 20.7 20.0 20.5 22.7 24.7 26.8 28.8 33.2 39.6 36.3 30.0 30.0 30.0 30.0 30.0 30.0 30.0 30.0 30.0 30.0 30.0 30.0 30.0 30.0 30.0 30.0 32.4 35.8 39.4 42.6 45.9 49.9 48.9 47.4 47.4 48.2 49.3 50.0 50.0 50.0 50.0 49.7 49.5 49.8 50.9 53.3 55.6 58.7 60.1 61.5 62.0 64.3 64.1 66.7 66.8 68.6 70.0 69.9 67.6 66.1 66.1 60.2 60.0 60.0 60.0 60.0 59.1 55.9 52.8 55.0 50.2 50.0 50.0 50.0 50.0 50.0 50.3 51.0 55.4 54.0 53.5 56.3 56.4 53.5 51.2 50.4 50.1 50.1 50.1 50.1 51.4 59.6 60.0 60.0 60.0 60.0 60.0 60.0 60.0 60.2 61.9 60.5 60.0 60.0
-15.0 -14.1 -13.2 -12.2 -11.3 -10.4 -9.5 -8.5 -7.5 -6.5 -5.6 -4.6 -3.6 -2.7 -1.7 -0.8 1.2 7.1 19.2 20.4 19.9 19.9 20.4 21.7 26.5 29.5 30.9 29.8 25.0 20.2 20.0 20.0 20.0 21.5 24.1 26.6 29.2 30.4 34.5 32.0 30.0 30.0 30.0 30.0 30.0 30.0 30.0 30.0 30.0 30.0 30.0 30.0 30.0 30.0 30.0 30.1 32.4 34.9 37.6 40.0 40.8 46.2 44.2 44.8 46.8 48.1 49.8 50.0 50.0 50.0 50.0 49.6 49.6 49.7 50.4 53.6 56.6 59.8 60.7 62.8 63.1 66.6 66.8 69.0 69.0 70.0 70.0 70.0 67.8 64.9 61.8 59.8 59.8 59.8 59.9 59.9 59.0 54.0 50.9 51.9 50.1 50.0 50.0 50.0 50.0 50.0 53.4 58.6 60.1 59.2 57.5 58.8 59.6 60.0 56.3 51.6 50.1 50.1 50.1 50.1 50.7 59.9 60.0 60.0 60.0 60.0 60.0 60.0 60.0 62.3 65.8 61.6 60.0 60.0
-14.8 -13.9 -13.0 -12.1 -11.2 -10.3 -9.3 -8.3 -7.3 -6.3 -5.4 -4.4 -3.4 -2.5 -1.5 -0.5 0.6 7.5 21.2 19.7 20.0 19.9 19.6 20.7 24.9 29.1 31.0 30.0 22.4 20.0 20.0 20.0 20.0 21.0 24.1 27.2 31.1 40.4 47.4 37.3 30.0 30.0 30.0 30.0 30.0 30.0 30.0 30.0 30.0 30.0 30.0 30.0 30.0 30.0 30.0 30.3 33.0 35.4 38.1 40.1 40.1 43.8 44.6 45.8 48.1 49.2 50.0 50.0 50.0 50.0 50.0 49.8 50.3 51.7 54.5 56.1 57.4 59.3 60.5 63.0 64.6 69.0 69.5 70.0 70.0 70.0 70.0 69.6 66.6 63.7 60.5 60.0 60.0 60.1 60.1 58.8 57.7 55.7 50.5 51.2 50.0 50.0 50.0 50.0 50.0 50.0 52.2 56.3 60.0 60.0 60.0 60.0 61.0 60.9 59.8 56.9 53.2 51.6 50.5 50.1 51.0 58.0 59.3 60.0 60.1 60.0 60.0 60.1 60.3 63.3 69.6 68.2 61.1 60.0
-14.6 -13.7 -12.8 -11.9 -11.0 -10.1 -9.1 -8.1 -7.1 -6.1 -5.1 -4.1 -3.1 -2.2 -1.2 -0.2 4.3 9.7 18.7 17.1 18.9 17.7 18.2 19.8 23.3 27.1 30.4 27.8 20.6 20.0 20.0 20.0 20.0 21.7 24.8 28.0 32.9 43.6 51.0 36.1 30.0 30.0 30.0 30.0 30.0 30.0 30.0 30.0 30.0 30.0 30.0 30.0 30.0 30.0 30.0 30.7 32.3 33.9 35.6 39.5 39.4 40.4 43.6 46.7 50.0 50.1 50.6 51.1 51.3 51.5 50.0 50.2 51.2 54.6 56.9 57.8 58.5 59.5 59.9 64.2 68.3 70.0 70.0 70.0 70.0 70.0 70.0 69.4 68.1 67.4 63.1 60.3 63.6 67.3 60.7 58.4 55.9 53.0 50.0 50.0 50.0 50.0 50.0 50.0 50.0 50.0 50.3 52.9 59.1 59.7 59.1 60.0 61.3 60.9 60.0 59.2 57.5 55.4 55.0 53.5 54.9 60.0 60.0 60.2 61.3 61.1 60.6 62.5 66.7 69.6 70.0 70.0 68.3 61.4
-14.4 -13.5 -12.6 -11.7 -10.8 -10.0 -8.9 -7.9 -6.9 -5.9 -4.9 -3.9 -3.0 -2.0 -0.9 0.4 5.5 10.1 14.6 15.4 17.3 16.9 17.9 19.5 20.1 21.2 23.7 20.2 20.0 20.1 20.0 20.0 20.0 22.4 25.4 28.3 34.0 46.0 47.0 30.0 30.0 30.0 30.0 30.0 30.0 30.0 30.0 30.0 30.0 30.0 30.0 30.0 30.0 30.0 30.1 31.5 33.0 34.3 35.8 38.7 38.8 39.8 44.0 48.6 51.5 53.0 58.2 59.6 59.2 58.5 51.1 51.8 53.0 57.5 58.5 59.0 59.5 60.0 60.5 65.0 68.0 70.0 70.0 70.0 70.0 70.0 70.0 70.0 70.0 70.0 67.1 67.5 70.0 70.0 66.6 59.3 56.1 55.0 50.0 50.0 50.0 50.0 50.0 50.0 50.2 51.1 53.3 56.6 59.2 59.4 59.3 60.0 60.9 61.7 60.3 59.5 58.4 57.4 57.8 57.0 57.4 60.0 60.0 60.4 60.7 61.4 61.4 60.4 66.2 68.9 70.0 70.0 69.8 60.0
-14.3 -13.4 -12.5 -11.6 -10.7 -9.8 -8.8 -7.8 -6.8 -5.7 -4.8 -3.7 -2.8 -1.8 -0.7 1.4 7.2 10.6 13.6 14.7 16.2 16.6 17.7 19.9 20.0 20.3 20.1 20.0 20.0 20.1 20.0 20.0 20.1 22.0 25.9 28.7 34.9 48.8 36.9 30.0 30.0 30.0 30.0 30.0 30.0 30.0 30.0 30.0 30.0 30.0 30.0 30.0 30.0 30.0 30.6 32.1 33.5 34.9 36.3 38.2 38.9 40.6 44.7 48.4 50.2 50.7 51.9 52.7 53.3 55.0 53.4 56.9 59.5 60.0 59.9 60.0 60.3 60.4 61.5 68.1 69.3 70.0 70.0 70.0 70.0 70.0 70.0 70.0 70.0 70.0 68.2 67.8 69.7 70.3 69.5 61.7 58.5 59.9 52.4 50.9 50.0 50.0 50.0 50.0 50.9 53.1 55.2 58.4 59.8 60.0 60.0 60.0 65.4 65.5 62.3 60.3 59.1 59.7 60.0 59.9 59.2 60.0 60.0 60.0 60.0 60.0 60.0 59.8 60.0 62.8 68.6 68.5 68.1 60.0
-14.1 -13.2 -12.4 -11.5 -10.6 -9.7 -8.6 -7.6 -6.5 -5.5 -4.5 -3.5 -2.5 -1.4 -0.4 3.5 9.5 11.2 13.7 14.8 16.0 17.4 19.0 20.0 20.3 20.2 20.0 20.0 20.0 20.1 20.1 20.0 20.0 20.0 22.4 28.0 36.7 42.9 33.8 30.0 30.0 30.0 30.0 30.0 30.0 30.0 30.0 30.0 30.0 30.0 30.0 30.0 30.0 30.0 30.2 31.7 33.1 34.5 35.9 38.1 38.9 40.0 43.0 46.3 49.3 50.1 51.7 52.7 53.2 54.8 54.9 57.7 59.6 60.0 59.9 60.4 61.7 62.3 66.6 69.9 69.9 70.0 70.0 70.0 70.0 70.0 70.0 70.0 70.0 70.0 69.2 69.4 69.8 69.8 66.3 61.5 59.2 59.9 54.4 52.7 51.4 50.0 50.0 50.0 56.8 55.8 57.8 60.0 60.0 60.0 60.0 60.0 68.5 69.2 68.4 63.4 61.2 62.9 60.0 60.0 59.8 60.0 60.0 60.0 60.0 60.0 60.0 59.8 60.0 61.6 63.7 65.7 65.7 60.0
-14.0 -13.1 -12.2 -11.4 -10.5 -9.5 -8.5 -7.4 -6.4 -5.3 -4.3 -3.3 -2.2 -1.2 -0.1 4.3 9.6 11.3 13.2 14.4 15.7 17.0 18.8 20.0 20.2 20.0 20.0 20.0 20.0 20.2 20.1 20.0 20.0 20.0 23.6 29.3 38.4 39.9 30.0 30.0 30.0 30.0 30.0 30.0 30.0 30.0 30.0 30.0 30.0 30.0 30.0 30.0 30.0 30.0 30.1 31.7 33.3 34.9 36.4 38.5 39.5 41.0 44.9 47.9 49.0 49.4 50.5 51.9 52.0 53.2 53.2 54.0 56.1 59.7 59.3 60.0 61.4 61.7 62.4 68.6 68.8 69.9 70.0 70.0 70.0 70.0 70.0 70.0 70.0 70.0 70.0 70.0 70.0 69.6 64.6 59.9 59.1 59.1 55.6 53.3 51.4 50.0 50.1 55.2 60.3 59.5 59.2 60.0 60.0 60.0 60.7 65.9 70.0 70.0 70.0 68.6 65.8 66.8 61.9 61.5 60.3 60.0 60.0 60.0 60.0 59.0 59.6 59.4 60.0 60.1 60.0 62.9 63.3 60.0
-13.9 -13.0 -12.1 -11.3 -10.4 -9.4 -8.3 -7.2 -6.2 -5.1 -4.0 -3.0 -1.9 -0.8 1.2 6.6 10.3 11.5 13.3 14.0 15.1 16.3 18.2 19.9 20.3 20.2 20.0 20.0 20.0 20.1 20.0 20.0 20.0 21.1 26.8 33.3 47.2 46.1 30.1 30.0 30.0 30.0 30.0 30.0 30.0 30.0 30.0 30.0 30.0 30.0 30.0 30.0 30.0 30.0 30.0 31.4 33.2 35.2 37.0 39.2 40.3 43.2 48.1 49.5 50.0 50.0 51.3 51.9 51.9 53.6 53.2 55.3 57.1 59.1 59.7 60.7 61.2 60.7 61.6 67.8 68.8 70.0 70.0 70.0 70.0 70.0 70.0 70.0 70.3 70.1 70.0 70.0 69.9 67.8 62.4 60.0 60.0 60.0 58.3 56.8 56.2 50.4 51.6 56.5 60.0 60.0 59.6 60.0 60.0 60.0 60.6 64.1 68.4 70.0 70.0 69.7 69.0 70.0 68.1 65.1 61.1 60.9 61.2 60.0 60.0 58.7 58.3 55.5 57.8 58.6 59.0 60.1 60.9 60.0
-13.7 -12.8 -12.0 -11.1 -10.2 -9.2 -8.1 -7.0 -6.0 -4.8 -3.8 -2.7 -1.6 -0.5 3.0 8.8 10.8 11.3 13.0 13.4 14.7 16.5 18.8 20.0 20.0 20.0 20.0 20.0 20.0 20.1 20.0 20.0 20.7 23.5 28.6 36.6 46.7 51.1 32.3 30.0 30.0 30.0 30.0 30.0 30.0 30.0 30.0 30.0 30.0 30.0 30.0 30.0 30.0 30.0 30.0 31.8 34.0 36.1 38.1 40.2 42.1 46.4 49.8 53.5 57.9 50.3 51.1 51.9 51.9 54.4 54.8 56.6 58.1 59.2 60.0 60.6 60.2 60.0 60.1 67.0 67.2 69.6 69.7 70.0 70.0 70.0 70.0 70.0 70.6 70.6 70.0 69.7 68.4 65.5 60.9 60.0 60.0 60.0 59.9 59.1 58.4 54.1 53.6 57.0 60.0 60.0 60.4 60.6 60.1 60.1 61.9 65.6 68.3 69.9 70.0 70.0 70.0 70.0 68.6 65.9 62.4 61.9 60.8 60.0 60.0 56.3 56.5 52.2 54.6 55.6 54.4 56.3 57.6 59.1
-13.5 -12.6 -11.8 -10.9 -10.0 -9.0 -7.8 -6.7 -5.7 -4.5 -3.4 -2.3 -1.2 -0.1 3.6 7.6 10.5 10.7 11.9 12.1 13.5 16.1 19.2 20.0 20.0 20.0 20.0 20.0 20.0 20.1 20.0 20.0 21.6 25.3 30.1 35.9 40.3 43.0 35.7 30.0 30.0 30.0 30.0 30.0 30.0 30.0 30.0 30.0 30.0 30.0 30.0 30.0 30.0 30.0 30.0 31.8 34.3 36.7 39.0 41.6 44.2 48.7 54.7 60.1 60.2 59.2 54.8 53.0 51.4 57.3 57.5 58.9 59.3 60.0 60.0 60.0 60.0 60.0 60.0 61.8 64.7 67.9 69.8 70.0 70.0 70.0 70.0 70.0 70.3 70.5 70.0 68.8 67.0 62.9 60.0 60.0 60.0 60.0 60.0 59.9 59.1 57.2 55.9 57.6 60.0 60.0 60.3 61.2 60.8 60.7 61.7 62.7 66.8 69.5 69.8 70.0 70.0 70.0 68.1 66.2 63.2 61.8 61.3 60.1 60.0 55.0 55.1 50.5 51.6 52.7 51.9 52.3 53.5 57.4
-13.3 -12.5 -11.6 -10.8 -9.9 -8.8 -7.6 -6.5 -5.4 -4.2 -3.2 -2.1 -0.9 0.5 4.8 7.8 10.1 10.0 10.3 10.5 10.9 11.1 12.3 19.4 19.1 20.0 20.0 20.0 20.0 20.1 20.0 20.0 22.2 25.9 30.5 37.4 40.5 39.4 30.0 30.0 30.0 30.0 30.0 30.0 30.0 30.0 30.0 30.0 30.0 30.0 30.0 30.0 30.0 30.0 30.0 31.4 34.3 36.9 39.6 42.8 46.6 51.1 59.4 60.0 60.0 57.8 50.9 50.6 50.1 56.5 56.4 57.0 57.8 60.0 60.0 60.0 60.0 60.0 60.0 60.3 62.2 66.0 69.3 69.9 69.6 69.4 69.4 69.9 70.1 70.0 69.3 68.9 68.2 61.8 60.0 60.0 60.0 60.0 60.0 60.0 59.5 58.9 57.9 59.1 60.0 60.1 61.1 62.1 61.5 61.9 64.1 64.4 68.9 70.0 69.1 69.0 68.6 68.4 61.2 63.0 62.2 60.4 60.2 60.4 59.7 54.7 51.0 50.0 49.2 49.9 49.7 50.0 50.0 55.6
-13.1 -12.3 -11.4 -10.6 -9.6 -8.5 -7.3 -6.3 -5.1 -3.9 -2.9 -1.7 -0.6 1.9 7.4 10.1 9.8 9.6 9.6 9.6 9.6 10.0 10.6 16.6 18.8 20.0 20.0 20.0 20.0 20.1 20.0 20.0 22.7 26.0 29.5 30.0 35.7 30.1 30.0 30.0 30.0 30.0 30.0 30.0 30.0 30.0 30.0 30.0 30.0 30.0 30.0 30.0 30.0 30.0 30.7 33.1 35.5 37.6 39.8 43.3 47.5 53.1 60.1 60.3 57.4 51.9 50.0 50.0 50.0 50.0 51.1 52.3 56.1 59.3 59.9 59.8 59.8 59.9 60.0 62.1 64.5 67.3 69.2 69.6 69.4 69.4 69.7 69.9 70.0 70.0 70.0 70.0 69.8 61.5 60.0 60.0 60.0 60.0 60.0 60.0 60.0 60.0 59.9 59.6 60.0 60.0 60.1 60.8 60.2 60.2 60.4 60.2 62.8 67.8 66.5 67.0 65.1 64.1 60.0 60.2 60.2 60.0 59.9 60.0 60.0 58.3 51.8 50.0 48.5 48.2 48.9 50.0 50.0 54.9
-12.9 -12.0 -11.2 -10.4 -9.4 -8.2 -7.1 -6.0 -4.9 -3.7 -2.6 -1.5 -0.4 4.4 10.4 16.9 16.9 16.0 17.4 19.4 14.4 10.2 9.8 10.6 19.2 20.0 20.0 20.0 20.0 20.1 20.0 20.1 22.6 25.5 28.2 30.0 30.5 30.0 30.0 30.0 30.0 30.0 30.0 30.0 30.0 30.0 30.0 30.0 30.0 30.0 30.0 30.0 30.0 30.1 32.1 34.7 36.5 38.1 39.9 43.1 47.4 50.3 57.7 59.4 51.7 50.0 50.0 50.0 50.2 52.1 53.5 55.7 58.2 59.6 61.9 60.2 60.0 62.4 64.2 68.8 68.9 69.7 69.5 69.4 69.4 69.7 70.0 70.0 70.8 71.0 70.8 70.0 70.0 66.2 60.4 60.0 60.0 60.0 60.0 60.0 60.0 60.0 59.6 59.8 60.0 60.0 60.0 60.7 60.0 60.0 60.0 60.0 60.4 62.6 62.2 62.3 61.4 60.1 60.0 60.0 60.0 59.9 58.8 58.6 58.9 51.7 50.8 50.0 48.8 48.1 48.9 50.0 50.0 52.7
-12.6 -11.8 -11.0 -10.2 -9.1 -8.0 -6.8 -5.7 -4.6 -3.5 -2.4 -1.3 -0.1 6.4 19.3 20.0 20.4 20.1 20.4 20.9 20.0 20.0 21.1 20.0 20.0 20.0 20.0 20.0 20.0 20.1 20.0 20.1 20.9 24.3 27.1 29.6 29.8 29.8 29.8 29.8 29.8 29.8 29.8 29.8 29.8 29.8 29.8 29.8 29.8 29.8 29.8 29.8 29.8 29.9 31.7 34.1 36.3 37.7 39.4 42.0 46.2 49.8 52.2 52.8 50.3 49.6 50.0 50.0 51.1 52.9 54.6 57.4 59.4 60.2 67.9 61.2 60.3 65.9 68.8 69.7 69.6 69.9 69.9 69.4 69.5 70.0 70.0 70.0 71.2 70.9 71.1 70.0 70.0 66.4 61.9 60.0 60.0 60.0 60.0 60.0 60.0 60.0 59.6 59.8 60.0 60.0 60.0 60.7 60.0 60.0 60.0 60.0 59.9 60.0 60.2 61.3 59.7 59.7 60.0 60.0 60.0 60.0 59.7 57.5 56.7 50.1 50.0 50.0 47.9 48.7 49.9 50.0 50.0 50.5
-12.4 -11.6 -10.8 -10.0 -8.8 -7.7 -6.5 -5.4 -4.3 -3.1 -2.0 -0.9 1.2 10.1 20.0 20.0 20.0 20.0 20.0 19.9 20.0 20.0 20.1 20.0 20.0 20.0 20.0 20.0 20.0 20.1 20.0 20.3 23.9 27.6 29.9 31.1 30.0 30.0 30.0 30.0 30.0 30.0 30.0 30.0 30.0 30.0 30.0 30.0 30.0 30.0 30.0 30.0 30.0 30.2 32.2 34.7 37.2 38.1 38.8 40.1 41.3 47.2 49.4 49.3 49.0 47.7 48.5 49.6 51.4 53.0 55.2 58.2 61.2 66.2 70.1 69.9 68.8 69.9 70.0 70.0 70.0 70.6 70.1 70.0 70.0 70.0 70.0 70.0 71.3 71.7 71.5 70.0 70.0 68.2 61.7 60.0 60.0 60.0 60.0 60.0 60.0 60.0 59.6 59.6 60.0 60.0 60.0 60.4 60.0 60.0 60.0 60.0 59.9 60.0 60.6 60.2 59.8 59.9 60.0 60.0 60.0 60.0 59.8 56.1 51.9 50.0 50.0 50.0 44.3 43.8 47.2 49.4 49.0 49.5
-12.1 -11.3 -10.5 -9.6 -8.5 -7.3 -6.3 -5.2 -4.0 -2.9 -1.8 -0.7 2.2 8.9 18.7 19.2 19.1 17.9 18.7 19.8 20.0 20.0 20.0 20.0 20.0 20.0 20.0 20.0 20.0 20.1 20.0 21.8 26.3 29.8 31.1 41.5 30.0 30.0 30.0 30.0 30.0 30.0 30.0 30.0 30.0 30.0 30.0 30.0 30.0 30.0 30.0 30.0 30.0 30.7 32.6 35.8 38.4 39.3 39.5 39.9 41.0 44.4 47.4 47.9 47.6 47.2 48.6 49.7 51.2 52.4 54.5 58.0 60.2 61.0 66.5 64.4 66.6 69.6 70.0 70.0 70.0 70.7 70.1 70.0 70.0 70.0 70.0 70.0 70.3 71.0 71.3 70.0 70.0 67.4 61.9 60.0 60.0 60.0 60.2 60.0 60.0 60.0 59.6 59.6 60.0 60.0 60.0 60.4 60.0 60.0 60.0 60.0 59.9 60.0 60.7 60.1 59.7 59.9 60.0 60.0 60.0 60.0 59.4 55.8 52.1 50.0 50.0 50.0 41.5 41.0 44.8 47.3 48.4 49.6
-11.8 -11.0 -10.2 -9.2 -8.1 -7.0 -5.9 -4.8 -3.8 -2.6 -1.6 -0.5 4.4 10.3 16.0 17.8 18.1 17.7 19.2 19.9 20.0 20.0 20.0 20.0 20.0 20.0 20.0 20.0 20.0 20.0 20.1 23.9 27.8 30.0 30.0 33.3 30.0 30.0 30.0 30.0 30.0 30.0 30.0 30.0 30.0 30.0 30.0 30.0 30.0 30.0 30.0 30.0 30.0 31.3 34.3 37.5 39.1 40.6 41.5 40.5 42.1 44.7 46.7 46.9 47.0 47.4 48.8 49.7 50.3 51.1 52.2 56.9 59.3 60.1 61.2 62.7 65.3 69.1 70.0 70.0 70.0 70.6 70.0 70.0 70.0 70.0 70.0 70.0 70.1 71.0 71.4 70.0 70.0 67.6 63.3 60.0 60.0 60.4 60.5 60.0 60.0 60.0 59.8 59.8 60.0 60.0 60.0 60.1 60.0 60.0 60.0 60.0 59.3 60.0 60.2 59.4 59.4 59.8 60.0 60.0 60.0 60.0 58.5 56.0 53.5 50.2 48.5 43.5 40.0 40.0 41.6 43.9 44.8 44.8
-11.6 -10.8 -10.0 -8.9 -7.8 -6.7 -5.7 -4.6 -3.5 -2.4 -1.3 -0.3 3.2 8.6 11.5 15.0 16.8 18.4 20.0 20.4 20.0 20.0 20.0 20.3 20.0 20.0 20.0 20.0 20.0 20.0 20.3 25.2 29.5 30.0 30.0 30.0 30.0 30.0 30.0 30.0 30.0 30.0 30.0 30.0 30.0 30.0 30.0 30.0 30.0 30.0 30.0 30.0 30.5 33.0 36.7 38.8 40.7 43.4 44.4 40.7 41.4 43.6 45.6 46.0 46.2 46.5 48.1 48.7 49.7 50.1 51.0 53.7 58.5 59.5 59.2 60.8 66.1 70.0 70.0 70.0 70.0 70.5 70.0 70.0 70.0 70.0 70.0 70.2 71.5 73.6 72.9 70.0 70.0 69.6 68.3 62.8 62.2 63.5 62.4 60.6 60.6 60.4 60.9 61.8 61.5 61.9 61.0 62.3 60.0 60.0 60.0 60.0 53.0 57.0 55.7 57.7 59.3 59.8 60.0 60.0 60.0 58.6 55.7 55.4 53.8 50.9 49.9 44.8 40.0 40.0 40.2 41.2 42.8 42.9
-11.3 -10.5 -9.7 -8.6 -7.5 -6.4 -5.5 -4.4 -3.3 -2.3 -1.2 -0.2 4.9 10.1 13.2 15.9 17.2 18.7 20.0 20.4 20.0 20.0 20.0 20.2 20.0 20.0 20.0 20.0 20.0 20.0 20.0 27.9 30.0 30.0 30.0 30.0 30.0 30.0 30.0 30.0 30.0 30.0 30.0 30.0 30.0 30.0 30.0 30.0 30.0 30.0 30.0 30.0 31.7 34.5 38.4 40.0 42.7 49.0 48.2 40.9 41.1 42.0 44.7 45.2 45.6 45.9 47.9 48.3 49.4 49.7 50.2 52.9 56.7 58.2 60.1 62.2 66.6 70.0 70.0 70.0 70.0 72.3 73.0 70.4 70.0 70.0 70.0 73.6 77.8 77.9 76.0 70.0 70.0 70.0 69.0 66.5 65.3 65.7 63.8 61.5 61.2 60.7 62.7 63.9 64.0 64.7 61.7 68.0 60.2 60.1 58.7 56.7 50.3 52.0 50.0 50.0 50.3 51.1 58.3 58.5 57.0 54.2 51.5 50.9 50.7 50.0 49.7 45.6 40.1 40.0 39.1 39.4 40.7 41.0
-11.0 -10.3 -9.3 -8.3 -7.2 -6.2 -5.2 -4.2 -3.2 -2.1 -1.1 -0.1 6.2 10.7 13.3 15.6 17.9 18.6 19.9 20.2 20.0 20.0 20.0 20.1 20.0 20.0 20.0 20.0 20.0 20.0 21.4 29.1 30.0 30.0 30.0 30.0 30.0 30.0 30.0 30.0 30.0 30.0 30.0 30.0 30.0 30.0 30.0 30.0 30.0 30.0 30.0 30.5 33.9 37.2 40.4 42.5 48.2 50.0 50.0 49.1 45.4 40.4 45.8 46.5 46.4 46.5 50.0 50.0 50.0 50.0 50.0 51.9 55.4 57.4 59.7 60.2 60.1 69.5 69.5 69.6 70.0 70.8 72.5 72.5 70.0 70.0 70.0 77.3 79.4 79.5 78.6 70.0 70.0 70.0 69.9 68.5 67.6 67.5 66.1 64.0 63.7 63.5 65.7 66.7 67.2 68.2 69.8 70.0 67.8 62.8 59.1 54.4 50.0 50.0 49.9 50.2 50.5 51.2 54.5 53.9 52.5 50.5 50.0 50.2 50.4 50.0 48.2 44.1 40.0 40.0 38.8 38.8 39.3 39.8
-10.8 -10.0 -9.0 -8.0 -7.0 -6.0 -5.0 -4.1 -3.0 -2.0 -1.0 -0.0 7.5 11.4 14.3 16.6 18.7 20.0 20.4 20.7 20.0 20.0 20.0 20.0 20.0 20.0 20.0 20.0 20.0 20.0 22.9 28.7 30.0 30.0 30.0 30.0 30.0 30.0 30.0 30.0 30.0 30.0 30.0 30.0 30.0 30.0 30.0 30.0 30.0 30.0 30.1 32.1 35.3 38.0 41.5 46.4 50.0 50.0 48.9 44.0 41.4 40.0 40.4 42.0 43.1 43.7 46.2 47.2 48.6 50.0 50.1 52.4 56.5 58.4 59.2 59.8 59.8 61.5 66.0 68.2 69.0 70.8 74.3 74.9 72.9 76.4 79.0 80.0 80.0 80.0 80.0 78.0 74.9 72.3 70.5 69.4 68.8 68.7 67.4 65.6 66.1 67.1 67.8 68.6 69.5 70.0 69.0 68.1 61.8 61.9 60.0 56.3 51.2 50.0 49.9 50.5 50.8 51.3 52.0 51.1 49.8 49.1 50.0 50.0 50.5 50.0 49.9 49.3 40.8 40.0 39.0 38.8 39.0 39.9
-10.5 -9.7 -8.7 -7.7 -6.7 -5.7 -4.8 -3.8 -2.8 -1.8 -0.8 1.6 10.0 12.5 15.9 17.6 19.8 20.0 20.7 20.9 20.0 20.0 20.0 20.0 20.0 20.0 20.0 20.0 20.0 20.9 23.3 28.4 29.9 30.0 30.0 30.0 30.0 30.0 30.0 30.0 30.0 30.0 30.0 30.0 30.0 30.0 30.0 30.1 31.4 30.4 31.6 33.9 37.5 39.0 42.0 47.0 50.1 49.9 46.6 41.7 40.1 40.0 40.5 41.9 42.9 43.1 46.5 47.7 49.2 50.6 51.0 53.9 58.2 58.9 59.1 60.5 62.6 68.8 68.8 68.9 70.4 74.5 78.0 77.6 73.2 75.9 77.9 79.9 80.0 80.0 80.0 79.0 76.2 71.9 70.6 70.2 70.2 70.2 69.8 69.1 68.2 69.2 69.1 70.0 70.0 70.0 69.0 66.5 60.4 61.6 60.5 57.4 52.4 50.0 49.7 49.5 50.2 50.3 49.8 49.2 48.8 49.7 50.0 50.3 50.0 49.4 49.6 50.3 47.5 40.0 39.6 38.8 39.3 39.9
-10.3 -9.3 -8.4 -7.4 -6.4 -5.3 -4.5 -3.5 -2.5 -1.5 -0.5 4.4 11.1 13.3 16.8 18.4 20.0 20.0 20.9 21.3 20.0 20.0 20.0 20.0 20.0 20.0 20.0 20.0 20.0 22.3 25.7 29.9 30.0 30.0 30.0 30.0 30.0 30.0 30.0 30.0 30.0 30.0 30.0 30.0 30.0 30.0 30.0 30.3 31.8 31.7 33.3 35.1 37.7 39.0 41.7 45.4 50.0 48.8 43.4 40.1 40.0 40.0 40.0 41.2 41.9 41.9 46.4 47.6 49.2 50.4 52.5 55.9 59.3 59.8 60.0 61.7 65.6 69.9 69.7 70.5 75.4 79.3 79.9 79.9 78.3 78.6 79.5 80.0 80.0 80.0 79.7 77.5 73.4 70.3 70.1 70.0 69.6 70.0 69.8 68.5 68.4 69.8 69.9 70.0 70.0 69.4 65.6 62.3 59.9 60.2 60.1 58.1 52.3 50.0 49.7 49.0 50.0 50.1 49.4 48.4 48.3 49.5 49.9 50.3 49.9 48.3 47.6 48.4 42.7 40.8 39.8 38.8 39.3 39.9
-10.0 -9.0 -8.0 -7.1 -6.1 -5.1 -4.2 -3.2 -2.2 -1.3 -0.3 7.3 11.8 14.0 17.6 19.1 20.1 20.0 20.9 21.7 20.0 20.0 20.0 20.0 20.0 20.0 20.0 20.0 20.0 20.2 20.2 21.5 22.0 22.6 23.2 27.1 26.4 26.5 26.6 26.6 26.6 27.1 27.6 28.1 28.7 29.2 29.8 30.9 32.3 32.5 34.5 35.7 37.5 38.8 40.0 40.0 45.2 42.2 40.1 40.0 40.0 40.0 40.0 40.1 40.5 40.5 45.3 46.4 48.3 49.5 51.2 55.6 59.9 60.5 61.1 66.4 69.9 71.5 75.8 79.6 80.0 79.9 79.9 80.0 78.9 77.6 76.3 79.9 78.9 79.5 76.3 71.8 70.7 69.5 68.6 67.4 66.3 68.7 67.8 65.9 68.5 69.9 70.0 70.0 69.6 67.2 63.0 60.2 59.8 59.6 60.0 59.9 54.5 50.0 49.8 47.3 46.8 47.7 46.3 46.9 47.9 49.0 49.6 50.1 49.9 47.9 46.1 42.7 40.5 40.4 39.7 37.7 38.8 39.9
-9.7 -8.7 -7.7 -6.7 -5.8 -4.8 -3.9 -2.9 -2.0 -1.0 0.2 9.4 12.8 14.8 18.5 19.8 20.2 20.0 21.4 23.0 20.0 20.0 20.0 20.0 20.0 20.0 20.0 20.0 20.0 20.0 20.0 21.6 22.2 22.9 23.6 26.8 26.3 26.4 26.7 27.1 27.7 28.3 29.0 29.7 30.1 30.0 30.1 33.2 34.0 33.0 35.8 36.1 37.5 38.2 39.7 40.0 41.3 40.1 40.0 40.0 40.0 40.0 40.0 40.0 40.0 40.0 41.8 44.7 48.3 49.7 53.6 58.6 60.2 60.0 60.7 67.7 70.4 74.1 79.7 80.0 80.0 79.7 78.5 78.0 72.1 72.9 72.2 79.6 76.8 76.8 73.3 70.5 69.9 68.8 67.0 64.5 62.2 67.3 64.7 61.0 63.0 64.7 69.9 69.9 68.3 64.1 61.0 60.0 59.8 59.4 60.0 60.1 57.3 50.2 49.9 44.7 43.1 44.7 43.8 44.5 44.9 45.9 48.4 49.4 50.1 48.2 42.4 39.6 39.6 38.3 32.7 33.3 37.8 40.0
-9.4 -8.4 -7.5 -6.5 -5.5 -4.5 -3.6 -2.7 -1.7 -0.7 2.5 17.1 18.4 18.7 19.8 20.0 20.6 20.0 22.8 25.8 20.0 20.0 20.0 20.0 20.0 20.0 20.0 20.0 20.0 20.6 20.0 20.3 21.1 21.9 22.7 25.0 25.3 25.8 26.4 26.9 27.7 28.5 29.4 30.0 30.3 30.3 30.3 32.3 32.8 33.4 37.1 36.4 36.2 37.3 39.7 39.9 39.9 39.8 39.4 39.4 39.7 39.8 40.2 40.2 40.0 41.2 44.6 46.9 49.7 50.7 51.9 54.9 59.6 59.2 60.0 66.3 69.5 73.4 78.2 80.0 80.0 79.8 78.3 76.4 70.7 72.0 71.6 79.7 74.7 74.0 70.7 70.1 68.3 65.4 62.9 60.5 60.0 60.0 60.3 60.0 60.0 60.0 69.5 69.3 65.9 61.6 60.0 59.9 58.4 56.7 58.0 56.3 50.4 49.6 45.1 40.6 40.1 41.2 45.6 49.0 45.1 43.3 47.1 49.7 50.2 48.8 42.1 38.5 38.5 34.7 30.4 30.2 31.9 34.9
-9.1 -8.1 -7.2 -6.2 -5.2 -4.3 -3.4 -2.4 -1.4 -0.5 4.3 20.0 19.9 19.9 20.0 20.0 21.1 20.0 24.6 28.2 20.0 20.0 20.4 20.0 20.0 20.0 20.0 20.7 27.2 30.0 30.0 30.0 30.0 30.0 30.0 30.0 30.0 30.0 30.0 30.0 30.0 30.0 30.0 30.0 30.4 30.6 30.8 32.4 32.9 34.1 38.8 37.6 36.4 38.0 39.4 39.6 39.6 39.4 39.4 39.6 40.1 40.5 41.7 42.1 40.4 43.4 47.5 48.6 50.3 50.4 50.9 55.9 58.5 59.4 62.8 69.8 70.6 74.5 78.0 80.0 80.0 78.3 75.5 72.8 69.9 72.3 75.9 80.0 75.2 71.4 68.6 67.9 64.6 62.2 60.2 60.0 60.0 60.6 60.2 60.0 60.0 60.0 68.4 68.1 64.0 61.7 60.0 60.0 57.6 54.9 52.7 49.8 49.7 48.6 42.1 40.0 40.0 40.0 40.0 40.0 40.2 40.1 41.9 47.1 49.8 47.7 41.1 37.0 34.3 30.4 30.0 30.0 29.9 31.8
-8.8 -7.8 -6.8 -5.9 -5.0 -3.9 -3.0 -2.1 -1.1 -0.1 9.0 17.2 17.9 18.7 20.0 20.0 21.2 20.0 25.9 29.6 20.0 20.0 20.5 20.0 20.0 20.0 20.3 21.1 21.2 21.8 22.3 22.9 23.4 24.0 24.6 27.1 27.0 27.0 27.1 27.5 27.9 28.5 29.0 29.7 30.5 31.3 32.2 36.0 37.8 39.5 40.0 39.5 39.8 39.2 40.0 40.0 40.0 40.0 40.0 40.0 40.8 41.3 42.6 43.8 42.6 44.7 48.6 48.5 49.7 49.8 50.2 54.1 57.3 59.3 62.3 68.7 69.5 70.0 71.4 78.3 78.0 72.1 70.9 70.0 69.8 70.7 72.4 79.1 72.9 71.0 68.3 65.2 62.6 60.3 60.0 60.0 60.0 60.8 60.1 60.0 60.4 64.3 70.0 69.3 65.8 61.7 60.4 59.4 56.6 53.8 51.2 49.5 49.8 49.8 45.2 40.2 40.0 40.0 40.3 40.2 40.1 39.6 39.9 40.7 44.6 40.5 39.6 36.8 34.5 30.5 30.0 30.0 29.9 30.7
-8.4 -7.5 -6.5 -5.6 -4.7 -3.6 -2.7 -1.7 -0.8 1.7 10.4 17.7 18.0 19.0 21.2 22.9 25.7 27.4 29.7 30.0 29.9 29.2 26.6 29.4 22.2 21.0 24.4 28.3 30.0 30.0 30.0 30.0 30.0 30.0 30.0 30.0 30.0 30.0 30.0 30.0 30.0 30.0 30.0 30.0 30.2 30.2 31.1 35.4 37.0 38.6 40.0 39.9 39.9 39.7 40.0 40.0 40.0 40.0 40.0 40.2 41.2 41.9 43.1 44.7 44.7 46.0 49.3 49.0 49.3 49.5 50.4 53.8 56.7 59.1 62.3 66.6 69.1 70.0 70.7 75.1 74.3 71.2 70.2 69.6 69.6 69.9 70.0 73.0 70.3 69.2 65.2 61.8 60.0 59.9 60.0 60.0 60.0 60.7 60.1 60.0 60.9 65.9 70.0 69.4 64.6 60.0 59.8 58.9 56.7 52.8 53.5 50.1 50.2 50.3 49.1 43.9 41.2 40.3 40.0 40.0 39.8 39.0 39.3 40.1 41.4 40.0 38.1 36.1 34.5 31.2 30.4 30.0 29.9 30.0
-6.8 -5.0 -3.3 -1.6 0.1 1.2 3.6 5.4 7.1 7.8 16.9 20.0 19.8 19.8 21.2 23.0 26.1 27.5 29.8 30.0 29.9 28.6 27.7 29.4 25.1 22.9 28.6 29.6 30.0 30.0 30.0 30.0 30.0 30.0 30.0 30.0 30.0 30.0 30.0 30.0 30.0 30.0 30.0 30.0 30.0 30.0 30.3 32.5 34.8 37.1 39.3 40.0 40.0 40.0 40.0 40.0 40.0 40.0 40.0 40.5 41.5 42.4 43.6 46.1 46.8 47.6 49.8 49.5 49.4 49.7 51.7 54.8 57.4 59.8 62.2 65.4 69.2 69.9 70.3 72.0 71.3 70.2 69.1 68.0 67.4 68.6 69.2 69.3 68.7 65.9 61.1 60.0 59.9 59.9 60.0 60.0 60.0 60.1 60.0 60.0 60.6 64.3 68.5 69.8 64.3 59.5 59.1 58.9 56.4 51.0 51.8 50.6 50.8 50.5 49.0 45.1 41.8 41.1 39.8 39.0 38.6 36.9 36.4 38.1 38.8 38.5 35.4 33.1 32.4 30.7 30.1 30.0 29.9 30.0
-6.1 -4.4 -2.6 -0.8 0.8 1.7 4.3 6.1 7.8 9.4 20.5 20.2 20.0 19.9 20.8 21.8 26.8 26.5 28.4 29.7 26.6 23.9 26.6 28.4 27.9 29.4 30.0 30.0 30.0 30.0 30.0 30.0 30.0 30.0 30.0 30.0 30.0 30.0 30.0 30.0 30.0 30.0 30.0 30.0 30.0 30.0 30.1 32.2 34.5 36.8 39.1 40.0 40.0 40.0 40.0 40.0 40.0 40.0 40.0 41.3 42.7 43.7 45.4 47.6 49.2 49.4 50.6 50.1 50.0 50.0 51.0 54.7 57.9 60.9 64.9 68.5 70.0 70.0 70.9 71.3 70.9 69.1 67.7 66.8 66.4 67.5 67.7 67.3 65.9 62.7 60.4 60.0 59.9 59.9 60.0 60.0 60.0 59.9 60.0 60.0 60.2 61.4 65.5 69.5 61.7 59.8 59.1 58.6 52.0 50.0 50.1 50.0 50.0 49.7 47.6 44.6 40.2 40.9 40.5 39.5 38.6 37.1 35.8 36.2 36.9 37.0 34.2 32.7 32.1 30.7 30.3 30.0 29.9 30.0
-5.6 -3.8 -2.1 -0.3 1.3 2.1 4.7 6.5 8.2 10.6 21.0 19.7 20.0 19.9 20.4 21.0 28.7 26.1 26.8 27.8 24.7 21.2 26.3 27.9 29.0 29.5 30.0 30.0 30.0 30.0 30.0 30.0 30.0 30.0 30.0 30.0 30.0 30.0 30.0 30.0 30.0 30.0 30.0 30.0 30.0 30.0 30.1 32.2 34.6 36.9 39.3 40.0 40.0 40.0 40.0 40.0 40.0 40.0 40.8 42.5 44.1 45.7 47.6 49.5 50.6 52.2 53.5 55.3 53.6 50.7 53.7 56.7 59.2 59.8 63.7 68.0 69.9 69.9 70.6 71.0 70.1 67.8 66.5 65.8 65.7 65.9 65.5 64.4 62.4 60.4 60.0 60.0 59.9 60.0 60.0 60.0 60.0 59.9 60.0 60.0 60.0 60.0 62.8 66.9 60.8 60.0 60.0 59.9 54.9 50.2 49.4 49.8 49.9 49.0 43.6 40.9 39.9 40.0 39.9 39.1 38.4 36.3 34.2 34.5 35.3 35.6 32.8 31.6 30.9 30.2 30.4 30.0 29.9 30.0
-7.4 -6.5 -5.6 -4.8 -3.9 -2.8 -2.1 -1.2 -0.3 13.3 19.2 18.0 18.7 19.4 22.8 27.4 30.0 29.6 28.9 27.3 28.8 21.4 29.7 29.9 30.0 29.7 30.0 30.0 30.0 30.0 30.0 30.0 30.0 30.0 30.0 30.0 30.0 30.0 30.0 30.0 30.0 30.0 30.0 30.0 30.0 30.0 30.0 31.5 34.1 36.6 39.2 40.1 40.2 40.0 40.0 40.0 40.3 40.3 42.2 44.9 46.7 48.0 49.2 50.6 52.6 55.7 57.7 60.0 59.5 57.0 58.8 59.9 60.1 60.0 60.4 61.9 66.9 68.2 69.3 69.1 67.9 65.8 64.8 64.1 63.8 64.3 63.9 63.0 61.8 60.5 60.0 60.0 59.8 59.9 60.0 60.0 59.8 59.8 60.0 60.0 60.0 60.0 62.1 64.5 61.4 60.0 60.0 60.0 58.7 51.0 49.0 49.0 49.2 47.7 42.0 40.7 39.8 39.6 39.5 37.7 37.1 33.9 32.0 32.4 33.3 32.9 31.1 30.3 30.0 29.9 30.0 30.0 29.9 30.0
-7.2 -6.3 -5.4 -4.5 -3.6 -2.6 -1.9 -1.0 -0.1 8.5 16.1 16.1 18.2 19.6 21.4 23.9 28.1 22.7 22.6 21.7 20.2 20.2 24.2 28.1 30.0 29.4 30.0 30.0 30.0 30.0 30.0 30.0 30.0 30.0 30.0 30.0 30.0 30.0 30.0 30.0 30.0 30.0 30.0 30.0 30.0 30.0 30.0 31.1 32.7 34.4 37.5 39.9 39.9 39.9 39.6 40.0 41.0 41.4 43.2 45.0 46.7 48.2 49.7 51.9 54.7 59.0 59.8 60.0 60.1 58.8 59.2 59.9 60.4 61.2 61.4 60.9 62.8 64.1 65.1 65.3 65.2 63.9 63.2 62.8 62.7 62.9 62.6 62.4 61.4 60.6 60.0 60.0 59.8 59.2 59.6 59.3 59.2 59.8 60.0 60.0 60.0 60.0 60.2 61.5 60.8 60.0 60.0 60.0 56.5 50.7 49.4 49.8 48.6 47.1 41.3 41.0 40.3 39.9 39.6 37.8 36.7 33.0 30.4 30.5 31.7 31.0 30.0 30.0 30.0 29.2 29.6 29.1 29.8 29.9
-6.8 -5.9 -5.1 -4.2 -3.4 -2.2 -1.6 -0.7 3.6 11.8 15.7 17.0 19.7 20.0 20.0 20.0 22.0 20.0 20.8 20.5 20.0 20.0 21.4 24.7 29.2 28.8 30.0 30.0 30.0 30.0 30.0 30.0 30.0 30.0 30.0 30.0 30.0 30.0 30.0 30.0 30.0 30.0 30.0 30.0 30.0 30.1 31.1 32.1 33.2 34.6 37.4 39.6 39.6 39.1 39.6 40.4 41.9 42.2 44.0 45.8 47.2 48.6 50.1 53.3 57.7 60.0 60.0 60.0 60.3 60.0 59.4 59.9 60.4 61.5 60.2 60.0 60.0 60.4 60.9 61.8 62.6 62.2 61.9 62.0 62.4 62.9 62.8 62.3 62.1 61.4 60.0 59.9 59.9 59.5 58.0 57.3 59.1 59.9 60.0 60.0 60.0 59.6 59.3 60.1 60.3 60.0 59.7 59.9 56.4 51.4 50.1 50.3 49.1 45.9 40.3 40.3 40.7 40.6 40.2 37.7 34.2 30.7 30.0 30.0 30.1 30.5 30.0 30.0 30.0 28.9 29.1 28.5 29.6 29.9
-6.5 -5.6 -4.7 -3.9 -3.0 -1.8 -1.2 -0.3 9.7 12.9 15.9 18.3 20.0 20.0 19.9 19.2 20.0 20.0 20.5 20.1 20.0 20.0 22.3 26.4 28.4 30.0 29.8 29.9 30.0 30.0 30.0 30.0 30.0 30.0 30.0 30.0 30.0 30.0 30.0 30.0 30.0 30.0 30.0 30.0 30.1 30.8 31.8 32.7 33.7 35.0 37.3 39.0 39.0 39.0 39.6 40.6 42.0 42.7 44.4 45.8 47.2 48.6 49.9 51.5 55.2 59.5 60.0 60.0 60.3 60.0 59.5 60.2 60.8 62.4 61.4 60.3 60.0 60.0 60.0 60.0 60.4 60.8 60.7 61.0 61.5 62.2 62.2 61.3 61.7 61.4 60.0 59.9 60.0 59.7 57.8 55.6 59.3 59.9 60.0 60.0 59.9 58.7 58.9 59.7 60.2 60.0 58.8 58.8 54.7 50.5 50.0 49.4 44.6 40.8 40.0 40.0 40.0 40.0 40.0 37.8 34.1 30.5 30.0 30.0 30.0 30.1 30.0 30.0 30.0 29.0 28.8 28.5 29.4 29.9
-6.0 -5.2 -4.3 -3.4 -2.5 -1.4 -0.7 2.3 11.4 12.9 13.6 14.1 18.5 18.9 17.9 17.6 19.1 20.0 20.1 20.0 20.0 20.0 20.2 25.5 27.0 29.8 28.5 28.5 28.5 28.5 28.5 28.5 28.5 28.5 28.5 28.5 28.5 28.5 28.5 28.5 28.5 29.0 29.4 29.9 30.8 31.7 32.6 33.5 34.4 35.6 37.2 38.5 38.7 39.2 39.9 40.8 42.5 43.1 44.7 45.9 47.2 48.2 49.9 50.2 53.9 58.1 59.0 60.0 60.3 60.9 61.3 62.8 64.7 66.0 64.9 61.4 60.1 60.0 60.0 60.0 60.0 60.0 60.0 60.0 60.3 60.8 60.7 60.1 60.7 60.9 60.0 59.9 59.8 58.7 54.8 51.8 57.9 59.2 62.4 59.7 57.5 55.6 58.2 59.3 60.0 60.0 58.7 56.4 51.6 49.6 49.2 48.5 43.2 40.7 40.0 40.0 40.0 40.0 39.5 35.9 32.2 30.0 30.0 30.0 30.0 30.0 30.0 30.0 30.0 28.6 28.8 28.6 29.2 29.9
-5.5 -4.7 -3.7 -2.7 -1.7 -0.8 1.7 10.1 18.8 13.7 12.9 13.3 16.5 16.7 15.9 14.9 15.9 16.7 19.9 19.9 19.9 19.9 20.1 20.5 29.1 28.6 28.5 28.5 28.5 28.5 28.5 28.5 28.5 28.5 28.5 28.5 28.5 28.5 28.5 28.5 28.5 29.0 29.4 29.9 30.7 31.5 32.2 33.8 34.7 35.9 37.2 38.2 38.9 39.8 40.3 40.3 43.1 43.6 45.2 46.3 47.6 48.4 49.7 50.7 53.6 58.2 58.4 59.6 60.0 60.9 64.9 65.9 68.0 68.9 68.7 64.3 61.5 60.3 60.0 60.0 60.0 60.0 60.0 60.0 60.0 60.3 60.0 59.2 59.8 60.1 60.0 58.8 56.1 53.2 50.8 49.5 51.3 57.8 62.9 59.4 56.9 52.1 54.0 56.2 57.2 58.2 54.1 55.9 51.5 49.8 49.4 49.4 43.8 41.1 39.6 38.8 38.7 39.7 38.3 32.0 30.3 30.0 30.0 30.0 30.0 30.0 29.9 30.0 30.0 28.6 28.8 27.3 27.9 29.9
-5.3 -4.4 -3.4 -2.4 -1.4 -0.4 3.6 19.4 20.0 19.9 19.8 18.7 17.1 15.8 14.8 13.4 14.3 14.7 20.0 20.0 20.0 20.0 28.7 38.2 32.4 30.0 29.6 29.5 30.0 30.0 28.5 30.0 30.0 30.0 30.0 30.0 30.0 30.0 30.0 30.0 30.0 30.0 30.0 30.3 31.0 31.6 32.2 33.5 34.3 35.4 36.9 38.0 38.2 39.2 39.9 39.9 41.0 42.6 44.6 46.2 48.0 49.0 50.7 52.8 56.2 59.6 59.7 59.8 62.9 66.2 69.5 69.2 70.4 73.1 70.1 68.4 65.4 62.7 60.1 60.0 60.0 60.0 60.0 60.0 60.0 60.2 59.4 57.5 57.4 59.7 58.4 55.0 52.6 50.9 49.6 49.4 51.4 58.7 60.9 58.6 52.8 49.7 50.1 50.7 52.9 53.9 54.1 59.9 58.8 50.0 50.0 50.0 48.1 45.7 41.3 39.5 38.2 38.6 37.5 33.2 31.0 30.0 30.0 30.0 30.0 30.0 29.9 30.0 30.0 25.9 25.9 22.2 20.8 22.2
-5.1 -4.1 -3.1 -2.1 -1.1 -0.1 6.9 18.9 20.0 19.3 18.9 15.9 14.3 12.8 12.2 11.3 11.7 11.9 20.0 20.0 20.0 20.8 27.1 35.8 36.0 30.0 29.8 29.7 30.0 30.0 28.7 30.0 30.0 30.0 30.0 30.0 30.0 30.0 30.0 30.0 30.0 30.0 30.1 30.9 31.4 32.1 32.7 34.0 34.8 35.7 37.1 37.9 38.4 39.4 39.8 40.2 42.6 44.2 46.3 47.7 49.3 50.2 54.1 55.9 58.5 60.3 64.4 60.6 67.3 69.6 70.7 70.6 77.3 79.5 73.0 70.7 68.2 65.2 62.1 60.0 60.0 60.0 60.0 60.0 59.4 58.6 55.3 54.4 57.4 59.9 56.7 54.1 51.8 50.1 48.9 49.6 50.8 54.6 59.8 53.0 50.1 49.6 50.0 51.4 50.8 50.7 55.5 59.7 60.1 58.8 52.4 51.0 49.6 47.3 43.2 40.4 38.8 37.6 36.6 33.5 30.9 30.0 30.0 30.0 30.0 30.0 29.9 30.0 30.0 25.3 25.2 20.8 20.1 20.8
-4.8 -3.8 -2.9 -1.9 -0.9 0.7 7.8 13.3 17.4 19.9 14.5 12.5 11.6 10.4 10.2 10.0 10.0 10.0 12.5 15.8 17.8 21.2 27.6 31.0 31.8 30.0 29.9 29.8 30.0 30.0 29.0 30.0 30.0 30.0 30.0 30.0 30.0 30.0 30.0 30.0 30.0 30.0 30.2 31.1 31.8 32.5 33.2 34.6 35.4 36.3 37.5 38.2 38.9 39.8 40.8 41.3 44.5 45.6 47.3 48.6 50.2 51.5 57.1 58.0 60.0 65.1 70.0 68.0 69.7 69.8 71.1 72.6 79.7 80.0 73.1 71.1 70.1 68.1 66.1 62.8 60.2 60.0 60.0 60.0 59.0 55.3 51.7 50.9 57.6 60.0 58.9 55.6 52.2 49.9 47.1 48.9 50.8 54.2 59.7 51.2 49.8 49.6 49.9 50.4 49.8 49.6 50.2 53.8 56.6 50.0 49.9 49.4 49.3 49.2 43.7 40.7 39.6 38.1 37.5 36.5 34.0 30.0 30.2 30.0 30.0 30.0 29.9 30.0 30.0 29.3 24.1 20.0 20.0 20.0
-4.5 -3.5 -2.6 -1.6 -0.6 2.4 9.4 11.0 13.5 18.6 10.6 10.3 10.0 10.0 10.0 10.0 10.0 11.1 14.5 17.2 18.9 23.9 29.9 30.9 30.7 30.0 29.9 29.8 30.0 30.0 29.0 30.0 30.0 30.0 30.0 30.0 30.0 30.0 30.0 30.0 30.0 30.0 30.4 31.5 32.1 32.9 33.6 35.0 35.7 36.7 37.8 38.5 39.4 40.3 41.6 42.2 45.3 46.2 48.1 49.1 51.4 54.9 60.1 60.1 60.5 60.6 69.5 65.2 68.5 69.9 70.0 70.0 79.3 79.7 70.9 70.0 70.0 70.0 69.7 68.6 66.6 63.1 60.1 58.8 54.1 50.2 50.0 50.0 50.2 54.5 51.7 50.5 50.1 48.9 41.4 46.3 52.2 58.1 60.6 56.0 49.9 49.6 49.9 50.0 49.5 49.0 49.5 50.3 51.1 49.8 49.3 49.4 50.0 50.0 47.6 43.3 40.7 39.0 38.0 38.0 34.9 30.9 30.4 30.0 30.0 30.0 29.9 29.9 30.0 28.9 22.3 20.0 20.0 20.0
-4.2 -3.3 -2.3 -1.4 -0.4 4.2 10.0 10.7 12.0 14.2 10.2 10.0 10.0 10.0 10.0 10.0 10.1 12.2 15.9 18.2 20.2 26.5 31.0 30.5 30.1 29.8 29.8 29.7 30.0 30.0 29.0 30.0 30.0 30.0 30.0 30.0 30.0 30.0 30.0 30.0 30.0 30.0 30.3 31.5 32.2 33.0 33.6 34.8 35.6 36.5 37.8 38.3 39.4 39.8 41.3 42.8 45.8 47.0 49.1 50.2 52.9 56.2 59.9 60.8 60.1 60.0 68.2 66.3 69.0 71.1 74.6 78.7 80.0 80.0 79.5 76.7 73.2 70.8 70.4 70.3 70.3 69.3 62.8 60.5 56.1 50.8 50.0 50.0 50.0 50.0 50.1 50.1 47.8 42.6 39.9 40.4 51.7 58.2 60.5 55.7 49.9 49.6 48.4 48.0 46.8 47.2 48.4 49.0 48.0 47.2 49.0 49.7 50.0 50.0 49.6 44.8 41.5 39.2 38.7 39.1 35.9 31.6 30.8 30.0 29.7 29.2 27.9 28.8 29.6 24.8 20.2 20.0 20.0 20.0
-3.9 -3.0 -2.1 -1.2 -0.3 5.2 10.0 10.6 11.9 12.1 10.1 10.0 10.0 10.0 10.4 10.1 11.6 14.6 18.1 19.5 23.2 30.6 39.6 37.6 32.0 29.8 29.8 29.7 30.0 30.0 29.0 30.0 30.0 30.0 30.0 30.0 30.0 30.0 30.0 30.0 30.0 30.0 30.0 30.8 31.7 32.6 33.5 34.5 35.5 36.5 37.9 38.5 39.8 40.0 42.2 44.0 47.0 48.9 50.1 50.3 54.3 57.7 60.0 60.0 60.0 60.0 60.0 63.0 67.1 69.7 71.8 73.9 79.7 79.3 75.1 72.3 70.7 70.3 70.3 70.3 70.3 70.3 66.3 62.1 58.5 53.0 50.0 50.0 50.0 50.0 49.7 50.1 45.5 40.3 40.0 41.1 48.7 50.2 57.9 50.0 49.5 48.7 47.3 46.0 44.8 45.7 47.1 47.6 45.3 43.7 46.1 45.3 48.2 48.7 44.7 40.3 40.1 39.6 39.7 39.8 37.7 32.1 30.3 30.4 29.8 28.2 26.4 26.9 27.0 21.5 20.0 20.0 20.0 20.0
-3.6 -2.7 -1.8 -0.9 -0.0 7.4 10.0 11.0 11.4 11.0 10.1 10.0 10.0 10.0 10.0 10.4 13.0 15.6 18.5 21.0 26.1 33.8 40.5 38.2 31.9 29.8 29.8 29.7 30.0 30.0 29.1 30.0 30.0 30.0 30.0 30.0 30.0 30.0 30.0 30.0 30.0 30.0 30.0 30.7 31.8 32.8 33.8 34.9 36.0 37.1 38.3 39.1 40.2 41.2 43.0 44.0 48.1 47.7 49.5 50.0 53.8 59.5 60.0 60.0 60.0 60.0 61.4 64.3 68.7 70.0 70.0 70.0 74.2 74.0 70.5 70.0 70.0 70.0 70.0 69.9 68.6 66.0 60.7 60.4 57.6 53.2 50.0 49.4 49.0 49.1 47.2 49.0 41.4 39.8 40.0 43.2 49.3 50.3 53.3 50.0 49.2 48.0 45.8 43.5 42.8 43.7 43.4 42.1 40.2 40.2 40.4 41.0 44.1 44.5 41.6 40.0 40.0 40.0 40.0 40.0 38.3 33.3 29.8 30.0 29.7 28.5 25.9 25.7 24.9 21.4 20.0 20.0 20.0 20.0
-3.4 -2.5 -1.6 -0.7 1.9 10.0 10.0 10.7 10.1 10.0 10.0 10.0 10.0 10.0 10.0 10.0 12.0 15.4 18.9 22.6 26.9 34.5 40.2 34.2 30.5 29.8 29.7 29.7 30.0 30.0 29.1 30.0 30.0 30.0 30.0 30.0 30.0 30.0 30.0 30.0 30.0 30.0 30.5 31.4 32.4 33.3 34.2 35.4 36.4 37.4 38.6 39.3 40.4 41.8 43.2 44.3 49.3 47.7 48.8 49.7 50.9 51.7 59.8 58.9 60.0 60.5 65.3 67.4 70.0 70.0 70.0 70.0 69.7 69.9 70.1 69.7 68.7 68.6 68.1 64.8 59.6 59.4 59.5 56.8 53.2 51.6 50.1 48.9 48.0 47.5 42.2 43.7 40.4 39.8 40.4 44.8 49.7 50.4 51.9 50.2 49.5 48.3 44.8 40.8 41.0 43.0 42.7 41.3 40.0 39.9 40.0 40.6 41.3 40.5 39.5 39.8 40.0 40.0 40.0 39.6 38.8 33.2 30.3 29.6 29.6 29.2 25.4 25.0 24.2 21.5 20.6 20.0 20.0 20.0
-3.0 -2.2 -1.3 -0.4 5.5 10.6 10.0 10.0 10.0 10.0 10.0 10.0 10.0 10.0 10.0 10.0 12.0 16.0 20.1 23.5 27.0 32.3 36.2 30.2 29.3 29.3 29.1 29.4 30.0 30.0 29.1 30.0 30.0 30.0 30.0 30.0 30.0 30.0 30.0 30.0 30.0 30.1 31.2 32.1 33.0 33.9 34.8 35.9 36.8 37.8 39.0 39.7 41.4 43.8 46.5 48.8 50.0 49.9 50.0 50.0 50.1 50.3 57.9 57.8 59.9 60.3 64.0 65.3 68.9 69.8 70.0 69.3 68.3 69.2 70.0 69.6 67.7 67.0 66.1 63.9 59.6 58.2 58.1 52.4 51.8 51.6 50.7 49.2 47.8 43.1 40.0 40.5 39.9 39.8 40.1 42.8 47.2 49.6 50.8 50.2 48.6 45.0 41.4 39.8 39.9 40.3 40.5 40.2 40.0 40.0 40.0 40.1 39.6 38.7 39.1 39.8 40.0 40.0 40.0 40.0 40.0 37.9 32.0 30.2 30.1 29.9 27.6 25.8 24.2 21.1 20.4 20.0 20.0 20.0
-2.8 -1.9 -1.0 -0.2 9.0 11.3 10.0 10.0 10.0 10.0 10.0 10.0 10.0 10.0 10.0 10.0 12.8 16.9 20.8 24.4 28.1 30.0 29.5 28.5 28.0 28.4 27.7 28.7 30.0 30.0 29.1 30.0 30.0 30.0 30.0 30.0 30.0 30.0 30.0 30.0 30.0 30.4 31.4 32.3 33.1 34.0 34.8 35.9 36.8 37.8 39.4 39.7 40.6 43.8 46.4 49.1 50.0 49.9 50.0 50.0 50.0 50.0 50.7 54.4 58.4 59.3 60.0 60.0 66.1 68.0 68.9 65.8 64.3 64.7 68.5 66.0 64.7 63.9 62.6 61.1 60.0 57.5 53.2 50.0 50.0 50.1 50.0 50.0 49.3 46.3 40.2 40.0 39.8 39.9 40.1 41.5 44.9 47.9 49.7 49.9 44.3 42.2 40.2 39.7 39.6 40.0 40.3 40.1 39.9 40.0 40.3 40.1 39.6 38.5 38.4 38.0 39.7 39.5 39.3 40.0 40.0 39.2 35.0 31.7 30.3 29.4 26.6 24.3 22.0 20.0 20.0 20.0 20.0 21.6
-2.5 -1.7 -0.8 0.3 9.4 15.2 10.0 10.0 10.0 10.0 10.0 10.0 10.0 10.0 10.0 10.5 14.1 17.6 21.2 25.4 29.6 30.0 29.6 28.4 27.8 27.7 27.0 28.5 30.0 30.0 29.2 30.0 30.0 30.0 30.0 30.0 30.0 30.0 30.0 30.0 30.0 30.4 31.5 32.5 33.5 34.5 35.5 36.6 37.5 38.5 39.8 40.1 40.6 43.6 45.1 45.8 49.9 48.6 49.7 50.2 50.1 50.5 57.5 57.7 59.3 59.9 60.0 60.0 64.4 66.0 67.2 63.4 62.4 62.9 66.2 64.2 63.1 62.4 61.8 60.9 60.0 57.8 53.6 50.0 50.0 49.9 50.0 50.0 50.0 49.4 41.1 40.0 39.8 39.9 40.0 40.2 42.4 45.7 48.5 48.4 40.3 40.0 39.9 39.7 39.8 40.0 40.4 40.0 39.8 40.0 40.6 40.1 39.4 37.5 38.3 37.8 38.4 38.1 39.0 40.0 40.0 37.8 33.8 30.8 29.2 27.8 24.2 22.1 20.1 20.0 20.0 20.0 20.0 25.4
-2.1 -1.3 -0.4 2.5 20.9 20.7 16.1 11.8 10.0 10.0 10.0 10.0 10.0 10.0 10.0 12.5 16.0 19.0 23.3 28.8 30.0 30.0 29.8 28.1 27.1 26.7 26.0 28.2 30.0 30.0 29.4 30.0 30.0 30.0 30.0 30.0 30.0 30.0 30.0 30.0 30.0 30.3 31.5 32.6 33.7 34.7 35.8 37.0 38.0 39.1 40.2 40.5 41.1 44.6 46.0 46.3 49.4 48.6 49.9 51.1 51.2 52.3 57.4 58.9 60.0 60.0 60.4 60.0 63.7 64.2 64.7 61.1 60.3 60.8 63.2 62.7 62.4 62.1 61.7 60.9 60.0 57.1 52.8 50.0 50.0 49.4 49.7 49.7 50.0 50.0 46.8 40.2 39.8 39.9 40.0 40.2 41.4 43.6 46.5 45.7 40.3 40.0 39.9 39.7 39.6 39.6 40.2 40.1 39.8 39.8 39.7 38.8 34.4 32.7 36.5 37.4 38.1 38.3 39.7 40.0 40.0 38.0 34.6 32.3 29.8 27.4 24.8 22.4 20.1 20.0 20.0 20.0 20.3 28.1
-1.8 -0.9 0.0 9.7 28.2 21.6 16.9 11.2 10.0 10.0 10.0 10.0 10.0 10.0 10.3 13.9 17.5 20.6 24.7 28.6 30.0 29.8 29.3 24.4 23.9 24.4 24.2 27.4 30.0 30.0 29.6 30.0 30.0 30.0 30.0 30.0 30.0 30.0 30.0 30.0 30.0 30.1 31.1 32.1 33.1 34.1 35.0 36.3 37.1 38.4 39.8 39.9 40.4 43.6 45.8 45.9 48.4 48.3 49.7 50.4 51.0 53.8 57.2 59.0 60.0 60.0 60.5 60.0 61.2 60.5 60.0 60.0 60.0 60.0 60.1 60.3 60.8 61.2 61.1 60.6 59.5 52.9 50.8 49.4 48.7 47.7 46.2 45.5 47.2 48.7 41.0 40.2 39.9 39.8 40.0 40.1 40.7 41.9 44.8 44.2 40.5 40.1 39.9 39.8 39.5 39.4 40.1 40.1 38.5 37.4 36.8 34.2 30.5 30.0 31.8 33.4 35.2 35.0 38.0 40.0 40.0 38.6 35.4 33.0 30.5 27.9 25.2 22.0 20.1 20.0 20.0 20.0 23.6 30.3
-1.4 -0.5 1.3 17.8 31.0 23.3 14.2 10.1 10.0 10.0 10.0 10.0 10.0 10.0 11.4 16.8 19.8 20.7 25.4 29.6 30.0 29.9 28.9 21.0 21.3 22.6 22.8 27.1 30.0 30.0 29.6 30.0 30.0 30.0 30.0 30.0 30.0 30.0 30.0 30.0 30.0 30.0 30.8 31.7 32.7 33.6 34.5 35.9 36.6 38.6 39.6 39.6 40.2 42.6 45.7 45.6 47.9 47.9 48.5 49.7 50.1 53.3 56.4 59.0 60.0 60.0 60.5 60.0 60.7 60.2 60.0 60.0 60.0 60.0 60.1 60.7 60.9 60.7 59.7 58.1 56.4 53.3 51.9 49.9 48.7 46.2 42.1 41.0 42.9 44.3 40.5 40.1 39.9 39.7 40.0 40.0 40.0 40.3 42.0 43.3 40.5 40.1 39.5 38.5 37.5 35.2 37.1 37.2 33.8 34.4 33.2 31.1 29.9 29.6 30.2 30.8 31.8 31.3 32.0 36.6 39.1 30.0 30.0 30.0 29.8 26.7 23.6 20.5 20.0 20.0 20.0 20.0 23.6 29.6
-1.0 0.1 5.5 17.7 23.7 19.8 14.2 10.1 10.0 10.0 10.0 10.0 10.0 10.0 14.0 19.7 19.9 22.0 26.9 29.9 29.3 26.2 22.0 20.0 20.0 20.4 21.0 22.2 23.4 24.4 25.2 26.5 27.4 28.5 29.5 30.0 30.0 30.0 30.0 30.0 30.0 30.0 30.7 31.9 33.1 34.2 35.4 36.7 37.7 39.1 40.0 40.4 42.3 47.7 48.8 47.0 48.7 48.2 48.9 49.3 49.6 52.0 56.4 60.0 60.0 60.0 60.8 60.0 61.0 61.0 60.4 60.0 59.9 59.6 59.5 56.8 56.0 56.8 53.3 52.3 53.1 51.4 51.3 50.2 49.0 45.1 41.0 40.0 39.8 40.9 40.0 39.6 39.7 39.6 40.0 40.0 40.0 40.2 42.6 44.5 40.3 40.1 39.4 38.4 37.3 33.0 33.8 33.3 33.1 32.9 32.5 31.5 30.0 29.6 30.1 30.6 30.1 29.7 30.3 32.1 34.0 30.0 30.0 30.0 29.9 26.7 23.4 20.1 20.0 20.0 20.0 20.0 20.1 24.4
-0.7 1.5 9.2 17.4 18.6 17.4 10.0 10.0 10.0 10.0 10.0 10.0 10.0 11.1 15.9 19.8 19.9 22.4 28.0 30.0 28.8 25.2 21.2 20.0 20.0 20.1 20.3 21.9 23.2 24.3 25.1 26.5 27.5 28.6 29.7 30.0 30.0 30.0 30.0 30.0 30.0 30.0 30.5 31.8 33.2 34.5 35.8 37.2 38.4 39.8 41.1 41.8 44.5 49.5 49.8 48.5 49.4 49.1 49.6 49.7 50.4 53.9 57.4 59.9 60.0 60.0 60.8 60.0 61.9 61.8 61.4 60.0 60.0 60.0 55.4 50.2 50.0 50.0 50.0 49.6 50.1 50.1 50.5 50.0 50.0 46.6 42.5 40.0 39.4 39.1 38.7 37.3 38.7 39.7 40.0 40.0 40.2 40.5 42.0 40.9 39.7 39.5 36.1 34.6 33.1 30.5 30.4 29.9 30.2 30.5 30.4 30.5 30.0 29.6 28.7 29.8 30.2 29.6 29.4 30.0 30.0 30.0 30.0 30.0 30.0 28.4 25.3 21.5 20.0 20.0 20.0 20.1 20.4 20.7
-0.4 3.1 13.7 20.0 20.0 16.9 11.5 10.0 10.0 10.0 10.0 10.0 10.0 12.0 14.9 18.6 19.8 23.6 29.8 29.9 28.9 24.4 20.3 20.0 20.0 20.0 20.0 20.3 21.0 21.7 22.2 23.0 23.6 24.3 25.0 25.6 26.3 26.9 27.6 28.3 28.9 29.6 30.5 32.0 33.4 34.8 36.2 37.6 38.9 40.6 43.1 45.3 48.8 50.0 50.0 50.0 50.0 49.8 50.0 50.7 52.7 55.8 58.9 59.0 60.0 60.0 60.6 60.0 61.6 61.1 61.5 60.0 60.0 60.0 59.0 53.8 50.4 50.0 50.0 49.0 48.9 47.6 49.2 50.0 50.0 48.2 43.8 40.5 39.7 38.7 37.2 36.4 37.9 39.3 40.0 39.9 40.1 40.4 44.2 44.7 39.7 38.4 35.1 33.0 30.8 30.0 29.5 29.8 30.0 29.7 30.0 28.1 29.0 24.8 25.8 26.2 29.3 28.2 29.1 30.0 30.0 30.0 29.9 30.0 30.0 28.0 25.2 21.9 20.1 20.0 20.0 20.0 20.2 20.4
-0.0 4.8 19.8 20.0 20.0 15.7 10.1 10.0 10.0 10.0 10.0 10.0 10.5 13.3 16.4 19.7 20.8 26.5 30.1 29.9 27.2 22.4 20.0 20.0 20.0 20.0 20.0 20.2 20.9 21.6 22.2 22.9 23.6 24.3 25.0 25.7 26.3 27.0 27.7 28.4 29.0 29.7 30.8 32.3 33.7 35.1 36.5 37.9 39.2 41.3 43.9 46.4 49.3 50.0 50.0 49.9 50.0 50.5 51.4 53.5 55.2 57.9 59.9 59.3 60.0 60.0 60.6 60.0 61.3 60.1 61.0 60.0 60.0 60.0 59.9 56.8 53.6 50.2 50.0 49.4 48.3 44.7 48.8 50.0 50.0 48.7 43.1 41.3 39.8 39.0 35.7 33.9 36.6 38.7 40.0 39.8 40.0 44.0 49.3 50.1 45.4 39.6 36.8 34.3 31.7 30.0 29.5 29.7 29.8 29.5 30.0 25.9 25.9 22.6 23.0 22.8 27.7 29.1 29.7 30.0 30.0 29.4 29.2 30.0 29.7 27.2 24.4 20.7 20.1 20.0 20.0 20.0 20.1 20.2
0.3 6.5 20.0 20.0 19.2 14.9 10.3 10.0 10.0 10.0 10.0 10.0 11.6 15.0 18.1 20.7 22.6 27.5 30.0 30.0 27.2 21.2 20.0 20.0 20.0 20.0 20.0 20.0 20.6 21.3 22.0 22.7 23.4 24.1 24.8 28.8 28.1 27.5 27.7 28.2 29.0 29.7 30.8 32.2 33.7 35.0 36.4 37.8 39.1 41.2 44.3 47.2 50.1 50.9 51.3 50.2 50.2 51.6 53.7 56.6 58.2 60.0 61.2 60.0 60.0 60.0 60.2 60.0 60.0 60.0 60.1 60.0 60.0 60.0 60.0 59.8 56.9 51.6 50.9 49.5 47.8 40.1 47.2 49.8 50.1 47.6 41.1 39.4 38.6 37.2 32.2 31.0 34.8 37.0 39.8 39.7 39.9 42.2 46.9 50.0 43.8 39.8 37.3 34.9 32.7 30.2 28.9 27.8 28.4 27.3 28.2 22.3 22.3 20.5 20.2 20.0 22.2 25.8 29.4 30.0 29.9 28.3 27.9 29.5 28.8 22.6 21.0 20.0 20.0 20.0 20.0 20.0 20.0 20.0
1.2 9.3 20.4 20.0 18.1 14.7 11.0 10.0 10.0 10.0 10.0 10.0 11.5 15.4 18.9 19.3 20.4 21.1 29.4 29.0 29.4 20.6 20.0 20.0 20.0 20.0 20.0 20.0 20.7 21.4 22.1 22.8 23.5 24.2 24.9 28.2 27.6 27.4 27.8 28.4 29.2 29.9 31.2 32.5 34.0 35.3 36.6 37.9 39.3 41.4 44.8 47.9 49.9 50.6 50.7 50.7 50.8 53.0 55.6 58.6 59.2 60.0 61.0 60.0 60.0 59.2 59.4 59.1 60.0 60.0 59.5 60.0 60.0 60.0 60.0 60.0 59.7 55.3 52.2 48.6 42.7 39.6 40.1 44.0 47.8 40.4 39.8 37.2 34.7 32.2 29.9 29.8 31.0 33.3 39.6 39.7 39.6 39.9 41.4 43.1 39.7 38.0 35.9 34.1 32.4 30.6 28.7 26.9 26.6 23.8 21.4 20.0 20.0 20.0 20.0 20.0 22.1 24.5 27.8 29.4 28.4 27.6 29.1 30.0 29.8 26.7 24.2 20.6 20.0 20.0 20.0 20.0 20.0 20.0
5.4 17.0 20.0 20.0 18.3 14.7 11.6 10.0 10.0 10.0 10.0 10.0 13.7 18.4 20.3 20.0 22.4 24.7 28.2 29.0 30.2 25.1 20.0 20.0 20.0 20.0 20.0 20.2 20.9 21.6 22.4 23.1 23.8 24.5 25.2 27.6 27.3 27.5 28.0 28.7 29.5 30.3 31.6 33.0 34.3 35.5 36.8 38.1 39.3 41.1 44.1 46.2 49.1 50.2 50.3 50.7 52.2 57.3 59.7 60.0 60.0 60.0 63.9 60.0 60.0 58.9 58.9 58.8 60.0 60.0 59.5 60.0 60.0 60.0 60.0 60.0 60.0 55.5 52.3 48.4 43.1 39.6 40.0 41.5 43.0 40.4 39.9 37.3 34.7 32.0 29.9 29.8 31.0 36.2 40.0 39.9 40.0 40.0 40.7 39.9 38.3 36.6 34.9 33.6 32.2 30.7 29.2 27.7 26.7 25.8 25.4 20.3 20.2 20.0 20.0 20.0 20.6 22.1 24.0 26.6 25.7 25.5 28.3 30.0 29.6 26.9 25.2 21.6 20.5 20.0 20.0 20.0 20.0 20.0
6.9 21.0 20.0 20.0 19.5 15.6 11.5 10.0 10.0 10.0 10.0 11.4 15.8 19.8 20.5 21.1 21.5 22.4 25.9 21.6 25.0 20.1 20.0 20.0 20.0 20.0 20.0 20.4 21.2 21.8 22.6 23.3 24.0 24.6 25.3 27.2 27.2 27.4 28.0 28.7 29.5 30.3 31.6 32.9 34.2 35.5 36.8 38.1 39.4 40.7 43.7 45.8 48.8 49.6 49.6 50.1 50.8 56.1 59.1 61.5 62.3 66.4 70.0 67.4 60.8 59.8 59.2 57.0 58.8 59.2 59.5 60.0 60.0 60.0 60.0 60.0 60.0 56.9 52.0 48.5 43.4 39.8 39.7 40.6 39.6 39.4 37.7 33.8 32.4 30.6 29.8 29.9 30.0 30.3 37.1 35.6 38.7 38.0 39.5 38.1 35.9 33.1 31.0 30.6 30.4 30.0 29.2 27.8 26.6 25.7 25.8 21.9 20.8 20.3 20.0 20.0 20.0 20.7 22.4 24.1 23.3 22.9 27.9 30.0 29.5 26.3 25.1 20.9 20.5 20.0 20.0 20.0 20.0 20.0
13.1 28.6 21.3 20.6 20.2 17.4 13.5 10.1 10.0 10.0 10.1 12.8 16.6 19.3 20.2 21.3 21.9 22.8 23.0 20.6 20.6 20.0 20.0 20.0 20.0 20.1 20.1 21.5 22.6 23.2 23.7 24.3 24.8 25.4 26.0 27.2 27.3 27.6 28.1 28.8 29.4 30.1 31.7 33.4 35.2 36.9 38.6 40.1 40.2 42.0 47.5 48.1 49.5 49.7 49.5 49.5 49.9 53.4 57.6 60.0 60.0 60.0 69.3 60.0 60.0 59.7 59.1 51.6 52.3 53.4 59.7 60.0 60.0 60.0 59.6 58.8 55.8 50.0 49.8 45.2 41.3 39.2 38.8 38.9 38.8 38.3 35.1 32.1 31.1 30.0 29.7 29.9 30.0 30.3 33.3 34.4 39.7 37.0 37.9 36.1 33.9 32.4 30.9 30.5 30.3 30.0 28.9 27.6 26.4 25.5 26.3 23.1 21.3 20.6 20.0 20.0 20.0 20.0 20.7 21.3 20.3 20.0 20.6 28.0 22.7 20.4 20.0 20.0 20.0 20.0 20.0 20.0 20.0 20.0
26.1 29.6 26.4 22.8 20.5 17.3 13.7 10.3 10.0 10.0 10.0 13.7 18.3 20.4 20.7 22.0 24.2 23.5 21.8 20.2 20.0 20.0 20.0 20.1 20.3 20.3 20.3 21.8 23.0 23.5 24.1 24.7 25.2 25.8 26.3 27.2 27.4 27.8 28.4 29.0 29.6 30.4 32.1 33.7 35.4 37.0 38.6 40.1 41.1 43.3 49.3 49.4 49.7 50.0 50.0 49.9 51.1 54.6 58.1 59.4 60.0 60.0 64.3 60.0 60.0 56.7 52.7 50.0 50.0 49.3 52.5 60.0 60.0 59.4 56.7 52.9 49.2 48.2 47.2 42.1 39.9 38.8 38.8 38.8 38.8 37.2 32.9 31.2 30.8 30.0 29.7 29.9 30.8 30.5 31.7 38.0 40.0 39.4 37.8 36.3 34.2 32.2 32.3 31.5 30.1 28.9 27.9 26.4 25.7 25.0 26.8 23.6 21.4 20.8 20.0 20.0 20.0 20.0 20.0 20.0 20.0 20.0 20.0 20.8 21.1 20.0 20.0 20.0 20.0 20.0 20.0 20.0 20.0 20.0
20.0 23.1 20.0 20.0 19.5 16.1 12.5 10.0 10.0 10.0 10.0 13.5 19.8 20.9 21.4 24.0 26.2 25.1 22.5 20.1 20.0 20.0 20.0 20.4 20.6 20.7 20.6 22.2 23.2 23.8 24.3 24.9 25.4 26.0 26.5 27.1 27.4 27.9 28.6 29.1 29.8 30.7 32.5 34.0 35.7 37.3 38.8 40.7 43.6 48.0 50.2 50.2 50.1 50.3 50.2 50.6 53.6 58.5 60.0 60.0 60.0 60.0 61.2 59.9 59.9 56.1 51.9 50.0 50.0 49.3 49.9 57.4 58.2 53.4 52.8 51.1 50.0 47.6 45.3 41.3 39.3 38.8 38.8 38.8 38.8 33.7 30.1 30.0 30.2 30.0 29.7 29.9 30.0 29.8 30.0 30.1 38.1 31.8 33.2 32.9 31.7 30.5 30.3 30.0 28.9 27.4 26.9 25.2 24.9 24.6 27.8 24.6 21.6 20.9 20.1 20.0 20.0 20.0 20.0 20.0 20.0 20.0 20.0 20.0 20.0 20.0 20.0 20.0 20.0 20.0 20.0 20.0 20.0 20.0
19.9 20.9 20.0 20.0 18.0 14.3 10.9 10.0 10.0 10.0 10.2 16.8 20.0 21.1 23.2 26.8 28.3 27.3 22.9 20.0 20.0 20.0 20.2 20.5 20.5 20.8 20.8 22.4 23.5 24.0 24.5 25.0 25.5 26.1 26.5 27.1 27.4 27.9 28.4 29.0 29.6 30.3 32.2 34.0 35.9 37.7 39.5 41.1 44.3 48.0 50.3 50.7 50.5 50.1 50.0 50.3 52.5 58.4 60.0 60.0 60.0 59.8 59.5 58.2 58.3 52.0 51.7 50.0 50.0 49.2 49.9 51.9 50.1 49.6 50.5 51.6 50.0 48.7 43.8 40.0 39.6 39.5 39.2 39.4 39.9 39.7 33.2 30.0 30.0 30.0 29.5 29.5 29.6 29.8 30.0 30.4 34.9 31.5 31.2 30.7 30.0 29.4 30.0 29.9 28.3 26.3 26.3 24.2 24.2 24.4 29.1 26.5 21.8 21.3 20.4 20.0 20.0 20.0 20.0 20.0 20.0 20.0 20.0 20.0 20.0 20.0 20.0 20.0 20.0 20.0 20.0 20.0 20.0 20.0
20.2 20.0 19.3 19.2 17.2 13.1 10.4 10.4 13.1 10.2 13.7 19.4 21.6 24.8 27.0 29.1 30.0 29.8 27.6 20.4 20.0 20.0 20.1 20.2 20.2 21.0 21.1 22.1 23.4 23.9 24.3 24.8 25.3 25.8 26.3 26.8 27.1 27.6 28.1 28.7 29.3 29.8 31.0 32.7 34.5 36.2 37.9 39.8 43.3 47.8 50.0 50.0 50.0 49.7 50.0 50.0 50.3 54.5 58.4 60.0 59.8 59.3 59.1 56.7 56.9 50.4 51.1 50.5 50.1 49.6 47.7 48.5 48.5 49.8 50.5 50.2 49.8 45.2 42.1 39.5 38.2 37.1 35.8 33.8 33.4 34.6 31.3 30.3 30.0 30.0 29.5 29.7 29.6 29.9 30.0 30.7 32.9 31.4 31.1 30.5 29.8 28.4 28.6 26.3 23.1 22.1 23.4 22.1 22.7 23.5 29.7 28.5 21.5 21.1 20.5 20.1 20.0 20.0 20.0 20.0 20.0 20.0 20.0 20.0 20.0 20.0 20.0 20.0 20.0 20.0 20.0 20.0 20.0 20.0
20.0 19.9 19.9 19.9 19.9 19.8 18.1 19.8 19.8 14.0 19.0 20.6 23.0 27.0 29.1 30.0 30.0 30.0 30.0 22.9 20.0 20.0 20.0 20.0 20.0 21.0 21.1 21.8 22.9 23.4 24.0 24.6 25.1 25.6 26.2 26.6 27.0 27.6 28.1 28.7 29.4 29.9 31.5 33.3 35.2 37.0 38.8 40.1 41.5 41.9 48.3 48.7 48.1 48.3 49.6 50.0 50.0 52.3 59.1 59.9 59.6 59.7 59.6 51.6 50.5 49.9 50.0 50.0 50.0 48.3 44.0 45.6 45.1 45.2 46.1 45.4 44.1 41.4 40.2 39.2 38.0 36.9 35.4 32.4 32.1 33.8 31.6 30.7 30.1 30.0 29.7 29.5 29.3 29.6 29.7 30.0 31.0 30.9 30.4 29.7 27.8 25.8 24.5 21.5 20.3 19.9 21.2 22.0 23.5 27.4 29.8 30.0 27.9 24.5 22.5 20.6 20.0 20.0 20.0 20.0 20.0 20.0 20.0 20.0 20.0 20.0 20.0 20.0 20.0 20.0 20.0 20.0 20.0 20.0
20.0 20.0 20.0 20.0 20.0 20.0 18.3 20.0 20.0 16.6 19.4 20.5 23.6 29.0 30.0 30.0 30.0 30.0 30.0 22.9 20.0 20.0 20.0 20.0 20.0 20.2 20.7 21.2 22.2 22.8 23.4 24.1 24.7 25.3 25.9 26.5 27.0 27.5 28.3 28.9 29.6 30.5 32.6 34.4 36.4 38.3 39.9 40.7 41.9 41.4 45.0 45.1 47.0 48.9 50.3 51.0 51.5 56.8 59.9 59.8 60.0 60.0 60.0 57.6 54.6 50.8 49.0 49.3 47.5 40.4 40.0 41.4 41.9 40.9 40.0 40.1 39.9 39.9 39.9 39.4 36.8 35.1 33.7 30.8 30.6 32.6 31.1 30.2 30.2 30.0 29.8 29.7 29.3 29.6 29.6 30.0 30.8 30.4 29.9 29.9 26.8 23.2 20.1 19.6 19.3 19.5 20.5 20.5 21.9 27.0 29.9 30.0 27.3 23.5 21.9 20.3 20.0 20.0 20.0 20.0 20.0 20.0 20.0 20.0 20.0 20.0 20.0 20.0 20.0 20.0 20.0 20.0 20.0 20.0
22.1 20.2 20.0 20.0 20.0 20.0 18.5 20.0 20.0 17.5 19.4 20.0 29.2 30.0 30.0 30.0 30.0 30.0 28.8 20.2 20.0 20.1 20.0 20.0 20.0 20.6 20.7 21.3 22.6 23.2 23.8 24.4 25.0 25.6 26.2 26.7 27.2 27.8 28.5 29.1 29.8 31.2 33.5 35.5 37.7 39.7 40.5 41.2 41.3 40.5 41.7 40.8 46.9 49.5 51.1 51.3 54.3 59.6 60.0 60.0 59.9 58.8 58.4 52.5 53.6 51.3 50.1 46.8 41.4 40.0 40.0 39.7 40.1 40.9 40.1 39.0 39.2 39.4 39.6 39.7 34.6 32.3 31.0 29.9 29.6 30.2 30.1 29.9 29.9 30.0 29.9 29.7 29.3 29.4 29.5 29.9 30.0 29.8 29.4 27.1 24.8 21.9 20.8 19.9 19.4 19.7 20.0 20.0 20.0 20.2 26.3 27.5 20.0 20.0 20.0 20.0 20.0 20.0 20.0 20.0 20.0 20.0 20.0 20.0 20.0 20.0 20.0 20.0 20.0 20.0 20.0 20.0 20.0 20.0
20.0 20.0 20.0 20.0 20.0 20.0 18.5 20.0 20.0 18.0 19.5 20.0 23.0 29.8 30.0 30.0 29.3 27.2 22.6 20.0 20.0 20.2 20.0 20.0 20.0 20.4 20.4 21.0 22.3 23.0 23.6 24.2 24.8 25.5 26.1 26.6 27.1 27.7 28.5 29.1 29.8 31.2 33.1 34.7 36.9 38.8 40.0 40.0 40.0 40.0 39.4 39.5 40.8 45.6 49.8 50.0 50.0 56.9 58.9 58.8 56.0 54.4 54.4 50.2 51.5 50.0 50.0 49.0 43.7 40.0 40.0 38.8 38.7 39.7 38.9 38.6 39.8 40.0 40.0 39.7 37.0 33.8 31.1 29.8 29.5 30.0 30.0 29.5 29.9 30.0 29.3 28.4 27.5 26.7 27.0 28.0 28.6 27.3 25.0 23.0 20.9 19.6 18.8 18.5 18.0 17.8 20.0 20.0 20.0 20.1 22.2 23.6 20.0 20.0 20.0 20.0 20.0 20.0 20.0 20.0 20.0 20.0 20.0 20.0 20.0 20.0 20.0 20.0 20.0 20.0 20.0 20.0 20.0 20.0
19.6 20.0 19.9 19.9 20.0 20.0 18.6 20.0 20.0 18.5 19.5 20.0 21.0 29.5 30.0 30.0 27.5 25.0 22.4 20.0 20.0 20.1 20.0 20.1 20.0 20.0 20.0 20.0 20.0 20.4 21.3 22.2 23.1 23.9 24.7 25.6 26.4 27.3 28.2 29.1 30.2 31.6 33.2 34.7 36.9 38.8 40.0 40.0 40.0 39.4 38.7 39.5 40.1 43.9 48.3 49.8 50.0 58.7 56.2 55.9 51.8 50.3 50.5 49.7 50.3 50.0 50.0 50.0 45.1 40.5 40.0 38.8 38.0 38.2 37.7 38.7 39.9 40.0 40.0 40.0 38.8 34.6 30.6 29.8 29.1 28.8 29.0 29.5 30.0 30.0 28.8 27.9 27.2 26.3 26.3 26.8 26.9 24.7 22.9 20.8 20.3 19.1 17.9 17.7 17.8 17.3 20.0 20.0 20.0 20.0 21.3 21.6 20.0 20.0 20.0 20.0 20.0 20.0 20.0 20.0 20.0 20.0 20.0 20.0 20.0 20.0 20.0 20.0 20.0 20.0 20.0 20.0 20.0 20.0
17.6 18.6 17.4 18.4 19.7 20.0 19.9 20.0 20.0 18.6 19.1 19.9 20.0 26.4 30.2 28.8 25.9 23.0 20.6 20.0 20.0 20.1 20.0 20.4 20.0 20.0 20.0 20.0 20.0 20.2 21.1 22.0 22.9 23.9 24.7 25.5 26.3 27.2 28.2 29.1 30.1 31.1 32.5 33.6 35.5 40.7 40.1 39.9 39.9 38.6 38.4 39.6 40.1 43.9 48.2 51.8 56.5 60.0 58.7 53.5 49.9 49.0 47.5 48.6 49.5 50.0 50.0 50.0 44.5 41.2 40.0 39.4 38.3 37.5 37.6 39.2 39.9 40.0 40.0 40.0 36.6 33.0 30.0 29.1 28.1 27.7 27.6 26.9 27.6 28.0 22.0 23.6 24.5 23.7 23.9 23.7 23.0 21.6 20.2 18.9 17.8 15.3 14.7 14.9 16.1 15.2 19.8 19.8 19.9 19.9 20.2 20.0 20.0 20.0 20.0 20.0 20.0 20.0 20.0 20.0 20.0 20.0 20.0 20.0 20.0 20.0 20.0 20.0 20.0 20.0 20.0 20.0 20.0 20.0
15.6 18.2 17.4 17.9 18.8 19.9 19.9 20.0 20.0 19.5 19.7 20.0 21.9 28.7 30.0 29.3 24.2 20.3 20.0 20.0 20.0 20.1 20.0 20.1 20.0 20.0 20.0 20.0 20.0 20.5 21.4 22.3 23.2 24.1 24.9 25.7 26.5 27.4 28.4 29.3 30.4 31.4 35.5 38.4 40.0 42.5 42.4 40.0 39.9 38.6 38.6 39.8 41.0 44.1 49.6 50.0 50.0 58.8 51.1 50.3 50.0 49.1 43.1 48.3 49.2 50.0 50.0 48.2 40.8 39.5 40.0 39.9 38.8 37.9 36.8 39.3 40.0 40.0 40.0 39.1 35.3 32.6 30.9 29.6 28.6 27.6 27.0 26.4 25.9 25.8 21.3 23.2 24.0 23.3 23.0 22.4 21.4 20.6 19.3 16.1 13.0 11.3 11.4 12.1 13.2 12.3 13.2 14.4 15.4 16.6 17.7 18.9 20.0 20.0 20.0 20.0 20.0 20.0 20.0 20.0 20.0 20.0 20.0 20.0 20.0 20.0 20.0 20.0 20.0 20.0 20.0 20.0 20.0 20.0
13.4 16.3 17.7 18.6 19.6 19.6 19.5 19.5 19.5 19.5 19.5 20.0 20.0 22.0 28.5 23.0 20.3 20.0 20.0 20.0 20.0 20.0 20.0 20.2 20.0 20.0 20.0 20.0 20.0 20.6 21.4 22.2 23.0 23.8 24.5 25.2 25.8 26.6 27.4 28.3 29.3 30.3 34.2 38.1 43.3 49.9 49.4 42.5 39.9 37.1 36.6 39.7 40.3 45.8 50.0 49.6 50.0 52.9 50.9 50.9 49.9 43.0 39.8 41.6 46.0 50.0 50.5 45.2 39.9 39.0 38.8 36.6 34.0 34.7 34.4 39.4 40.0 40.0 40.0 38.1 32.5 30.9 30.8 29.9 29.0 27.8 26.9 26.2 24.2 23.6 20.4 22.8 23.6 22.8 22.2 21.4 20.5 19.0 16.1 11.2 10.0 10.0 10.0 10.4 12.1 11.0 12.0 13.4 14.7 16.0 17.4 18.7 20.0 20.0 20.0 20.0 20.0 20.0 20.0 20.0 20.0 20.0 20.0 20.0 20.0 20.0 20.0 20.0 20.0 20.0 20.0 20.0 20.0 20.0
