ncols         134
nrows         134
xllcorner     120000.188
yllcorner     1150025.188
cellsize          74.62406015037593900
NODATA_value  -9999
-39.9 -39.9 -39.9 -39.9 -39.9 -39.9 -39.9 -39.9 -39.8 -39.6 -39.5 -39.4 -39.2 -38.9 -38.7 -38.4 -38.2 -37.9 -37.7 -37.4 -37.2 -36.9 -36.6 -36.4 -36.1 -35.9 -35.6 -35.4 -35.1 -35.0 -35.0 -35.0 -34.7 -34.3 -34.1 -33.9 -33.5 -33.2 -32.9 -32.5 -32.2 -31.9 -31.5 -31.1 -30.7 -30.3 -29.4 -28.9 -28.1 -27.4 -26.6 -25.7 -24.9 -24.1 -23.3 -22.5 -21.8 -20.9 -20.1 -18.7 -17.3 -15.9 -14.7 -13.7 -12.7 -11.8 -10.8 -9.8 -9.2 -7.6 -6.3 -5.1 -4.2 -3.4 -2.6 -1.7 2.6 7.5 14.4 19.9 20.0 20.0 20.0 20.0 20.0 20.0 20.0 20.0 20.1 20.0 20.0 20.1 22.8 25.9 29.5 30.0 30.0 30.0 29.7 29.1 29.8 30.1 30.6 30.8 31.1 31.4 31.0 38.0 34.2 30.0 31.7 31.1 28.0 21.1 20.0 20.0 20.0 20.0 20.0 20.0 20.0 20.4 21.1 20.8 20.3 20.0 20.0 20.0 20.0 20.4 20.6 20.2 20.0 20.0
-39.9 -39.9 -39.9 -39.9 -39.8 -39.8 -39.8 -39.8 -39.7 -39.6 -39.4 -39.3 -39.1 -38.8 -38.6 -38.4 -38.3 -38.1 -37.9 -37.8 -37.5 -37.3 -37.1 -36.9 -36.6 -36.4 -36.2 -35.9 -35.7 -35.1 -35.1 -35.0 -34.6 -34.3 -34.0 -33.8 -33.5 -33.1 -32.8 -32.5 -32.1 -31.8 -31.4 -31.0 -30.6 -30.2 -28.9 -28.7 -27.9 -27.1 -26.4 -25.6 -24.7 -23.9 -23.1 -22.3 -21.5 -20.7 -19.7 -18.2 -16.8 -15.4 -14.4 -13.4 -12.4 -11.4 -10.4 -9.4 -8.6 -7.2 -6.1 -5.0 -4.2 -3.4 -2.5 -1.9 3.5 9.0 19.5 20.0 20.0 19.7 20.0 20.0 20.0 20.0 20.0 20.2 20.2 20.0 20.0 20.0 22.9 26.0 29.5 30.0 30.0 30.3 30.5 29.7 29.8 31.1 32.5 34.0 35.3 36.3 38.6 40.0 39.3 33.5 29.2 29.3 23.9 21.3 20.0 20.0 20.0 20.0 20.0 20.0 20.0 20.4 21.3 21.1 20.5 20.2 20.0 20.2 20.6 21.0 21.1 21.1 20.3 20.0
-39.9 -39.9 -39.9 -39.8 -39.8 -39.7 -39.7 -39.7 -39.6 -39.5 -39.3 -39.2 -39.0 -38.8 -38.5 -38.4 -38.2 -38.0 -37.9 -37.7 -37.5 -37.2 -37.0 -36.8 -36.6 -36.3 -36.1 -35.9 -35.6 -35.2 -35.1 -34.9 -34.5 -34.2 -33.9 -33.7 -33.4 -33.1 -32.7 -32.4 -32.1 -31.7 -31.3 -30.9 -30.5 -30.2 -29.0 -28.6 -27.7 -26.9 -26.1 -25.3 -24.4 -23.6 -22.8 -22.0 -21.2 -20.3 -19.1 -17.7 -16.3 -15.0 -14.0 -13.0 -12.1 -11.1 -10.1 -9.1 -8.2 -7.1 -6.2 -5.0 -4.1 -3.1 -2.2 -0.7 5.7 11.9 19.2 20.0 20.0 19.6 19.9 20.0 20.0 20.0 20.0 20.4 20.3 20.0 20.0 20.0 20.5 23.1 27.4 29.1 29.8 30.1 31.1 30.3 29.9 30.1 30.5 30.7 31.1 31.8 31.8 38.5 35.1 30.0 28.9 27.8 24.1 21.6 20.0 20.0 20.0 20.0 20.0 20.0 20.0 20.9 22.8 22.1 22.0 21.5 20.5 21.7 21.6 21.7 21.0 20.8 20.5 20.0
-39.9 -39.9 -39.8 -39.8 -39.7 -39.7 -39.6 -39.6 -39.5 -39.4 -39.3 -39.1 -39.0 -38.7 -38.4 -38.3 -38.1 -38.0 -37.8 -37.6 -37.4 -37.1 -36.9 -36.7 -36.5 -36.2 -36.0 -35.8 -35.5 -35.2 -35.0 -34.9 -34.4 -34.1 -33.8 -33.6 -33.3 -33.0 -32.6 -32.3 -32.0 -31.6 -31.2 -30.8 -30.5 -30.1 -28.7 -28.4 -27.5 -26.7 -26.0 -25.1 -24.2 -23.4 -22.5 -21.7 -20.8 -19.9 -18.6 -17.2 -15.8 -14.7 -13.7 -12.6 -11.6 -10.6 -9.6 -8.6 -7.7 -6.6 -5.6 -4.6 -3.6 -2.6 -1.7 2.0 6.4 11.3 19.7 20.0 20.0 19.9 19.5 19.4 20.0 20.0 20.0 20.4 20.2 20.0 20.0 20.1 22.3 24.8 27.6 29.0 29.7 30.3 31.0 30.4 29.9 30.1 30.5 30.8 31.3 31.8 31.8 36.0 32.8 30.0 29.5 27.5 24.8 22.2 20.1 20.0 20.0 20.0 20.0 20.0 20.1 21.9 25.3 23.9 22.5 22.7 22.1 22.9 22.4 22.4 21.7 21.7 21.8 22.2
-39.9 -39.9 -39.8 -39.8 -39.7 -39.7 -39.6 -39.6 -39.5 -39.3 -39.2 -39.0 -38.9 -38.6 -38.4 -38.3 -38.1 -37.9 -37.7 -37.5 -37.3 -37.1 -36.8 -36.6 -36.4 -36.2 -35.9 -35.7 -35.5 -35.2 -35.0 -34.8 -34.4 -34.0 -33.8 -33.5 -33.2 -32.9 -32.5 -32.2 -31.9 -31.5 -31.1 -30.7 -30.3 -29.9 -28.3 -28.1 -27.3 -26.5 -25.7 -24.8 -23.9 -23.0 -22.1 -21.3 -20.4 -19.3 -18.0 -16.7 -15.4 -14.3 -13.3 -12.2 -11.2 -10.2 -9.2 -8.2 -7.3 -6.2 -5.2 -4.2 -3.4 -2.5 -1.2 2.9 6.9 11.8 19.6 20.0 19.9 19.7 19.4 19.1 20.0 20.0 20.0 20.2 20.1 20.0 20.5 22.5 25.3 26.9 28.7 29.9 32.7 32.6 33.4 32.6 30.6 35.0 34.0 33.8 33.3 32.2 31.8 33.6 31.2 30.0 29.2 27.6 25.6 23.1 21.0 20.1 20.0 20.0 20.0 20.0 20.1 22.8 27.4 25.3 22.6 23.5 23.5 23.9 23.3 23.7 23.3 24.0 24.1 25.7
-39.9 -39.9 -39.8 -39.7 -39.7 -39.6 -39.5 -39.5 -39.4 -39.2 -39.1 -39.0 -38.8 -38.5 -38.3 -38.1 -38.0 -37.8 -37.6 -37.4 -37.2 -37.0 -36.7 -36.5 -36.3 -36.1 -35.8 -35.6 -35.4 -35.1 -35.0 -34.7 -34.3 -33.9 -33.7 -33.4 -33.1 -32.8 -32.5 -32.1 -31.8 -31.4 -31.0 -30.6 -30.3 -29.8 -28.1 -27.9 -27.1 -26.3 -25.5 -24.5 -23.6 -22.7 -21.8 -20.9 -19.9 -18.7 -17.4 -16.1 -14.9 -13.9 -12.9 -11.9 -10.8 -9.8 -8.9 -7.9 -6.9 -5.9 -4.9 -4.0 -3.3 -2.5 -1.4 4.0 8.9 17.4 19.7 19.8 19.4 19.3 19.0 18.8 20.0 20.0 20.0 20.2 20.1 20.0 21.4 24.2 27.0 28.3 30.0 33.8 39.9 38.9 38.0 36.7 33.1 37.5 36.4 36.2 35.8 34.7 33.2 33.3 31.5 30.1 29.4 28.3 26.9 24.1 21.2 20.5 20.4 20.6 20.0 21.0 24.8 28.7 29.7 29.1 28.7 27.4 26.6 26.8 26.2 26.8 26.6 26.3 26.2 28.7
-40.0 -40.0 -40.0 -40.0 -40.0 -39.8 -39.6 -39.4 -39.3 -39.2 -39.0 -38.9 -38.7 -38.5 -38.2 -38.0 -37.9 -37.7 -37.5 -37.3 -37.1 -36.9 -36.6 -36.4 -36.2 -36.0 -35.8 -35.6 -35.3 -35.0 -34.9 -34.6 -34.2 -33.8 -33.6 -33.4 -33.0 -32.7 -32.4 -32.1 -31.6 -31.3 -30.9 -30.6 -30.2 -29.6 -27.9 -27.7 -26.8 -26.0 -25.2 -24.2 -23.3 -22.4 -21.5 -20.6 -19.5 -18.2 -16.9 -15.6 -14.5 -13.5 -12.5 -11.5 -10.5 -9.5 -8.5 -7.5 -6.5 -5.5 -4.6 -3.7 -3.0 -2.2 -1.0 4.2 12.7 20.5 20.0 19.4 19.0 19.1 18.7 18.5 20.0 20.0 20.0 20.1 20.0 20.4 23.1 27.0 28.6 30.2 33.2 37.9 40.0 40.0 39.2 38.0 35.7 39.0 37.4 37.1 36.5 35.2 33.1 31.8 30.6 29.9 29.8 29.7 29.8 26.8 22.5 20.9 21.1 28.0 20.9 27.1 29.6 29.8 30.0 29.6 29.4 28.2 27.6 27.8 27.4 28.5 29.3 29.5 29.9 30.7
-39.9 -39.9 -39.9 -39.9 -39.9 -39.7 -39.5 -39.3 -39.2 -39.1 -39.0 -38.8 -38.6 -38.4 -38.1 -38.0 -37.8 -37.6 -37.4 -37.2 -37.0 -36.8 -36.6 -36.3 -36.1 -35.9 -35.7 -35.5 -35.3 -35.0 -34.8 -34.4 -34.1 -33.8 -33.5 -33.3 -32.9 -32.6 -32.3 -31.9 -31.5 -31.2 -30.8 -30.4 -30.1 -29.3 -27.6 -27.4 -26.6 -25.8 -24.9 -23.8 -22.9 -22.0 -21.1 -20.1 -18.9 -17.7 -16.4 -15.2 -14.1 -13.1 -12.1 -11.2 -10.2 -9.1 -8.1 -7.1 -6.1 -5.1 -4.3 -3.4 -2.7 -1.9 0.4 5.8 10.0 18.0 17.0 16.6 16.6 16.6 16.6 16.6 16.8 17.7 18.7 18.9 19.6 22.4 26.4 30.0 30.5 32.4 36.1 38.7 40.0 40.0 40.0 39.8 39.6 40.0 39.4 38.1 37.5 36.8 34.6 32.4 30.8 29.9 29.9 29.7 29.8 27.4 23.7 21.9 22.1 28.3 22.1 27.0 29.1 29.4 30.0 30.0 29.6 28.9 28.7 28.9 27.7 28.6 29.3 29.6 29.9 30.9
-39.9 -39.9 -39.8 -39.8 -39.8 -39.6 -39.5 -39.3 -39.2 -39.0 -38.9 -38.7 -38.5 -38.3 -38.0 -37.9 -37.7 -37.5 -37.3 -37.1 -36.9 -36.7 -36.5 -36.3 -36.0 -35.8 -35.6 -35.4 -35.2 -35.0 -34.7 -34.3 -34.0 -33.6 -33.4 -33.2 -32.8 -32.5 -32.2 -31.8 -31.4 -31.1 -30.7 -30.3 -29.9 -29.1 -27.4 -27.2 -26.4 -25.6 -24.6 -23.6 -22.7 -21.8 -20.8 -19.8 -18.4 -17.2 -15.9 -14.7 -13.7 -12.7 -11.8 -10.8 -9.8 -8.8 -7.7 -6.8 -5.8 -4.8 -4.0 -3.1 -2.4 -1.6 2.3 7.0 11.3 16.9 16.6 16.6 16.6 16.6 16.6 16.6 17.1 17.9 19.0 19.5 21.0 24.8 28.1 30.5 32.0 34.0 37.2 37.8 39.9 40.0 40.0 39.9 39.6 40.0 39.8 38.9 38.6 37.7 34.4 31.1 30.0 29.9 29.7 29.6 29.7 27.2 24.0 23.0 24.0 28.9 25.2 29.0 29.9 29.9 30.0 30.0 29.6 30.0 29.7 30.0 29.5 29.1 29.3 29.5 29.9 31.6
-39.9 -39.9 -39.8 -39.7 -39.7 -39.5 -39.4 -39.2 -39.1 -38.9 -38.8 -38.6 -38.4 -38.2 -38.0 -37.8 -37.6 -37.4 -37.2 -37.0 -36.8 -36.6 -36.4 -36.2 -36.0 -35.8 -35.5 -35.3 -35.1 -34.9 -34.6 -34.2 -33.9 -33.5 -33.3 -33.0 -32.7 -32.4 -32.1 -31.7 -31.3 -30.9 -30.6 -30.3 -29.8 -28.9 -27.2 -27.0 -26.1 -25.3 -24.3 -23.3 -22.4 -21.5 -20.5 -19.3 -18.0 -16.6 -15.3 -14.3 -13.3 -12.3 -11.3 -10.4 -9.4 -8.4 -7.3 -6.4 -5.3 -4.5 -3.7 -2.8 -2.1 -0.5 4.2 8.4 19.3 20.1 19.8 19.3 18.8 18.5 18.9 19.2 20.0 20.0 20.0 22.1 24.0 28.2 30.4 32.9 35.5 38.8 39.9 39.8 40.0 40.0 40.0 40.0 39.8 40.0 40.0 40.0 39.9 39.3 36.5 32.2 30.0 29.9 29.8 29.6 29.7 27.7 25.0 24.6 25.7 29.3 27.4 29.6 29.9 30.0 30.0 30.0 29.8 30.0 29.7 30.0 29.5 29.4 29.5 29.7 30.0 37.5
-39.9 -39.8 -39.7 -39.7 -39.6 -39.4 -39.3 -39.1 -39.0 -38.9 -38.7 -38.6 -38.4 -38.2 -37.9 -37.8 -37.5 -37.3 -37.1 -36.9 -36.7 -36.5 -36.3 -36.1 -35.9 -35.7 -35.5 -35.3 -35.1 -34.8 -34.5 -34.1 -33.8 -33.4 -33.2 -32.9 -32.6 -32.3 -31.9 -31.6 -31.2 -30.8 -30.5 -30.1 -29.5 -28.6 -26.9 -26.7 -25.8 -25.0 -23.9 -22.9 -22.0 -21.1 -20.1 -18.8 -17.4 -16.1 -14.8 -13.9 -12.9 -12.0 -11.0 -10.1 -9.1 -8.0 -6.9 -5.9 -4.9 -4.1 -3.3 -2.4 -1.7 2.0 6.1 10.4 19.8 20.1 19.9 19.6 19.2 18.3 19.0 19.4 20.0 20.0 20.1 22.9 25.8 29.3 30.9 33.8 36.3 39.0 40.0 40.0 40.0 40.0 40.0 40.0 40.0 40.0 40.0 39.9 40.0 40.0 39.8 33.5 30.0 29.9 29.8 29.6 29.7 27.8 25.5 25.0 25.3 29.4 27.5 28.7 29.7 30.0 30.0 30.0 30.0 30.0 29.7 30.0 30.0 30.0 29.5 30.7 36.1 40.0
-39.9 -39.8 -39.7 -39.7 -39.6 -39.4 -39.2 -39.0 -38.9 -38.8 -38.7 -38.5 -38.3 -38.1 -37.9 -37.7 -37.4 -37.2 -37.0 -36.8 -36.6 -36.4 -36.2 -36.0 -35.8 -35.6 -35.4 -35.2 -35.0 -34.7 -34.3 -34.0 -33.6 -33.3 -33.1 -32.9 -32.5 -32.2 -31.8 -31.5 -31.1 -30.7 -30.4 -30.0 -29.2 -28.3 -26.6 -26.4 -25.5 -24.7 -23.6 -22.6 -21.7 -20.8 -19.7 -18.2 -16.9 -15.5 -14.4 -13.4 -12.5 -11.6 -10.6 -9.7 -8.6 -7.6 -6.5 -5.6 -4.6 -3.9 -3.1 -2.2 -1.1 2.9 7.4 14.3 20.0 20.0 19.9 19.7 18.9 17.5 18.6 19.4 20.0 20.0 20.0 22.1 24.8 27.8 29.9 33.4 36.7 39.7 40.0 40.0 40.0 40.0 40.0 40.0 40.0 40.0 39.1 39.0 40.0 40.0 38.9 31.4 30.0 29.9 29.7 29.6 29.7 27.9 25.9 25.0 26.3 29.4 27.5 29.1 29.8 30.0 30.0 30.0 30.0 30.0 29.7 30.0 30.0 30.0 29.8 31.6 36.9 40.0
-39.9 -39.8 -39.7 -39.6 -39.5 -39.3 -39.1 -38.9 -38.8 -38.7 -38.6 -38.4 -38.2 -38.0 -37.8 -37.6 -37.3 -37.1 -36.9 -36.8 -36.6 -36.3 -36.1 -35.9 -35.7 -35.5 -35.4 -35.1 -34.9 -34.6 -34.2 -33.9 -33.6 -33.2 -33.0 -32.7 -32.4 -32.1 -31.7 -31.3 -31.0 -30.6 -30.3 -29.9 -29.0 -28.1 -26.5 -26.1 -25.3 -24.3 -23.2 -22.2 -21.3 -20.4 -19.1 -17.7 -16.3 -14.9 -14.0 -13.0 -12.1 -11.1 -10.2 -9.2 -8.2 -7.1 -6.1 -5.1 -4.4 -3.6 -2.9 -2.1 -0.7 4.3 9.1 11.1 19.4 19.1 15.3 14.8 14.5 13.8 16.0 17.2 18.5 19.1 19.8 21.9 24.8 27.4 29.9 32.9 36.2 39.1 40.0 40.0 40.0 40.0 40.0 40.0 40.0 40.0 38.3 38.7 39.9 40.0 34.3 29.8 30.9 30.9 30.7 30.4 30.5 28.5 27.7 27.6 27.8 30.1 28.4 29.7 30.0 30.1 30.0 30.0 30.0 30.0 29.7 30.0 30.0 30.0 30.0 30.0 30.0 39.9
-39.9 -39.8 -39.6 -39.5 -39.4 -39.2 -39.1 -38.9 -38.8 -38.6 -38.5 -38.3 -38.1 -37.9 -37.7 -37.5 -37.2 -37.0 -36.8 -36.7 -36.5 -36.3 -36.1 -35.9 -35.7 -35.5 -35.3 -35.1 -34.8 -34.5 -34.1 -33.8 -33.4 -33.1 -32.9 -32.6 -32.3 -32.0 -31.6 -31.2 -30.8 -30.5 -30.2 -29.5 -28.6 -27.7 -26.4 -25.8 -25.0 -23.9 -22.9 -21.9 -20.9 -19.9 -18.6 -17.2 -15.8 -14.6 -13.6 -12.6 -11.7 -10.7 -9.7 -8.7 -7.7 -6.7 -5.7 -4.8 -4.0 -3.3 -2.6 -1.8 0.2 5.5 9.9 10.7 16.5 17.0 13.9 13.4 13.1 12.5 15.1 16.7 18.2 19.0 19.8 21.9 24.7 27.4 29.4 32.0 36.5 38.6 39.8 40.0 40.0 40.0 40.0 39.5 38.9 38.4 34.5 32.5 32.3 30.2 29.6 29.2 30.0 29.6 29.3 29.1 29.1 27.6 27.6 27.6 27.6 29.6 28.2 29.3 29.8 30.0 30.0 30.0 30.0 30.0 29.7 30.0 30.0 30.0 30.0 30.0 30.0 39.7
-39.8 -39.7 -39.5 -39.4 -39.3 -39.1 -39.0 -38.8 -38.7 -38.6 -38.4 -38.2 -38.0 -37.8 -37.6 -37.4 -37.1 -36.9 -36.7 -36.6 -36.4 -36.2 -36.0 -35.8 -35.6 -35.4 -35.2 -35.0 -34.7 -34.3 -34.0 -33.7 -33.4 -33.1 -32.8 -32.6 -32.2 -31.8 -31.4 -31.1 -30.7 -30.4 -30.1 -29.3 -28.4 -27.5 -26.3 -25.5 -24.7 -23.5 -22.5 -21.5 -20.5 -19.3 -18.0 -16.6 -15.3 -14.2 -13.3 -12.3 -11.3 -10.3 -9.3 -8.3 -7.3 -6.3 -5.3 -4.3 -3.5 -2.5 -1.4 -0.3 2.8 6.8 10.0 10.9 14.4 15.1 13.4 12.7 12.0 11.5 14.5 16.3 18.1 19.1 19.7 22.1 25.4 28.5 31.0 34.7 38.9 40.0 40.0 40.0 40.0 40.0 40.0 40.0 38.0 35.6 30.9 30.2 30.0 29.5 29.2 28.8 30.0 29.5 29.2 29.0 28.8 27.6 27.6 27.6 27.6 29.6 28.4 29.3 29.8 30.0 30.0 30.0 30.0 30.0 29.7 30.0 30.0 30.0 30.0 30.0 30.0 39.2
-39.8 -39.7 -39.5 -39.4 -39.3 -39.1 -38.9 -38.7 -38.6 -38.5 -38.3 -38.2 -37.9 -37.7 -37.5 -37.3 -37.0 -36.8 -36.6 -36.5 -36.3 -36.1 -35.9 -35.7 -35.5 -35.3 -35.1 -34.9 -34.6 -34.2 -33.9 -33.6 -33.3 -32.9 -32.7 -32.5 -32.1 -31.7 -31.3 -31.0 -30.6 -30.3 -29.9 -29.0 -28.1 -27.1 -26.1 -25.3 -24.3 -23.2 -22.1 -21.1 -20.0 -18.8 -17.5 -16.1 -14.9 -13.9 -13.0 -12.0 -11.1 -10.1 -9.1 -8.0 -7.0 -5.9 -4.9 -3.9 -2.8 -1.8 -0.6 1.3 4.2 7.9 10.2 11.0 13.2 14.0 12.7 11.7 11.0 10.5 13.8 16.1 18.3 19.5 19.9 23.2 26.8 30.0 33.2 37.3 40.0 40.0 40.0 40.0 40.0 40.0 40.0 39.9 38.8 37.6 30.9 30.0 29.4 28.9 28.9 28.7 30.0 29.3 28.9 28.6 28.2 27.6 27.6 27.6 27.6 29.5 28.0 28.9 29.5 30.0 30.0 30.0 30.0 30.0 29.7 30.0 30.0 30.0 30.0 30.0 30.0 38.4
-39.8 -39.7 -39.5 -39.4 -39.2 -39.0 -38.8 -38.6 -38.5 -38.4 -38.3 -38.1 -37.8 -37.6 -37.4 -37.2 -36.9 -36.7 -36.5 -36.4 -36.2 -36.0 -35.8 -35.7 -35.5 -35.3 -35.1 -34.8 -34.4 -34.1 -33.8 -33.4 -33.1 -32.8 -32.6 -32.3 -32.0 -31.6 -31.2 -30.8 -30.5 -30.2 -29.6 -28.7 -27.8 -26.8 -25.8 -25.0 -24.0 -22.8 -21.7 -20.7 -19.6 -18.3 -17.0 -15.7 -14.6 -13.6 -12.6 -11.6 -10.7 -9.7 -8.6 -7.6 -6.6 -5.6 -4.6 -3.6 -2.8 -1.7 -0.7 0.6 4.6 9.2 10.1 10.3 12.0 12.4 11.2 10.5 10.1 10.0 12.3 15.0 18.0 20.2 20.9 25.2 28.0 30.3 33.5 36.9 39.6 40.0 40.0 40.0 40.0 40.0 40.0 40.0 40.0 39.8 34.2 30.3 29.8 29.4 29.0 28.7 30.0 29.2 28.9 28.7 28.2 27.6 27.6 27.6 27.6 29.6 28.2 29.0 29.5 30.0 30.0 30.0 30.0 30.0 29.7 30.0 30.0 30.0 30.0 30.0 30.0 37.4
-39.8 -39.6 -39.4 -39.3 -39.1 -38.9 -38.8 -38.6 -38.5 -38.3 -38.2 -38.0 -37.8 -37.6 -37.4 -37.1 -36.9 -36.7 -36.5 -36.4 -36.2 -36.0 -35.8 -35.6 -35.4 -35.2 -35.0 -34.7 -34.3 -34.0 -33.7 -33.3 -33.0 -32.7 -32.5 -32.2 -31.9 -31.5 -31.1 -30.7 -30.4 -30.1 -29.3 -28.4 -27.5 -26.5 -25.6 -24.7 -23.6 -22.4 -21.4 -20.4 -19.2 -17.9 -16.6 -15.3 -14.3 -13.3 -12.3 -11.4 -10.4 -9.4 -8.4 -7.4 -6.4 -5.3 -3.8 -2.1 -0.4 0.6 0.6 3.4 6.9 9.3 10.0 10.0 11.6 11.1 10.3 10.0 10.0 10.0 11.1 13.1 16.2 19.0 20.5 23.8 27.9 29.6 33.7 38.2 40.0 40.0 40.0 40.0 40.0 40.0 40.0 40.0 40.0 40.0 33.7 29.8 29.5 29.1 28.7 28.7 30.0 29.1 28.4 28.3 27.6 27.6 27.6 27.6 27.9 29.7 28.4 29.2 29.6 30.0 30.0 30.0 30.0 30.0 29.8 30.9 31.3 31.7 31.5 31.6 36.3 37.8
-39.8 -39.6 -39.4 -39.2 -39.0 -38.8 -38.7 -38.5 -38.4 -38.3 -38.1 -37.9 -37.7 -37.5 -37.3 -37.0 -36.8 -36.6 -36.4 -36.3 -36.1 -35.9 -35.7 -35.5 -35.3 -35.1 -34.9 -34.5 -34.2 -33.8 -33.5 -33.2 -32.9 -32.6 -32.3 -32.1 -31.8 -31.3 -31.0 -30.6 -30.3 -29.9 -29.0 -28.1 -27.1 -26.2 -25.3 -24.3 -23.3 -22.2 -21.1 -20.1 -18.9 -17.6 -16.3 -15.0 -14.0 -13.1 -12.1 -11.1 -10.2 -9.2 -8.2 -7.1 -6.1 -5.1 -3.4 -1.8 -0.3 0.2 -0.3 4.1 7.0 9.0 10.0 10.0 11.1 10.5 10.0 10.0 10.0 10.0 10.3 12.3 15.7 18.0 20.0 23.9 28.8 31.0 36.7 39.8 40.0 40.0 40.0 40.0 40.0 40.0 40.0 40.0 39.3 37.5 31.6 29.9 29.6 29.2 28.8 28.7 30.0 29.1 28.1 28.0 27.6 27.6 27.6 27.6 28.2 29.7 28.5 29.3 29.6 30.0 30.0 30.0 30.0 30.0 29.9 30.5 30.9 31.2 31.0 30.9 36.3 38.0
-39.9 -39.9 -39.9 -39.7 -39.5 -39.2 -39.0 -38.8 -38.4 -38.2 -38.0 -37.8 -37.6 -37.4 -37.2 -36.9 -36.7 -36.5 -36.3 -36.2 -36.0 -35.8 -35.6 -35.4 -35.2 -35.0 -34.7 -34.4 -34.0 -33.7 -33.4 -33.0 -32.7 -32.4 -32.1 -31.8 -31.5 -31.0 -30.8 -30.5 -30.1 -29.5 -28.6 -27.8 -26.8 -25.9 -25.0 -24.0 -23.0 -21.8 -20.8 -19.8 -18.5 -17.2 -15.9 -14.7 -13.7 -12.7 -11.7 -10.7 -9.7 -8.8 -7.8 -6.8 -5.9 -4.8 -3.0 -1.4 -0.1 0.0 -1.2 4.8 7.4 9.3 10.0 10.0 10.6 10.1 10.0 10.0 10.0 10.0 10.0 11.2 15.1 17.8 20.8 25.0 29.5 32.5 38.3 40.0 40.0 40.0 40.0 40.0 40.0 40.0 40.0 40.0 38.0 35.0 31.1 29.9 29.6 29.3 28.8 28.7 30.0 29.1 27.7 27.6 27.6 27.6 27.6 27.6 28.3 29.7 28.5 29.3 29.5 30.0 30.0 30.0 30.0 30.0 29.8 30.0 30.3 30.7 30.5 30.3 36.0 38.2
-39.9 -39.9 -39.9 -39.6 -39.4 -39.1 -38.9 -38.7 -38.4 -38.2 -38.0 -37.7 -37.5 -37.2 -37.0 -36.9 -36.6 -36.4 -36.2 -36.1 -35.9 -35.7 -35.5 -35.3 -35.1 -34.9 -34.6 -34.2 -33.9 -33.6 -33.3 -33.0 -32.8 -32.4 -32.2 -31.9 -31.4 -30.9 -30.7 -30.3 -30.0 -29.1 -28.2 -27.2 -26.3 -25.3 -24.4 -23.4 -22.5 -21.4 -20.5 -19.3 -18.0 -16.6 -15.2 -14.2 -13.2 -12.2 -11.2 -10.2 -9.3 -8.3 -7.3 -6.3 -5.3 -4.6 -4.1 -3.6 -3.0 -2.5 -2.0 0.6 4.4 8.1 10.0 10.0 10.0 10.0 10.0 10.0 10.0 10.0 10.0 10.1 14.7 19.3 22.2 27.1 32.1 35.0 39.9 40.0 40.0 40.0 40.0 40.0 40.0 40.0 40.0 39.3 35.9 33.1 30.4 29.9 29.6 28.9 28.7 28.7 30.0 29.1 27.6 27.6 30.0 29.3 27.6 27.6 28.0 28.1 27.7 28.8 30.0 30.0 30.0 30.0 30.0 30.0 29.7 30.0 30.0 30.6 30.3 30.0 34.8 38.1
-39.9 -39.9 -39.7 -39.5 -39.3 -39.0 -38.8 -38.5 -38.3 -38.1 -37.8 -37.6 -37.4 -37.1 -36.9 -36.7 -36.5 -36.3 -36.1 -36.0 -35.8 -35.6 -35.4 -35.2 -35.0 -34.7 -34.4 -34.1 -33.7 -33.4 -33.1 -32.8 -32.6 -32.3 -32.1 -31.7 -31.2 -30.8 -30.5 -30.2 -29.7 -28.8 -27.9 -26.9 -26.0 -25.0 -24.1 -23.1 -22.2 -21.2 -20.3 -19.0 -17.7 -16.3 -14.9 -13.9 -12.8 -11.8 -10.8 -9.8 -8.8 -7.9 -6.9 -6.0 -5.0 -4.5 -3.9 -3.4 -2.9 -2.3 -1.5 2.6 5.7 8.7 10.0 10.0 10.0 10.0 10.0 10.0 10.0 10.0 10.0 10.0 13.6 18.3 22.6 27.4 31.1 31.7 38.9 38.7 39.7 40.0 40.0 40.0 40.0 39.9 39.8 37.0 34.0 31.0 29.9 29.8 29.4 28.8 29.5 29.9 30.4 29.7 29.7 29.4 30.0 29.4 28.0 27.6 29.0 28.6 27.8 28.5 30.0 30.0 30.0 30.0 30.0 30.0 29.7 30.0 30.0 30.0 30.0 30.0 31.2 36.0
-39.9 -39.8 -39.6 -39.4 -39.1 -38.9 -38.6 -38.4 -38.2 -37.9 -37.7 -37.5 -37.3 -37.0 -36.8 -36.6 -36.4 -36.2 -36.0 -35.9 -35.7 -35.5 -35.3 -35.1 -34.8 -34.5 -34.2 -33.9 -33.6 -33.3 -33.0 -32.7 -32.5 -32.2 -31.9 -31.5 -31.0 -30.7 -30.4 -30.1 -29.2 -28.4 -27.5 -26.6 -25.6 -24.7 -23.8 -22.9 -21.9 -21.0 -20.1 -18.7 -17.3 -15.9 -14.6 -13.6 -12.5 -11.5 -10.4 -9.4 -8.5 -7.5 -6.6 -5.6 -4.8 -4.3 -3.7 -3.2 -2.7 -2.2 -1.2 3.3 5.3 7.2 10.0 10.0 10.0 10.0 10.0 10.0 10.0 10.0 10.0 11.7 15.2 18.8 23.1 28.3 31.4 30.4 37.6 37.9 39.8 40.0 40.0 40.0 39.9 38.3 37.6 33.7 30.9 29.7 29.2 29.3 28.5 26.3 26.0 25.3 25.6 27.1 26.8 26.6 30.0 28.5 25.1 24.7 28.1 28.2 27.4 28.2 30.0 30.0 30.0 30.0 30.0 30.0 29.7 30.0 30.0 30.0 30.0 30.0 31.6 37.9
-39.9 -39.7 -39.4 -39.2 -39.0 -38.7 -38.5 -38.3 -38.0 -37.8 -37.6 -37.4 -37.2 -36.9 -36.7 -36.5 -36.3 -36.1 -35.9 -35.8 -35.6 -35.4 -35.1 -34.9 -34.6 -34.4 -34.1 -33.8 -33.5 -33.2 -32.9 -32.6 -32.3 -32.1 -31.7 -31.4 -30.9 -30.6 -30.3 -29.9 -28.9 -28.1 -27.2 -26.2 -25.3 -24.3 -23.5 -22.6 -21.7 -20.8 -19.8 -18.3 -16.8 -15.3 -14.1 -13.1 -12.0 -11.0 -9.9 -9.0 -8.1 -7.2 -6.3 -5.4 -4.7 -4.1 -3.6 -3.1 -2.5 -2.0 0.3 2.6 3.5 4.3 9.9 9.4 9.4 9.4 9.4 9.7 9.8 9.9 10.8 14.8 17.1 19.8 22.5 25.4 30.0 29.7 33.0 36.5 39.8 40.0 40.0 40.0 39.2 37.0 35.6 32.6 30.3 28.8 27.6 26.1 24.6 22.9 22.2 21.0 20.0 21.0 20.7 21.2 21.5 21.9 21.9 21.9 23.7 24.3 26.0 25.8 25.8 29.9 29.7 29.7 29.7 29.7 29.7 29.7 29.7 29.7 29.7 29.9 34.1 39.8
-39.8 -39.5 -39.2 -38.9 -38.6 -38.4 -38.2 -38.0 -37.9 -37.7 -37.5 -37.3 -37.1 -36.8 -36.6 -36.4 -36.2 -36.0 -35.8 -35.7 -35.4 -35.2 -35.0 -34.8 -34.5 -34.2 -33.9 -33.6 -33.3 -33.0 -32.7 -32.5 -32.2 -32.0 -31.6 -31.2 -30.7 -30.4 -30.1 -29.5 -28.6 -27.7 -26.9 -26.0 -25.1 -24.1 -23.2 -22.3 -21.4 -20.5 -19.5 -17.7 -16.2 -14.8 -13.7 -12.7 -11.6 -10.6 -9.6 -8.7 -7.8 -6.9 -6.0 -5.1 -4.5 -4.0 -3.5 -2.9 -2.3 -2.0 2.0 3.0 4.1 5.0 9.5 9.7 9.4 9.4 9.5 10.1 10.8 12.4 14.9 19.3 20.2 20.7 24.5 27.3 29.4 30.0 31.2 32.7 39.2 39.8 39.9 39.7 36.7 32.7 31.2 30.4 29.4 28.2 26.9 25.6 23.9 22.0 21.6 20.7 20.0 20.0 20.5 21.4 22.3 23.0 23.1 23.5 25.9 26.7 27.6 28.5 29.5 30.0 30.0 30.0 30.0 30.0 29.7 30.0 30.0 30.0 30.0 30.4 36.2 40.0
-39.8 -39.5 -39.2 -38.9 -38.6 -38.3 -38.1 -37.9 -37.8 -37.6 -37.4 -37.2 -37.0 -36.7 -36.5 -36.3 -36.1 -35.9 -35.6 -35.5 -35.3 -35.1 -34.9 -34.6 -34.3 -34.1 -33.8 -33.5 -33.2 -32.9 -32.6 -32.4 -32.1 -31.8 -31.4 -31.0 -30.7 -30.3 -30.0 -29.1 -28.2 -27.3 -26.5 -25.6 -24.7 -23.7 -23.0 -22.0 -21.2 -20.3 -19.0 -17.1 -15.5 -14.3 -13.2 -12.2 -11.1 -10.0 -9.1 -8.3 -7.4 -6.6 -5.7 -4.9 -4.3 -3.8 -3.2 -2.7 -2.1 -1.4 2.5 3.4 4.7 5.7 9.0 10.0 9.4 9.5 9.9 10.2 13.2 14.9 17.3 19.9 21.0 21.4 23.9 26.8 28.7 29.9 30.4 31.3 36.9 39.1 39.7 39.4 33.0 30.6 30.0 29.2 28.3 26.9 25.6 24.3 22.7 20.9 20.4 20.0 20.0 20.0 20.3 20.8 21.3 21.6 21.6 21.7 23.9 24.6 26.9 26.7 26.7 29.9 29.7 29.7 29.7 29.7 29.7 29.7 29.7 29.8 30.2 31.2 32.7 39.7
-39.7 -39.4 -39.1 -38.8 -38.5 -38.2 -38.0 -37.9 -37.7 -37.5 -37.3 -37.0 -36.9 -36.6 -36.4 -36.2 -36.0 -35.7 -35.5 -35.4 -35.2 -35.0 -34.7 -34.5 -34.2 -33.9 -33.6 -33.4 -33.0 -32.8 -32.5 -32.2 -32.0 -31.6 -31.2 -30.9 -30.5 -30.1 -29.5 -28.6 -27.6 -26.7 -25.9 -25.0 -24.2 -23.2 -22.4 -21.7 -20.8 -20.0 -18.4 -16.5 -15.0 -13.9 -12.8 -11.7 -10.6 -9.6 -8.8 -7.9 -7.1 -6.2 -5.4 -4.7 -4.1 -3.5 -3.0 -2.4 -1.9 1.2 3.2 4.6 6.2 7.1 8.6 9.9 9.5 10.0 9.9 10.1 13.3 16.0 17.3 19.9 21.3 20.5 23.5 26.4 28.3 29.6 31.9 34.6 37.3 39.6 40.0 40.0 37.1 33.3 30.7 28.6 27.2 25.7 24.0 22.2 20.5 20.0 20.0 20.0 20.0 20.0 20.5 21.0 21.5 21.8 21.5 21.6 24.4 25.1 27.5 26.7 26.7 29.8 29.7 29.7 29.7 29.7 29.7 29.7 29.8 30.5 31.6 32.1 33.7 39.2
-39.7 -39.4 -39.0 -38.7 -38.4 -38.1 -37.9 -37.8 -37.6 -37.4 -37.2 -37.0 -36.8 -36.5 -36.3 -36.1 -35.9 -35.6 -35.4 -35.3 -35.1 -34.8 -34.6 -34.3 -34.0 -33.8 -33.5 -33.2 -32.9 -32.6 -32.4 -32.1 -31.9 -31.4 -31.0 -30.7 -30.3 -29.9 -29.1 -28.0 -26.9 -26.0 -25.2 -24.5 -23.7 -22.3 -21.8 -21.2 -20.3 -19.2 -17.4 -15.8 -14.5 -13.4 -12.3 -11.2 -10.1 -9.2 -8.4 -7.6 -6.7 -5.9 -5.1 -4.5 -3.9 -3.3 -2.7 -2.2 -0.6 2.3 3.6 5.1 6.8 7.1 8.0 9.5 9.3 10.0 9.9 11.0 16.8 18.7 19.3 20.2 20.4 20.0 22.1 24.9 27.2 28.9 31.5 35.1 38.5 40.0 40.0 39.6 34.4 30.7 30.1 27.8 26.5 24.9 23.3 21.8 20.3 20.0 20.0 20.0 20.0 20.2 20.9 21.2 22.0 22.1 21.3 21.3 25.0 25.6 28.0 26.7 26.7 29.9 29.8 29.8 29.7 29.7 29.7 29.7 30.1 31.7 32.8 33.1 34.7 38.5
-39.7 -39.4 -39.0 -38.7 -38.4 -38.1 -37.9 -37.7 -37.5 -37.3 -37.1 -36.9 -36.7 -36.4 -36.2 -36.0 -35.7 -35.5 -35.3 -35.2 -34.9 -34.7 -34.4 -34.1 -33.9 -33.6 -33.3 -33.1 -32.8 -32.5 -32.3 -32.0 -31.7 -31.3 -30.9 -30.5 -30.1 -29.5 -28.5 -27.5 -26.3 -25.4 -24.5 -23.9 -23.1 -21.5 -21.1 -20.4 -19.3 -17.7 -16.2 -14.9 -13.8 -12.7 -11.6 -10.6 -9.6 -8.8 -8.1 -7.3 -6.5 -5.7 -4.9 -4.4 -3.8 -3.3 -2.7 -2.2 -0.5 2.5 3.7 5.9 7.6 7.7 7.7 9.1 8.5 9.7 11.2 14.8 19.9 20.0 19.9 20.0 20.0 20.0 20.3 23.2 26.4 29.1 32.3 35.8 39.0 40.0 40.0 40.0 37.9 32.2 29.8 28.0 26.4 24.9 23.2 21.7 20.2 20.0 20.0 20.0 20.1 20.4 20.7 21.0 22.8 22.7 21.4 21.6 26.0 26.6 28.4 27.7 28.2 30.0 30.0 30.0 29.9 29.9 29.7 29.9 30.1 32.0 33.2 33.7 34.9 37.8
-39.7 -39.4 -39.0 -38.6 -38.3 -38.0 -37.8 -37.6 -37.4 -37.2 -37.0 -36.8 -36.6 -36.3 -36.1 -35.9 -35.6 -35.4 -35.2 -35.0 -34.8 -34.5 -34.3 -34.0 -33.7 -33.5 -33.2 -32.9 -32.6 -32.4 -32.1 -31.9 -31.5 -31.1 -30.7 -30.3 -29.9 -28.9 -27.9 -26.9 -25.7 -24.8 -24.0 -23.3 -22.2 -20.8 -20.2 -19.1 -17.9 -16.6 -15.4 -14.3 -13.2 -12.2 -11.1 -10.1 -9.3 -8.5 -7.8 -7.0 -6.3 -5.5 -4.8 -4.2 -3.7 -3.1 -2.5 -2.0 -0.5 2.5 4.4 7.3 8.7 8.4 7.6 8.8 8.5 9.3 10.0 15.6 20.2 20.0 19.9 20.0 20.0 20.0 21.4 24.1 27.1 29.2 32.6 36.3 39.7 40.0 40.0 39.1 34.2 30.3 28.5 27.1 25.8 24.6 22.7 22.0 20.5 20.0 20.0 20.0 20.0 20.0 20.2 20.5 22.5 22.5 21.2 21.2 26.0 26.7 28.9 27.5 28.1 29.8 29.8 30.0 30.0 30.0 29.7 30.0 30.0 30.9 33.0 33.4 34.6 37.0
-39.6 -39.2 -38.9 -38.5 -38.2 -37.9 -37.8 -37.6 -37.3 -37.1 -36.9 -36.7 -36.5 -36.2 -36.0 -35.8 -35.5 -35.3 -35.1 -34.9 -34.6 -34.4 -34.1 -33.8 -33.6 -33.3 -33.0 -32.8 -32.5 -32.3 -32.0 -31.7 -31.3 -30.9 -30.5 -30.2 -29.4 -28.3 -27.3 -26.2 -25.1 -24.1 -23.4 -22.4 -21.2 -20.1 -19.4 -18.1 -17.0 -16.0 -15.0 -13.9 -12.8 -11.7 -10.6 -9.6 -8.9 -8.2 -7.5 -6.8 -6.0 -5.3 -4.7 -4.1 -3.5 -3.0 -2.4 -1.9 2.0 2.9 6.2 8.9 9.6 9.2 7.5 8.4 8.5 9.3 10.2 12.9 19.2 19.9 20.0 20.0 20.0 20.0 22.1 24.5 27.8 29.5 33.0 36.9 39.9 40.0 39.4 36.9 32.3 30.2 28.6 27.3 25.8 24.6 21.9 22.1 21.1 20.1 20.0 20.0 20.0 20.0 20.0 20.0 20.6 21.6 21.8 22.1 26.7 28.2 29.6 28.8 29.2 29.7 30.0 30.0 30.0 30.0 29.7 30.0 30.0 33.2 35.4 34.0 35.2 36.9
-39.1 -38.8 -38.5 -38.3 -38.1 -37.9 -37.7 -37.5 -37.2 -37.0 -36.8 -36.6 -36.3 -36.1 -35.9 -35.7 -35.4 -35.2 -35.0 -34.7 -34.5 -34.2 -34.0 -33.7 -33.4 -33.2 -32.9 -32.6 -32.4 -32.1 -31.8 -31.5 -31.1 -30.7 -30.3 -29.9 -28.8 -27.7 -26.8 -25.7 -24.7 -23.7 -22.9 -21.8 -20.6 -19.6 -18.8 -17.6 -16.6 -15.5 -14.5 -13.4 -12.3 -11.2 -10.1 -9.4 -8.7 -8.0 -7.3 -6.6 -5.8 -5.1 -4.5 -4.0 -3.4 -2.9 -2.3 -1.6 2.5 4.6 8.6 9.9 9.9 9.9 10.0 10.0 10.0 10.0 10.2 12.9 17.7 19.5 20.0 20.0 20.0 20.0 22.4 25.3 28.6 30.6 34.6 38.1 40.0 40.0 39.0 35.2 30.7 29.4 26.8 25.1 23.6 22.0 20.3 20.0 20.1 20.0 20.0 20.0 20.0 20.0 20.0 20.0 20.0 20.2 21.5 21.5 26.9 29.1 30.0 29.9 30.0 30.0 30.0 30.0 30.0 30.0 29.9 30.1 34.3 39.4 39.1 37.5 38.0 38.8
-38.5 -38.4 -38.2 -38.1 -38.0 -37.8 -37.6 -37.4 -37.1 -36.9 -36.7 -36.5 -36.2 -36.0 -35.8 -35.5 -35.3 -35.1 -34.8 -34.6 -34.3 -34.0 -33.8 -33.5 -33.3 -33.0 -32.8 -32.5 -32.2 -32.0 -31.6 -31.3 -30.9 -30.5 -30.1 -29.5 -28.3 -27.3 -26.3 -25.3 -24.2 -23.3 -22.5 -21.3 -20.3 -19.3 -18.5 -17.2 -16.2 -15.2 -14.2 -13.2 -12.1 -11.1 -10.0 -9.3 -8.6 -7.9 -7.2 -6.5 -5.8 -5.1 -4.4 -3.9 -3.4 -2.8 -2.3 -2.1 3.4 6.9 16.4 14.2 11.0 10.0 10.0 10.0 10.0 10.0 10.0 11.7 15.9 18.6 19.7 19.9 19.7 20.0 23.1 26.6 30.0 31.8 35.9 38.7 40.0 40.0 37.3 33.2 29.8 27.7 25.8 24.3 23.0 21.6 20.1 20.0 20.1 20.0 20.0 20.0 20.0 20.0 20.0 20.0 20.0 20.0 20.4 20.3 24.1 26.7 29.8 29.3 29.4 29.8 29.9 29.9 29.9 30.0 29.9 30.6 40.0 40.0 40.0 39.9 39.9 40.0
-37.9 -37.9 -37.9 -37.9 -37.9 -37.7 -37.5 -37.3 -37.0 -36.8 -36.6 -36.3 -36.1 -35.9 -35.6 -35.4 -35.2 -35.0 -34.7 -34.4 -34.2 -33.9 -33.7 -33.4 -33.1 -32.9 -32.6 -32.3 -32.1 -31.8 -31.4 -31.1 -30.7 -30.3 -29.9 -29.0 -27.8 -26.8 -25.9 -24.9 -24.0 -23.0 -22.2 -21.2 -20.3 -19.2 -18.2 -17.0 -15.9 -14.8 -13.9 -12.9 -11.9 -10.9 -10.0 -9.3 -8.6 -7.8 -7.1 -6.3 -5.6 -4.9 -4.2 -3.8 -3.3 -2.7 -2.1 -2.0 3.7 7.2 17.2 14.0 10.4 10.0 10.0 10.0 10.0 10.0 10.2 11.9 15.4 17.9 18.8 19.1 20.2 21.4 25.4 28.1 30.7 32.9 36.7 39.5 40.0 38.7 35.0 32.2 29.9 27.6 25.0 23.5 22.4 21.2 20.0 20.0 20.0 20.0 20.0 20.0 20.0 20.1 20.0 20.0 20.2 20.4 20.0 20.0 20.8 23.7 29.1 28.8 28.8 29.3 29.9 30.0 30.0 30.0 29.9 30.8 37.9 40.0 40.0 39.9 39.9 40.0
-37.3 -37.4 -37.6 -37.7 -37.8 -37.6 -37.4 -37.1 -36.9 -36.7 -36.5 -36.2 -36.0 -35.8 -35.5 -35.3 -35.1 -34.8 -34.6 -34.3 -34.1 -33.8 -33.5 -33.3 -33.0 -32.7 -32.5 -32.2 -31.9 -31.6 -31.1 -30.8 -30.5 -30.1 -29.4 -28.4 -27.3 -26.4 -25.5 -24.6 -23.7 -22.9 -22.0 -21.1 -20.2 -19.1 -18.0 -16.9 -15.7 -14.6 -13.7 -12.8 -11.8 -10.9 -10.0 -9.3 -8.6 -7.8 -7.0 -6.3 -5.5 -4.8 -4.1 -3.6 -3.1 -2.5 -2.0 -1.2 4.2 7.1 10.3 10.1 10.0 10.0 10.0 10.0 10.0 10.0 10.9 12.6 15.7 17.3 18.1 19.0 20.7 22.5 25.5 28.0 30.5 32.9 36.5 38.8 40.0 36.8 33.1 30.0 27.1 24.1 22.5 22.3 21.3 20.9 20.0 20.0 20.0 20.0 20.1 20.1 20.6 21.3 20.8 21.3 22.5 22.5 21.8 21.7 28.1 28.3 29.1 29.4 30.0 30.0 30.0 30.0 30.0 30.0 29.9 30.0 32.1 39.1 40.0 39.9 39.9 39.9
-36.6 -37.0 -37.4 -37.8 -37.7 -37.5 -37.3 -37.1 -36.8 -36.6 -36.4 -36.1 -35.9 -35.7 -35.4 -35.2 -35.0 -34.8 -34.5 -34.2 -33.9 -33.7 -33.4 -33.1 -32.8 -32.6 -32.3 -32.0 -31.7 -31.3 -30.9 -30.6 -30.3 -29.8 -28.9 -28.0 -27.0 -26.1 -25.2 -24.3 -23.5 -22.7 -21.9 -21.0 -20.2 -19.0 -17.9 -16.8 -15.6 -14.5 -13.6 -12.7 -11.7 -10.8 -9.9 -9.2 -8.4 -7.7 -6.9 -6.1 -5.3 -4.6 -4.0 -3.5 -2.9 -2.2 -1.5 2.1 3.1 4.8 9.4 9.9 9.5 9.4 9.4 9.4 9.4 10.2 11.0 13.1 15.9 17.0 17.9 18.9 20.5 22.9 25.8 28.4 30.0 30.1 33.3 34.3 37.5 31.8 30.3 28.6 22.7 20.8 20.6 20.8 20.1 20.2 20.0 20.0 20.0 20.0 20.5 20.7 21.4 22.5 22.3 22.7 23.8 24.1 24.2 24.2 28.7 28.1 29.0 29.7 28.6 30.0 30.0 30.0 30.0 30.0 29.9 30.0 31.7 37.9 39.6 39.8 39.8 39.8
-36.0 -36.7 -37.3 -37.9 -37.7 -37.4 -37.2 -37.0 -36.7 -36.5 -36.3 -36.1 -35.8 -35.6 -35.3 -35.1 -34.9 -34.6 -34.4 -34.1 -33.8 -33.5 -33.3 -33.0 -32.7 -32.4 -32.1 -31.9 -31.5 -31.2 -30.7 -30.4 -30.1 -29.4 -28.5 -27.6 -26.6 -25.7 -24.8 -24.1 -23.3 -22.5 -21.8 -21.0 -20.2 -19.1 -17.9 -16.7 -15.5 -14.4 -13.5 -12.6 -11.6 -10.7 -9.8 -9.1 -8.3 -7.5 -6.7 -6.0 -5.2 -4.5 -3.8 -3.3 -2.7 -2.1 -0.5 2.5 3.7 6.2 8.8 9.6 9.4 9.4 9.4 9.4 9.4 10.1 10.2 13.3 15.7 16.9 17.9 19.2 21.3 23.9 26.9 29.7 30.2 30.1 34.4 32.1 32.4 30.2 28.3 23.3 20.0 20.0 20.0 20.0 20.0 20.0 20.0 20.0 20.0 20.0 20.5 20.9 21.6 22.9 23.3 23.7 24.9 25.2 26.3 26.4 28.8 28.4 28.6 28.6 28.4 29.1 29.3 30.0 30.0 30.0 29.9 30.0 30.0 34.3 39.8 40.0 39.9 40.0
-35.6 -36.5 -37.4 -37.8 -37.6 -37.3 -37.1 -36.9 -36.7 -36.4 -36.2 -36.0 -35.7 -35.5 -35.2 -35.0 -34.8 -34.5 -34.2 -33.9 -33.7 -33.4 -33.1 -32.8 -32.6 -32.3 -32.0 -31.7 -31.3 -31.0 -30.6 -30.3 -29.9 -29.0 -28.1 -27.2 -26.3 -25.4 -24.6 -23.9 -23.2 -22.4 -21.7 -20.9 -20.2 -19.1 -17.8 -16.7 -15.5 -14.4 -13.4 -12.5 -11.6 -10.6 -9.7 -9.0 -8.2 -7.5 -6.7 -5.9 -5.1 -4.3 -3.7 -3.2 -2.6 -2.0 0.4 2.6 4.4 7.6 9.2 9.5 9.4 9.4 9.4 9.4 9.4 9.7 9.8 11.6 13.9 16.4 18.0 20.2 22.4 24.7 27.2 29.6 33.6 37.7 39.8 36.2 33.0 29.3 26.3 21.6 20.0 20.0 20.0 20.0 20.0 20.0 20.0 20.0 20.0 20.0 20.4 20.8 21.5 23.3 24.1 24.6 26.1 26.5 28.8 29.0 29.3 28.3 28.3 28.3 28.3 28.3 28.4 29.6 30.0 30.0 29.9 30.0 30.0 35.3 40.1 40.0 39.9 40.0
-35.7 -36.7 -37.7 -37.7 -37.5 -37.3 -37.0 -36.8 -36.6 -36.3 -36.1 -35.9 -35.6 -35.4 -35.1 -34.9 -34.7 -34.4 -34.1 -33.8 -33.5 -33.3 -33.0 -32.7 -32.4 -32.1 -31.9 -31.5 -31.2 -30.8 -30.4 -30.2 -29.6 -28.7 -27.8 -26.9 -25.9 -25.0 -24.3 -23.7 -23.0 -22.3 -21.5 -20.8 -20.2 -19.1 -17.8 -16.6 -15.4 -14.3 -13.3 -12.4 -11.5 -10.5 -9.6 -8.9 -8.1 -7.3 -6.5 -5.7 -4.9 -4.2 -3.6 -3.1 -2.5 -1.8 0.5 1.3 5.2 9.3 9.8 9.9 9.7 9.4 9.4 9.4 9.4 9.8 10.1 12.7 14.9 17.1 18.4 20.7 23.1 25.8 28.7 30.4 33.0 34.7 36.8 33.0 31.2 28.0 23.9 20.1 20.0 20.0 20.0 20.0 20.0 20.0 20.0 20.0 20.5 21.2 22.4 23.0 24.1 26.1 26.6 27.2 28.4 29.4 29.2 30.0 30.0 29.9 29.6 28.3 28.6 30.0 30.0 30.0 30.0 30.0 30.0 30.0 30.1 38.6 39.9 39.5 39.3 39.3
-35.9 -37.6 -37.8 -37.6 -37.3 -37.1 -36.9 -36.6 -36.4 -36.2 -35.9 -35.7 -35.5 -35.2 -35.0 -34.7 -34.5 -34.2 -33.9 -33.6 -33.3 -33.0 -32.7 -32.4 -32.2 -31.9 -31.6 -31.2 -30.8 -30.5 -30.2 -30.0 -29.3 -28.5 -27.6 -26.7 -25.9 -25.1 -24.3 -23.6 -22.9 -22.2 -21.5 -20.8 -20.1 -19.2 -18.0 -17.0 -15.8 -14.6 -13.5 -12.4 -11.4 -10.3 -9.4 -8.7 -8.0 -7.3 -6.5 -5.8 -5.0 -4.3 -3.7 -3.1 -2.5 -1.9 2.0 5.4 8.7 10.0 14.6 10.8 10.0 10.0 10.0 10.0 10.0 10.3 10.8 13.6 15.5 18.0 18.6 19.7 22.4 25.0 27.6 29.9 30.3 30.3 32.3 30.3 28.8 25.6 21.6 20.0 20.0 20.0 20.0 20.0 20.0 20.0 20.0 20.3 21.0 21.8 23.3 23.9 25.3 27.4 28.1 28.6 29.9 30.0 29.2 30.0 30.0 30.0 29.6 28.3 28.6 30.0 30.0 30.0 30.0 30.0 30.0 30.3 30.8 39.0 39.3 39.3 39.3 39.3
-36.4 -37.9 -37.7 -37.5 -37.2 -37.0 -36.8 -36.5 -36.3 -36.1 -35.8 -35.6 -35.4 -35.1 -34.9 -34.6 -34.3 -34.0 -33.8 -33.5 -33.2 -32.9 -32.6 -32.3 -32.0 -31.7 -31.4 -31.0 -30.7 -30.4 -30.1 -29.9 -29.0 -28.1 -27.2 -26.4 -25.6 -24.8 -24.0 -23.4 -22.7 -22.0 -21.4 -20.7 -20.0 -19.0 -17.8 -16.8 -15.6 -14.4 -13.3 -12.2 -11.2 -10.0 -9.2 -8.6 -7.8 -7.1 -6.3 -5.6 -4.8 -4.1 -3.5 -2.9 -2.4 -0.7 3.3 6.6 10.0 17.2 19.9 15.6 11.1 10.0 10.0 10.0 10.0 10.0 10.7 13.1 15.0 18.7 19.0 19.3 22.0 24.8 27.7 29.8 30.5 30.3 30.2 29.1 26.5 24.4 22.0 20.1 20.0 20.0 20.0 20.0 20.0 20.0 20.3 20.8 21.6 22.4 24.1 25.1 26.6 28.7 29.6 29.8 30.5 30.0 30.0 30.0 30.0 30.0 30.0 29.7 29.8 30.0 30.0 30.0 30.0 30.0 30.0 30.0 30.2 39.7 39.3 39.3 39.3 39.5
-37.0 -37.8 -37.6 -37.4 -37.1 -36.9 -36.7 -36.5 -36.2 -36.0 -35.8 -35.5 -35.3 -35.1 -34.8 -34.5 -34.2 -33.9 -33.7 -33.4 -33.1 -32.8 -32.5 -32.2 -31.9 -31.6 -31.3 -30.9 -30.6 -30.3 -30.0 -29.6 -28.7 -27.8 -26.9 -26.1 -25.2 -24.5 -23.8 -23.1 -22.5 -21.8 -21.2 -20.5 -19.9 -18.7 -17.6 -16.5 -15.4 -14.2 -13.0 -11.9 -10.9 -9.8 -9.0 -8.4 -7.6 -6.9 -6.1 -5.4 -4.7 -4.0 -3.3 -2.7 -2.1 0.8 4.4 7.6 10.1 10.1 16.1 14.1 10.0 10.0 10.0 10.0 10.0 10.0 10.0 12.3 15.1 19.3 19.9 19.8 24.1 27.0 29.9 30.0 33.3 30.3 30.0 28.6 25.7 24.0 22.3 20.2 20.0 20.0 20.0 20.0 20.0 20.0 20.8 21.5 22.5 23.5 25.8 27.2 28.7 29.9 30.0 30.0 31.2 30.0 30.0 30.0 30.0 30.0 30.0 29.5 29.8 30.0 30.0 30.0 30.0 30.0 30.0 30.0 30.1 39.9 39.0 39.3 40.1 40.8
-37.8 -37.7 -37.5 -37.3 -37.0 -36.8 -36.6 -36.4 -36.1 -35.9 -35.7 -35.4 -35.2 -35.0 -34.7 -34.4 -34.1 -33.8 -33.6 -33.3 -33.0 -32.7 -32.4 -32.1 -31.8 -31.5 -31.1 -30.8 -30.5 -30.2 -29.9 -29.3 -28.4 -27.4 -26.5 -25.7 -24.9 -24.2 -23.5 -22.9 -22.2 -21.6 -20.9 -20.3 -19.5 -18.3 -17.2 -16.1 -15.0 -13.8 -12.7 -11.6 -10.6 -9.7 -8.8 -8.2 -7.4 -6.7 -5.9 -5.2 -4.5 -3.8 -3.1 -2.6 -2.0 1.8 5.3 8.5 11.9 13.9 17.0 19.9 12.7 10.7 10.0 10.0 10.0 11.9 10.3 15.1 17.1 19.7 19.9 20.8 26.1 27.9 29.9 30.0 35.9 30.3 30.1 29.1 23.8 22.9 22.5 20.4 20.0 20.0 20.0 20.0 20.0 20.1 21.1 22.1 23.0 24.4 26.6 28.1 29.5 30.0 30.0 30.0 32.2 30.0 30.0 30.0 30.0 30.0 30.0 29.5 29.6 30.0 30.0 30.0 30.0 30.0 30.0 30.0 30.2 36.7 37.4 38.7 40.7 41.6
-37.9 -37.6 -37.4 -37.2 -37.0 -36.7 -36.5 -36.3 -36.0 -35.8 -35.6 -35.4 -35.1 -34.9 -34.6 -34.3 -34.0 -33.8 -33.5 -33.2 -32.9 -32.6 -32.3 -32.0 -31.7 -31.4 -31.0 -30.7 -30.4 -30.1 -29.8 -29.0 -28.1 -27.1 -26.2 -25.3 -24.6 -23.9 -23.3 -22.6 -22.0 -21.4 -20.7 -20.1 -19.1 -17.9 -16.8 -15.8 -14.7 -13.5 -12.4 -11.4 -10.4 -9.5 -8.6 -8.0 -7.2 -6.5 -5.7 -5.0 -4.3 -3.6 -3.1 -2.4 -1.6 2.8 6.1 9.3 10.0 9.9 10.3 17.3 10.0 10.2 10.0 10.0 10.0 16.3 11.6 14.5 16.2 18.8 19.5 20.8 28.3 28.9 29.5 30.0 38.7 30.3 30.1 22.0 20.1 20.4 20.9 20.0 20.0 20.0 20.0 20.0 20.0 20.1 21.1 22.2 23.2 24.2 26.6 28.1 29.6 30.0 30.0 30.0 34.6 33.1 30.3 30.2 30.2 30.0 30.0 29.6 29.6 30.0 30.0 30.0 30.0 30.0 30.0 30.0 32.0 36.7 38.2 38.6 40.0 40.8
-37.8 -37.5 -37.4 -37.1 -36.9 -36.7 -36.4 -36.2 -36.0 -35.8 -35.5 -35.3 -35.1 -34.8 -34.5 -34.2 -34.0 -33.7 -33.4 -33.1 -32.8 -32.5 -32.2 -32.0 -31.7 -31.4 -31.0 -30.6 -30.3 -30.0 -29.6 -28.7 -27.7 -26.7 -25.6 -24.8 -24.2 -23.5 -22.9 -22.2 -21.7 -21.0 -20.4 -19.7 -18.7 -17.4 -16.4 -15.3 -14.3 -13.2 -12.1 -11.1 -10.1 -9.3 -8.5 -7.8 -7.1 -6.3 -5.6 -4.8 -4.1 -3.5 -2.9 -2.3 -0.5 3.7 7.1 10.0 12.0 10.0 10.0 10.0 10.0 10.0 10.0 10.0 11.2 19.3 17.8 18.6 19.3 19.8 20.7 24.1 29.1 29.6 31.0 36.8 40.6 35.0 30.5 24.1 20.1 20.0 20.0 20.0 20.0 20.0 20.0 20.0 20.0 20.0 20.3 21.5 22.3 22.7 25.1 26.3 28.2 29.8 29.9 29.8 34.0 32.2 30.0 30.0 30.0 32.0 39.4 38.6 29.8 30.0 30.0 30.2 30.0 30.0 30.0 30.0 31.0 37.4 39.6 39.8 39.7 39.8
-35.4 -35.3 -35.4 -35.3 -35.2 -35.2 -35.1 -35.1 -35.1 -35.0 -35.0 -35.0 -35.0 -34.7 -34.4 -34.1 -33.9 -33.6 -33.3 -33.0 -32.7 -32.4 -32.2 -31.9 -31.6 -31.3 -30.9 -30.5 -30.2 -29.9 -29.2 -28.3 -27.3 -26.2 -25.2 -24.5 -23.9 -23.2 -22.6 -22.0 -21.3 -20.7 -20.1 -19.2 -18.1 -16.9 -16.0 -15.0 -14.0 -12.9 -11.8 -10.8 -9.9 -9.1 -8.3 -7.6 -6.9 -6.1 -5.3 -4.6 -3.9 -3.3 -2.7 -2.1 1.0 4.8 8.4 10.0 16.9 10.0 10.0 10.0 10.0 10.0 10.0 10.0 10.6 14.9 14.7 16.5 18.0 19.7 22.3 24.6 28.0 29.9 30.0 30.0 30.2 29.1 28.9 23.7 20.5 20.0 20.0 20.0 20.0 20.0 20.0 20.0 20.0 20.0 20.3 21.2 21.7 21.8 24.4 25.4 27.3 29.4 29.4 29.3 31.3 30.4 30.1 30.3 31.2 38.4 40.4 39.7 31.1 30.0 30.0 30.5 30.1 30.0 30.1 31.7 37.0 39.9 40.6 41.8 42.9 44.0
-35.2 -35.2 -35.3 -35.2 -35.2 -35.2 -35.1 -35.1 -35.1 -35.0 -35.0 -35.0 -34.9 -34.6 -34.3 -34.1 -33.8 -33.5 -33.2 -32.9 -32.7 -32.4 -32.1 -31.8 -31.5 -31.2 -30.7 -30.4 -30.1 -29.7 -28.8 -27.8 -26.8 -25.8 -24.8 -24.2 -23.6 -22.9 -22.3 -21.7 -21.1 -20.4 -19.7 -18.7 -17.7 -16.5 -15.5 -14.6 -13.6 -12.5 -11.5 -10.5 -9.7 -9.0 -8.1 -7.4 -6.6 -5.9 -5.1 -4.4 -3.7 -3.1 -2.5 -1.9 2.4 6.1 13.0 17.8 20.0 12.5 10.0 10.0 10.0 10.0 10.0 10.0 10.0 11.9 14.4 16.9 18.5 20.4 24.1 26.0 28.7 30.0 30.0 30.0 29.8 27.2 25.3 21.7 20.0 20.0 20.0 20.0 20.0 20.0 20.0 20.0 20.0 20.0 20.0 20.8 21.4 21.5 24.3 25.5 27.1 28.8 28.8 29.3 30.3 30.0 30.0 30.0 30.1 35.1 40.0 40.0 40.0 30.9 30.0 31.0 33.6 30.0 30.2 33.9 39.8 39.6 40.7 43.1 46.0 44.6
-35.1 -35.2 -35.2 -35.2 -35.2 -35.2 -35.1 -35.1 -35.1 -35.0 -35.0 -35.0 -34.8 -34.5 -34.2 -34.0 -33.7 -33.4 -33.1 -32.9 -32.6 -32.3 -32.0 -31.7 -31.4 -31.1 -30.7 -30.3 -30.0 -29.5 -28.4 -27.5 -26.5 -25.4 -24.6 -23.9 -23.3 -22.6 -22.0 -21.3 -20.7 -20.1 -19.2 -18.2 -17.2 -16.1 -15.2 -14.3 -13.3 -12.2 -11.2 -10.3 -9.4 -8.8 -7.9 -7.2 -6.4 -5.7 -4.9 -4.2 -3.6 -2.9 -2.3 -0.4 3.7 7.4 18.8 14.7 15.7 10.1 10.0 10.0 10.0 10.0 10.0 10.0 10.0 10.0 12.1 16.0 18.4 21.3 28.0 27.4 29.0 30.0 30.0 29.4 25.6 21.9 22.7 20.5 20.0 20.0 20.0 20.0 20.0 20.0 20.0 20.0 20.0 20.0 20.0 20.2 20.7 20.7 22.9 24.5 27.3 29.7 29.1 29.1 29.9 29.5 29.4 29.8 29.9 34.8 39.9 40.0 40.0 39.5 32.2 39.9 40.0 37.8 32.1 39.8 41.0 41.4 44.2 46.8 49.7 48.0
-35.1 -35.1 -35.2 -35.1 -35.1 -35.2 -35.1 -35.1 -35.0 -35.0 -35.0 -35.0 -34.7 -34.4 -34.1 -33.8 -33.6 -33.3 -33.1 -32.8 -32.5 -32.2 -31.9 -31.6 -31.3 -31.0 -30.6 -30.2 -29.9 -29.1 -28.1 -27.2 -26.2 -25.1 -24.4 -23.7 -23.0 -22.4 -21.7 -21.1 -20.4 -19.8 -18.7 -17.7 -16.7 -15.7 -14.8 -13.9 -12.9 -11.9 -11.0 -10.1 -9.3 -8.5 -7.7 -7.0 -6.2 -5.4 -4.7 -4.0 -3.4 -2.7 -2.1 1.2 4.7 8.0 10.8 10.0 10.4 10.0 10.0 10.0 10.0 10.0 10.0 10.0 10.0 10.3 13.8 17.5 18.9 24.8 30.0 29.8 30.0 30.0 29.8 30.0 20.6 20.0 20.1 20.1 20.0 20.0 20.0 20.0 20.0 20.0 20.0 20.0 20.0 20.0 20.0 20.2 20.4 20.3 23.5 25.3 28.2 29.9 29.3 29.3 29.4 29.4 29.5 30.1 30.1 33.3 38.4 40.0 40.0 39.8 37.4 39.8 40.0 39.7 36.5 39.6 41.3 43.1 45.6 48.9 50.0 49.9
-35.1 -35.1 -35.1 -35.1 -35.1 -35.2 -35.1 -35.1 -35.0 -35.0 -35.0 -34.9 -34.6 -34.3 -34.0 -33.7 -33.5 -33.3 -33.0 -32.7 -32.4 -32.2 -31.9 -31.5 -31.2 -30.9 -30.5 -30.2 -30.0 -28.9 -27.9 -27.0 -26.0 -24.9 -24.3 -23.5 -22.8 -22.2 -21.5 -20.8 -20.2 -19.3 -18.3 -17.3 -16.3 -15.3 -14.4 -13.5 -12.6 -11.7 -10.8 -9.9 -9.1 -8.3 -7.5 -6.8 -6.0 -5.2 -4.5 -3.8 -3.2 -2.5 -1.6 2.4 5.5 8.5 10.1 10.2 10.2 10.8 10.2 11.2 10.0 10.0 10.0 10.0 10.0 10.2 13.5 18.8 19.5 26.2 30.0 30.0 30.0 30.0 27.2 23.2 20.0 20.0 20.0 20.0 20.0 20.0 20.0 20.0 20.0 20.0 20.0 20.0 20.0 20.0 20.0 20.0 20.2 20.0 24.9 27.2 29.5 30.4 30.0 30.0 30.0 30.0 30.0 31.5 32.7 36.0 38.5 40.0 40.0 39.6 39.9 39.6 40.0 38.4 39.0 40.0 42.8 45.3 48.3 50.0 50.0 49.9
-35.1 -35.1 -35.1 -35.1 -35.1 -35.1 -35.1 -35.1 -35.0 -35.0 -35.0 -34.8 -34.5 -34.2 -33.9 -33.6 -33.4 -33.2 -32.9 -32.6 -32.4 -32.1 -31.8 -31.5 -31.2 -30.8 -30.4 -30.1 -29.8 -28.7 -27.7 -26.7 -25.6 -24.7 -24.0 -23.3 -22.5 -21.9 -21.2 -20.5 -19.8 -18.8 -17.8 -16.8 -15.8 -14.9 -14.0 -13.2 -12.3 -11.4 -10.5 -9.7 -8.9 -8.1 -7.3 -6.6 -5.8 -5.0 -4.3 -3.6 -3.0 -2.3 -0.2 2.4 3.7 5.9 9.5 9.3 9.3 8.9 9.5 9.6 10.0 9.9 10.0 10.0 10.0 11.4 17.0 20.4 20.7 28.6 30.0 30.0 30.0 30.1 27.2 20.1 20.1 20.0 20.0 20.0 20.0 20.0 20.0 20.0 20.0 20.0 20.0 20.0 20.0 20.0 20.0 20.0 20.0 20.0 21.6 25.9 29.3 30.3 30.0 30.2 30.4 30.0 30.0 30.9 33.7 36.4 38.7 40.0 40.0 40.2 40.3 39.8 40.0 39.2 39.6 40.4 43.2 45.5 48.1 49.6 50.0 49.9
-35.0 -35.1 -35.1 -35.1 -35.1 -35.1 -35.1 -35.1 -35.0 -35.0 -35.0 -34.7 -34.4 -34.1 -33.8 -33.6 -33.3 -33.1 -32.8 -32.6 -32.3 -32.0 -31.7 -31.4 -31.1 -30.8 -30.4 -30.1 -29.7 -28.5 -27.4 -26.4 -25.3 -24.5 -23.8 -23.0 -22.3 -21.6 -20.9 -20.2 -19.3 -18.4 -17.4 -16.3 -15.4 -14.5 -13.7 -12.9 -12.1 -11.2 -10.3 -9.5 -8.7 -7.9 -7.1 -6.4 -5.5 -4.7 -4.1 -3.4 -2.8 -2.1 0.9 2.6 4.6 7.5 8.9 8.9 9.0 8.9 9.8 9.6 9.7 9.9 10.0 10.0 10.0 10.1 15.7 20.0 25.6 30.0 30.0 30.0 30.0 30.0 26.3 21.8 20.0 20.0 20.0 20.0 20.0 20.0 20.0 20.0 20.0 20.0 20.0 20.0 20.0 20.0 20.4 21.0 21.1 20.8 27.2 28.6 30.0 31.2 31.2 32.2 34.6 32.4 31.2 36.6 37.0 38.4 39.9 39.9 39.9 40.3 41.3 39.8 40.0 39.5 39.7 41.6 45.9 47.6 50.0 51.6 50.0 49.9
-35.0 -35.0 -35.1 -35.1 -35.2 -35.1 -35.1 -35.0 -35.0 -35.0 -34.9 -34.6 -34.3 -34.0 -33.7 -33.5 -33.2 -33.0 -32.7 -32.5 -32.2 -31.9 -31.6 -31.3 -31.0 -30.7 -30.3 -30.0 -29.3 -28.3 -27.2 -26.1 -25.1 -24.3 -23.6 -22.8 -22.0 -21.2 -20.6 -19.9 -18.9 -18.0 -16.9 -15.9 -15.0 -14.2 -13.4 -12.6 -11.8 -10.9 -10.1 -9.3 -8.5 -7.6 -6.8 -6.0 -5.2 -4.5 -3.9 -3.2 -2.6 -1.9 2.0 3.2 7.0 9.3 9.4 8.9 8.9 9.7 10.0 10.0 10.0 10.0 10.0 10.0 10.0 11.3 18.3 18.5 20.6 29.8 29.5 29.5 29.7 30.0 21.7 20.2 20.0 20.0 20.0 20.0 20.0 20.0 20.0 20.0 20.0 20.0 20.0 20.0 20.0 20.0 20.0 20.7 22.5 23.2 26.9 28.8 30.1 31.5 32.4 34.1 38.6 37.1 34.3 39.1 39.3 39.5 40.5 40.4 41.5 43.0 48.5 40.3 40.0 39.4 39.5 41.2 48.1 49.1 49.9 51.3 50.0 49.9
-35.0 -35.0 -35.1 -35.1 -35.1 -35.1 -35.1 -35.0 -35.0 -35.0 -34.8 -34.4 -34.2 -33.9 -33.6 -33.4 -33.1 -32.9 -32.7 -32.4 -32.1 -31.8 -31.5 -31.2 -30.9 -30.6 -30.2 -29.9 -29.0 -27.9 -26.8 -25.8 -24.8 -24.0 -23.3 -22.5 -21.7 -20.9 -20.2 -19.4 -18.5 -17.5 -16.5 -15.6 -14.7 -13.9 -13.1 -12.4 -11.6 -10.7 -9.9 -9.0 -8.2 -7.4 -6.5 -5.8 -4.9 -4.3 -3.7 -2.9 -2.4 -0.9 2.8 5.9 9.2 15.1 10.0 10.0 10.0 10.0 10.0 10.0 10.0 10.0 10.0 10.0 10.0 16.8 20.0 19.9 23.0 28.3 31.3 30.0 30.0 29.1 22.4 20.0 20.0 20.0 20.0 20.0 20.0 20.0 20.0 20.0 20.0 20.0 20.0 20.0 20.0 20.0 20.7 22.5 24.1 25.7 28.3 30.1 32.3 35.1 36.4 39.1 40.0 40.0 39.6 40.0 40.0 40.1 44.2 41.5 42.4 41.7 48.9 40.0 40.0 39.9 41.0 47.5 50.2 50.2 50.6 58.9 51.7 50.0
-35.0 -35.0 -35.1 -35.1 -35.1 -35.1 -35.0 -35.0 -35.0 -35.0 -34.6 -34.3 -34.1 -33.8 -33.5 -33.3 -33.0 -32.7 -32.6 -32.3 -32.0 -31.7 -31.4 -31.1 -30.8 -30.5 -30.1 -29.8 -28.7 -27.6 -26.5 -25.5 -24.6 -23.8 -23.0 -22.2 -21.3 -20.5 -19.8 -18.9 -18.0 -17.1 -16.1 -15.2 -14.4 -13.6 -12.9 -12.1 -11.4 -10.5 -9.9 -8.9 -8.0 -7.1 -6.3 -5.5 -4.7 -4.1 -3.5 -2.8 -2.2 -0.1 3.8 7.2 15.7 20.2 13.9 10.0 10.0 10.0 9.9 10.0 10.0 10.1 10.0 10.0 10.0 12.6 19.5 20.2 27.2 32.1 39.6 29.5 29.8 23.0 20.0 20.0 20.0 20.0 20.0 20.0 20.0 20.0 20.0 20.0 20.0 20.0 20.0 20.0 20.0 20.0 20.7 23.0 25.0 26.9 29.0 31.0 34.4 36.5 37.6 39.9 40.0 40.0 39.9 40.0 40.0 40.1 47.6 41.5 42.4 40.5 41.6 40.0 40.0 39.9 42.7 46.8 50.2 52.0 55.3 59.9 53.5 49.9
-35.0 -35.0 -35.1 -35.1 -35.1 -35.1 -35.0 -35.0 -35.0 -34.8 -34.5 -34.2 -34.0 -33.7 -33.4 -33.2 -32.9 -32.6 -32.4 -32.2 -31.9 -31.6 -31.3 -31.0 -30.7 -30.4 -30.0 -29.3 -28.3 -27.2 -26.2 -25.1 -24.3 -23.5 -22.6 -21.8 -20.9 -20.1 -19.3 -18.4 -17.5 -16.6 -15.7 -14.8 -14.1 -13.3 -12.6 -11.8 -11.1 -10.2 -9.5 -8.6 -7.7 -6.8 -6.0 -5.2 -4.6 -3.9 -3.2 -2.6 -2.0 1.2 4.7 8.1 10.8 19.5 18.3 13.4 10.5 10.1 11.8 10.5 10.3 11.5 11.0 10.1 10.0 12.5 18.2 24.1 35.4 40.0 40.0 29.4 26.2 20.0 20.0 20.0 20.0 20.0 20.0 20.0 20.0 20.0 20.0 20.0 20.0 20.0 20.0 20.0 20.0 20.0 21.5 24.0 26.1 28.6 29.7 30.1 35.3 37.4 36.7 37.8 39.9 39.9 39.9 39.9 39.9 45.6 50.1 47.3 43.7 40.0 40.0 40.0 40.0 40.1 44.6 49.6 50.1 50.3 52.1 58.3 51.9 51.5
-35.0 -35.0 -35.1 -35.1 -35.1 -35.0 -35.0 -35.0 -35.0 -34.7 -34.4 -34.1 -33.8 -33.6 -33.3 -33.0 -32.8 -32.5 -32.3 -32.1 -31.8 -31.5 -31.2 -30.9 -30.6 -30.3 -29.9 -29.0 -27.9 -26.8 -25.7 -24.8 -24.0 -23.1 -22.2 -21.4 -20.4 -19.7 -18.8 -18.0 -17.1 -16.3 -15.4 -14.6 -13.8 -13.1 -12.4 -11.6 -10.9 -10.0 -9.2 -8.3 -7.4 -6.5 -5.6 -4.8 -4.3 -3.7 -3.0 -2.3 -0.8 2.8 5.9 9.1 16.6 20.0 20.0 20.0 19.1 16.8 16.7 13.0 15.0 14.7 14.5 13.6 13.2 19.6 20.3 25.8 40.0 40.0 39.4 30.6 28.6 20.2 20.0 20.0 20.0 20.0 20.0 20.0 20.0 20.0 20.0 20.0 20.0 20.0 20.0 20.0 20.0 20.0 22.7 26.3 28.0 30.9 32.1 35.1 39.7 39.9 39.2 39.2 40.0 40.0 40.0 41.5 42.1 40.2 48.3 44.6 45.5 40.0 40.0 40.0 40.0 40.0 42.0 46.0 49.6 50.0 50.9 56.5 53.6 51.1
-35.0 -35.0 -35.1 -35.1 -35.1 -35.0 -35.0 -35.0 -34.8 -34.6 -34.2 -34.0 -33.7 -33.5 -33.2 -32.9 -32.7 -32.4 -32.2 -32.0 -31.7 -31.4 -31.1 -30.8 -30.5 -30.2 -29.7 -28.6 -27.5 -26.4 -25.3 -24.4 -23.6 -22.7 -21.8 -21.0 -20.1 -19.3 -18.5 -17.6 -16.8 -15.9 -15.1 -14.3 -13.6 -12.8 -12.1 -11.4 -10.6 -9.8 -8.9 -8.0 -7.1 -6.2 -5.3 -4.7 -4.0 -3.4 -2.7 -2.0 1.2 3.9 6.6 9.0 16.5 20.0 20.0 20.6 20.0 20.0 19.5 17.6 19.5 17.2 17.2 17.2 18.8 19.8 22.8 28.0 39.3 40.7 37.4 30.2 25.0 20.1 20.0 20.0 20.0 20.0 20.0 20.0 20.0 20.0 20.0 20.0 20.0 20.0 20.0 20.0 20.0 20.3 24.7 28.4 29.8 36.7 34.3 37.2 40.0 40.0 39.8 40.3 40.0 40.0 40.9 45.2 46.6 43.8 47.0 48.8 50.0 46.2 41.9 40.2 40.2 40.1 44.7 49.4 50.0 50.0 50.7 54.3 53.6 53.3
-35.0 -35.0 -35.1 -35.1 -35.1 -35.0 -35.0 -35.0 -34.7 -34.4 -34.1 -33.8 -33.6 -33.3 -33.1 -32.9 -32.6 -32.3 -32.1 -31.9 -31.6 -31.3 -31.0 -30.7 -30.4 -30.1 -29.3 -28.2 -27.2 -26.1 -25.0 -24.1 -23.2 -22.4 -21.5 -20.6 -19.8 -19.0 -18.1 -17.3 -16.5 -15.6 -14.8 -14.1 -13.3 -12.6 -11.9 -11.2 -10.4 -9.5 -8.6 -7.7 -6.8 -5.9 -5.0 -4.4 -3.8 -3.1 -2.5 -1.1 2.1 4.3 6.6 9.0 12.3 19.0 19.8 20.2 20.0 20.0 20.0 20.0 20.9 19.5 19.4 19.9 21.3 21.1 24.1 27.2 30.5 36.9 31.2 28.8 22.4 20.0 20.0 20.0 20.0 20.0 20.0 20.0 20.0 20.0 20.0 20.0 20.0 20.0 20.0 20.0 20.1 24.0 28.7 30.5 35.4 39.9 39.2 39.7 40.8 41.2 45.6 51.1 42.8 40.9 46.8 49.0 48.9 47.7 46.7 46.9 48.9 48.6 50.0 50.6 49.8 46.3 49.8 49.9 50.0 50.1 52.0 54.7 55.9 57.8
-35.0 -35.1 -35.0 -35.0 -35.0 -35.0 -35.0 -34.8 -34.6 -34.3 -34.0 -33.7 -33.5 -33.2 -33.0 -32.8 -32.6 -32.3 -32.0 -31.8 -31.4 -31.1 -30.8 -30.5 -30.2 -30.0 -28.9 -27.8 -26.7 -25.7 -24.6 -23.7 -22.8 -21.9 -21.0 -20.1 -19.4 -18.6 -17.8 -17.0 -16.3 -15.5 -14.7 -13.9 -13.2 -12.4 -11.6 -10.9 -10.1 -9.3 -8.4 -7.5 -6.5 -5.6 -4.8 -4.2 -3.6 -3.0 -2.3 -0.5 2.8 4.9 7.1 9.5 13.9 19.4 20.7 20.3 20.0 20.0 20.1 20.8 27.1 23.1 24.8 26.6 27.9 29.3 29.1 29.0 29.4 29.5 30.3 28.6 22.9 20.0 20.0 20.0 20.0 20.0 20.0 20.0 20.0 20.0 20.0 20.0 20.0 20.0 20.0 20.0 22.1 25.0 26.7 29.9 31.5 37.5 37.7 38.8 42.2 45.9 50.0 51.6 49.9 46.9 48.9 48.9 48.0 40.8 42.4 46.3 48.7 49.2 49.5 50.0 49.4 47.5 48.7 49.8 50.0 50.4 55.5 57.5 58.8 60.0
-35.0 -35.1 -35.0 -35.0 -35.0 -35.0 -35.0 -34.7 -34.4 -34.1 -33.8 -33.6 -33.3 -33.1 -32.8 -32.7 -32.4 -32.2 -31.9 -31.6 -31.2 -30.9 -30.6 -30.3 -30.0 -29.4 -28.4 -27.4 -26.3 -25.3 -24.3 -23.4 -22.5 -21.6 -20.7 -19.9 -19.1 -18.4 -17.6 -16.9 -16.1 -15.3 -14.4 -13.7 -13.0 -12.1 -11.3 -10.6 -9.9 -8.9 -8.0 -7.1 -6.2 -5.3 -4.6 -4.0 -3.4 -2.8 -2.1 0.4 3.4 5.6 8.0 10.0 12.8 20.1 20.9 20.7 20.0 20.0 21.0 21.3 31.2 25.7 27.6 29.7 30.0 29.2 29.0 29.0 29.8 30.0 28.8 25.4 21.2 20.0 20.0 20.0 20.0 20.0 20.0 20.0 20.0 20.0 20.0 20.0 20.0 20.0 20.0 20.2 23.8 27.2 27.1 30.1 31.1 36.0 39.8 40.1 43.8 47.3 51.0 53.5 57.8 60.4 53.0 50.2 50.0 47.0 40.0 40.6 42.7 40.6 43.6 48.9 47.3 48.2 49.6 50.8 52.2 50.7 55.1 58.1 59.6 59.9
-35.0 -35.1 -35.0 -35.0 -35.0 -35.0 -34.8 -34.6 -34.3 -34.0 -33.7 -33.4 -33.2 -32.9 -32.7 -32.5 -32.2 -32.0 -31.7 -31.4 -31.0 -30.7 -30.4 -30.1 -29.8 -29.0 -27.9 -27.0 -25.9 -24.9 -24.0 -23.1 -22.2 -21.3 -20.4 -19.6 -18.9 -18.2 -17.4 -16.7 -15.9 -15.1 -14.3 -13.5 -12.7 -11.9 -11.0 -10.3 -9.5 -8.6 -7.7 -6.9 -6.0 -5.1 -4.5 -3.8 -3.1 -2.5 -1.4 2.1 4.0 5.9 7.9 9.8 16.4 20.2 20.9 20.2 20.0 20.5 21.3 21.0 37.3 25.2 26.5 28.2 30.0 29.2 29.2 29.4 29.9 30.0 28.7 24.2 20.9 20.0 20.0 20.0 20.0 20.0 20.0 20.0 20.0 20.0 20.0 20.0 20.0 20.0 20.0 20.3 27.4 30.0 27.4 29.1 29.9 30.7 39.4 39.1 42.0 45.9 50.0 50.4 50.0 57.9 49.9 49.7 42.0 40.0 40.0 40.3 40.6 40.0 40.0 42.6 47.7 50.4 51.3 56.6 60.0 60.0 59.8 60.0 60.0 60.0
-35.0 -35.1 -35.0 -35.0 -35.0 -35.0 -34.7 -34.4 -34.1 -33.8 -33.6 -33.3 -33.0 -32.8 -32.5 -32.4 -32.1 -31.8 -31.5 -31.3 -30.8 -30.6 -30.3 -30.0 -29.5 -28.6 -27.6 -26.6 -25.6 -24.6 -23.7 -22.9 -22.0 -21.1 -20.3 -19.4 -18.7 -18.0 -17.2 -16.5 -15.7 -15.0 -14.1 -13.2 -12.4 -11.6 -10.8 -10.0 -9.2 -8.3 -7.4 -6.5 -5.6 -4.8 -4.2 -3.5 -2.9 -2.3 -0.2 2.7 4.5 6.4 8.5 11.0 18.6 20.8 21.7 20.0 21.9 22.7 26.0 36.7 40.0 36.6 31.1 30.1 30.0 29.8 30.0 30.0 29.4 28.7 24.7 21.2 20.0 20.0 20.0 20.0 20.0 20.0 20.0 20.0 20.0 20.0 20.0 20.0 20.0 20.0 20.0 22.8 30.0 30.0 29.7 30.0 30.0 33.5 39.4 38.9 40.0 40.0 47.5 48.3 48.9 48.7 44.7 41.0 40.0 40.0 40.0 40.0 40.1 40.0 40.0 41.6 46.4 50.7 53.5 59.4 59.4 60.0 60.0 60.0 60.0 60.0
-35.0 -35.1 -35.0 -35.0 -35.0 -34.8 -34.5 -34.3 -34.0 -33.7 -33.4 -33.2 -32.9 -32.6 -32.4 -32.2 -32.0 -31.7 -31.4 -31.1 -30.7 -30.4 -30.2 -29.9 -29.0 -28.2 -27.2 -26.2 -25.2 -24.3 -23.5 -22.6 -21.8 -20.9 -20.1 -19.3 -18.5 -17.8 -17.1 -16.3 -15.6 -14.7 -13.9 -13.0 -12.2 -11.4 -10.5 -9.8 -8.9 -8.0 -7.1 -6.2 -5.3 -4.6 -4.0 -3.4 -2.7 -2.1 0.6 3.2 5.1 7.1 9.2 13.4 19.1 23.1 25.1 20.0 20.1 20.1 20.2 20.1 33.1 29.8 29.8 30.0 30.0 30.2 30.0 30.0 29.7 25.8 21.3 20.0 20.0 20.0 20.0 20.0 20.0 20.0 20.0 20.0 20.0 20.0 20.0 20.0 20.0 20.0 20.0 20.3 28.1 30.0 29.9 30.0 30.8 37.6 40.0 40.0 40.0 40.0 40.6 42.3 45.2 45.4 42.0 40.7 40.0 40.0 40.0 40.0 40.0 40.0 40.0 40.0 42.0 49.8 57.6 60.0 60.0 60.0 60.0 60.0 60.0 60.0
-35.0 -35.1 -35.0 -35.0 -35.0 -34.7 -34.4 -34.1 -33.8 -33.6 -33.3 -33.0 -32.8 -32.5 -32.3 -32.1 -31.8 -31.5 -31.2 -31.0 -30.6 -30.3 -30.0 -29.5 -28.6 -27.8 -26.8 -25.9 -24.9 -24.0 -23.2 -22.5 -21.6 -20.8 -20.0 -19.2 -18.4 -17.6 -16.9 -16.1 -15.3 -14.4 -13.6 -12.7 -11.9 -11.1 -10.2 -9.4 -8.5 -7.6 -6.7 -5.8 -5.0 -4.4 -3.8 -3.1 -2.5 -1.7 1.7 4.2 6.5 8.9 11.2 17.8 23.4 30.2 29.9 29.6 22.2 21.6 27.6 27.3 30.0 29.8 29.8 30.0 31.0 34.2 30.0 30.0 29.1 25.4 21.2 20.0 20.1 20.0 20.0 20.0 20.0 20.0 20.0 20.0 20.0 20.0 20.0 20.0 20.0 20.0 20.0 20.8 25.5 29.2 31.3 32.0 36.1 40.0 40.0 40.0 40.0 40.0 40.0 40.6 41.2 40.1 40.0 40.0 40.0 40.0 40.0 40.0 40.0 40.0 40.0 40.7 45.4 49.9 52.7 60.0 60.0 59.1 56.8 59.8 60.0 60.0
-35.1 -35.0 -35.0 -35.0 -34.8 -34.5 -34.3 -34.0 -33.7 -33.4 -33.2 -32.9 -32.6 -32.4 -32.1 -31.9 -31.7 -31.4 -31.1 -30.8 -30.4 -30.2 -29.9 -29.1 -28.2 -27.5 -26.5 -25.6 -24.7 -23.8 -23.0 -22.2 -21.5 -20.6 -19.9 -19.1 -18.3 -17.5 -16.8 -16.0 -15.2 -14.2 -13.3 -12.4 -11.6 -10.7 -9.9 -9.0 -8.1 -7.2 -6.4 -5.5 -4.8 -4.2 -3.5 -2.9 -2.3 -0.6 2.6 4.8 7.1 9.3 14.3 20.5 26.6 41.1 33.3 29.7 27.3 29.5 30.1 30.1 30.0 29.9 30.0 30.0 34.8 40.0 35.7 32.1 27.8 21.4 20.0 20.0 20.0 20.0 20.0 20.0 20.0 20.0 20.0 20.0 20.0 20.0 20.0 20.0 20.0 20.0 20.0 20.0 20.9 27.1 30.8 32.2 36.8 39.9 40.0 40.0 40.0 40.0 40.0 40.0 40.5 40.7 40.0 40.0 40.0 40.0 40.0 40.0 40.0 40.0 40.0 40.8 43.1 49.0 48.9 51.8 54.4 50.4 50.0 51.8 58.5 58.9
-35.1 -35.0 -35.0 -35.0 -34.7 -34.4 -34.1 -33.8 -33.6 -33.3 -33.0 -32.8 -32.5 -32.2 -32.0 -31.8 -31.5 -31.2 -31.0 -30.7 -30.3 -30.1 -29.8 -28.9 -28.0 -27.2 -26.3 -25.4 -24.5 -23.7 -22.9 -22.1 -21.3 -20.5 -19.8 -19.0 -18.2 -17.3 -16.6 -15.8 -15.0 -14.0 -13.0 -12.1 -11.3 -10.4 -9.4 -8.6 -7.8 -6.9 -6.1 -5.2 -4.6 -4.0 -3.3 -2.7 -2.1 0.6 3.3 5.1 6.9 8.8 16.8 22.5 28.6 40.4 38.5 29.7 28.1 27.3 30.0 30.0 30.0 30.0 30.0 33.2 39.8 39.8 34.7 31.2 23.8 20.0 20.0 20.0 20.0 20.0 20.0 20.0 20.0 20.0 20.0 20.0 20.0 20.0 20.0 20.0 20.0 20.0 20.0 20.0 25.2 29.9 29.9 30.5 37.0 39.8 40.0 40.0 40.0 40.0 40.0 40.0 40.1 40.7 40.0 40.0 40.0 40.0 40.0 40.0 40.0 40.0 40.0 40.1 41.7 45.8 48.0 50.7 52.0 50.8 49.9 50.8 55.7 57.7
-35.0 -35.0 -35.0 -34.8 -34.5 -34.2 -34.0 -33.7 -33.4 -33.1 -32.9 -32.6 -32.3 -32.1 -31.9 -31.6 -31.4 -31.1 -30.8 -30.6 -30.2 -29.9 -29.4 -28.5 -27.7 -26.9 -26.1 -25.2 -24.3 -23.5 -22.8 -22.0 -21.2 -20.5 -19.8 -18.9 -18.0 -17.1 -16.4 -15.6 -14.7 -13.7 -12.7 -11.8 -11.0 -10.1 -9.1 -8.3 -7.5 -6.6 -5.8 -5.0 -4.4 -3.8 -3.1 -2.5 -1.6 2.0 3.7 5.3 6.9 9.2 11.0 21.2 33.3 40.1 36.9 29.9 28.7 28.5 30.0 30.0 30.0 30.0 30.0 31.7 39.6 40.0 34.7 31.5 28.5 20.4 20.1 20.0 20.0 20.0 20.0 20.0 20.0 20.0 20.0 20.0 20.0 20.0 20.0 20.0 20.0 20.1 20.2 21.1 27.3 29.8 32.9 37.2 40.0 40.0 40.0 40.0 40.0 40.0 40.0 40.0 40.1 40.8 40.0 40.0 40.0 40.0 40.0 40.0 40.0 40.0 40.0 40.0 40.0 41.7 44.7 49.2 50.4 50.7 49.9 50.1 53.5 56.6
-35.0 -35.0 -35.0 -34.7 -34.4 -34.1 -33.8 -33.6 -33.3 -33.0 -32.7 -32.4 -32.2 -32.0 -31.7 -31.5 -31.2 -31.0 -30.7 -30.5 -30.1 -30.0 -29.1 -28.3 -27.4 -26.7 -25.8 -25.0 -24.2 -23.4 -22.7 -21.9 -21.2 -20.4 -19.7 -18.8 -17.8 -16.9 -16.2 -15.3 -14.4 -13.3 -12.4 -11.5 -10.6 -9.7 -8.8 -8.0 -7.2 -6.3 -5.5 -4.8 -4.1 -3.5 -2.9 -2.3 -0.2 2.7 4.6 6.5 8.4 11.2 19.9 23.8 29.5 32.3 30.0 30.0 30.0 32.0 33.4 32.2 33.3 30.0 29.9 34.6 40.2 40.2 31.5 29.1 22.1 20.0 20.0 20.0 20.0 20.0 20.0 20.0 20.0 20.0 20.0 20.0 20.0 20.0 20.0 20.0 20.1 20.0 20.9 23.7 29.1 30.3 35.2 38.7 39.9 40.0 39.9 39.4 40.0 40.0 40.0 40.0 40.0 40.0 40.0 40.0 40.0 40.0 40.0 40.0 40.0 40.0 40.0 40.0 40.0 40.0 42.0 47.6 49.6 49.7 49.6 51.0 54.2 56.7
-35.0 -35.0 -34.9 -34.6 -34.2 -34.0 -33.7 -33.4 -33.1 -32.8 -32.6 -32.3 -32.1 -31.9 -31.6 -31.4 -31.1 -30.8 -30.6 -30.4 -30.0 -29.7 -28.8 -28.0 -27.2 -26.5 -25.6 -24.8 -24.0 -23.2 -22.5 -21.7 -21.0 -20.3 -19.5 -18.6 -17.5 -16.6 -15.9 -15.0 -14.0 -13.1 -12.0 -11.2 -10.2 -9.3 -8.5 -7.7 -6.9 -6.0 -5.2 -4.6 -3.9 -3.3 -2.7 -2.0 0.9 3.2 5.0 6.9 8.6 10.6 17.6 29.9 30.2 30.1 30.0 30.0 30.0 30.0 30.0 30.1 30.7 30.3 30.2 37.1 40.8 38.1 28.1 24.7 20.0 20.0 20.0 20.0 20.0 20.0 20.0 20.0 20.0 20.0 20.0 20.0 20.0 20.0 20.0 20.5 20.7 20.3 20.3 23.5 29.9 31.1 40.0 40.0 40.0 40.0 39.5 38.6 40.0 40.0 40.0 40.0 40.0 40.0 40.0 40.0 40.0 40.0 40.0 40.0 40.0 40.0 40.0 40.0 40.0 40.0 40.5 47.5 50.0 50.0 50.0 50.3 53.9 57.5
-35.0 -35.0 -34.7 -34.4 -34.1 -33.8 -33.5 -33.3 -33.0 -32.7 -32.4 -32.2 -32.0 -31.7 -31.5 -31.2 -31.0 -30.7 -30.5 -30.2 -29.9 -29.3 -28.5 -27.7 -26.9 -26.2 -25.4 -24.6 -23.9 -23.1 -22.4 -21.7 -21.0 -20.2 -19.4 -18.5 -17.2 -16.4 -15.5 -14.6 -13.7 -12.7 -11.7 -10.9 -10.0 -9.1 -8.2 -7.4 -6.5 -5.7 -4.9 -4.3 -3.7 -3.1 -2.5 -1.4 1.8 3.4 4.9 6.3 8.3 9.5 14.9 24.5 30.3 30.0 30.0 30.0 30.0 30.0 30.0 32.3 34.0 34.6 34.9 39.5 40.4 35.1 27.4 23.4 20.0 20.0 20.0 20.0 20.0 20.0 20.0 20.0 20.0 20.0 20.0 20.0 20.0 20.0 20.0 20.0 20.0 20.0 20.0 21.1 27.6 30.0 35.8 35.8 37.2 37.2 31.9 38.5 40.0 39.2 39.4 40.0 40.0 40.0 40.0 40.0 40.0 40.0 40.0 40.0 40.0 40.0 40.0 40.0 40.0 40.1 40.0 47.1 49.8 50.0 50.0 50.0 54.7 57.8
-35.0 -34.8 -34.5 -34.3 -34.0 -33.7 -33.4 -33.1 -32.8 -32.5 -32.3 -32.0 -31.8 -31.6 -31.3 -31.1 -30.8 -30.6 -30.4 -30.1 -29.7 -29.0 -28.2 -27.5 -26.7 -26.0 -25.3 -24.4 -23.7 -23.0 -22.3 -21.6 -20.9 -20.1 -19.3 -18.2 -16.9 -16.0 -15.1 -14.1 -13.3 -12.4 -11.4 -10.5 -9.6 -8.7 -7.9 -7.0 -6.2 -5.3 -4.6 -4.0 -3.4 -2.9 -2.2 -0.5 2.4 4.2 5.9 7.5 9.4 12.4 20.5 26.6 30.0 30.0 30.0 30.0 30.0 30.0 30.0 31.1 33.9 36.3 39.1 40.0 40.0 31.7 22.9 20.4 20.1 20.0 20.0 20.0 20.0 20.0 20.0 20.0 20.0 20.0 20.0 20.0 20.0 20.0 20.0 20.0 20.0 20.0 20.4 23.1 29.9 29.8 30.0 31.6 31.5 30.0 29.9 31.1 37.0 36.1 37.2 39.4 40.0 40.0 40.0 39.5 40.0 40.0 40.0 40.0 40.0 40.0 40.0 40.0 40.0 40.1 41.9 46.6 49.8 51.2 51.2 54.2 59.5 59.8
-34.9 -34.6 -34.4 -34.1 -33.8 -33.5 -33.3 -33.0 -32.7 -32.4 -32.1 -31.9 -31.7 -31.4 -31.2 -31.0 -30.7 -30.5 -30.3 -30.0 -29.5 -28.7 -28.0 -27.2 -26.5 -25.8 -25.1 -24.3 -23.6 -22.9 -22.2 -21.5 -20.8 -20.1 -19.1 -17.9 -16.6 -15.6 -14.7 -13.8 -12.9 -12.0 -11.1 -10.2 -9.3 -8.4 -7.6 -6.7 -5.9 -5.1 -4.5 -3.9 -3.2 -2.7 -2.0 0.5 3.0 4.8 6.5 8.3 10.2 14.9 20.7 27.3 36.2 38.8 31.5 30.0 30.0 30.0 30.0 31.8 34.7 36.8 38.8 40.1 37.8 32.1 20.8 20.0 20.0 20.0 20.0 20.0 20.0 20.0 20.0 20.0 20.0 20.0 20.0 20.0 20.0 20.0 20.0 20.0 20.0 20.1 20.8 20.5 27.3 26.7 27.4 29.1 30.1 30.0 30.0 29.9 31.6 33.6 35.0 37.1 38.9 40.0 39.8 39.2 40.0 40.0 40.0 40.0 40.0 40.0 40.0 40.0 40.0 40.1 42.7 46.6 49.7 51.2 54.9 60.0 60.0 60.0
-34.8 -34.5 -34.2 -33.9 -33.6 -33.4 -33.1 -32.8 -32.5 -32.3 -32.0 -31.8 -31.5 -31.3 -31.1 -30.8 -30.6 -30.4 -30.2 -29.9 -29.2 -28.4 -27.7 -27.0 -26.3 -25.7 -24.9 -24.1 -23.4 -22.7 -22.0 -21.3 -20.6 -19.9 -18.7 -17.3 -16.0 -15.0 -14.1 -13.3 -12.4 -11.5 -10.6 -9.8 -8.9 -8.1 -7.2 -6.3 -5.5 -4.8 -4.2 -3.6 -3.0 -2.4 -1.6 1.4 3.3 4.8 6.4 7.9 9.7 15.0 23.2 30.0 34.7 30.0 30.0 30.0 30.0 30.0 31.3 35.4 37.1 39.0 40.0 40.0 38.6 30.9 21.1 20.0 20.0 20.0 20.0 20.0 20.0 20.0 20.0 20.0 20.0 20.0 20.0 20.0 20.0 20.0 20.0 20.0 20.0 20.0 20.0 20.0 21.9 22.8 25.0 27.7 28.9 29.2 29.7 30.3 32.5 32.1 32.7 34.7 35.1 37.2 37.9 38.1 39.8 39.9 40.0 40.0 40.0 40.5 41.3 40.1 40.0 40.0 41.7 45.7 49.2 51.6 56.2 60.0 60.0 60.0
-34.5 -34.2 -33.9 -33.5 -33.2 -32.9 -32.7 -32.5 -32.3 -32.1 -31.8 -31.6 -31.4 -31.2 -30.9 -30.7 -30.5 -30.3 -30.0 -29.6 -28.8 -28.1 -27.3 -26.7 -26.0 -25.4 -24.7 -23.9 -23.2 -22.4 -21.8 -21.1 -20.4 -19.5 -18.1 -16.6 -15.4 -14.4 -13.6 -12.8 -11.9 -11.0 -10.2 -9.3 -8.5 -7.7 -6.9 -6.0 -5.2 -4.6 -4.0 -3.4 -2.8 -2.2 -0.7 2.3 3.9 5.3 6.8 8.4 9.7 15.6 22.4 34.8 39.8 30.0 30.0 30.0 30.1 30.0 33.1 37.1 38.9 40.0 40.0 35.7 29.0 24.7 20.1 20.0 20.0 20.0 20.0 20.0 20.0 20.0 20.0 20.0 20.0 20.0 20.0 20.0 20.0 20.0 20.0 20.0 20.0 20.0 20.0 20.0 20.0 21.0 22.8 24.7 25.1 28.5 29.4 30.0 30.3 30.0 30.3 31.3 30.2 31.0 33.5 35.1 38.3 39.9 39.9 39.9 40.0 40.3 42.1 40.2 40.0 40.0 40.6 44.4 48.0 49.8 52.9 58.5 60.0 60.0
-34.3 -34.0 -33.7 -33.3 -33.1 -32.9 -32.6 -32.4 -32.2 -32.0 -31.7 -31.5 -31.3 -31.1 -30.8 -30.6 -30.4 -30.2 -30.0 -29.3 -28.6 -27.8 -27.1 -26.5 -25.8 -25.2 -24.5 -23.7 -22.9 -22.2 -21.5 -20.9 -20.1 -19.0 -17.5 -16.1 -14.9 -14.0 -13.2 -12.4 -11.5 -10.6 -9.8 -8.9 -8.1 -7.3 -6.5 -5.7 -4.9 -4.3 -3.8 -3.2 -2.6 -1.9 0.5 2.9 4.4 5.8 7.4 9.1 11.8 19.1 26.9 35.9 38.1 30.0 30.0 30.0 30.0 30.6 34.1 38.2 40.0 40.0 39.0 34.4 29.4 21.0 20.0 20.0 20.0 20.0 20.0 20.0 20.0 20.0 20.0 20.0 20.0 20.0 20.0 20.0 20.0 20.0 20.0 20.2 20.5 20.0 20.0 20.0 20.0 20.2 20.5 21.8 20.6 28.3 28.7 29.9 29.7 29.6 29.6 30.1 29.8 30.2 32.9 35.0 37.8 40.0 40.0 40.0 40.0 41.0 46.6 40.6 40.8 40.0 40.1 44.1 49.0 50.3 52.3 58.0 59.0 59.7
-34.1 -33.9 -33.6 -33.3 -33.0 -32.8 -32.5 -32.3 -32.1 -31.8 -31.6 -31.4 -31.2 -31.0 -30.7 -30.5 -30.3 -30.1 -29.7 -28.9 -28.2 -27.5 -26.8 -26.2 -25.5 -24.9 -24.2 -23.4 -22.6 -21.9 -21.2 -20.5 -19.7 -18.2 -16.8 -15.3 -14.4 -13.6 -12.7 -12.0 -11.1 -10.2 -9.4 -8.6 -7.8 -6.9 -6.1 -5.3 -4.6 -4.1 -3.5 -3.0 -2.4 -1.4 1.7 3.5 5.1 6.8 8.4 10.7 19.7 28.8 30.0 30.1 31.5 30.0 30.0 30.0 30.0 30.0 34.5 40.0 40.0 39.8 36.9 32.1 27.2 20.0 20.0 20.0 20.0 20.0 20.0 20.0 20.0 20.0 20.0 20.0 20.0 20.0 20.0 20.0 20.0 20.0 20.0 20.4 21.1 20.0 20.0 20.0 20.0 20.0 20.0 20.0 20.3 23.0 25.5 29.3 29.2 29.0 29.1 29.5 29.3 30.0 30.9 33.3 37.5 39.9 40.4 41.6 44.4 47.7 49.9 47.0 46.9 41.1 40.1 46.1 50.4 51.1 52.2 57.7 59.7 59.3
-34.0 -33.8 -33.5 -33.2 -32.9 -32.7 -32.5 -32.2 -32.0 -31.7 -31.5 -31.3 -31.1 -30.9 -30.6 -30.4 -30.2 -29.9 -29.3 -28.6 -27.8 -27.2 -26.5 -25.9 -25.3 -24.6 -23.9 -23.0 -22.3 -21.6 -20.8 -20.1 -18.8 -17.4 -15.8 -14.6 -13.8 -13.0 -12.2 -11.5 -10.6 -9.8 -9.0 -8.2 -7.4 -6.5 -5.7 -5.0 -4.4 -3.9 -3.3 -2.8 -2.2 -0.5 2.5 4.1 5.7 7.4 9.1 16.1 21.1 30.0 28.6 29.7 29.8 29.6 29.6 29.6 30.0 31.5 32.0 38.8 39.3 39.6 31.6 29.5 22.1 20.0 20.0 20.0 20.0 20.0 20.0 20.0 20.0 20.0 20.0 20.0 20.0 20.0 20.0 20.0 21.7 20.0 20.0 20.6 20.1 20.0 20.0 20.0 20.0 20.0 20.0 20.5 22.0 25.7 27.5 28.7 29.0 29.0 28.9 29.3 29.4 29.8 30.7 33.1 37.6 39.7 40.9 41.1 41.4 45.3 49.7 48.3 50.1 49.7 43.6 50.0 50.9 52.4 53.8 59.2 60.0 59.0
-33.9 -33.6 -33.4 -33.1 -32.9 -32.6 -32.4 -32.1 -31.8 -31.6 -31.3 -31.1 -30.9 -30.6 -30.5 -30.3 -30.1 -29.6 -29.0 -28.3 -27.7 -27.0 -26.4 -25.8 -25.2 -24.3 -23.5 -22.7 -22.0 -21.2 -20.5 -19.7 -18.4 -17.0 -15.7 -14.5 -13.6 -12.8 -12.0 -11.0 -10.2 -9.4 -8.6 -7.9 -7.1 -6.3 -5.6 -4.8 -4.3 -3.7 -3.2 -2.6 -2.1 0.4 2.9 4.5 6.1 7.8 9.5 16.2 20.3 27.3 25.8 29.4 29.5 29.5 29.5 29.5 29.9 31.4 32.7 36.5 36.2 35.0 30.0 20.8 20.1 20.0 20.0 20.2 20.0 20.0 20.0 20.0 20.0 20.0 20.0 20.0 20.0 20.0 20.0 20.0 21.5 20.0 20.0 20.1 23.2 22.2 21.4 21.0 20.5 20.0 20.0 21.0 23.1 27.8 29.0 29.4 29.3 29.1 28.9 29.7 30.0 30.0 29.8 31.8 36.6 40.2 40.3 40.1 40.3 45.5 49.0 48.0 49.6 50.8 49.0 50.0 50.4 51.0 51.0 59.2 59.7 58.6
-33.8 -33.5 -33.3 -33.0 -32.7 -32.5 -32.2 -32.0 -31.7 -31.4 -31.1 -30.9 -30.7 -30.5 -30.4 -30.2 -30.0 -29.4 -28.7 -28.0 -27.5 -26.8 -26.1 -25.5 -24.8 -23.9 -23.1 -22.3 -21.6 -20.8 -20.1 -19.0 -17.8 -16.5 -15.2 -14.2 -13.4 -12.5 -11.5 -10.6 -9.8 -9.0 -8.2 -7.5 -6.8 -6.0 -5.3 -4.6 -4.1 -3.6 -3.1 -2.4 -1.8 1.3 3.5 5.1 6.8 8.5 10.8 15.3 19.8 25.1 25.9 29.8 29.9 29.9 29.9 29.9 30.0 36.7 36.0 34.4 33.2 31.5 30.0 21.0 20.0 20.0 20.0 20.1 20.0 20.0 20.0 20.0 20.0 20.0 20.0 20.0 20.0 20.0 20.0 20.0 21.2 20.0 24.6 25.8 28.8 25.2 22.7 22.4 20.7 20.0 20.6 27.9 28.9 29.9 30.0 30.0 29.9 29.9 29.8 30.7 31.8 31.8 31.0 30.0 35.8 39.7 39.9 39.7 40.1 43.2 47.2 47.4 49.7 50.3 50.0 50.2 50.0 50.0 50.0 50.4 57.0 57.0
-33.7 -33.5 -33.2 -32.9 -32.6 -32.4 -32.1 -31.8 -31.6 -31.3 -31.0 -30.8 -30.6 -30.4 -30.3 -30.1 -29.8 -29.1 -28.4 -27.7 -27.2 -26.5 -25.8 -25.2 -24.3 -23.5 -22.8 -22.0 -21.2 -20.5 -19.8 -18.5 -17.4 -16.2 -15.0 -13.9 -13.1 -12.1 -11.1 -10.2 -9.4 -8.6 -7.9 -7.2 -6.5 -5.7 -5.1 -4.5 -3.9 -3.4 -2.8 -2.2 -0.8 2.4 4.1 5.6 7.2 8.7 11.0 15.4 19.5 28.7 26.1 30.0 30.0 30.0 30.0 30.0 33.0 40.2 39.2 37.1 35.5 33.8 31.5 28.2 20.7 20.2 20.0 20.1 20.0 20.0 20.0 20.0 20.0 20.0 20.0 20.0 20.0 20.0 20.0 20.1 23.7 28.2 30.1 29.6 30.0 29.9 28.6 27.6 26.5 22.7 24.7 28.9 29.9 30.2 31.0 30.7 30.0 30.0 30.0 30.4 31.4 30.6 30.0 30.5 32.8 38.2 39.1 39.0 39.6 41.5 45.3 46.0 49.8 50.0 49.9 51.0 50.4 51.1 51.5 55.2 58.4 59.6
-33.6 -33.4 -33.1 -32.7 -32.5 -32.2 -31.9 -31.7 -31.5 -31.1 -30.9 -30.7 -30.5 -30.3 -30.2 -30.0 -29.4 -28.7 -28.1 -27.4 -26.8 -26.1 -25.5 -24.7 -23.9 -23.2 -22.3 -21.7 -20.9 -20.2 -19.4 -18.3 -17.1 -16.0 -14.8 -13.8 -12.8 -11.8 -10.9 -9.9 -9.1 -8.4 -7.7 -7.0 -6.3 -5.6 -4.9 -4.3 -3.7 -3.1 -2.5 -1.7 1.0 3.1 4.7 6.2 7.9 9.4 13.4 17.6 23.7 30.4 26.6 28.4 29.7 30.0 30.0 30.0 30.0 39.7 40.3 38.3 36.0 33.8 31.4 26.2 20.0 20.0 20.0 20.0 20.0 20.0 20.0 20.0 20.0 20.0 20.0 20.0 20.0 20.0 20.0 20.0 21.6 25.5 29.8 30.0 30.0 29.3 29.0 29.9 29.4 27.6 28.1 29.9 29.9 29.9 30.8 31.9 32.0 30.2 30.0 30.8 33.0 34.4 37.6 33.0 37.9 38.9 39.8 39.6 39.8 42.2 47.3 47.2 49.8 50.0 50.0 53.4 51.0 54.6 54.0 57.1 58.3 59.9
-33.6 -33.3 -33.0 -32.6 -32.3 -32.1 -31.8 -31.6 -31.3 -31.0 -30.8 -30.6 -30.4 -30.2 -30.1 -29.9 -29.1 -28.4 -27.7 -27.0 -26.5 -25.8 -25.1 -24.3 -23.6 -22.8 -22.1 -21.4 -20.7 -20.0 -19.1 -18.0 -16.9 -15.8 -14.7 -13.7 -12.7 -11.7 -10.7 -9.8 -9.0 -8.3 -7.6 -6.9 -6.1 -5.4 -4.7 -4.1 -3.5 -2.9 -2.3 -0.6 2.3 4.1 5.9 7.8 9.6 11.3 18.4 19.0 20.0 25.6 20.0 20.7 26.0 26.7 29.5 30.2 30.0 37.4 40.0 38.5 35.4 32.7 29.4 21.8 20.0 20.0 20.0 20.1 20.0 20.0 20.0 20.0 20.0 20.0 20.0 20.0 20.0 20.0 20.0 20.0 20.0 21.7 28.0 29.3 29.1 30.0 31.1 30.3 29.5 29.4 30.6 30.0 30.4 33.5 35.5 37.0 39.4 39.1 33.2 38.1 38.9 39.9 40.0 39.4 39.8 40.0 40.3 40.4 41.5 46.4 49.5 48.8 50.0 50.0 49.9 52.5 52.5 58.6 56.9 58.2 59.8 60.0
-33.5 -33.1 -32.8 -32.4 -32.2 -31.9 -31.7 -31.5 -31.2 -30.9 -30.7 -30.5 -30.3 -30.1 -30.0 -29.5 -28.8 -28.1 -27.3 -26.7 -26.1 -25.4 -24.7 -23.9 -23.2 -22.5 -21.8 -21.1 -20.5 -19.8 -18.8 -17.8 -16.7 -15.6 -14.6 -13.6 -12.6 -11.7 -10.7 -9.8 -9.0 -8.3 -7.5 -6.8 -6.0 -5.2 -4.5 -3.9 -3.3 -2.8 -2.2 0.2 2.9 4.5 6.2 8.0 9.9 16.4 20.0 20.0 20.0 20.2 20.0 20.2 22.4 25.8 27.9 30.0 31.6 39.8 38.6 30.9 30.6 30.2 26.4 20.2 20.0 20.0 20.0 20.1 20.0 20.0 20.0 20.0 20.0 20.0 20.0 20.0 20.0 20.0 20.0 20.0 20.0 21.5 26.3 28.0 29.6 30.0 33.0 31.5 30.2 30.4 32.6 32.9 35.5 37.7 38.2 39.3 40.4 38.8 37.7 39.7 39.9 39.8 40.0 39.2 39.8 40.0 40.0 40.8 44.1 48.6 50.0 49.8 50.1 52.2 54.5 59.8 59.5 60.0 59.8 60.0 60.0 60.0
-33.4 -33.0 -32.7 -32.3 -32.0 -31.8 -31.6 -31.3 -31.1 -30.8 -30.5 -30.4 -30.2 -30.0 -29.9 -29.1 -28.4 -27.6 -26.9 -26.2 -25.6 -24.9 -24.2 -23.5 -22.9 -22.2 -21.5 -20.9 -20.2 -19.4 -18.5 -17.5 -16.5 -15.5 -14.5 -13.6 -12.6 -11.8 -10.9 -10.0 -9.2 -8.4 -7.5 -6.7 -5.8 -5.1 -4.3 -3.7 -3.2 -2.6 -2.1 0.5 3.1 4.7 6.4 8.0 9.8 14.9 19.9 20.0 20.0 20.0 20.0 20.0 23.1 27.3 28.3 32.1 38.6 40.0 37.6 34.8 32.4 29.8 23.7 20.0 20.0 20.0 20.0 20.0 20.0 20.0 20.0 20.0 20.0 20.0 20.0 20.0 20.0 20.0 20.0 20.0 20.0 20.1 24.3 28.3 30.1 30.1 36.6 34.7 33.2 35.5 37.1 38.0 40.3 41.4 44.4 42.1 43.3 40.8 40.0 39.9 40.0 39.7 40.0 39.8 40.0 40.0 40.1 42.5 45.5 48.8 50.4 50.5 50.0 53.3 56.0 60.0 59.8 60.0 59.8 59.5 59.5 59.9
-33.2 -32.9 -32.5 -32.1 -31.9 -31.7 -31.5 -31.2 -30.9 -30.6 -30.5 -30.3 -30.1 -29.9 -29.5 -28.7 -28.0 -27.1 -26.5 -25.8 -25.2 -24.5 -23.8 -23.1 -22.4 -21.8 -21.2 -20.6 -19.9 -19.0 -18.1 -17.2 -16.3 -15.3 -14.3 -13.5 -12.7 -11.9 -11.0 -10.2 -9.3 -8.4 -7.6 -6.7 -5.8 -4.9 -4.2 -3.6 -3.0 -2.4 -1.5 1.7 3.5 5.0 6.6 8.0 9.5 15.3 20.0 20.0 20.0 20.0 20.0 21.0 23.8 28.9 28.8 30.6 37.5 39.1 34.1 31.6 30.7 28.2 22.8 20.4 20.0 20.0 20.0 20.3 20.0 20.0 20.0 20.0 20.0 20.0 20.0 20.0 20.0 20.0 20.0 20.0 20.2 20.9 25.2 29.1 32.7 38.9 40.1 39.6 38.0 39.4 40.1 40.0 45.0 48.1 50.0 49.9 48.5 45.1 41.0 40.3 40.1 40.0 40.1 39.8 40.3 40.9 40.2 43.6 46.4 48.1 49.7 50.0 50.0 50.0 50.5 59.6 58.7 59.8 59.8 59.9 59.9 59.0
-33.1 -32.7 -32.3 -32.0 -31.8 -31.5 -31.3 -31.1 -30.8 -30.6 -30.4 -30.2 -30.0 -29.7 -29.1 -28.3 -27.5 -26.8 -26.1 -25.4 -24.8 -24.1 -23.4 -22.7 -21.9 -21.3 -20.7 -20.0 -19.3 -18.4 -17.6 -16.8 -15.9 -15.0 -14.2 -13.4 -12.6 -11.9 -11.1 -10.4 -9.5 -8.5 -7.6 -6.7 -5.7 -4.8 -4.1 -3.4 -2.7 -2.1 0.0 2.6 4.1 5.7 7.2 8.5 10.1 15.4 20.0 20.0 20.0 20.0 20.0 22.1 25.7 30.0 29.9 36.6 40.0 38.7 35.6 32.4 28.6 20.1 20.0 20.0 20.0 20.0 20.0 20.5 20.0 20.0 20.0 20.0 20.0 20.0 20.0 20.0 20.0 20.0 20.0 20.0 20.0 20.5 23.9 29.5 30.6 33.3 40.0 39.7 39.2 41.6 48.3 54.7 56.6 50.2 51.0 50.6 50.2 47.5 43.0 41.6 40.0 40.0 40.0 39.9 39.9 40.9 41.5 43.5 48.3 49.1 49.3 49.5 49.9 51.9 53.9 58.7 59.5 60.0 60.0 60.0 60.0 60.0
-32.9 -32.5 -32.1 -31.8 -31.6 -31.4 -31.2 -30.9 -30.7 -30.5 -30.3 -30.1 -29.9 -29.3 -28.6 -27.9 -27.1 -26.3 -25.6 -25.0 -24.3 -23.6 -22.9 -22.2 -21.4 -20.8 -20.2 -19.4 -18.6 -17.7 -17.0 -16.4 -15.6 -14.8 -14.0 -13.3 -12.5 -11.8 -11.1 -10.4 -9.5 -8.5 -7.6 -6.7 -5.7 -4.7 -3.9 -3.2 -2.5 -1.6 1.4 3.1 4.7 6.4 7.9 9.3 12.6 16.8 20.0 20.0 20.0 20.0 20.0 21.4 24.6 29.2 30.3 38.5 40.0 38.6 34.4 30.8 24.4 20.0 20.0 20.0 20.0 20.0 20.0 20.6 20.0 20.0 20.0 20.0 20.0 20.0 20.0 20.0 20.0 20.0 20.0 20.0 20.0 20.0 20.9 30.2 32.0 34.7 38.8 40.6 40.6 45.4 50.3 57.3 60.3 53.7 50.5 52.7 50.7 49.7 43.6 40.6 40.0 40.0 40.0 40.2 41.7 43.7 44.4 47.4 50.0 49.9 49.9 49.8 50.0 53.0 58.9 60.0 59.8 60.0 60.0 60.0 60.0 60.0
-32.9 -32.5 -32.1 -31.8 -31.6 -31.4 -31.2 -30.8 -30.6 -30.4 -30.2 -30.0 -29.6 -28.9 -28.2 -27.4 -26.6 -25.9 -25.2 -24.5 -23.8 -23.2 -22.4 -21.6 -20.8 -20.2 -19.4 -18.7 -17.9 -17.1 -16.5 -15.9 -15.2 -14.4 -13.7 -13.1 -12.3 -11.6 -11.0 -10.4 -9.5 -8.5 -7.5 -6.6 -5.6 -4.5 -3.8 -3.0 -2.3 -0.4 2.4 3.8 5.6 7.2 8.7 10.6 16.9 19.2 20.0 19.7 20.0 20.0 20.0 20.6 22.8 28.2 29.0 31.6 39.8 35.6 32.0 27.7 22.2 20.5 20.0 20.0 20.0 20.0 20.0 20.5 20.0 20.0 20.0 20.0 20.0 20.0 20.0 20.0 20.0 20.0 20.0 20.0 20.0 20.6 23.1 30.2 32.6 35.3 38.6 40.9 41.8 43.9 48.4 50.5 50.0 50.0 50.0 50.0 50.0 50.1 40.7 40.0 40.0 40.0 40.2 42.2 43.3 44.7 45.0 47.2 49.5 50.0 50.0 50.0 50.0 51.1 58.6 60.1 59.9 60.0 60.0 60.0 60.0 60.0
-32.7 -32.4 -32.0 -31.8 -31.5 -31.3 -31.1 -30.7 -30.5 -30.3 -30.1 -29.8 -29.1 -28.4 -27.7 -26.9 -26.2 -25.5 -24.8 -24.1 -23.3 -22.7 -21.9 -21.1 -20.3 -19.7 -18.9 -18.1 -17.3 -16.6 -16.1 -15.5 -14.8 -14.1 -13.4 -12.8 -12.1 -11.5 -10.8 -10.2 -9.4 -8.4 -7.3 -6.4 -5.4 -4.4 -3.6 -2.8 -2.1 0.3 2.8 4.3 6.1 7.8 9.3 14.5 20.0 19.7 18.6 17.5 20.0 20.0 20.0 20.0 21.6 26.6 28.3 30.1 38.8 30.5 30.2 20.1 20.0 20.0 20.0 20.0 20.0 20.0 20.0 21.4 20.0 20.0 20.0 20.0 20.0 20.0 20.0 20.0 20.0 20.0 20.0 20.0 20.0 20.0 25.4 31.0 32.9 35.8 38.6 40.1 40.2 40.2 43.8 49.8 49.5 49.6 49.8 49.3 49.3 49.2 40.0 40.0 40.0 41.0 41.3 45.8 45.0 45.8 45.1 46.7 49.5 49.8 49.9 49.9 49.9 49.9 51.1 59.6 55.8 56.4 59.4 59.3 59.3 59.3
-32.6 -32.3 -31.9 -31.7 -31.4 -31.2 -30.9 -30.6 -30.4 -30.1 -29.9 -29.4 -28.6 -27.9 -27.2 -26.5 -25.7 -25.1 -24.4 -23.6 -22.9 -22.2 -21.4 -20.7 -19.9 -19.2 -18.4 -17.7 -16.8 -16.2 -15.7 -15.0 -14.4 -13.8 -13.0 -12.4 -11.8 -11.2 -10.5 -10.0 -9.0 -8.0 -7.0 -6.1 -5.1 -4.2 -3.4 -2.6 -1.6 1.3 3.5 5.1 7.1 8.9 14.5 20.7 18.7 14.0 15.6 15.1 20.0 20.0 20.0 20.0 20.0 22.5 27.3 30.2 33.4 30.1 27.3 20.6 20.0 20.0 20.0 20.0 20.0 20.0 20.0 22.5 20.0 20.0 20.0 20.0 20.0 20.0 20.0 20.0 20.0 20.0 20.0 20.3 20.0 20.0 25.0 30.6 31.7 34.7 37.8 39.3 39.9 40.0 41.4 47.0 47.6 48.7 49.0 49.4 50.0 50.0 44.1 42.7 41.9 44.6 43.2 49.3 47.5 47.8 47.0 48.0 50.0 50.0 50.0 50.0 50.0 50.0 50.1 55.2 55.7 55.7 59.9 59.8 59.3 59.3
-32.5 -32.2 -31.9 -31.6 -31.3 -31.1 -30.8 -30.5 -30.2 -30.0 -29.6 -28.9 -28.2 -27.4 -26.8 -26.0 -25.3 -24.6 -23.9 -23.1 -22.4 -21.7 -21.0 -20.2 -19.5 -18.8 -18.0 -17.2 -16.5 -15.8 -15.2 -14.6 -14.0 -13.4 -12.6 -12.1 -11.5 -10.9 -10.4 -9.7 -8.7 -7.6 -6.7 -5.9 -4.9 -4.0 -3.2 -2.4 -0.8 2.2 4.2 5.9 8.0 10.1 19.4 29.2 18.7 11.3 11.4 14.3 20.0 20.0 20.0 20.0 20.0 22.8 28.9 34.2 30.2 27.9 21.9 20.0 20.0 20.0 20.0 20.0 20.0 20.0 20.0 20.8 20.0 20.0 20.0 20.0 20.0 20.0 20.0 20.0 20.0 20.0 20.0 20.2 20.4 20.3 26.0 30.0 30.9 35.1 39.0 38.9 39.9 39.9 41.0 44.9 47.0 48.1 48.7 49.7 50.0 50.0 49.7 50.0 48.1 48.7 49.8 50.0 49.7 49.2 48.5 49.3 50.0 50.0 50.0 50.0 50.0 50.0 50.0 53.7 57.0 58.2 60.0 60.0 60.0 60.0
-32.4 -32.1 -31.8 -31.5 -31.2 -30.9 -30.7 -30.3 -30.1 -29.7 -29.0 -28.3 -27.6 -26.9 -26.3 -25.6 -24.9 -24.1 -23.4 -22.7 -22.0 -21.3 -20.6 -19.8 -19.1 -18.4 -17.6 -16.7 -16.0 -15.4 -14.8 -14.2 -13.6 -13.0 -12.2 -11.7 -11.1 -10.5 -9.9 -9.1 -8.1 -7.1 -6.3 -5.6 -4.7 -3.7 -2.9 -2.1 0.2 2.9 4.7 6.5 8.6 11.4 19.3 27.9 13.0 10.0 10.0 10.0 14.4 17.2 16.4 18.0 19.1 24.1 32.1 40.0 32.0 27.8 22.0 20.4 20.0 20.0 20.0 20.0 20.0 20.0 20.0 23.0 20.0 20.0 20.0 20.0 20.0 20.0 20.0 20.0 20.0 20.0 20.0 21.1 26.0 22.9 26.2 29.1 30.1 35.7 39.7 39.1 40.0 39.9 40.9 43.9 48.1 48.6 49.6 49.7 50.0 50.0 49.6 50.1 49.9 48.9 48.8 49.7 50.0 50.0 49.5 49.8 49.8 50.0 50.0 50.5 50.5 51.0 55.3 59.6 59.2 59.0 60.0 60.0 59.7 59.7
-32.3 -32.0 -31.7 -31.4 -31.1 -30.8 -30.5 -30.2 -29.9 -29.1 -28.4 -27.8 -27.1 -26.4 -25.8 -25.2 -24.5 -23.8 -23.1 -22.4 -21.7 -20.9 -20.2 -19.5 -18.7 -18.0 -17.1 -16.3 -15.6 -14.9 -14.3 -13.7 -13.1 -12.5 -11.8 -11.2 -10.5 -9.9 -9.1 -8.5 -7.4 -6.6 -5.9 -5.2 -4.3 -3.4 -2.6 -1.7 1.1 3.3 5.2 7.2 9.2 10.0 10.2 10.0 10.1 10.0 10.0 10.0 10.0 11.3 13.6 18.4 19.3 21.4 30.7 40.5 30.1 21.3 20.0 20.0 20.0 20.0 20.0 20.0 20.0 20.0 20.0 23.7 20.0 20.0 20.0 20.0 20.0 20.0 20.0 20.0 20.6 22.9 20.6 28.1 30.0 29.3 29.8 30.0 30.0 37.1 40.0 40.2 39.9 40.0 41.7 46.2 48.9 49.8 50.0 50.0 50.0 50.0 50.0 49.7 50.0 50.0 49.2 47.9 48.4 49.5 50.0 49.2 48.8 50.0 50.0 50.5 53.9 59.6 60.3 60.0 59.9 60.0 60.0 59.8 59.9 60.0
-32.1 -31.8 -31.5 -31.2 -30.9 -30.6 -30.4 -30.1 -29.5 -28.7 -28.0 -27.4 -26.8 -26.1 -25.4 -24.8 -24.1 -23.4 -22.7 -22.0 -21.3 -20.6 -19.9 -19.1 -18.3 -17.6 -16.7 -15.9 -15.1 -14.5 -13.8 -13.2 -12.5 -11.9 -11.1 -10.5 -9.8 -9.0 -8.3 -8.0 -6.8 -6.1 -5.4 -4.7 -3.9 -3.0 -2.2 -0.7 2.1 4.0 6.1 8.1 9.9 10.0 10.0 10.0 10.0 10.0 10.0 10.0 10.0 10.0 13.8 19.3 21.9 27.4 29.2 36.3 28.2 23.5 20.0 20.0 20.0 20.0 20.0 20.0 20.0 20.0 20.0 24.8 20.0 20.0 20.0 20.0 20.0 20.0 20.0 20.0 20.0 21.9 22.9 28.0 30.0 29.2 29.9 30.0 30.0 33.2 38.8 40.6 39.9 40.0 43.2 47.8 50.0 50.0 50.0 50.0 50.0 50.0 50.0 49.5 48.2 47.4 42.9 44.8 45.1 45.6 45.5 45.1 47.2 50.0 50.1 50.8 51.5 52.1 59.8 59.2 58.9 59.0 59.2 58.8 59.8 60.0
-31.9 -31.6 -31.3 -31.1 -30.8 -30.5 -30.2 -29.9 -29.2 -28.4 -27.7 -27.1 -26.5 -25.8 -25.1 -24.4 -23.7 -23.1 -22.4 -21.7 -21.0 -20.4 -19.6 -18.8 -18.0 -17.1 -16.3 -15.4 -14.7 -14.0 -13.3 -12.6 -11.9 -11.3 -10.5 -9.9 -9.1 -8.5 -7.8 -7.3 -6.3 -5.6 -4.9 -4.3 -3.5 -2.7 -2.0 0.2 2.7 4.7 6.9 9.0 10.0 10.0 10.0 10.0 10.0 10.0 10.0 10.0 10.0 10.0 12.7 20.2 26.6 29.7 29.1 30.1 24.3 21.7 20.0 20.0 20.0 20.0 20.0 20.0 20.0 20.0 20.0 22.0 20.0 20.0 20.0 20.0 20.0 20.0 20.0 20.0 20.0 20.7 24.7 29.5 30.0 29.9 29.9 29.9 31.0 32.5 39.3 44.3 44.4 40.3 45.6 49.7 49.7 50.0 50.0 50.0 50.0 49.2 46.5 40.1 42.4 42.9 40.4 41.5 41.5 41.2 41.4 40.1 41.6 46.0 49.9 50.5 51.2 51.3 58.9 57.8 57.8 59.6 58.9 58.0 58.7 59.6
-31.8 -31.5 -31.2 -31.0 -30.7 -30.4 -30.1 -29.7 -29.0 -28.2 -27.5 -26.9 -26.2 -25.5 -24.9 -24.2 -23.5 -22.8 -22.1 -21.5 -20.8 -20.1 -19.3 -18.4 -17.6 -16.7 -15.9 -15.0 -14.3 -13.6 -12.9 -12.3 -11.6 -10.9 -10.1 -9.4 -8.8 -8.1 -7.4 -6.8 -5.9 -5.3 -4.6 -3.9 -3.1 -2.4 -1.2 1.4 3.0 4.1 5.6 6.6 9.5 9.0 10.0 10.0 10.0 10.0 10.0 10.0 10.6 10.0 11.1 20.7 31.0 38.7 29.6 22.6 20.3 20.6 20.0 20.0 20.0 20.0 20.0 20.0 20.0 20.0 20.0 21.0 20.0 20.0 20.0 20.0 20.0 20.0 20.0 20.0 20.0 20.8 25.3 29.7 30.0 30.0 29.9 30.0 32.3 34.4 39.6 49.1 49.0 47.0 49.9 50.0 49.8 49.7 50.0 50.0 49.4 48.1 42.5 40.0 40.0 40.0 40.0 40.0 40.0 40.0 40.0 40.0 40.1 45.5 50.0 50.0 51.0 50.6 57.5 56.4 56.6 59.9 59.3 57.0 57.3 57.9
-32.5 -32.1 -31.7 -31.3 -30.9 -30.5 -30.1 -29.5 -28.8 -28.0 -27.3 -26.6 -26.0 -25.3 -24.6 -24.0 -23.3 -22.6 -21.9 -21.2 -20.6 -19.8 -18.9 -18.0 -17.3 -16.4 -15.5 -14.6 -14.0 -13.3 -12.6 -11.9 -11.2 -10.5 -9.8 -9.1 -8.4 -7.7 -7.0 -6.3 -5.6 -4.9 -4.2 -3.6 -2.8 -2.1 -0.4 2.2 3.4 4.5 6.2 7.0 8.8 9.4 10.0 10.0 10.0 10.0 10.0 11.2 13.8 13.3 18.7 19.8 28.5 39.4 31.0 29.5 20.0 20.0 20.0 20.0 20.0 20.0 20.0 20.0 20.0 20.0 20.0 27.7 20.0 20.0 20.0 20.0 20.0 20.0 20.0 20.0 20.0 21.2 27.3 30.1 30.0 30.0 29.9 30.0 31.1 34.8 39.5 42.6 43.4 45.6 49.2 50.0 49.9 49.7 51.8 51.1 47.5 42.4 39.9 40.0 40.0 40.0 40.0 44.7 40.0 40.0 40.0 40.0 40.6 47.0 50.0 50.0 50.8 50.1 52.7 53.1 54.6 59.9 59.5 56.9 56.4 56.6
-31.5 -31.5 -31.3 -31.1 -30.7 -30.3 -30.0 -29.3 -28.7 -28.0 -27.3 -26.6 -25.9 -25.2 -24.4 -23.8 -23.1 -22.4 -21.7 -21.0 -20.3 -19.5 -18.6 -17.8 -16.9 -16.0 -15.1 -14.3 -13.8 -13.1 -12.4 -11.7 -11.0 -10.3 -9.6 -8.9 -8.2 -7.4 -6.7 -6.0 -5.3 -4.6 -3.9 -3.3 -2.6 -1.7 1.1 2.8 4.0 4.9 6.9 7.3 8.6 9.4 10.0 10.0 10.0 10.0 10.0 10.8 15.0 16.2 19.8 24.2 29.1 32.4 29.8 29.7 21.4 20.1 20.0 20.0 20.0 20.0 20.0 20.0 20.0 20.0 20.0 23.5 20.0 20.0 20.0 20.0 20.0 20.0 20.0 20.0 20.0 20.2 21.8 29.7 29.7 29.7 29.7 30.0 32.6 34.3 37.8 39.1 40.7 43.2 47.0 49.8 49.9 49.8 50.0 49.8 46.3 41.2 39.9 40.0 40.0 40.0 40.0 40.0 40.0 40.0 40.0 40.0 44.7 49.5 50.0 50.0 50.3 50.1 51.8 54.3 57.1 59.9 60.0 58.5 56.9 56.1
-31.5 -31.5 -31.4 -31.1 -30.7 -30.3 -30.0 -29.1 -28.5 -27.8 -27.1 -26.4 -25.7 -25.0 -24.2 -23.6 -22.9 -22.2 -21.5 -20.8 -20.1 -19.1 -18.2 -17.4 -16.5 -15.6 -14.7 -14.1 -13.5 -12.8 -12.1 -11.3 -10.6 -10.0 -9.2 -8.6 -7.9 -7.1 -6.4 -5.7 -5.0 -4.3 -3.7 -3.0 -2.3 -0.7 2.2 3.2 4.4 5.2 7.6 7.6 8.5 9.7 10.0 10.0 10.1 12.5 13.0 16.5 18.9 18.4 21.3 26.7 30.0 31.9 30.0 27.1 20.1 20.0 20.0 20.0 20.0 20.0 20.0 20.0 20.0 20.0 20.0 20.4 20.0 20.0 20.0 20.0 20.0 20.0 20.0 20.0 20.0 20.4 23.9 28.4 30.1 30.0 29.9 29.9 31.5 33.4 36.2 34.6 39.9 40.8 41.9 47.3 46.3 48.5 50.0 49.2 41.6 40.0 40.0 39.4 40.0 40.0 40.0 40.1 40.1 42.2 42.2 43.6 49.4 50.0 50.0 50.0 50.0 51.3 58.4 56.6 59.4 60.0 59.7 58.1 56.4 55.5
-31.5 -31.4 -31.3 -31.0 -30.6 -30.2 -29.8 -29.0 -28.3 -27.7 -26.9 -26.2 -25.5 -24.8 -24.0 -23.3 -22.6 -21.9 -21.2 -20.5 -19.8 -18.9 -18.0 -17.1 -16.2 -15.3 -14.5 -13.8 -13.2 -12.5 -11.8 -11.1 -10.4 -9.7 -9.0 -8.3 -7.5 -6.8 -6.1 -5.4 -4.7 -4.1 -3.5 -2.8 -2.2 0.1 2.6 3.6 4.9 5.8 8.3 8.3 9.3 10.0 10.0 10.0 11.4 16.4 17.1 19.6 21.3 20.8 25.6 29.0 30.0 30.9 30.0 30.0 20.0 20.0 20.0 20.0 20.0 20.0 20.0 20.0 20.0 20.0 20.0 20.4 20.0 20.0 20.0 20.0 20.0 20.0 20.0 20.0 20.0 20.8 25.0 30.0 30.3 31.2 30.4 30.5 32.3 30.7 30.7 30.7 33.9 39.7 40.2 42.9 41.5 41.8 45.0 44.2 40.8 40.0 39.8 39.4 40.0 40.0 40.0 40.0 40.2 40.8 40.3 41.8 44.9 49.9 49.8 49.8 50.1 55.9 59.6 59.8 59.7 60.0 58.4 57.0 55.1 54.9
-31.6 -31.5 -31.2 -30.9 -30.5 -30.1 -29.6 -28.8 -28.1 -27.5 -26.7 -26.0 -25.2 -24.5 -23.7 -23.1 -22.4 -21.7 -21.0 -20.3 -19.4 -18.5 -17.7 -16.8 -15.9 -15.0 -14.2 -13.6 -13.0 -12.2 -11.5 -10.8 -10.1 -9.5 -8.7 -8.0 -7.3 -6.6 -5.9 -5.2 -4.5 -3.9 -3.3 -2.7 -2.0 0.6 2.6 3.4 4.6 5.1 9.3 8.7 8.8 9.8 9.6 10.2 15.2 20.0 20.0 21.9 23.5 24.5 28.4 30.0 30.0 28.6 27.6 24.0 20.0 20.0 20.0 20.0 20.0 20.0 20.0 20.0 20.0 20.0 20.0 20.5 20.0 20.0 20.0 20.0 20.0 20.0 20.0 20.0 20.0 20.7 26.9 30.2 31.5 32.9 33.0 35.9 37.8 34.1 35.5 30.7 37.3 38.8 39.7 40.7 39.9 40.1 39.8 40.9 39.5 39.7 39.9 39.5 40.0 40.0 40.0 40.0 40.0 40.0 40.1 41.5 45.6 48.6 50.5 50.2 56.4 60.0 60.0 58.3 57.0 58.2 54.9 54.7 54.5 56.4
-31.6 -31.5 -31.2 -30.8 -30.4 -30.0 -29.4 -28.6 -27.9 -27.2 -26.5 -25.7 -25.0 -24.2 -23.5 -22.8 -22.2 -21.5 -20.8 -20.1 -19.2 -18.3 -17.4 -16.5 -15.6 -14.7 -14.0 -13.3 -12.7 -11.9 -11.2 -10.5 -9.8 -9.2 -8.4 -7.8 -7.1 -6.5 -5.8 -5.1 -4.3 -3.7 -3.1 -2.5 -1.3 2.0 3.8 5.4 7.2 8.9 10.0 9.8 10.0 10.0 10.0 11.4 14.6 19.1 19.6 21.9 24.2 25.9 28.5 30.0 29.1 21.8 24.6 22.1 20.0 20.0 20.0 20.0 20.0 20.0 20.0 20.0 20.0 20.0 20.0 20.1 20.0 20.0 20.0 20.0 20.0 20.0 20.0 20.0 20.0 20.1 25.2 29.7 32.7 35.6 38.5 40.0 39.6 39.5 38.0 31.8 37.5 38.7 39.2 40.0 40.0 39.2 37.3 36.9 32.7 35.1 36.0 34.9 38.8 40.0 40.0 40.0 40.0 40.0 40.0 40.1 43.3 49.0 49.4 49.7 59.2 60.2 57.5 53.1 53.6 55.6 52.2 54.7 53.7 59.1
-31.6 -31.4 -31.2 -30.7 -30.3 -29.9 -29.1 -28.4 -27.6 -27.0 -26.2 -25.4 -24.7 -23.9 -23.2 -22.6 -22.0 -21.3 -20.6 -19.8 -18.9 -18.0 -17.2 -16.2 -15.3 -14.6 -13.8 -13.1 -12.5 -11.7 -11.0 -10.3 -9.6 -9.0 -8.2 -7.6 -6.9 -6.2 -5.5 -4.9 -4.1 -3.5 -2.8 -2.2 0.1 2.5 4.2 5.5 7.3 8.6 9.9 10.0 10.0 10.0 10.0 12.7 17.1 18.5 20.6 23.6 25.9 27.3 29.3 30.5 29.5 20.0 20.4 20.5 20.0 20.0 20.0 20.0 20.0 20.0 20.0 20.0 20.0 20.0 20.0 20.0 20.0 20.0 20.0 20.0 20.0 20.0 20.0 20.0 20.0 26.1 28.4 29.8 32.7 36.2 39.0 40.0 40.0 39.1 36.9 32.8 34.5 36.2 36.4 38.3 39.8 33.3 31.7 30.4 30.0 30.2 31.2 30.7 36.3 40.1 40.0 40.0 40.0 40.0 40.4 40.0 46.7 50.0 50.0 50.0 50.4 54.2 49.7 49.6 50.2 50.3 50.0 51.2 50.5 53.3
-31.5 -31.3 -31.0 -30.5 -30.1 -29.5 -28.8 -28.0 -27.3 -26.7 -25.9 -25.2 -24.5 -23.7 -23.0 -22.3 -21.8 -21.1 -20.4 -19.6 -18.7 -17.9 -16.9 -16.0 -15.1 -14.3 -13.6 -12.9 -12.2 -11.5 -10.8 -10.0 -9.4 -8.7 -7.9 -7.3 -6.6 -5.9 -5.2 -4.6 -3.8 -3.2 -2.5 -1.5 1.6 2.9 4.3 5.4 7.4 7.8 9.4 10.0 10.0 10.0 10.5 16.1 19.8 19.9 22.3 27.0 28.1 30.0 30.0 29.7 26.8 20.0 20.0 20.0 20.0 20.0 20.0 20.0 20.0 20.0 20.0 20.0 20.0 20.0 20.0 20.0 20.0 20.0 20.0 20.0 20.0 20.0 20.0 20.0 22.9 30.2 30.1 30.1 37.0 38.8 39.8 40.0 40.0 39.1 35.3 31.1 32.6 35.0 34.4 34.9 34.4 30.1 30.0 30.0 30.0 30.0 30.0 30.0 30.3 35.8 39.7 40.0 40.0 40.0 40.4 41.1 48.3 49.9 49.8 50.0 50.0 50.0 49.7 48.6 48.6 49.4 50.0 50.1 49.7 50.0
-31.5 -31.2 -30.8 -30.3 -29.9 -29.2 -28.5 -27.7 -27.1 -26.4 -25.6 -24.9 -24.2 -23.5 -22.8 -22.1 -21.6 -20.9 -20.2 -19.3 -18.4 -17.6 -16.6 -15.7 -14.8 -14.1 -13.3 -12.7 -12.0 -11.2 -10.5 -9.8 -9.1 -8.4 -7.6 -7.0 -6.3 -5.6 -4.9 -4.3 -3.6 -2.9 -2.2 -0.2 2.3 3.0 4.3 5.4 8.4 7.7 9.1 9.7 9.9 9.9 12.8 18.6 20.6 22.5 27.0 29.8 30.5 38.6 32.6 28.2 23.0 20.0 20.0 20.0 20.0 20.0 20.0 20.0 20.0 20.0 20.0 20.0 20.0 20.0 20.0 20.0 20.0 20.0 20.0 20.0 20.0 20.0 20.0 20.0 23.5 30.5 31.9 34.8 39.8 40.0 39.8 40.0 38.9 33.7 31.0 30.0 30.5 32.8 33.0 33.6 35.5 30.2 30.0 30.0 30.0 30.0 30.0 30.0 30.0 30.0 35.3 39.9 40.0 40.0 40.1 44.0 49.7 49.6 50.0 50.0 50.0 50.0 49.6 48.5 47.5 48.2 50.0 50.0 49.9 50.2
-31.4 -31.0 -30.6 -30.1 -29.6 -28.8 -28.2 -27.4 -26.8 -26.0 -25.3 -24.6 -24.0 -23.2 -22.5 -21.9 -21.3 -20.7 -20.0 -19.1 -18.1 -17.3 -16.3 -15.4 -14.6 -13.8 -13.1 -12.4 -11.7 -11.0 -10.3 -9.7 -8.9 -8.2 -7.3 -6.7 -6.0 -5.3 -4.6 -4.0 -3.3 -2.6 -1.8 1.2 2.8 3.5 5.0 6.2 9.3 8.0 9.1 10.0 9.9 10.9 14.4 19.7 19.8 22.5 28.0 31.9 36.9 40.4 36.9 29.4 21.0 20.0 20.0 20.0 20.0 20.0 20.0 20.0 20.0 20.0 20.0 20.0 20.0 20.0 20.0 20.0 20.0 20.0 20.0 20.0 20.0 20.1 20.1 20.2 27.3 30.2 31.7 34.0 39.2 40.0 39.8 40.0 36.8 32.4 29.7 30.0 30.0 30.6 31.3 31.6 37.9 30.0 30.0 30.0 30.0 30.0 30.0 30.0 30.0 32.1 38.2 39.4 40.1 40.1 40.5 47.3 50.0 50.0 49.7 50.0 50.0 49.8 49.1 47.0 46.3 47.4 50.0 50.0 49.3 49.5
-31.2 -30.8 -30.4 -29.9 -29.2 -28.5 -27.9 -27.2 -26.5 -25.8 -25.1 -24.4 -23.7 -23.0 -22.3 -21.6 -21.0 -20.4 -19.6 -18.7 -17.9 -17.0 -16.1 -15.2 -14.4 -13.7 -12.9 -12.2 -11.5 -10.8 -10.1 -9.4 -8.6 -7.9 -7.0 -6.4 -5.7 -4.9 -4.3 -3.7 -3.0 -2.4 -0.9 2.2 3.8 5.0 7.2 8.9 10.0 9.9 10.0 10.0 10.2 12.9 17.3 20.0 20.4 25.2 27.5 29.9 30.0 36.9 30.0 26.3 20.5 20.0 20.0 20.0 20.0 20.0 20.0 20.0 20.0 20.0 20.0 20.0 20.0 20.0 20.0 20.0 20.0 20.0 20.0 20.0 20.0 20.0 20.3 21.3 25.1 28.7 30.0 30.0 31.8 38.6 36.4 35.7 31.1 30.0 27.8 29.9 30.2 31.6 31.6 34.5 40.0 31.9 30.0 30.0 30.0 30.0 30.0 30.0 34.2 36.4 40.0 39.9 40.3 41.1 42.3 47.2 50.0 50.0 49.6 50.0 50.0 49.4 46.9 43.7 43.5 46.7 50.0 50.0 49.3 49.3
-31.1 -30.6 -30.1 -29.5 -28.9 -28.2 -27.6 -26.9 -26.2 -25.5 -24.8 -24.2 -23.5 -22.8 -22.1 -21.5 -20.9 -20.2 -19.4 -18.5 -17.7 -16.8 -15.8 -14.9 -14.2 -13.5 -12.7 -12.0 -11.3 -10.5 -9.8 -9.1 -8.3 -7.6 -6.6 -6.0 -5.3 -4.6 -4.0 -3.4 -2.8 -2.2 0.2 2.3 3.2 3.8 5.4 6.8 9.9 9.9 9.9 9.9 10.3 12.3 14.3 19.3 19.8 22.3 25.8 28.8 29.7 31.8 30.0 27.2 21.5 20.3 20.0 20.0 20.0 20.0 20.0 20.0 20.0 20.0 20.0 20.0 20.0 20.0 20.0 20.0 20.0 20.0 20.0 20.0 20.0 20.0 20.0 20.2 21.8 25.6 29.4 29.2 30.1 32.5 32.8 31.9 31.1 30.0 20.1 26.3 29.3 30.1 30.0 30.5 38.1 30.0 31.0 31.1 30.0 30.0 30.0 31.9 39.9 40.1 39.6 40.0 40.0 40.0 40.0 40.0 46.3 47.9 44.3 49.2 45.6 41.9 40.7 40.1 40.9 48.3 50.1 50.0 49.7 49.3
-30.9 -30.4 -29.9 -29.3 -28.6 -27.9 -27.3 -26.7 -26.0 -25.3 -24.6 -24.0 -23.3 -22.6 -21.9 -21.3 -20.7 -20.1 -19.2 -18.3 -17.5 -16.6 -15.7 -14.8 -14.0 -13.3 -12.5 -11.8 -11.1 -10.3 -9.6 -8.8 -8.1 -7.3 -6.3 -5.7 -5.0 -4.4 -3.8 -3.1 -2.6 -1.7 1.6 2.9 4.2 5.1 6.9 8.3 9.9 9.9 9.9 10.0 10.3 13.6 17.0 20.0 20.1 28.9 28.5 28.2 29.2 28.9 28.1 20.9 20.0 20.0 20.0 20.0 20.0 20.0 20.0 20.0 20.0 20.0 20.0 20.0 20.0 20.0 20.0 20.0 20.0 20.0 20.0 20.0 20.0 20.0 20.0 20.4 21.0 24.9 28.6 28.1 29.3 31.2 30.4 29.2 30.2 27.5 20.2 21.6 25.1 28.1 29.9 30.6 32.9 30.0 30.0 30.0 30.0 30.0 30.0 30.0 35.4 39.8 38.2 39.5 39.4 40.0 40.0 40.0 41.5 44.4 41.9 43.3 40.3 40.0 40.1 40.0 41.3 47.0 50.0 50.0 49.9 49.3
-30.8 -30.3 -29.9 -29.2 -28.5 -27.8 -27.2 -26.5 -25.8 -25.1 -24.4 -23.8 -23.1 -22.4 -21.7 -21.1 -20.5 -19.9 -19.0 -18.2 -17.3 -16.4 -15.5 -14.6 -13.9 -13.2 -12.4 -11.7 -11.0 -10.1 -9.3 -8.5 -7.8 -7.0 -6.0 -5.4 -4.7 -4.1 -3.5 -2.9 -2.3 -0.5 2.3 3.3 4.7 5.7 7.7 9.0 9.9 9.4 9.7 10.1 11.3 14.7 17.6 20.3 26.0 30.0 30.0 28.6 28.1 26.9 24.8 20.9 20.0 20.0 20.0 20.0 20.0 20.0 20.0 20.0 20.0 20.0 20.0 20.0 20.0 20.0 20.0 20.0 20.0 20.0 20.0 20.0 20.0 20.0 20.0 20.0 20.0 21.0 27.6 25.4 23.6 28.1 27.5 23.9 24.1 22.0 20.0 20.2 21.8 23.4 25.9 28.8 29.3 29.7 31.1 32.5 30.0 30.0 30.0 30.0 30.1 33.9 34.3 36.6 39.0 40.0 39.8 39.9 39.4 40.2 40.8 40.3 40.0 40.0 40.7 40.0 40.2 40.3 40.8 41.3 43.8 45.3
-30.7 -30.2 -29.7 -29.0 -28.3 -27.6 -27.0 -26.3 -25.5 -24.8 -24.2 -23.6 -22.9 -22.2 -21.5 -20.9 -20.3 -19.6 -18.8 -17.9 -17.0 -16.1 -15.2 -14.4 -13.7 -12.9 -12.1 -11.4 -10.7 -9.8 -8.9 -8.1 -7.2 -6.3 -5.4 -4.7 -4.3 -3.7 -3.1 -2.6 -2.1 0.8 2.5 3.2 4.3 4.6 7.6 7.9 9.3 8.6 9.4 10.6 12.2 14.7 17.0 19.4 20.0 28.5 29.5 28.8 29.0 22.4 20.7 20.0 20.0 20.0 20.0 20.0 20.0 20.0 20.0 20.0 20.0 20.0 20.0 20.0 20.0 20.0 20.0 20.0 20.0 20.0 20.0 20.0 20.0 20.0 20.0 20.0 20.0 21.3 29.5 25.3 20.0 21.6 21.9 21.6 20.6 20.0 20.0 20.0 20.0 20.0 20.6 23.6 25.7 26.3 27.9 29.9 30.0 30.0 30.0 30.0 30.0 31.1 31.9 33.2 33.6 38.1 37.0 37.0 39.5 40.6 40.0 40.1 40.0 40.0 41.4 40.0 40.0 40.0 40.0 40.0 41.5 43.8
-30.6 -30.1 -29.6 -28.9 -28.1 -27.4 -26.8 -26.0 -25.3 -24.6 -24.0 -23.4 -22.7 -22.0 -21.4 -20.7 -20.1 -19.4 -18.5 -17.7 -16.8 -15.9 -15.0 -14.2 -13.5 -12.8 -12.0 -11.3 -10.7 -9.8 -8.8 -7.9 -7.0 -6.0 -5.0 -4.5 -4.0 -3.5 -2.9 -2.4 -1.2 1.9 2.7 3.4 4.6 4.8 8.4 7.7 9.0 8.8 9.5 10.8 12.7 14.9 17.0 19.2 20.4 25.6 28.0 29.8 29.9 23.6 22.2 20.2 20.0 20.0 20.0 20.0 20.0 20.0 20.0 20.0 20.0 20.0 20.0 20.0 20.0 20.0 20.0 20.0 20.0 20.0 20.0 20.0 20.0 20.0 20.0 20.0 20.0 20.5 28.9 23.5 20.0 20.1 20.0 20.1 20.0 20.0 20.0 20.0 20.0 20.1 20.4 21.2 23.3 23.6 30.6 32.7 30.0 29.8 30.0 30.0 30.0 30.0 30.0 30.2 30.2 33.3 34.6 33.8 39.7 39.6 39.9 40.0 40.0 40.0 41.7 40.0 40.0 40.0 40.0 40.4 42.7 44.4
-30.5 -30.1 -29.5 -28.7 -28.0 -27.2 -26.6 -25.8 -25.1 -24.4 -23.8 -23.1 -22.5 -21.8 -21.1 -20.5 -19.8 -19.1 -18.2 -17.3 -16.5 -15.6 -14.7 -14.0 -13.3 -12.6 -11.8 -11.3 -10.6 -9.7 -8.7 -7.6 -6.7 -5.6 -4.8 -4.3 -3.7 -3.2 -2.7 -2.2 0.0 2.2 3.0 3.6 4.8 4.9 9.2 7.6 8.7 9.0 9.4 10.5 12.5 14.6 16.6 18.5 20.7 25.3 28.1 30.0 30.0 28.9 23.5 20.0 20.0 20.0 20.0 20.0 20.0 20.0 20.0 20.0 19.9 20.0 20.0 20.0 20.0 20.0 20.0 20.0 20.0 20.0 20.0 20.0 20.0 20.0 20.0 20.0 20.0 20.0 21.0 20.0 20.0 20.0 20.0 20.0 20.0 20.0 20.0 20.0 20.0 20.0 20.0 20.0 20.2 20.0 22.9 29.7 30.0 29.8 30.0 30.0 30.0 30.0 30.0 30.0 30.2 31.8 30.8 29.9 31.6 33.2 36.8 39.3 37.6 38.2 40.7 40.0 40.0 40.0 40.0 41.4 43.8 45.9
-30.3 -29.9 -29.2 -28.5 -27.8 -27.0 -26.3 -25.6 -24.9 -24.3 -23.6 -23.0 -22.3 -21.6 -20.9 -20.3 -19.7 -18.8 -18.0 -17.1 -16.3 -15.4 -14.6 -13.9 -13.2 -12.5 -11.8 -11.2 -10.5 -9.6 -8.5 -7.4 -6.4 -5.3 -4.6 -4.1 -3.5 -3.0 -2.5 -1.8 1.1 2.6 3.5 4.3 5.7 6.2 9.8 8.3 8.9 9.6 9.7 10.9 12.8 15.0 17.1 18.8 20.2 25.2 29.6 30.0 29.9 25.0 21.5 20.0 20.0 20.0 20.0 20.0 20.0 20.0 20.0 20.0 19.8 20.0 20.0 19.9 19.9 20.0 20.0 20.0 20.0 20.0 20.0 20.0 20.0 20.0 20.0 20.0 20.0 20.0 20.0 20.1 20.0 20.0 20.0 20.0 20.0 20.0 20.0 20.0 20.0 20.0 20.0 20.0 20.0 20.0 20.3 25.5 29.4 27.2 29.3 29.3 29.6 29.4 29.4 29.6 29.6 30.1 30.0 30.0 30.0 30.0 29.9 30.1 32.1 35.8 40.5 40.0 40.0 40.2 41.0 42.4 45.7 49.4
-30.1 -29.6 -28.9 -28.2 -27.5 -26.7 -26.1 -25.4 -24.7 -24.1 -23.4 -22.8 -22.1 -21.4 -20.7 -20.1 -19.3 -18.5 -17.7 -16.8 -16.0 -15.1 -14.4 -13.7 -13.1 -12.4 -11.7 -11.0 -10.4 -9.5 -8.4 -7.3 -6.2 -5.2 -4.4 -3.9 -3.4 -2.9 -2.3 -1.0 1.9 2.8 3.7 4.4 5.9 6.3 10.0 9.2 9.4 10.0 9.9 11.1 13.4 15.7 18.2 19.6 22.2 26.7 29.7 30.0 29.8 21.7 20.0 20.0 20.0 20.0 20.0 20.0 20.0 20.0 20.0 20.0 19.8 20.0 20.0 19.9 19.9 20.0 20.0 20.0 20.0 20.0 20.0 20.0 20.0 20.0 20.0 20.0 20.0 20.0 20.0 20.1 20.0 20.0 20.0 20.0 20.0 20.0 20.0 20.0 20.0 20.0 20.0 20.0 20.0 20.0 20.0 21.4 25.9 27.5 29.8 29.4 29.9 29.7 29.4 29.6 29.6 29.9 29.8 29.8 29.8 29.8 29.9 30.2 32.1 37.2 43.5 40.0 40.0 40.0 40.5 40.4 40.9 41.3
-29.9 -29.3 -28.6 -27.9 -27.2 -26.5 -25.8 -25.1 -24.5 -23.8 -23.2 -22.6 -21.9 -21.2 -20.5 -20.0 -19.1 -18.3 -17.5 -16.6 -15.8 -14.9 -14.2 -13.6 -13.0 -12.3 -11.6 -11.0 -10.4 -9.5 -8.4 -7.1 -6.0 -5.0 -4.3 -3.8 -3.3 -2.7 -2.1 0.0 2.2 2.9 3.7 4.4 5.9 6.1 9.7 9.2 9.2 9.7 10.0 10.3 13.5 17.2 19.6 21.5 24.4 28.3 30.0 30.0 24.3 20.0 20.0 20.0 20.0 20.0 20.0 20.0 20.0 20.0 20.0 20.0 19.8 20.0 20.0 19.9 19.9 20.0 19.9 20.0 20.0 20.0 20.0 20.0 20.0 20.0 20.0 20.0 20.0 20.0 20.0 20.0 20.0 20.0 20.0 20.0 20.0 20.0 20.0 20.0 20.0 20.0 20.0 20.0 20.0 20.0 20.3 24.0 27.0 29.1 30.2 30.6 30.2 30.0 30.0 30.0 30.0 30.0 30.0 30.0 30.0 30.1 31.2 33.6 35.4 39.7 47.2 40.0 40.0 40.0 40.0 40.0 40.0 40.1
-28.3 -27.8 -27.3 -26.8 -26.3 -25.8 -25.4 -24.8 -24.1 -23.5 -22.9 -22.2 -21.6 -21.0 -20.4 -19.8 -18.9 -18.1 -17.2 -16.4 -15.5 -14.6 -14.0 -13.4 -12.7 -12.1 -11.4 -11.0 -10.3 -9.5 -8.4 -7.2 -6.1 -4.9 -4.3 -3.7 -3.1 -2.6 -1.8 1.3 2.5 3.3 4.1 4.7 6.4 6.4 9.2 9.2 9.3 10.1 10.3 11.7 16.9 19.6 20.0 21.8 23.1 29.8 28.8 24.8 20.1 20.0 20.0 20.0 20.0 19.9 19.7 19.6 19.5 19.6 20.0 19.8 19.8 20.0 20.0 19.9 19.9 20.0 19.9 20.0 20.0 20.0 20.0 20.0 20.0 20.0 20.0 20.0 20.0 20.0 20.0 20.0 20.0 20.0 20.0 20.0 20.0 20.0 20.0 20.0 20.4 21.4 20.2 20.5 20.4 26.5 22.8 28.2 28.8 29.9 30.3 30.0 30.0 30.0 30.0 30.0 30.0 30.6 30.5 30.0 30.6 37.0 33.9 37.2 38.6 40.0 47.1 40.0 40.0 40.0 40.0 40.0 40.0 40.0
-28.0 -27.6 -27.1 -26.6 -26.1 -25.7 -25.2 -24.6 -23.9 -23.3 -22.6 -22.0 -21.4 -20.8 -20.2 -19.5 -18.6 -17.9 -17.0 -16.2 -15.4 -14.5 -13.9 -13.2 -12.6 -12.0 -11.2 -10.9 -10.2 -9.2 -8.0 -6.8 -5.6 -4.7 -4.0 -3.5 -2.9 -2.4 -1.0 2.1 2.7 3.4 4.2 4.8 6.9 6.6 9.0 9.3 9.4 9.9 9.9 11.8 15.2 18.8 21.6 25.8 29.3 30.0 30.0 24.5 20.5 20.0 20.0 20.0 20.0 19.4 19.4 19.4 19.4 19.7 20.0 19.8 19.9 20.0 20.0 19.9 19.9 20.0 19.9 20.0 20.0 20.0 20.0 20.0 20.0 20.0 20.0 20.0 20.0 20.0 20.0 20.0 20.0 20.0 20.0 20.0 20.0 20.0 21.4 22.0 25.7 29.8 29.2 26.4 23.7 28.1 26.7 30.0 30.0 30.3 32.4 30.9 30.1 30.0 30.0 30.8 31.8 33.9 33.8 35.8 42.4 44.2 39.8 40.0 40.0 40.0 40.4 40.0 40.0 40.0 40.0 40.0 40.0 40.0
-27.8 -27.4 -26.9 -26.4 -26.0 -25.5 -25.0 -24.3 -23.7 -23.1 -22.3 -21.8 -21.2 -20.6 -20.0 -19.2 -18.5 -17.6 -16.8 -16.0 -15.2 -14.3 -13.7 -13.0 -12.3 -11.7 -10.9 -10.4 -9.6 -8.4 -7.2 -6.0 -4.9 -4.3 -3.7 -3.2 -2.7 -2.1 0.3 2.3 3.0 3.7 4.6 5.2 7.5 7.0 9.2 9.5 9.8 9.7 10.4 13.6 15.8 18.2 20.1 26.0 29.5 30.0 29.0 20.0 20.0 20.0 20.0 20.0 20.0 19.4 19.4 19.4 19.4 19.7 20.0 19.8 19.9 20.0 20.0 19.9 19.9 20.0 19.9 20.0 20.0 20.0 20.0 20.0 20.0 20.0 20.0 20.0 20.0 20.0 20.0 20.0 20.0 20.0 20.0 20.0 20.0 20.0 21.4 23.9 26.5 28.8 29.9 28.7 26.3 28.7 27.9 30.0 30.5 36.0 39.9 38.5 36.2 31.5 32.4 35.2 35.8 37.8 38.7 40.1 50.7 48.7 39.6 40.0 40.0 40.0 40.0 40.0 40.0 40.0 40.0 40.2 40.2 40.0
-27.6 -27.2 -26.7 -26.2 -25.8 -25.3 -24.8 -24.1 -23.5 -22.8 -22.2 -21.6 -21.0 -20.3 -19.8 -19.0 -18.2 -17.3 -16.5 -15.7 -14.9 -14.1 -13.4 -12.6 -12.0 -11.2 -10.5 -9.8 -8.9 -7.5 -6.4 -5.3 -4.6 -4.1 -3.5 -3.0 -2.4 -1.9 1.6 2.5 3.1 3.7 4.5 5.2 8.1 7.9 8.8 9.9 9.9 9.8 10.4 13.1 15.0 17.1 19.2 27.2 28.2 28.4 20.6 20.0 20.0 20.0 20.0 20.0 20.0 19.7 19.4 19.4 19.4 19.5 20.0 19.0 18.0 19.3 19.5 18.2 18.4 19.7 19.2 19.8 20.0 20.0 20.6 20.0 20.0 20.0 20.0 20.0 20.0 20.0 20.0 20.0 20.0 20.0 20.0 20.0 20.0 20.4 25.2 26.9 29.6 30.0 29.5 28.3 29.2 29.9 30.1 30.5 32.4 37.8 40.0 39.1 37.4 36.3 37.8 38.9 38.3 38.0 39.1 39.8 43.6 41.7 39.4 40.0 40.0 40.0 40.0 40.0 40.5 41.0 41.4 44.4 45.3 41.5
-27.4 -26.9 -26.5 -26.0 -25.6 -25.1 -24.6 -23.9 -23.2 -22.5 -22.0 -21.4 -20.8 -20.1 -19.5 -18.7 -17.9 -17.1 -16.3 -15.5 -14.7 -13.9 -13.1 -12.3 -11.5 -10.8 -10.1 -9.2 -8.3 -6.9 -5.9 -4.9 -4.4 -3.8 -3.2 -2.7 -2.2 -0.6 2.1 2.7 3.3 3.9 4.7 5.3 8.7 7.9 8.7 9.7 9.9 9.9 9.9 12.1 14.5 17.3 20.1 30.4 29.8 26.6 22.4 20.0 20.0 20.0 20.0 20.0 20.0 19.7 19.5 19.4 19.4 19.5 20.0 19.0 18.0 18.7 18.8 18.4 18.7 19.0 19.1 19.9 20.0 20.0 30.1 21.3 20.8 20.0 20.4 24.7 20.6 20.3 20.2 21.0 20.0 20.0 20.0 20.1 22.6 22.8 28.5 29.7 30.9 30.0 29.7 28.9 29.5 30.0 30.3 30.9 32.0 34.6 39.7 37.1 38.4 40.0 40.3 40.0 40.0 39.5 39.3 39.6 40.0 41.6 43.2 40.6 41.4 40.0 40.0 40.0 40.9 43.4 45.0 48.7 50.1 48.9
-27.2 -26.8 -26.3 -25.9 -25.4 -25.0 -24.3 -23.6 -22.9 -22.3 -21.8 -21.2 -20.5 -19.9 -19.2 -18.5 -17.7 -16.9 -16.1 -15.4 -14.5 -13.7 -12.9 -12.1 -11.3 -10.5 -9.8 -8.8 -7.8 -6.6 -5.5 -4.7 -4.1 -3.6 -3.0 -2.4 -1.6 1.0 2.4 3.1 3.7 4.4 5.3 5.7 9.3 7.9 8.8 9.4 9.9 10.0 9.9 13.0 15.5 18.5 23.1 29.9 29.9 26.5 23.0 20.0 20.0 20.0 20.0 20.0 19.8 19.7 19.4 19.3 19.3 19.4 20.0 19.0 18.0 18.1 18.2 18.3 18.6 18.5 19.1 19.9 20.0 20.0 21.5 20.0 20.0 20.9 26.6 30.1 28.2 26.1 24.0 23.5 20.9 20.0 20.0 22.7 30.1 29.8 30.6 34.2 38.4 31.0 30.3 30.0 29.9 30.0 30.0 30.3 32.1 34.9 38.9 37.7 38.7 40.1 40.5 40.0 40.0 40.0 39.6 39.7 41.1 46.4 50.0 46.8 43.8 40.0 40.0 40.1 42.3 45.7 49.5 50.7 50.0 49.4
-27.1 -26.6 -26.2 -25.7 -25.3 -24.7 -24.1 -23.4 -22.7 -22.1 -21.6 -21.0 -20.4 -19.7 -19.1 -18.3 -17.5 -16.7 -16.0 -15.2 -14.3 -13.5 -12.7 -11.9 -11.1 -10.3 -9.4 -8.4 -7.4 -6.3 -5.2 -4.5 -4.0 -3.4 -2.8 -2.3 -0.7 2.1 2.6 3.3 3.9 4.5 5.5 6.1 9.8 8.2 9.0 9.9 9.7 9.9 11.4 18.8 17.1 19.7 24.7 29.3 30.1 28.8 25.9 20.8 20.0 20.0 20.0 19.3 19.1 19.0 19.0 19.0 19.0 19.0 20.0 18.7 17.9 17.8 17.9 18.7 19.0 18.6 19.4 19.9 20.0 20.4 23.2 21.9 20.8 24.5 29.4 30.0 30.0 30.0 28.7 27.7 27.7 20.6 20.9 20.6 29.4 29.1 31.2 40.0 39.8 30.8 30.1 30.0 29.6 30.0 30.0 30.0 31.0 34.5 39.6 39.4 39.3 40.1 40.3 40.0 40.0 40.0 39.4 39.5 40.2 44.3 49.5 48.8 47.9 41.5 41.1 43.0 49.2 48.6 49.8 50.7 50.2 49.5
-27.0 -26.5 -26.0 -25.6 -25.1 -24.5 -23.9 -23.2 -22.5 -22.0 -21.4 -20.8 -20.2 -19.6 -18.9 -18.1 -17.3 -16.5 -15.8 -15.0 -14.1 -13.3 -12.5 -11.7 -10.9 -10.1 -9.1 -8.1 -7.0 -5.9 -4.9 -4.3 -3.8 -3.2 -2.6 -2.1 0.4 2.3 2.9 3.6 4.3 4.8 5.9 6.9 9.6 8.4 9.4 10.0 10.0 10.0 13.6 20.0 19.7 20.7 28.1 30.7 30.0 28.7 24.4 20.0 20.0 20.0 20.0 19.6 19.1 19.3 19.0 19.0 19.0 19.3 20.0 18.8 17.7 17.5 17.8 18.6 18.9 18.7 19.5 20.0 20.0 20.8 22.0 20.8 20.6 24.4 29.8 30.0 30.0 30.0 30.0 30.0 30.0 28.4 26.2 25.6 30.0 29.8 35.1 40.0 39.8 32.2 30.0 30.0 29.6 30.0 30.0 30.0 30.7 36.8 40.8 42.7 43.8 43.3 40.1 40.0 40.0 40.0 39.4 39.7 42.3 48.9 48.6 50.4 50.0 49.5 46.7 49.5 50.0 50.0 51.8 51.4 50.6 50.1
-28.6 -27.7 -26.7 -25.8 -24.9 -24.2 -23.6 -22.9 -22.3 -21.8 -21.2 -20.6 -20.0 -19.3 -18.7 -17.9 -17.0 -16.2 -15.4 -14.6 -13.8 -13.0 -12.2 -11.5 -10.7 -10.0 -8.8 -7.8 -6.6 -5.5 -4.7 -4.1 -3.5 -2.9 -2.3 -1.4 1.1 2.5 3.1 3.7 4.3 4.7 5.9 6.9 8.6 8.2 9.5 10.0 10.1 10.1 14.0 19.1 19.2 25.3 38.4 38.2 30.6 26.0 22.4 20.0 20.0 20.0 19.0 19.0 19.0 19.0 19.0 19.0 19.0 19.0 20.0 18.7 17.1 17.3 17.5 18.0 18.4 18.5 19.2 19.9 20.0 20.0 20.0 20.0 20.0 20.0 25.4 26.5 24.7 28.8 29.9 29.9 29.9 26.2 26.3 27.0 29.6 29.8 30.3 38.5 37.0 30.0 30.0 30.0 29.6 30.0 30.6 32.4 35.5 39.8 46.7 48.5 49.5 49.5 43.4 40.0 40.2 40.9 42.1 44.9 48.9 50.0 50.0 50.0 50.0 48.8 47.4 47.7 49.9 49.9 51.0 53.0 53.4 52.8
-29.1 -27.9 -26.8 -25.6 -24.6 -24.0 -23.4 -22.8 -22.2 -21.7 -21.1 -20.5 -19.9 -19.1 -18.5 -17.6 -16.8 -16.0 -15.2 -14.3 -13.5 -12.7 -12.0 -11.3 -10.5 -9.7 -8.5 -7.4 -6.3 -5.1 -4.4 -3.9 -3.3 -2.7 -2.1 -0.1 2.1 2.6 3.2 3.7 4.1 4.4 5.7 6.9 8.0 8.1 9.9 9.6 10.0 11.9 18.2 20.0 19.9 27.4 40.7 38.0 29.4 25.6 23.8 20.2 20.3 20.0 19.8 19.6 19.3 19.3 19.1 19.1 19.0 19.2 20.0 18.8 15.9 16.3 16.2 15.0 15.1 16.2 15.8 19.3 20.0 20.0 20.0 20.0 20.0 20.0 20.0 20.0 20.0 21.1 25.4 27.9 28.8 27.4 28.3 29.3 30.3 31.4 37.2 40.0 39.3 34.5 30.3 30.0 29.7 31.7 39.9 40.3 40.6 43.2 50.1 49.9 49.2 49.2 47.7 40.9 41.8 45.1 48.1 50.0 50.0 50.6 52.5 52.4 50.0 49.5 49.3 49.6 50.3 51.4 56.7 57.5 56.8 55.9
-28.3 -27.3 -26.2 -25.1 -24.4 -23.7 -23.2 -22.5 -21.9 -21.5 -20.9 -20.3 -19.7 -18.8 -18.2 -17.4 -16.5 -15.7 -14.9 -14.0 -13.3 -12.5 -11.9 -11.1 -10.4 -9.4 -8.2 -7.2 -6.0 -4.9 -4.3 -3.7 -3.1 -2.5 -1.7 0.5 2.2 2.9 3.6 4.2 4.5 5.1 6.7 7.4 8.5 9.4 10.0 10.0 10.1 15.7 20.1 19.9 20.9 27.3 32.2 31.5 28.6 21.5 21.6 21.6 20.2 19.7 19.4 19.1 18.7 18.5 18.6 18.7 18.7 18.9 20.0 18.6 14.9 15.5 15.4 14.2 14.2 15.4 14.9 19.1 20.0 20.0 20.0 20.0 20.0 20.0 20.0 20.0 20.1 20.2 24.7 28.1 27.6 29.8 30.5 36.3 34.3 35.8 39.1 40.0 39.8 34.7 30.0 30.0 30.1 35.9 40.8 48.6 40.5 40.8 44.1 42.4 44.3 47.4 47.0 43.2 46.3 49.3 50.7 51.0 51.8 56.9 60.0 59.1 52.9 49.9 49.5 50.1 52.9 56.4 60.0 59.9 59.2 59.5
-27.8 -26.8 -25.8 -24.8 -24.2 -23.5 -23.0 -22.3 -21.8 -21.2 -20.7 -20.1 -19.3 -18.6 -17.9 -17.0 -16.2 -15.4 -14.5 -13.8 -13.1 -12.2 -11.6 -10.9 -10.2 -9.1 -8.0 -6.9 -5.7 -4.7 -4.1 -3.4 -2.9 -2.3 1.5 0.2 1.3 1.9 2.6 3.1 3.4 3.9 6.0 7.3 7.6 8.4 9.6 10.0 10.0 12.7 19.3 19.3 20.0 20.6 26.1 25.9 20.7 19.4 20.0 20.0 20.0 19.2 19.2 18.9 18.6 17.7 18.6 18.6 18.6 18.6 20.0 18.6 14.0 14.5 14.7 13.8 13.8 14.9 14.6 19.1 20.0 20.0 20.0 20.0 20.0 20.0 20.0 24.1 30.1 29.5 30.0 30.0 30.0 30.3 36.0 40.0 39.1 38.6 40.0 40.0 40.0 37.1 31.9 30.0 36.7 40.7 47.8 50.0 44.7 41.3 39.5 39.7 40.1 44.9 47.8 44.4 47.1 49.6 50.6 52.0 53.9 57.6 60.0 59.7 54.0 49.9 49.5 49.9 52.3 55.4 59.4 60.0 60.0 60.0
-27.2 -26.3 -25.3 -24.5 -23.8 -23.2 -22.8 -22.1 -21.6 -21.0 -20.4 -20.0 -19.0 -18.2 -17.5 -16.7 -15.9 -15.1 -14.2 -13.5 -12.8 -12.1 -11.4 -10.7 -10.0 -8.8 -7.7 -6.6 -5.5 -4.5 -3.9 -3.3 -2.7 -2.1 -1.1 2.0 2.7 3.2 3.4 3.5 3.4 3.4 5.7 7.3 7.3 7.3 8.4 9.7 9.8 11.9 16.8 19.5 20.0 20.4 22.2 21.8 19.9 18.7 18.9 19.9 19.9 19.1 19.1 18.3 17.9 16.9 18.5 18.5 18.5 18.3 20.0 18.6 13.2 13.6 13.8 13.3 13.3 13.9 14.0 19.0 20.0 20.0 20.0 20.0 20.0 20.0 20.7 28.4 30.0 30.0 30.0 30.0 30.0 30.0 37.7 40.0 40.0 40.0 39.9 40.0 39.9 39.6 34.9 32.1 38.8 40.9 47.8 50.0 44.6 40.2 39.3 39.8 40.3 44.2 45.7 43.4 46.0 48.8 50.0 50.0 50.0 50.8 56.8 55.2 50.4 49.6 49.7 51.3 53.9 57.2 59.3 60.0 60.0 60.0
-26.7 -25.8 -24.9 -24.2 -23.6 -23.0 -22.5 -21.8 -21.3 -20.8 -20.2 -19.5 -18.7 -17.8 -17.2 -16.4 -15.5 -14.7 -13.9 -13.3 -12.5 -11.9 -11.2 -10.5 -9.6 -8.4 -7.3 -6.2 -5.1 -4.3 -3.7 -3.0 -2.5 -2.1 1.0 2.1 2.8 3.1 3.3 3.2 3.1 3.0 5.7 7.3 7.3 7.3 8.0 9.5 9.9 10.8 17.5 20.0 20.0 19.6 18.3 19.6 17.1 14.3 16.3 15.9 16.1 14.4 15.3 14.2 14.5 13.5 15.8 16.1 16.4 16.7 20.0 18.5 12.7 13.0 13.2 12.8 12.9 13.6 14.0 19.1 20.0 20.0 20.0 20.4 20.6 20.2 23.1 28.6 30.0 30.0 30.0 30.0 30.0 30.4 35.3 40.0 40.0 40.0 39.8 39.7 38.4 37.8 36.9 39.0 40.5 42.1 49.0 48.0 41.6 39.5 39.0 39.9 40.8 42.5 41.8 46.5 49.0 50.1 50.4 50.6 50.0 50.1 55.4 56.2 58.2 53.5 51.7 54.7 58.6 59.6 60.0 60.0 60.0 59.9
-26.3 -25.4 -24.6 -24.0 -23.3 -22.7 -22.2 -21.6 -21.1 -20.5 -19.9 -19.1 -18.3 -17.3 -16.8 -16.0 -15.2 -14.3 -13.7 -13.0 -12.2 -11.6 -10.8 -10.1 -9.1 -8.0 -6.8 -5.8 -4.8 -4.1 -3.5 -2.8 -2.3 -0.9 0.6 1.4 2.5 3.1 3.4 4.5 6.0 8.1 9.8 9.9 9.4 7.7 9.3 10.0 9.9 9.4 15.7 20.0 20.0 19.6 15.9 16.9 15.0 11.2 14.3 11.9 12.7 12.4 14.0 13.1 13.4 12.7 16.0 16.7 17.3 17.7 20.0 19.1 12.5 12.7 13.1 13.2 13.9 15.5 18.4 20.0 20.0 20.0 20.0 20.0 20.2 21.7 24.0 28.7 29.9 30.0 30.0 30.0 30.0 30.2 33.9 38.2 40.0 40.0 39.7 39.0 37.9 36.5 34.6 38.6 40.0 40.0 42.1 41.8 40.0 39.2 38.9 39.9 40.1 40.0 40.0 43.0 50.0 50.0 50.0 50.0 49.9 50.0 54.0 58.7 60.0 59.2 57.5 57.5 59.4 60.0 60.0 60.0 60.0 59.5
-25.8 -25.0 -24.3 -23.6 -23.0 -22.3 -21.9 -21.4 -20.8 -20.2 -19.5 -18.7 -17.9 -16.9 -16.5 -15.7 -14.9 -14.1 -13.4 -12.7 -11.9 -11.3 -10.5 -9.8 -8.6 -7.5 -6.5 -5.4 -4.6 -3.9 -3.3 -2.7 -2.1 2.5 0.5 0.8 1.7 2.0 2.2 2.2 2.2 2.2 4.3 2.6 4.2 3.6 5.9 9.5 8.4 9.4 10.2 17.8 14.1 10.1 10.0 11.4 10.5 9.9 10.2 10.0 10.0 10.1 10.9 11.4 11.8 11.6 12.4 12.7 13.1 13.3 14.9 15.2 11.0 11.1 11.2 10.9 11.1 11.3 12.9 19.3 20.0 20.0 20.0 20.1 21.9 23.0 26.8 29.7 30.3 30.6 30.1 30.1 30.0 30.3 36.9 39.6 39.9 39.4 35.7 37.2 35.3 32.4 30.4 32.3 37.8 39.5 40.2 41.3 40.0 39.7 38.0 39.5 39.4 40.0 40.0 40.6 43.5 49.9 49.7 49.9 49.3 50.2 51.8 55.4 59.1 60.0 59.8 58.9 58.9 60.0 58.6 60.0 60.1 55.0
-25.4 -24.6 -24.0 -23.3 -22.7 -22.1 -21.7 -21.1 -20.5 -19.9 -19.1 -18.3 -17.3 -16.5 -16.0 -15.2 -14.4 -13.7 -13.0 -12.2 -11.6 -10.9 -10.2 -9.3 -8.2 -7.1 -6.1 -5.1 -4.4 -3.7 -3.1 -2.5 -1.1 1.1 0.8 1.1 2.0 2.1 2.2 2.1 2.1 2.2 3.5 2.7 4.3 5.8 9.5 9.9 8.4 9.8 10.4 10.5 9.5 10.4 9.7 10.0 9.9 10.0 10.0 10.0 10.0 10.0 10.3 10.6 10.8 10.7 9.9 9.9 9.9 9.9 10.0 10.4 10.2 10.1 10.1 10.0 10.0 9.9 9.9 12.9 17.7 18.5 18.6 19.8 22.3 24.7 28.3 30.0 30.0 30.0 30.0 30.0 30.0 30.0 38.3 38.7 38.7 37.5 32.4 31.9 30.8 30.0 29.7 30.9 35.6 39.7 40.6 41.3 40.0 39.4 35.8 39.6 39.4 40.0 40.2 41.2 41.9 48.5 48.6 49.5 49.3 49.5 49.8 50.6 55.3 58.5 58.8 58.8 58.8 58.8 55.3 58.3 60.3 54.9
